sample_id,y0,y1
1142871,-0.34462902782964044,-0.08481735296718337
1310944,-1.265805245821692,-1.005993570959235
1842341,-0.711973320802791,-0.4498374704714132
1071845,-0.40422845497862914,-0.12821821430002941
2663411,-0.2618739968086636,0.0031204088996032997
3110393,-0.5140666586291712,-0.25193080829779346
1392344,-0.28393542893197155,-0.024123754069514447
460611,-0.7170464654175255,-0.4549106150861477
2630489,-0.36733673839947867,-0.10752506353702154
883338,-0.5872153921008142,-0.32507954176943643
2544651,-0.8603042212095254,-0.5981683708781477
553406,-0.8631744660659447,-0.5103410345409543
1027119,-0.04664500925664139,0.21549084107473637
2691379,-0.12357820366821343,0.11774932543436856
1064775,-0.47905863698242823,-0.21406423127416135
1762559,-0.506622397258603,-0.24162799155033618
1523033,-0.8342282567609294,-0.5814977484723296
3310245,-0.7468621028610376,-0.4794488542380393
3961164,-0.7590889797489142,-0.4916757311259159
882955,-0.8437478281943052,-0.5763345795713067
1045871,-0.12432315393127219,0.12624717164393195
2632677,-0.6517204220520105,-0.40115009647680633
1596662,-0.365898819647838,-0.10090441393957109
1331307,-0.5773271710374612,-0.3175154961750042
3727517,-0.3513834452509495,-0.08924759491957174
3023448,-0.7933641668602377,-0.5204552557478094
1984455,-0.6967128031399481,-0.4338839731594067
727326,-0.3988781404826124,-0.1461476321940127
461952,-0.614385574964107,-0.3522497246327292
1109164,-0.7675783380992812,-0.5025839323910144
1024586,-0.7756446152097312,-0.5135087648783534
1332075,-0.4081572516966702,-0.15758692612146608
2434054,-0.6961393466833165,-0.4340034963519387
3476440,-0.606284657189352,-0.35355414890075226
1369388,-0.5594376177896982,-0.30886729221449416
2028848,-0.4324903002102803,-0.17975979192168057
479921,-0.5332647282109932,-0.27112887787961554
2281759,-0.44036788903957014,-0.2294665410743617
3706524,-0.43560810762955493,-0.18287759934095518
2670367,-0.7231646097903648,-0.4725942842151607
1747626,-0.7271758780809675,-0.46218147237270063
524871,-0.5218166887794717,-0.20298516330791272
1239054,-0.6227403671578338,-0.360604516826456
3475636,-0.5782522150805028,-0.316116364749125
583269,-0.8217312201345204,-0.5424282195722976
3317747,-0.5370037272474003,-0.2695904786244019
419620,-0.6347377583532363,-0.38200725006463654
444054,-0.6910418320832642,-0.42890598175188643
1241769,-0.5203418411746215,-0.25820599084324375
1446343,-0.3909101635647916,-0.12877431323341382
1257813,-0.33692135496345976,-0.07710968010100266
2008289,-0.7520616332997765,-0.4846483846767782
1822449,-0.5597420589326199,-0.2688911616969268
2015628,-0.40310424658696953,-0.14096839625559174
571728,-0.529744320234734,-0.2676084699033562
1401077,-0.6089002502576794,-0.3490885753952222
2037543,-0.30362326807858125,-0.04148741774720349
1743004,-0.7979334444572113,-0.5381217695947542
1094056,-0.3623503852602807,-0.10253871039782358
3530091,-0.35793490956804763,-0.09579905923666987
599125,-0.8233189054672465,-0.5611830551358687
810009,-0.8604059888780432,-0.5975771588975018
842452,-0.7970367043056774,-0.5296234556826791
1534064,-0.9013813039284726,-0.6339680553054742
3917326,-0.10955939863952102,0.1639884382241108
2535359,-0.6310220578658614,-0.3688862075344837
1618801,-0.6052887273416558,-0.34547705247919874
1006674,-0.6957285853104302,-0.4429980770218306
2880680,-0.4781641347479276,-0.2254336264593279
611042,-0.2319019262589932,0.030233924072384566
1076907,-0.6186411439750261,-0.358829469112569
2946856,-0.2947010573142703,-0.03256520698289256
2263423,-0.5497838973363406,-0.2970533890477408
2199949,-0.48130221370627685,-0.2236719251939377
241874,-0.5373412231032494,-0.2752053727718716
1258418,-0.29853433052370404,-0.022524089845104345
899753,-0.14639996349469614,0.10633054479390358
1715173,-0.38952973758971454,-0.12670090760917316
1772315,-0.7299376058929772,-0.46252435726997876
682873,-0.5198253275956426,-0.26709481930704293
390081,-0.7966238897486497,-0.534488039417272
805362,-0.664190161649981,-0.39919575594171414
196188,-0.5469942588921523,-0.28485840856077455
241381,-0.47350846404873126,-0.1942054634865085
918821,-0.35688124785404496,-0.0947453975226672
1734415,-0.09965429347481536,0.20840409202457827
2021510,-0.9064156806304999,-0.6442798302991222
848539,-0.635008830411066,-0.3728729800796883
596661,-0.5200115368856741,-0.25787568655429643
3212035,-0.48268356341786955,-0.2152703147948712
1845769,-0.268998715758686,-0.00686286542730824
1248742,-0.16661257740682264,0.04565817559252365
1474931,-0.00040459086880728634,0.2617312594625705
1599303,-0.34366784083586044,-0.08385616597340331
1548573,-0.06030994304634185,0.19242056524225787
1996792,-0.6827458416218514,-0.4206099912904736
2792012,-0.27712233815202536,-0.024391829863425668
1907126,-0.4893474118455171,-0.22721156151413938
3440159,-0.2673790881181313,-0.005243237786753563
509639,-0.6369606274681957,-0.3748247771368179
466824,-0.4853301527412251,-0.22319430240984733
1716736,-0.5977622738226402,-0.3349334438420988
2666942,-0.3005793462734681,-0.04076767141101101
1001124,-0.5168048130804962,-0.2640743047918965
1974336,-0.3288416876112533,-0.07546736955127392
3770667,-0.4914258383757931,-0.22928998804441536
2755251,-0.55478384982738,-0.2926479994960023
2547117,-1.0556447108745386,-0.7770079541702719
3951684,-0.640318161226259,-0.355706239446344
1590012,-0.40293936805644914,-0.14312769319399207
1882394,-0.5998530489463293,-0.33771719861495153
1432394,-0.7501895864047112,-0.49745907811611156
2184661,-0.6784887002096329,-0.3596571747380739
2158575,-0.6188642119483965,-0.3567283616170187
3511427,-0.8070451231642211,-0.5334972863005891
1247289,-0.8001995466638292,-0.5272906355514009
1156648,-0.6941933524019993,-0.3931310621198564
2278691,-0.6976560993612694,-0.4449255910726697
3532538,-0.5096668018160271,-0.24753095148464938
734676,-0.491796206768726,-0.2390656984801263
3220036,-0.49830048712592806,-0.2361646367945503
1698855,-1.1668425157507039,-0.7158024113650793
3910269,-0.7647218020903722,-0.5119912938017726
3655715,-0.4211273302341114,-0.15899147990273363
482645,-0.1508367596290327,0.11129909070234506
2165260,-0.6914078938465362,-0.42927204351515846
3273644,-0.7866632392151478,-0.52452738888377
911679,-0.5259504042206724,-0.2732198959320727
827623,-0.38594553178256064,-0.11853228315956227
2198203,-0.565731417316757,-0.31300090902815725
2818444,-0.7498709468262964,-0.48773509649491864
3718649,-0.3729214262742817,-0.09428466957001513
284404,-0.26664910831611144,0.02420178891958158
1289402,-0.6709114041775991,-0.41109972931514205
2026521,-0.36172248384753214,-0.09958663351615435
2446231,-0.8679316339811592,-0.6057957836497815
962793,-0.4037424066471284,-0.14160655631575064
3293035,-0.5626840440507176,-0.30054819371933983
510012,-0.3829424095729611,-0.12080655924158334
3750476,-0.2639292772418428,-0.0017934269104650236
2916296,-0.39416695630170323,-0.1414364480131035
1251992,-0.038820067994591256,0.22099160686786584
2198306,-0.34952307327623044,-0.08310539096333783
3153830,-0.8452473484809735,-0.5925168401923737
3108972,-0.2760829432142028,-0.023352434925603044
470744,-0.1945142041745621,0.05821630411403761
2586060,-0.7415597499005515,-0.48174807503809436
1057064,-0.7829519910848969,-0.5201231611043554
240393,-0.5066325128217826,-0.24449666249040486
814902,-0.6005027405334923,-0.3196268611496465
414663,-0.3964337838840755,-0.12902053526107715
3765872,-0.3407920413681776,-0.07865619103679983
3761818,-1.3863989196890933,-0.9522543619991066
685948,-0.5819371558291969,-0.3198013054978191
721805,-0.5360197293735991,-0.2738838790422214
2763131,-0.9075180012905182,-0.6306204232083499
834058,-0.8377761172243836,-0.5756402668930058
2872399,-0.24968692365042205,0.012448926680955708
2041196,-0.7623980684285425,-0.4949848198055442
2889236,-0.6726572835948428,-0.410521433263465
2244349,-0.8129901977395466,-0.5508543474081689
3421455,-0.6853094883030884,-0.4325789800144886
3749124,-0.49007959980452154,-0.22794374947314378
356063,-0.6629260718264336,-0.40079022149505583
747823,-0.6525422279246136,-0.3904063775932358
2184278,-0.4828534071453801,-0.22071755681400235
438735,-0.6852332345166107,-0.4230973841852329
2818131,-0.6300784457852349,-0.37734793749663514
1326131,-0.3284491048477104,-0.07306367762662325
3389880,-0.9317791816259604,-0.6643659330029621
852401,-0.09617892610983797,0.1659569242215398
2805772,-0.9217610991140759,-0.5858314431418379
1818321,-0.3572383796773113,-0.08982513105431292
1691198,-0.6204341246948988,-0.3522994980037247
2041146,-0.4781641418792838,-0.21075089325628543
2788014,-0.33940084788399716,-0.07726499755261942
1638955,-0.42638782196540875,-0.16657614710295165
3520573,-0.7885936415077418,-0.5358631332191421
457957,-0.45819388882086565,-0.13936236334930663
1062962,-0.5216947483930091,-0.26188307353055207
3204414,-0.7846481502913984,-0.5319176420027988
2126673,-0.37894656344992583,-0.1168107131185481
597272,-0.6614616496855918,-0.4087311413969922
1270605,-0.46754849665100473,-0.1521582476758755
530374,-0.8641054288307175,-0.6019695784993397
1842324,-0.5313363655540911,-0.2692005152227134
3053661,-0.5745294871389867,-0.31239363680760895
3136713,-0.5021426237278309,-0.2400067733964531
2244374,-0.7472514863781718,-0.4844226563976304
2796146,-0.6425700815929651,-0.3804342312615873
608218,-0.5553385774083425,-0.29770828889600337
468101,-0.2069146920619997,0.05522115826937807
3177117,-0.49036152754919304,-0.2282256772178153
264468,-0.7738646247126036,-0.5064513760896052
2637876,-0.6400853041529707,-0.3802736292905136
418897,-0.8970974703257044,-0.6349616199943267
3958479,-0.44004262234834884,-0.17262937372535048
1108978,-0.5901361768231921,-0.330324501960735
846103,-0.8164790793425019,-0.5543432290111241
1468371,-0.2775893798945877,-0.015453529563209945
2592894,-0.2858276522694275,-0.07308387931949586
3204077,-0.5610254714385536,-0.30829496314995397
3660517,-0.6753834916602346,-0.41324764132885683
424396,-0.5087873996629988,-0.24606242282634852
3206722,-0.6988275829489101,-0.43669173261753236
646174,-0.1855940885150406,0.07654176181633715
1455827,-0.46645575928553545,-0.2043199089541577
3194788,-0.6133457377652561,-0.3459324891422577
3309729,-0.6405729966994136,-0.3829427081870744
1277631,-0.6481869412988314,-0.3883752664363742
3804457,-0.38172715833357196,-0.11959130800219417
319504,-0.4531903112275443,-0.19105446089616648
2540192,-0.7170538183068068,-0.46432331001820704
1077741,-0.4483889983050573,-0.18339459259679045
1917871,-0.0968224434139846,0.16080784509835455
1588941,-0.9672742785290509,-0.6929704703584709
3162619,-0.30683393678069787,-0.04469808644932011
438243,-0.5680117404116608,-0.30587589008028304
3249514,-0.7482706165396058,-0.4906403280272666
932484,-0.38752072679114435,-0.1253848764597666
673285,-0.3695260400970818,-0.107390189765704
3360500,-0.6177499446245327,-0.355614094293155
3839651,-0.3914969659940953,-0.10688504421418038
3459751,-0.551657985686117,-0.28952213535473925
2993536,-0.6213432511914192,-0.3025117257198601
1285974,-0.6924169722562863,-0.43260529739382925
1637937,-0.6731378012416501,-0.4133261263791931
3346892,-0.4243231190627099,-0.16218726873133213
2983585,-0.49525369334143365,-0.2331178430100559
903921,-0.48668426772338175,-0.22454841739200398
502781,-0.7518411618475096,-0.4897053115161318
462778,-0.5607713464496997,-0.3080408381611
415557,-0.5974376493501884,-0.3353017990188106
3848680,-0.4432189477377624,-0.16458219103349583
2192614,-0.7009005009007213,-0.43876465056934355
1694694,-0.6066521156217235,-0.3438232856411821
3230399,-0.5683909038938643,-0.31566039560526454
1726733,-0.3102318262649967,-0.059661500689792535
676871,-0.5120110767310049,-0.22116017949531191
3501897,-0.13523220081261256,0.1269036495187652
648602,-0.6185618229697148,-0.36583131468111507
2927268,-0.25956507804636697,0.0025707722850107917
2168759,-0.757778436797115,-0.5050479285085153
746964,-0.4077232095775246,-0.14030996095452627
2976187,-0.5728040707160649,-0.32007356242746515
756758,-0.47064732798329145,-0.2032340793602931
2821327,-0.6758479431633291,-0.4137120928319514
395580,-0.5634660321518374,-0.3013301818204597
3865048,-0.3692601937512492,-0.10123368116514583
480718,-0.4722183673529451,-0.21948785906434537
1793571,-0.7261463487329312,-0.4663346738704741
2841125,-0.7779473733276083,-0.5158115229962306
390505,-0.26475755990264205,-0.0026217095712642857
233845,-0.3392430705361679,-0.06060631383190135
1224737,-0.5442789836757843,-0.2821431333444065
1991347,-0.5194329930305386,-0.2572971426991608
629734,-0.8034128804709908,-0.5247761237667242
3709794,-0.7219332464691198,-0.45979739613774206
2012783,-0.33167161552396535,-0.06953576519258758
3199765,-0.4974421361488859,-0.23530628581750812
3364365,-0.4540830100259111,-0.19194715969453335
1029042,-0.7316666276510668,-0.46953077731968906
1852257,-0.6032228684291016,-0.34108701809772385
1833194,-0.47810295888368515,-0.2106897102606868
2498321,-0.6470066211004302,-0.3942761128118305
3907626,-0.6798638086035729,-0.4124505599805745
3755729,-0.6201663253069604,-0.3580304749755826
3463185,-0.4310561621572837,-0.16892031182590592
1689292,-0.3989579921246662,-0.13612916214412477
700417,-0.95455843487559,-0.6924225845442122
415305,-0.29617350269390735,-0.03403765236252959
1301078,-0.42915455752754356,-0.1785842319523394
3348320,-0.8908718947595626,-0.6080748224179228
3731777,-0.5357276041490336,-0.2735917538176558
1163580,-0.6576154427174098,-0.4070451171422056
1449310,-0.5816003466439343,-0.3288698383553347
2211659,-0.5719916481315064,-0.30457839950850796
3340949,-0.12474696688638237,0.1373888834449954
670539,-0.5676814206755162,-0.29965490808941275
3167045,-0.635016060463894,-0.37288021013251627
522457,-0.6997852822902105,-0.44705477400161076
1627863,-0.3017713663821872,-0.036776960673920334
1607338,-0.3453921334042642,-0.08039772769599732
2499696,-1.0503410164821236,-0.788205166150746
2045775,-0.9883109219861521,-0.7261750716547744
2560867,-0.21512418488413337,0.052289063738864994
714693,-0.15540371466996156,0.1022265738423776
2678150,-0.48813228253721147,-0.2847679878301451
456042,-0.5109793069779145,-0.24884345664653668
2255567,-0.5622618779312062,-0.3095313696426065
1195655,-0.9052493571545954,-0.6431135068232177
2926888,-0.6194247655143199,-0.36669425722572024
3845602,-0.5357943624971873,-0.2449434652614943
2186072,-0.13320330694495253,0.12893254338642524
3743050,-0.3909944851430481,-0.13826397685444836
3471345,-0.40577692565804246,-0.14364107532666473
439920,-0.6922384092063476,-0.4301025588749699
406300,-0.7813072416276629,-0.5191713912962851
2999904,-0.6370188716967453,-0.3842883634081456
3924640,-0.48314335250049156,-0.22100750216911383
3268250,-0.6294613876144551,-0.3673255372830773
1965452,-0.619951436443659,-0.3571226064631176
2939863,-0.6932186024683284,-0.43108275213695074
1252185,-0.6371692970945481,-0.38659897151934397
1509576,-0.32490403408553103,-0.06276818375415327
1287115,-0.5351885084651204,-0.2753768336026634
3712392,-0.31811550000234307,-0.10721415203713466
606767,-0.6099558049622928,-0.3425425563392945
2054166,-0.4389594664528517,-0.17682361612147396
1049101,-0.7438980666614536,-0.4789036609531867
1600585,-0.6595854706874504,-0.4090151451122463
439195,-0.6924127191299808,-0.43027686879860305
195171,-0.39694229043667184,-0.14421178214807215
2915921,-0.9500290744120512,-0.6713923177077846
1839278,-0.4839508489835318,-0.21653760036053343
1730385,-0.6927339504650033,-0.43734852324391615
1168830,-0.7341310123373804,-0.4691366066291136
1155199,-0.4223072262040711,-0.16249555134161398
1007932,-0.6852876348534817,-0.4231517845221039
1497667,-0.6974724727881769,-0.4353366224567991
2913592,-0.3560129896215145,-0.09387713929013677
3923582,-0.59584220047567,-0.31123027869575515
834455,-0.8240711246877174,-0.5619352743563396
401162,-0.307483527691704,-0.045347677360326244
3723378,-0.8113293638908265,-0.5491935135594488
2628051,-0.734961313192076,-0.4751496383296189
2182179,-0.6849421660395045,-0.4228063157081267
2927485,-0.8483903800004936,-0.5862545296691158
3494150,-0.8223409121764542,-0.5602050618450765
1198478,-0.4848006767241112,-0.22266482639273344
900362,-0.7784789979048745,-0.5163431475734968
591100,-0.894508987764328,-0.6323731374329502
2012326,-0.3713313452479117,-0.10919549491653396
2210655,-0.4468081097431056,-0.1846722594117278
269549,-0.7545133790161502,-0.4636624817804572
1595619,-0.4892062799634562,-0.2386359543882521
2583207,-0.6292397593790907,-0.353229518700491
2569634,-0.30701822316645894,-0.044882372835081175
1446114,-0.6488747112702468,-0.38673886093886906
2000994,-0.5248514779056821,-0.2627156275743044
1487663,-0.5586327953642442,-0.2964969450328664
2120323,-0.8030348157292075,-0.5356215671062091
2878657,-0.822658847265936,-0.5699283389773362
727268,-0.7867080381189244,-0.5339775298303246
732559,-0.1323491163173196,0.12038139197128012
813531,-0.493352812282085,-0.22593956365908663
3852661,-0.38064848171565463,-0.11851263138427687
3442487,-0.5243211531157168,-0.26218530278433905
1163278,-0.5220527364145208,-0.25705833070625383
3665257,-0.4805300689916162,-0.21839421866023845
986042,-0.5292591040167943,-0.26712325368541656
3845267,-0.6107426224411255,-0.3486067721097477
2949330,-0.8570534741526672,-0.5949176238212894
2603947,-1.0047233639915263,-0.7323908863769595
350199,-0.38803983676959974,-0.12590398643822195
990981,-0.5872615040367818,-0.325125653705404
3184406,-0.3442223704232312,-0.09149186213463151
656592,-0.3239817896552337,-0.07125128136663403
2486487,-0.7966965784803554,-0.5292833298573569
3373151,-0.7054297810502741,-0.44329393071889633
3278092,-0.41800403662904084,-0.1558681862976631
2225069,-0.5725488063052592,-0.29963989519283085
1781746,-0.7113144977245814,-0.45150282286212434
1944431,-0.4085626715850075,-0.1457338416044661
3670081,-0.40136856104530716,-0.13395531242230876
881483,-0.508149110238968,-0.2505188217266288
1335396,-0.7178930744076552,-0.4160519462341433
336397,-0.5378005328472285,-0.2756646825158507
3371271,-0.7799139993401529,-0.5271834910515533
3763828,-0.7251299405804396,-0.4629940902490618
506319,-0.6580386705123414,-0.3959028201809637
2534691,-0.5448358346322131,-0.28269998430083537
1677378,-0.38392453055643544,-0.12109570057589403
3724695,-0.3073186419931996,-0.0392921294070962
2757538,-0.584736809601963,-0.3118278984895347
3441456,-0.14092239606159956,0.11180811222700016
2405544,-0.5464004555655004,-0.28426460523412267
427416,-0.7429133796252628,-0.48077752929388506
2170023,-0.8796125748876824,-0.6174767245563046
2004888,-0.18613643885251924,0.08127680977047913
1513161,-0.7474360163301582,-0.48530016599878045
2520134,-0.7156163077046833,-0.45798601919234416
1394899,-0.5260530312061829,-0.2662413563437258
3496836,-0.4338967270486157,-0.17176087671723797
218597,-0.6190794487542168,-0.35166620013121846
1227568,-0.28443887294222764,-0.022303022610849876
3870597,-0.237049693480411,0.025086156850966768
626785,-0.7259765688443456,-0.4638407185129678
3707073,-0.4875374736916942,-0.23480696540309448
3924663,-0.7475771114322934,-0.4854412611009157
688759,-1.010960709751398,-0.7067667353988252
1733130,-0.11285819796773777,0.1521362077405291
961170,-0.6063494033013175,-0.3389361546783191
2559298,-0.5060403797046709,-0.2484100911923317
3387791,-0.6554554405120095,-0.39331959018063173
1032295,-0.5251971442539926,-0.26306129392261474
2721222,-0.6222360484330273,-0.359511071596377
2035109,-0.2783368307662996,-0.016200980434921852
2206933,-0.5819355401414971,-0.3197996898101193
1640076,-0.6160692540870214,-0.3510748483787545
3119597,-0.6385307340241188,-0.385800225735519
3486947,-0.37176703996385563,-0.10963118963247784
3440269,-0.3804162269110555,-0.11300297828805708
2806309,-0.7367982731849705,-0.4746624228535927
1502528,-0.4691734113201596,-0.20703756098878184
1710222,-0.5039923914746228,-0.24116356149408139
2271675,-0.5851860181960757,-0.33245550990747597
3864394,-0.2619836856299794,0.005429562993018944
1337967,-0.8669772201012101,-0.607165545238753
3086332,-0.6500976881688425,-0.3879618378374648
610437,-0.49434056001401977,-0.24161005172542005
2803072,-0.4944822234967546,-0.23234637316537682
2252222,-0.6280289643697684,-0.3752984560811687
372816,-0.5592645088081447,-0.297128658476767
486095,-0.511915381972559,-0.2542850934602198
3375848,-0.644807426342558,-0.3773941777195597
3526603,-0.6096498960526289,-0.34751404572125116
2413151,-0.6790028318999135,-0.4168669815685358
2167459,-0.44131731112441813,-0.17918146079304037
688119,-0.6144750443757216,-0.35233919404434394
2147680,-0.28739266409485176,-0.03466215580625204
2415367,-0.935081427892896,-0.6823509196042963
1556980,-0.7282930999844963,-0.47556259169589654
2239819,-0.1937260970106226,0.06840975332075516
3368514,-0.226534257699049,0.03560159263232876
872574,-0.34935271107458854,-0.08721686074321078
1470121,-0.3406390842646975,-0.07850323393331976
3765311,-0.3476678503093669,-0.08553199997798916
3951152,-0.6415636511485582,-0.38818933308857884
2262091,-0.947676332255171,-0.6855404819237932
2967402,-0.8916472978647499,-0.6123442973025272
436462,-0.7385430653807681,-0.47640721504939026
1265827,-0.34731716997209433,-0.08750549510963723
1878754,-0.5813184405544896,-0.31390519193149125
3103648,-0.4522041451217468,-0.19006829479036902
459845,-0.6138958343169462,-0.3611653260283464
418422,-0.4235904206207955,-0.16145457028941773
3703714,-1.0429524836996857,-0.7079890475447416
914996,-0.662491991068914,-0.4003561407375363
2697804,-0.43691097729925976,-0.17709930243680264
2578780,-0.3061025336866444,-0.04110812797837754
2739342,-0.5420312428461723,-0.2798953925147946
1589479,-0.3125645779822773,-0.04757017227401045
3475955,-0.4821876513462836,-0.21477440272328527
703674,-0.4257920056204476,-0.16365615528906982
1639085,-0.8125982432991691,-0.5572128160780819
3498343,-0.8848848815112205,-0.6227490311798427
593307,-0.5009780846081009,-0.2388422342767232
2849177,-0.6592796868272419,-0.3971438364958642
1500566,0.015405477658109401,0.3069828274028591
1139913,-0.6689896985767745,-0.40399529286850766
3939836,-0.7232363325407131,-0.45520981995460963
751900,-0.8485588454030777,-0.595828337114478
2883831,-0.7462031333164071,-0.4787898846934088
3849334,-0.4224626157688976,-0.21156126780368917
1539928,-0.6165480443818518,-0.3491347957588535
278726,-0.5315895877897171,-0.26945373745833934
3360872,-0.22965632667583807,0.03247952365553969
2892583,-1.0248933598264411,-0.7574801112034428
880857,-0.7021463060932049,-0.4400104557618272
291611,-0.3674704004795458,-0.10533455014816809
3410786,-0.24257644068661688,0.019559409644760883
2421207,-0.8032362266440918,-0.541100376312714
1944791,-0.5799730756269752,-0.32659875756699575
3476866,-0.3229252898377477,-0.06078943950636992
1260007,-0.964035802094331,-0.7086503748732439
1738347,-0.36495290837920236,-0.11438258280399818
1221231,-0.6960706671666909,-0.4433401588780911
2463717,-0.5919844085185512,-0.3298485581871734
1762145,-0.6481582737593112,-0.38316386805104435
377583,-0.9150749565585017,-0.6529391062271239
2722896,-0.6425240491344619,-0.3803881988030841
547576,-1.0619600799078524,-0.7431285544362933
680133,-0.7015260890004981,-0.41067519176480505
3401189,-0.9572635264047478,-0.6223000902498037
2818005,-0.32826503343666524,-0.06612918310528748
3330457,-0.40223242580958024,-0.14009657547820248
3806334,-0.48259899425284747,-0.21518574562984907
3354612,-0.7724485974092014,-0.5050353487862029
1346439,-0.7909607246333767,-0.5311490497709197
3160792,-0.3783902976592315,-0.1162544473278537
1819843,-0.6537429352855605,-0.3863296866625622
580100,-0.4666645190292451,-0.20452866869786737
1890826,-0.28793330057236843,-0.020520051949370066
2506109,-0.39636563168604805,-0.13422978135467029
3321184,-0.5155107268521025,-0.2533748765207248
284162,-0.6750074229564745,-0.36366807248343663
2946611,-0.617638430276316,-0.3555025799449383
471937,-0.8882762192037792,-0.6261403688724014
693415,-0.40939190719500007,-0.11781455745025038
1775879,-0.5270918579563117,-0.2672801830938547
2271779,-0.5366076883069687,-0.2789773997946296
3847153,-0.5686394512299022,-0.30650360089852446
1491626,-0.3858240961702607,-0.12368824583888291
668848,-0.2510724582845343,0.016340790338464084
937352,-0.49870971432617817,-0.23129646570317983
3493644,-0.5554818814308866,-0.30275137314228695
3334312,-0.5759482361895483,-0.31381238585817056
593550,-0.8585453111163177,-0.5792423105540949
2978026,-0.42880220534204766,-0.1613889567190493
3841596,-0.48246698681615924,-0.22033113648478148
456233,-0.5915120419199725,-0.3293761915885948
3461723,-0.7597010119231766,-0.5069705036345769
2425885,-0.8296259543494542,-0.5674901040180764
802302,-0.430603405590509,-0.1684675552591313
3371905,-0.48783147223905554,-0.2256956219076778
2630729,-0.7053977066701039,-0.44558603180764683
3920695,-0.6647926405355389,-0.38615588383127225
2165931,-0.889286744904948,-0.5850927705523753
953456,-0.4848863559076949,-0.20624959920342836
1202523,-0.7587501887390009,-0.4966143384076231
670111,-0.6462522187452606,-0.3841163684138828
1151081,-0.5310212057018112,-0.2628865790106371
2043460,-0.3413841139999419,-0.07924826366856413
204842,-0.5836843003374305,-0.33095379204883074
1346137,-0.6482293271544345,-0.39765900157923034
3337683,-0.3606200317131639,-0.09320678309016558
1989903,-0.6585815362466891,-0.40585102795808936
1972463,-1.0554924281887066,-0.6194236392614518
2118759,-0.7208456188267495,-0.4587097684953717
1065974,-0.5088776482101909,-0.24906597334773384
1265780,-0.3333711010747934,-0.0735594262123363
993907,-0.44387143249660554,-0.18173558216522778
546614,-1.1335818661205495,-0.8714460157891717
2925553,-0.6747575730909419,-0.42202706480234214
3518527,-0.6177293214755081,-0.34418148461187625
261774,-0.9710083357697247,-0.6521768102981657
2040628,-0.7302266875874565,-0.4628134389644581
1489191,-0.30837199252701464,-0.046236142195636876
3669872,-0.2467923910369983,0.015343459294379469
845200,-0.663153820286502,-0.3957405716635037
481143,-0.18474814306364779,0.07738770726772998
1525060,-0.19092342601314843,0.07121242431822933
2427835,-0.5551353496385053,-0.29299949930712754
723486,-0.7733068330679426,-0.5111709827365648
1500034,-0.0166527455511023,0.23607776273749742
616092,-0.6440925818127468,-0.3654558251084802
1040251,-0.5503409893467733,-0.2905293144843162
1555629,-0.5372743233433837,-0.2751384730120059
301252,-0.6214023605178975,-0.3592665101865197
1195714,-0.6227691346466796,-0.3606332843153018
2920141,-0.07765577227251202,0.18448007805886574
579734,-0.6725577999919521,-0.3612184495189142
589806,-0.34790151334959946,-0.05705061611390644
290512,-0.6912332992754002,-0.43850279098680056
1212922,-0.24032032985893154,0.021815520472446226
2759872,-0.4033654926456156,-0.14122964231423785
3452055,-0.4174573941589199,-0.1647268858703202
250221,-0.5595094842610275,-0.2973736339296498
3462648,-0.8397574629419391,-0.5723442143189407
3421645,-0.7294343698714958,-0.467298519540118
1231160,-0.8804304700215222,-0.6276999617329224
2287345,-0.4471448663822184,-0.18500901605084064
1151644,-0.4595228511281514,-0.20413742390706424
2284419,-1.0549506874858996,-0.7928148371545217
1355341,-0.5751465148895963,-0.3153348400271393
2167526,-0.7768339658453985,-0.5146981155140208
558666,-0.41605146871568177,-0.16332096042708208
538041,-0.8326489926919243,-0.5705131423605465
2997186,-0.6126242719358479,-0.3598937636472481
1314892,-0.6565033919433253,-0.39669171708086814
1141875,-0.3091606507254204,-0.05859032515021628
196884,-0.6650420238302047,-0.41231151554160506
2054113,-0.8147113278681841,-0.5525754775368064
3835148,-0.5446929764035039,-0.2919624681149042
1719179,-0.729477672165515,-0.4666488421849736
1642983,-0.265874525057993,-0.0008801193497261495
1504684,-1.0478367399440343,-0.7857008896126565
555914,-0.5381148545990245,-0.28538434631042486
3360178,-0.6171430397739681,-0.3644125314853684
3735600,-0.9248267389153908,-0.6574134902923925
1022759,-0.3291031006739643,-0.06696725034258655
1033348,-0.6034283888926326,-0.3360151402696342
2886396,-0.5635046356311758,-0.30136878529979805
3029809,-0.4833608927019881,-0.21594764407898975
3312118,-0.5215053057393985,-0.2593694554080207
1820445,-0.8511729217607585,-0.5890370714293808
3329476,-0.5009174926752404,-0.23878164234386265
1530599,-0.8491223229864737,-0.586986472655096
716694,-0.43015527447245105,-0.16801942414107332
2933422,-0.23071088881184065,0.03142496151953711
1499827,-1.0574420717095745,-0.6356380884196237
369761,-0.4854405160330281,-0.22330466570165036
2147941,-0.2011926568631177,0.05643763164922144
3934482,-0.8407125331908585,-0.5732992845678602
589537,-0.600285739912662,-0.3475552316240623
1104410,-0.4369640145731416,-0.1771523397106845
1228402,-0.6527134239110592,-0.39998291562245947
323698,-0.8216320558203924,-0.5028005303488334
919121,-1.07637757118861,-0.8236470629000106
3503850,-0.6787628047422595,-0.41662695441088166
2516453,-0.7637795839050034,-0.5016437335736257
3106566,-0.5835127220078058,-0.321376871676428
234052,-0.48971871451237486,-0.23698820622377512
2800800,-0.7751162234222975,-0.5129803730909197
231025,-0.6133428686164322,-0.36061236032783245
3247350,-0.6561854504494359,-0.3940496001180581
2693489,-0.43984317789704275,-0.18003150303458565
2168849,-0.07844369076222202,0.18369215956915574
2925865,-0.4461368042844523,-0.19340629599585257
3203959,-0.5951557635382214,-0.3424252552496217
2786208,-0.6352275215106685,-0.37309167117929076
1423816,-0.4006238255019022,-0.14789331721330246
2817291,-0.43640835221347696,-0.18367784392487724
1381050,-0.4769848784821031,-0.21717320361964598
1457227,-0.7799756914204302,-0.5178398410890525
893363,-0.7834851377785144,-0.516071889155516
2196753,-0.6821815788028622,-0.42004572847148447
3415067,-0.9741696179912749,-0.7120337676598971
2615795,-0.4495421136935954,-0.1989717881183913
2175061,-0.444712144548537,-0.18257629421715926
231623,-0.6573932454429636,-0.3952573951115859
2644363,-0.2677444098151395,-0.007932734952682374
1000362,-0.6326635548288962,-0.3705277044975185
3910266,-0.7779706747870444,-0.45913914931548533
3231407,-0.5746623644691812,-0.31252651413780336
2204740,-1.2515509759258063,-0.9939206874134671
3739116,-0.023473718871215632,0.23866213146016213
2267758,-0.7265238608403674,-0.4643880105089896
1193748,-0.7141358764759315,-0.4467226278529331
1993420,-0.955167007192345,-0.6930311568609673
1899030,-0.6820246319855994,-0.4156069496727067
1229903,-0.3703127846308243,-0.1175822763422246
556136,-0.4767858524426772,-0.21465000211129942
484823,-0.9039243919830129,-0.6417885416516351
362376,-0.41212700097525967,-0.15939649268665995
1883300,-0.5658972546674668,-0.31316674637886704
1698823,-0.6772840193421662,-0.4144551893616248
2792758,-0.3103238448082681,-0.04818799447689032
3727737,-0.34498143968197764,-0.08284558935059988
1412549,-0.8628534068932421,-0.5954401582702437
1759953,-0.4115122865724067,-0.15170061170994956
2721556,-0.586320602541876,-0.32418475221049825
1206862,-0.7932196148620775,-0.5404891065734778
814531,-0.377599279368093,-0.10254331412001513
2592955,-0.6611183283734446,-0.40130665351098754
3954647,-0.6724134722034676,-0.4102776218720899
1783838,-0.4504379429422047,-0.19986761736700054
367489,-0.16898856704802684,0.09842468157497153
1206706,-0.8205371053764514,-0.5584012550450737
2966239,-0.802376394935234,-0.5349631463122356
1324840,-0.6303621989656026,-0.3653677932573358
2826749,-0.16245709336676634,0.10495615525623203
3167387,-0.6315354278989788,-0.378804919610379
1487730,-0.6360156637063198,-0.373879813374942
1994462,-0.4449236571581046,-0.18278780682672685
1676113,-0.5681876396583804,-0.2558678389928636
2635422,-0.6039702023121185,-0.34415852744966136
3802501,-0.546484474810143,-0.2937539665215433
731955,-0.6254973231347815,-0.3633614728034037
1678291,-0.7350484932720062,-0.47221966329146475
3153751,-0.6283181979614025,-0.3661823476300247
1664378,-0.3459587991116166,-0.09258448105163719
678239,-1.2847720881067097,-0.8506275304167228
2949590,-0.46229657487433984,-0.19488332625134147
1980479,-0.57725045824189,-0.3151146079105122
345436,-0.6931364901219301,-0.4310006397905523
1833146,-0.647703767859819,-0.38029051923682067
3359873,-1.0316931960203757,-0.769557345688998
2110348,-0.7825999989137533,-0.5204641485823756
2671969,-0.5030513750631364,-0.2524810494879322
710181,-0.38624065673803515,-0.12410480640665739
2749195,-0.5237841125731513,-0.2616482622417735
2993688,-0.8657849953012654,-0.6036491449698876
3757107,-0.6948477652749054,-0.43271191494352773
2867769,-0.8776977790814386,-0.5930858573015237
1308741,-0.11550895595854632,0.14430271890391078
1247117,-0.4614665482011743,-0.1993306978697965
2806207,-1.409669527413557,-0.9878655441236064
1423549,-0.7127225851986851,-0.4599920769100855
2283789,-0.8905150915024471,-0.6283792411710694
2665315,-0.6749978292602382,-0.4244275036850341
3207650,-0.6757644962138245,-0.41362864588244674
2154458,-0.6647904021952571,-0.40265455186387933
968344,-0.5691370765866703,-0.3017238279636719
3738840,-0.5226682616436668,-0.260532411312289
367091,-0.5646235811317528,-0.30248773080037505
2731562,-0.3968742038381011,-0.1347383535067234
1981675,-0.5212287488114267,-0.24289569202897382
307469,-0.6304228693393574,-0.3682870190079796
1894271,-0.5931355651316805,-0.32022665401925227
3330929,-0.5315980515679926,-0.26946220123661474
3302265,-0.7058776322826442,-0.44374178195126646
712654,-0.8476657533622981,-0.5855299030309203
3957165,-0.25244153010166775,0.009694320229710007
352029,-0.518139376888674,-0.25600352655729625
856953,-0.58828689920784,-0.32615104887646224
1623540,-0.43659480956538654,-0.17678313470292945
1604984,-0.5939036281697538,-0.328909222461487
1337581,-0.5011979893283677,-0.24138631446591052
890545,-0.4372869558539173,-0.17515110552253954
1224249,-0.5553456757966506,-0.2932098254652728
2523792,-0.41378839161658093,-0.15165254128520317
3678135,-0.6337092901932369,-0.3809787819046371
1950951,-0.7141006502519972,-0.3942404153274261
2155044,-0.4883921063763244,-0.22097885775332604
3390406,-0.6115005898580156,-0.3440873412350172
1750040,-0.6688410696712611,-0.40902939480880396
887780,-0.20423045949651275,0.053399829015826406
3366070,-0.6248838113332265,-0.3627479610018487
3279957,-0.5924680194635146,-0.33973751117491485
2714896,-1.0021673907305215,-0.5680228330405348
2799284,-0.2753140528401987,-0.022583544551598972
366614,-0.270615428371418,0.013996493408496902
3921620,-0.6215420224575023,-0.3594061721261246
1685923,-0.5423388537129002,-0.27951002373235884
1458535,-1.081879520863236,-0.819743670531858
1908384,-0.371145321353484,-0.10900947102210623
1728282,-0.6248051593668199,-0.3598107536585531
592034,-0.5694882524038979,-0.30735240207252007
3034117,-0.417186378834151,-0.15505052850277326
2870971,-0.5263962034585847,-0.26426035312720697
1282169,-0.650830006137574,-0.391018331275117
3108884,-0.4592689858346753,-0.19713313550329753
580061,-0.555280143562445,-0.2931442932310673
1663666,-0.5220263804052909,-0.2591975504247495
369076,-0.5755571939801815,-0.3134213436488037
1115545,-0.4936752965391614,-0.22868089083089455
865850,-0.3589489303076133,-0.09681307997623553
555922,-0.48977337082202876,-0.23704286253342904
3919999,-0.9353711977096951,-0.677740909197356
2486516,-0.5755091100264855,-0.31337325969510776
2898050,-0.16048224787288212,0.10165360245849564
3177762,-0.6703421421316915,-0.4029288935086931
659614,-0.39650721078822987,-0.14377670249963015
3804633,-0.597596184204748,-0.33546033387337026
2141530,-0.9912891355075357,-0.6724576100359767
3730861,-0.6670993327365705,-0.37624843550087744
2562922,-0.6183487773549176,-0.35621292702353974
600287,-0.5753539833161629,-0.3132181329847852
2712624,-0.5550632640317926,-0.2704513422518777
3393480,-0.3249269543010377,-0.06279110396965992
745434,-0.2600347160011934,0.0021011343301843843
3476542,-0.16506519359053728,0.09707065674084048
1839929,-0.7909519903674598,-0.528816140036082
3422358,-0.6141201273770944,-0.35198427704571666
2927438,-0.26148177369200226,0.0006540766393755004
3114004,-0.9540013466615855,-0.6865880980385871
375812,-0.9254931902981023,-0.6066616648265433
3686495,-0.5543839086654575,-0.2922480583340797
2205238,-1.0420406714483694,-0.7799048211169916
1078674,-0.2761217301674252,-0.016310055304968096
1597799,-0.41184374287946357,-0.15203206801700647
3092706,-0.5546402417800816,-0.2925043914487039
3660250,-0.2526083093595811,0.009527540971796644
3005406,-0.6694195552651172,-0.4072837049337395
3671677,-0.7304749994125401,-0.46833914908116236
1518045,-0.32015190912715197,-0.06742140083855225
3138817,-0.36879185367487644,-0.10665600334349865
3338182,-0.9987548120284312,-0.7366189616970534
2871814,-0.7909985601646451,-0.5288627098332673
3270517,0.03209119466073751,0.28482170294933723
3121318,-0.7259715310433058,-0.46834124253096665
2843903,-0.8318700682332709,-0.5791395599446711
659325,-0.4459080696374687,-0.18377221930609094
1505794,-0.5758934935796877,-0.31375764324830985
1607556,-0.3765422102644417,-0.11673053540198461
3786902,-0.38465472717550736,-0.1225188768441296
977242,-0.7667017125721255,-0.5045658622407477
539003,-0.3061613192773398,-0.04402546894596204
237575,-0.5605468213408474,-0.29841097100946967
2606849,-0.41003925077703807,-0.15022757591458097
1439084,-0.7655497508748907,-0.503413900543513
1213152,-0.6209059396457879,-0.3587700893144101
743802,-0.34150270324907206,-0.07936685291769432
2593353,-0.9885694679100909,-0.6731792189349617
1152535,-0.7508565633098319,-0.4954711360887447
3767636,-0.18850632960602165,0.07362952072535611
3729169,-0.5845417596475936,-0.33181125135899386
563601,-0.38222224689923,-0.12008639656785222
2680385,-0.5973292127282978,-0.3375175378658406
3655786,-0.5329744750228477,-0.27083862469146985
2184804,-0.22433680505156212,0.037799045279815646
3070342,-0.8276078802325573,-0.5654720299011795
1893340,-0.5315116111650182,-0.26937576083364045
2187195,-0.24792153169592113,0.014214318635456635
3441351,-0.8060388161953008,-0.5439029658639231
2755391,-0.5039254576162364,-0.2417896072848587
3547442,-0.7327438809787449,-0.4706080306473671
1500259,-0.5380320829340381,-0.28040179442169894
3856515,-0.6298675834007463,-0.362454334777748
1741088,-0.2631147583703264,-0.0033030835078692866
2547168,-0.5975516220807411,-0.3354157717493633
490542,-0.714900947343615,-0.4527650970122372
299278,-0.5956339139760009,-0.33349806364462303
2485807,-0.7709587495512564,-0.5088228992198787
2883604,-0.6506843128904205,-0.38327106426742213
3782886,-0.35971709047568157,-0.07784576960685285
1842854,-0.48183481285631413,-0.2291043045677144
2234109,-0.7529288389149891,-0.4907929885836113
3090296,-0.7329649813027279,-0.47082913097135015
2997043,-0.763432723805968,-0.5012968734745903
707016,-0.6756169452007088,-0.4082036965777105
1162360,-0.5421132244645359,-0.28230154960207876
371057,-0.5005372358061225,-0.23840138547474474
2996643,-0.775254323627078,-0.5225238153384784
3319456,-0.3433202992249701,-0.08118444889359233
1423824,-0.6548821913718702,-0.40215168308327054
2460699,-0.40099289669538196,-0.13885704636400423
1919109,-0.7038191599892837,-0.4364059113662853
1443963,-0.29932159976524886,-0.037185749433871096
2519332,-0.2798797890672512,-0.017743938735873432
1859200,-0.2557818304068215,0.006354019924556253
231001,-0.36130746288089366,-0.10857695459229391
2714957,-0.6281706238648724,-0.360757375241874
3221467,-0.2844057308707493,-0.02226988053937151
2522532,-0.6591292645874757,-0.3969934142560979
945419,-0.7601220465739704,-0.4979861962425926
3015746,-0.47590794925537194,-0.2137720989239942
1295047,-0.7406176991985555,-0.4808060243360983
246620,-0.9724417425232571,-0.7103058921918793
733825,-0.576959515841871,-0.32422900755327133
3890692,-0.5516326512615686,-0.28949680093019076
3344077,-0.2726657470419543,-0.00525249841895592
1858485,-0.5153568769278187,-0.253221026596441
1848377,-0.5597148742660403,-0.2975790239346625
947078,-0.4392437049976393,-0.17710785466626155
909285,-0.4915746305242063,-0.22943878019282854
746136,-0.8260724878447686,-0.5639366375133908
2281379,-0.38381123261067296,-0.12167538227929522
2946417,-1.1480209193978625,-0.8858850690664847
2643854,-0.3285000850254016,-0.0686884101629445
716659,-0.6955703260993805,-0.43343447576800276
2665111,-0.3836994612952014,-0.1187050555869345
1152378,-0.44563871016171985,-0.180644304453453
2775008,-0.7398519568269523,-0.4490010595912592
2535802,-0.8792472937810458,-0.6118340451580474
585921,-0.2739477414003064,-0.01181189106892866
1607646,-0.5581818405640464,-0.29318743485577947
367950,-0.6221666299106664,-0.34352987320639977
2471757,-0.5137452935679018,-0.25160944323652396
264282,-0.694170593106855,-0.41553383640258845
439945,-0.39315673178106225,-0.13102088144968452
3760172,-0.5362370803629294,-0.2741012300315516
3763291,-0.5964801050827049,-0.32906685645970646
2728043,-1.0401163160607239,-0.7672074049482955
1289406,-0.6364800827614642,-0.376668407899007
3752339,-1.4714246497215813,-1.0224452084379876
844316,-0.5014040455766776,-0.2392681952452998
3534408,-0.7116662448262688,-0.45893573653766917
2236301,-0.7711340048140543,-0.5089981544826765
3496092,-0.47222554694940533,-0.21008969661802757
3489618,-0.5217206577407831,-0.2595848074094053
3115264,-0.45825688740989073,-0.19612103707851297
2727608,-0.21384173897022085,0.04829411136115691
578193,-1.0064103182266046,-0.7399926359137119
3337007,-0.6073506226190375,-0.34521477228765973
953420,-0.7131161411896554,-0.45548585267731617
2013088,-0.4687913557654093,-0.20665550543403155
747635,-0.7881563591808575,-0.5260205088494797
1587274,-0.4150119902874171,-0.1475987416644187
1124282,-0.6408843855104362,-0.3810727106479791
996725,-0.05716498713607804,0.19556552115252168
649892,-0.7526402442860323,-0.4905043939546545
1087073,-0.80886169701687,-0.549050022154413
323984,-0.5686803561530452,-0.3065445058216674
2521665,-0.4190483209089294,-0.15691247057755167
1196869,-0.48496912611201126,-0.21206021499958297
1911157,-0.47288341318300625,-0.20547016456000788
1596513,-0.6543628163130126,-0.3945511414505556
3286367,-0.5105204031855505,-0.24838455285417266
3404109,-0.46633144376605695,-0.2041955934346792
3542564,-0.3506159583378144,-0.09788545004921467
3743070,-0.5652477621902603,-0.2602585091649723
448671,-0.8976147906789109,-0.6354789403475332
3040789,-0.6117759248045574,-0.34964007447317974
3395392,-0.5430711608818324,-0.275657912258834
2157050,-0.7814441090472182,-0.523813820534879
2974864,-0.5453111634023652,-0.2831753130709874
1441471,-1.013811683908479,-0.7516758335771012
2019663,-0.8367176778750929,-0.5745818275437151
3466055,-0.7659129588860125,-0.5037771085546348
3215867,-0.6658284788595463,-0.40369262852816856
2196060,-0.5775693628010516,-0.3154335124696739
289347,-0.4106660624135757,-0.14853021208219797
490758,-0.5177582757420885,-0.2556224254107108
1738075,-0.18672928906147845,0.07308238580097864
393722,-1.1351263090957324,-0.6861468678121386
869314,-0.35287463163288735,-0.10014412334428766
1146976,-0.5129277466289527,-0.25754231940786554
299369,-0.3170444126695605,-0.05490856233818278
2900447,-0.49247059931311654,-0.23033474898173875
1210847,-0.2076121926258674,0.054523657705510375
746108,-0.855759508879135,-0.6030290005905352
1334759,-0.5543591907099715,-0.2945475158475145
595143,-0.413127473586124,-0.15099162325474627
430675,-0.6197823943593381,-0.3670518860707384
1590949,-0.7364626416440958,-0.47665096678163876
1244714,-0.5437255698269168,-0.281589719495539
1614077,-0.2692517005584401,-0.009440025695983012
895104,-0.5189925435660004,-0.25157929494300213
1112267,-0.504961333634924,-0.23996692792665714
2813264,-0.6646533245320889,-0.4119228162434892
2057220,-0.6529063082499079,-0.40017579996130814
1092907,-0.6366328141821843,-0.37682113931972727
2196504,-0.49893218734446465,-0.23679633701308686
2272305,-0.5182367006861243,-0.2561008503547465
2531934,-0.7901663589402264,-0.5280305086088486
830768,-0.3434759020966592,-0.0648391453923926
3656529,-0.7102132651233869,-0.4373043540109586
2848953,-0.8217837542471038,-0.559647903915726
2860625,-0.49600955343965736,-0.23387370310827957
3392829,-0.6996669047683958,-0.437531054437018
2137481,-0.7601719924913735,-0.40733856096638293
1877247,-0.5087154357213414,-0.24657958538996363
3705156,-0.7062105072313827,-0.453479998942783
3708783,-0.4167548829722657,-0.15461903264088792
3137696,-0.4527556588348391,-0.19061980850346133
724608,-0.7403470008636059,-0.46171024415933937
1887827,-0.7504409017721717,-0.497710393483572
1648738,-0.5938703676574673,-0.3288759619492004
215171,-0.3288386300159757,-0.0667027796845979
2624456,-0.8234583471464224,-0.5636466722839653
1101133,-0.2655228466367428,-0.056125434403293
1231899,-0.3051943143723508,-0.05246380608375109
1205763,-0.7703404216046814,-0.5082045712733037
3047309,-0.7744279922190529,-0.5122921418876751
3410790,-1.0463536813931413,-0.7842178310617637
3053171,-0.23586469979015567,0.01470562578504847
2831915,-0.3007442639191359,-0.03860841358775813
3521523,-0.4023425265773386,-0.14020667624596087
3319279,-0.5019767664745156,-0.23984091614313782
1792054,-0.6356404263279798,-0.3758287514655227
1695433,-0.323641784597595,-0.05550715790642091
511918,-0.7173175579525988,-0.455181707621221
2035104,-0.6422907273164735,-0.38956021902787374
1458727,-0.4164059981007966,-0.15659432323833947
806591,-0.6918442070249993,-0.42684980131673245
3189665,-0.44880680053942806,-0.1866709502080503
1641700,-0.4828199018927666,-0.2178254961844997
2886734,-0.7452551284111133,-0.48311927807973554
839432,-0.41581266195156275,-0.153676811620185
220945,-0.3447197419289284,-0.08258389159755061
3376316,-0.6878883539068791,-0.4257525035755013
1482041,-0.5953104853278458,-0.33317463499646804
1283241,-0.5260701664128037,-0.2610757607045368
1893314,-0.5190170690259548,-0.2568812186945771
2771929,-0.23684730209663607,0.025288548234741692
1460811,-0.8539784639654442,-0.5918426136340664
1476010,-0.534765430143852,-0.2726295798124742
2200317,-0.689281947345488,-0.4218686987224896
2941565,-0.7286110840867863,-0.4611978354637879
3913887,-0.8557193753000639,-0.570289478623056
1781477,-0.6715784431369068,-0.4117667682744497
1627755,-0.22846277532006887,0.03653163038819801
2149851,-0.6578654088764573,-0.33903388340489826
842779,-0.4508043311199888,-0.19317404260764964
2414976,-0.3778806426669894,-0.11574479233561161
1905838,-0.4479472192254166,-0.18053397060241821
3957110,-0.8358411247249901,-0.5684278761019916
3895980,-0.7580734647363823,-0.4959376144050045
1585694,-0.33215687243626363,-0.07002102210488587
521626,-0.32091822629024247,-0.05878237595886468
194118,-0.3798897971698936,-0.11775394683851581
1684633,-0.5807337593239252,-0.31259913263275113
958779,-0.8758506382663744,-0.6231201299777747
961147,-0.4593796408257834,-0.19724379049440566
3428097,-0.7942106847987443,-0.5320748344673666
3143887,-0.24331480633912966,0.0188210439922481
1170648,-0.36858524997136,-0.10877357510890293
1981984,-0.5805187275372281,-0.3176898975566867
1335954,-0.5674889850304973,-0.3076773101680402
3337536,-0.8547135804054182,-0.5873003317824199
1346685,-0.5410858163462207,-0.2812741414837636
1614704,-0.4412813193478757,-0.18146964448541858
3675381,-0.8745626055471348,-0.6016536944347066
3390691,-0.5627331771337595,-0.30059732680238166
3411117,-0.8532005011790831,-0.5910646508477053
3523442,-0.4824647080340475,-0.22032885770266977
3247019,-0.53411309289245,-0.27197724256107225
2879000,-1.0324628183965636,-0.5834833771129699
1542455,-0.6433435861743447,-0.381207735842967
1077939,-1.11345659304855,-0.853644918186093
2509640,-0.6875215492258056,-0.42989126071346634
1705974,-0.7141603386719776,-0.4513315086914362
3292593,-0.6862657061102753,-0.41885245748727695
281060,-0.5469402304540495,-0.2848043801226717
2568890,-0.46964632727414424,-0.21691581898554455
642314,-0.4424762751278769,-0.18034042479649917
1414191,-0.5486271033547307,-0.28649125302335293
1140884,-0.46941985902155126,-0.2140344318004641
2464465,-0.7342330034686516,-0.4668197548456532
2496682,-0.9903975863219621,-0.7282617359905843
265569,-0.5010575530072862,-0.24832704471868647
437244,-0.9074859133515366,-0.6453500630201588
2515622,-0.7664821100223166,-0.5043462596909388
3375490,-0.06417928478871399,0.19795656554266378
1441252,-0.7757686844887699,-0.5136328341573921
3435968,-0.638907179409249,-0.37677132907787125
3274899,-0.379278515098846,-0.11714266476746826
1288503,-1.1329719480056981,-0.8731602731432411
2654795,-0.06269549577872596,0.1994403545526518
3221111,-0.31150203779394264,-0.04936618746256488
2938972,-0.8528641725488308,-0.5907283222174531
214560,-0.7745665284752166,-0.5124306781438388
2410262,-0.5620344395394352,-0.30930393125083544
487581,-0.3702247897498113,-0.1174942814612116
495179,-0.4561614990345261,-0.1940256487031483
1440889,-0.4286086779989856,-0.16647282766760785
1684302,-0.6468985349672198,-0.3840697049866784
