sample_id,y0,y1
1972043,-1.0893472761224863,-0.7804833310149654
2105055,-1.7631770158308606,-1.3411214139178642
1708460,-1.879811230580673,-1.5442017481511296
2780386,-1.6704931763149842,-1.2484375744019878
2447434,-1.3873147687769452,-0.9652591668639487
3007674,-1.0881077079119408,-0.6660521059989445
1477191,-1.5031836535324425,-1.0811280516194464
2254992,-1.6750009418944305,-1.2007989996335557
565568,-1.638794641911568,-1.097306070008072
2736335,-1.8423130363213391,-1.420257434408343
310621,-1.6834152717674282,-1.3371089837541643
246436,-2.74877354662082,-1.7868431742276847
937553,-1.1513865639869343,-0.7709942002284162
2479463,-2.2159264570532717,-1.4551369382917503
1709288,-1.1052858782845523,-0.7696763958550091
3927215,-0.8849904560915451,-0.504598092333027
1420226,-0.9439769307053087,-0.5219213287923123
2244355,-1.4793638811797525,-1.0573082792667563
2637478,-1.2522656388982263,-0.8302100369852301
1547385,-0.6303454176173787,-0.20828981570438243
463241,-2.5588569388478484,-1.5969265664547128
607096,-0.5180586490713349,-0.09600304715833863
1032483,-1.6287730010999044,-1.1545710588390297
199457,-2.3395332804499853,-1.37760290805685
1828829,-1.4117274124455783,-0.989671810532582
841635,-1.616122638447134,-1.194067036534138
2565210,-1.1125497436309129,-0.7321573798723946
3495168,-2.9275829261351696,-1.9656525537420342
3253775,-1.4694864400441905,-1.0474308381311943
3213542,-0.7997487182604828,-0.37769311634748653
2737576,-0.7007644860127124,-0.27870888409971606
3412436,-2.1924430455107653,-1.2305126731176297
1963084,-1.4521593948968878,-0.8558351396041488
1193666,-1.082741859618079,-0.6606862577050826
242713,-1.1757666785363452,-0.753711076623349
3776154,-1.5938534852767354,-1.171797883363739
1231649,-1.4642303228439377,-1.0421747209309415
2551260,-1.356039803867782,-0.9339842019547857
1697946,-0.5495197795899425,-0.21391029716039917
1478726,-0.6617204240228138,-0.23966482210981754
2200196,-1.695108214865097,-1.273052612952101
2701435,-1.247822118525016,-0.8257665166120197
931027,-1.5317981119310968,-1.1097425100181004
3907121,-1.4946266739194094,-1.1142343101608914
3669215,-1.6167599171598048,-1.1947043152468086
2030827,-1.4290067210253354,-1.006951119112339
871230,-1.0261872867696034,-0.6041316848566071
2647019,-0.44213291435985924,-0.02007731244686295
2934412,-1.1838300785923987,-0.7617744766794025
2277902,-1.1774320370700881,-0.7553764351570919
3311981,-1.3784726485612493,-0.9564170466482529
2424711,-0.8041692176948323,-0.382113615781836
2973171,-1.1101077504913635,-0.688052148578367
3837457,-1.2352562916455219,-0.8132006897325256
494698,-0.7323083170500394,-0.3102527151370431
2714483,-1.14195986485661,-0.7199042629436138
2524907,-1.110401766814105,-0.5689131949106089
3227559,-2.6449027591266603,-1.6829723867335251
3534066,-1.9530377502655791,-1.5309821483525827
3663149,-1.80083365668551,-1.3787780547725137
2868216,-1.1802446299391036,-0.7581890280261073
3703761,-1.0255416219788782,-0.6792353339656144
1587520,-2.2413239126841167,-1.8192683107711205
1499909,-0.8186174630675007,-0.39656186115450437
2626008,-0.5488992977493732,-0.1268436958363769
2560574,-2.269887785868331,-1.5090982671068098
708693,-1.394353221728659,-0.9722976198156627
3055500,-0.8910772979712344,-0.5447710099579706
2172576,-0.8122474646681513,-0.46594117665488755
3938067,-0.6913384708798431,-0.34503218286657933
1625385,-0.993461125135781,-0.5714055232227846
2868704,-1.3168881993922579,-0.8948325974792615
2505432,-0.6051455201219156,-0.0636569482184195
507463,-1.7864549751257734,-1.2449664032222774
3368074,-1.068091543851276,-0.6460359419382795
1042923,-1.3706098131496733,-0.948554211236677
2460817,-1.3780561908229538,-0.9560005889099574
3113463,-2.4407334062295085,-1.4788030338363733
408152,-1.4069597171106603,-1.0265673533521422
3006967,-0.7820254830691244,-0.4016331193106063
2602561,-0.9886967846601233,-0.5666411827471272
2142663,-1.2251320340079443,-0.8030764320949482
1612393,-1.2378550389545777,-0.8157994370415814
251288,-1.053191241212777,-0.6311356392997809
2200485,-2.6957219983260647,-1.7337916259329296
350833,-2.171113615472222,-1.209183243079087
1222951,-1.7022383486653194,-1.280182746752323
2450360,-0.5970928332721375,-0.17503723135914118
2762905,-1.5801349977220074,-1.1580793958090112
1673575,-1.4298160014933752,-1.1437167037084266
539603,-2.6057291043524473,-1.643798731959312
3094632,-2.5591428194450643,-1.5972124470519289
3088092,-1.527943378401972,-1.147551014643454
2684279,-1.4112108877962408,-0.9891552858832444
1346849,-0.8377066120089823,-0.41565101009598604
3420389,-2.162261014126606,-1.200330641733471
561064,-1.399135248882543,-0.9770796469695469
1388217,-1.019354883710521,-0.5972992817975247
916004,-1.3863386814131187,-0.42440830901998317
654030,-2.639497597829078,-1.6775672254359424
1895852,-1.9006048218902278,-1.5202124581317098
2024502,-1.6071514678488839,-1.1850958659358877
254838,-1.889097635711389,-0.9271672633182535
1977035,-1.1943951640999402,-0.8587856816703969
3714385,-1.1631900307436167,-0.8168837427303529
1334676,-1.7541269743665673,-1.332071372453571
3013054,-1.1296836307095601,-0.749291266951042
1309358,-1.380829995104639,-0.9587743931916428
700722,-1.4330711410161023,-1.0110155391031062
596811,-1.1187979279478149,-0.6967423260348184
2258609,-1.5278206109010095,-1.1057650089880133
1689988,-0.9278145073019992,-0.592205024872456
3662609,-1.3827763380560978,-0.9607207361431015
2712082,-1.3104052478545953,-0.888349645941599
1453906,-1.173526517342244,-0.7514709154292477
3534744,-2.0798435711720886,-1.1179131987789532
425295,-0.8076454678734126,-0.46133917986014883
2521771,-1.160577669730471,-0.619089097826975
842748,-0.7921078718315866,-0.40545097496963045
526701,-2.13645684883506,-1.1745264764419245
3057627,-2.095046325066302,-1.6729907231533054
3706645,-0.4849964600490898,-0.138690172035826
1634862,-1.2730661374632868,-0.8926737737047685
1894958,-0.580851574503035,-0.2004592107445169
1908469,-0.8724071510743716,-0.45035154916137526
3686387,-2.824266873080324,-1.862336500687189
575901,-1.8598554332475405,-1.5135491452342766
2671713,-0.8013569233178608,-0.3793013214048645
471328,-1.3614408179905746,-0.9393852160775783
1220884,-0.9717608195524785,-0.5497052176394821
480705,-2.5919535021473106,-1.6300231297541752
852002,-2.0885991821586747,-1.126668809765539
2692092,-0.9995253715289938,-0.5774697696159974
358512,-1.4721516410717541,-0.5102212686786187
3145346,-1.1671061535965446,-0.7867137898380265
3217178,-0.9238173852893073,-0.501761783376311
440470,-1.0262039613672047,-0.6458115976086867
2393326,-1.4169294432164246,-0.9948738413034283
2927484,-1.1942997092182501,-0.772244107305254
2968267,-1.7094689400329672,-1.287413338119971
3056476,-0.9641710582015456,-0.5837786944430274
896103,-0.8104720463958974,-0.4925882085156787
2022676,-0.9561778421169257,-0.5341222402039294
3109230,-0.8738179979772633,-0.451762396064267
2574097,-1.410860946185296,-0.9888053442722996
1099900,-2.1308928708086476,-1.7088372688956512
1856268,-0.7458200382251703,-0.323764436312174
1648255,-0.8527936944218482,-0.4307380925088518
421825,-3.0737239327121664,-2.111793560319031
3505009,-0.8090845581978348,-0.3870289562848384
1817550,-1.7038678008652977,-1.2818121989523013
3759449,-1.0758959018543521,-0.653840299941356
1081801,-1.7250282742820833,-1.3029726723690869
1565570,-0.26418460273525146,0.15787099917774483
3769909,-1.6025410195460432,-1.180485417633047
934409,-1.7012121286405302,-0.7392817562473947
1777746,-0.37402389212430065,0.04803170978869564
3288179,-1.6782904884479222,-1.2040885461870474
225645,-1.4038959162037339,-1.0235035524452156
2794867,-1.0348128210633172,-0.6127572191503209
3347850,-2.293493704699427,-1.3315633323062914
1435218,-1.5103974741717043,-1.0883418722587082
3173382,-2.489233849161782,-1.5273034767686462
800624,-0.33427672935852204,0.04611563439999611
2432944,-1.388153471510346,-0.9660978695973497
3425395,-2.7019305318357225,-1.7400001594425871
2617415,-0.9368546980880591,-0.556462334329541
268569,-2.399005120621088,-1.437074748227953
3428848,-1.5499676396958744,-1.127912037782878
3771512,-0.4041515264593041,0.017904075453692214
1410391,-1.8892494226277954,-0.9273190502346599
1504482,-0.4508372736904799,-0.028781671777483586
2853139,-2.729758668540201,-1.9689691497786794
2874721,-1.646270892432789,-1.2242152905197927
2936992,-0.5841873900095846,-0.16213178809658835
1555073,-1.3497825875299139,-0.9277269856169175
3294402,-0.9153586143359042,-0.49330301242290786
1792940,-0.751477609455426,-0.3294220075424297
1038303,-1.2903582187239753,-0.7488696468204792
1997090,-0.8771130580839024,-0.45505745617090615
1758083,-1.4212512613983104,-0.9991956594853141
1429146,-1.4688233571187281,-1.0467677552057317
2561985,-1.0776745332377617,-0.6972821694792436
2742827,-0.21961748080053567,0.12668880721272813
3435068,-1.740512260986069,-0.7785818885929336
3752458,-1.3048596534035852,-0.8828040514905888
234357,-1.556991816515273,-1.210685528502009
1000742,-1.5366563449990966,-1.1146007430861005
3079158,-1.2544965258647063,-0.8741041621061882
2597816,-0.6880164167138286,-0.3076240529553105
3003999,-1.2705200604077458,-0.8901276966492276
2677953,-0.8982970236014354,-0.4762414216884391
528145,-1.8523641089249439,-0.8904337365318084
2856459,-1.91448693249404,-1.1536974137325184
3733119,-2.5836637425091036,-1.6217333701159682
3706361,-0.6575282737107537,-0.2771359099522356
1840567,-1.2640290234537477,-0.8419734215407514
1202097,-1.3399005841341827,-0.9178449822211864
2909755,-1.8026847582999612,-1.380629156386965
1355692,-1.4636301802970615,-1.0832378165385432
2566669,-1.5359134273084498,-0.7751239085469284
1482526,-2.4142623231981366,-1.99220672128514
1016527,-0.8222950716438622,-0.4002394697308658
2746484,-2.0829574557887343,-1.7025650920302158
988335,-1.8421347514177588,-1.4617423876592408
1367112,-2.835835664293173,-1.8739052919000376
1115122,-1.6111606205029922,-1.1891050185899958
265661,-1.6937915496466092,-1.3474852616333455
871189,-1.076546356566832,-0.6544907546538359
3384887,-1.5024522185638185,-1.080396616650822
3279957,-1.6101344046643833,-1.1359324624035085
1005280,-1.171057730631294,-0.7906653668727757
3077293,-1.3980916090085607,-0.9760360070955643
3940264,-0.8476069283630548,-0.5615076305781062
1683697,-0.7980458324271194,-0.4624363499975761
2662021,-1.3182377178768692,-0.8961821159638729
486996,-1.6705074867010192,-1.248451884788023
1936142,-1.2812998077432478,-1.0148173297990573
630617,-1.8192663227290695,-1.4729600347158058
484695,-2.65246425943481,-1.6905338870416742
2828689,-1.996925272461644,-1.5748696705486476
2865050,-0.7961622394243271,-0.3741066375113307
460154,-1.0691233222653962,-0.7228170342521324
1525876,-1.4953472730547186,-1.0732916711417222
1101941,-2.046654067003441,-1.624598465090445
3466384,-1.2091533692929304,-0.7870977673799341
333946,-1.8611808174045907,-0.8992504450114553
3660793,-1.6471871835744674,-1.2251315816614712
472848,-1.4895966315791798,-1.1092042678206617
3355129,-2.06074030833883,-1.6386847064258336
1314545,-0.7375866698883877,-0.31553106797539143
3308797,-0.7105267313992523,-0.288471129486256
1761318,-0.37633947213980823,-0.030033184126544432
646349,-2.583857531231438,-1.6219271588383026
2199877,-1.2021474912956565,-0.7800918893826602
2228319,-1.329180050128863,-0.9071244482158668
1277825,-0.9650188308693586,-0.5429632289563622
1079595,-1.0383676393799748,-0.6163120374669785
1124384,-2.138825523639095,-1.7167699217260988
2425992,-0.9273858981876496,-0.5053302962746533
3264723,-2.544572879891431,-2.0030843079879346
1639544,-1.3743411849891867,-0.9522855830761904
1362934,-2.043532093306703,-1.6972258052934395
345582,-1.273812608744168,-0.927506320730904
2775157,-1.5920926414360057,-1.1700370395230093
263912,-1.4516049333178587,-1.0295493314048623
2615135,-1.5521322699819282,-1.130076668068932
434937,-1.1953371373547648,-0.849030849341501
3666496,-2.569562901984393,-1.6076325295912577
692333,-1.9836045205313597,-1.0216741481382243
2418155,-1.872140175030574,-1.491747811272056
1524501,-1.2982192958763379,-0.8761636939633416
3771347,-1.422261525687011,-1.0002059237740146
1837753,-1.454554218586597,-1.0324986166736008
274666,-1.4558519044712612,-1.1095456164579975
3168480,-2.6302266077873124,-1.6682962353941768
2040628,-0.9439631540043735,-0.5635707902458553
262059,-0.6799635144173845,-0.33365722640412065
1539449,-1.8170493237253291,-1.3949937218123327
3677215,-1.3764742352979593,-0.9544186333849629
3948852,-1.2563946514143198,-0.9207851689847766
953587,-1.6714275037442312,-1.249371901831235
1259171,-0.9522508028654597,-0.5718584391069416
3205821,-2.737080260021838,-1.7751498876287026
1261326,-1.7159556707054766,-1.2939000687924804
3521983,-0.5781375879501461,-0.197745224191628
1149424,-1.4849156743507999,-1.0628600724378034
2473132,-1.192020154712299,-0.7699645527993026
589060,-2.3538779373697434,-1.3919475649766082
3898581,-0.6969253950177239,-0.3165330312592057
2751095,-0.7252305777958634,-0.3031749758828671
1017951,-1.0248462726022918,-0.6444539088437736
3336140,-0.7462801563403954,-0.32422455442739906
3504336,-1.8925510579050293,-1.4704954559920331
3729810,-2.062544701590855,-1.10061432919772
3726138,-1.5045776872297836,-1.0825220853167872
3953742,-0.9263620954554178,-0.5043064935424215
2016322,-1.4554233472730536,-1.0333677453600572
465030,-0.717739855173051,-0.39985601729283227
236223,-1.4705589308529998,-1.0901665670944816
3337352,-1.5777067752837843,-0.6157764028906489
1454991,-1.346279577395812,-0.965887213637294
3206605,-2.2018700755136846,-1.2399397031205492
486361,-1.1046041935866662,-0.6825485916736698
1088446,-0.39574299403073154,-0.049436706017467746
2025677,-2.2563279175765483,-1.2943975451834129
1613031,-1.36581631672339,-0.985423952964872
264363,-1.79206689666744,-1.3700112947544438
3394656,-0.8716969999422479,-0.4496413980292517
497397,-1.497000887328308,-1.0227989450674333
600573,-2.4900620937309608,-1.5281317213378254
2999989,-0.8706598904885935,-0.49026752673007534
591902,-1.0433002818538013,-0.7254164439735826
3951064,-1.8311401007927333,-1.409084498879737
3266422,-2.578297098519751,-1.616366726126616
3536204,-1.0196089053290498,-0.5975533034160536
2682812,-1.80322354594678,-1.3811679440337836
3877474,-0.8219641502144205,-0.44157178645590234
1612932,-0.7009699511879667,-0.2789143492749704
3136871,-2.0989143634400325,-1.1369839910468968
3399538,-2.3550200669371253,-1.3930896945439897
3516776,-0.8024868903759294,-0.38043128846293306
1807658,-1.017346810940695,-0.6369544471821766
2577499,-0.8728183952851231,-0.45076279337212677
3678636,-1.4957073774561436,-1.0736517755431472
272075,-1.9893762842809302,-1.0274459118877948
888094,-1.7223745593787987,-1.3003189574658023
2814204,-1.0484566283270285,-0.6680642645685102
3220628,-0.7956820519883445,-0.44937576397508067
3848198,-0.4001095334145319,-0.08222569553431325
3679295,-1.1894796128114837,-0.7674240108984874
2237204,-1.3631502023651438,-0.9827578386066256
640510,-0.7126868967440025,-0.36638060873073874
2400805,-2.689582944566048,-1.7276525721729128
3744561,-0.9069613083819289,-0.4849057064689326
579853,-2.28455506617099,-1.3226246937778545
3128230,-2.2252680046519084,-1.263337632258773
3043835,-1.1776892365072291,-0.7556336345942328
1214442,-0.7558614569198872,-0.33380585500689086
2044224,-1.886142245634177,-1.4640866437211806
942221,-1.2241303258975222,-0.843737962139004
3525421,-1.4796781810566744,-1.057622579143678
3526278,-1.3112809034403654,-0.8892253015273691
1539538,-0.9882524735897381,-0.5661968716767418
808347,-1.7672550986302258,-1.3868627348717077
518026,-1.8597598139014613,-1.437704211988465
1707113,-1.3346377683828887,-0.9990282859533455
579289,-1.0628324809797234,-0.7449486430995047
337217,-1.2599304463386505,-0.8378748444256541
2255487,-1.2546047536421605,-0.8325491517291641
3859879,-1.5461347695741048,-1.1657424058155867
482645,-3.1646395375659373,-2.2027091651728017
704730,-2.1635766493586144,-1.741521047445618
1361730,-0.08284339179083755,0.2975489719676806
1266686,-2.843572843967438,-2.127905078618345
1334267,-2.457432951779992,-1.4955025793868566
1037123,-1.730618451094331,-1.3085628491813346
1483803,-1.5156435593295408,-1.0935879574165446
3319235,-3.2807427737942745,-2.318812401401139
3482087,-1.9158718297673323,-1.4416698875064575
1067794,-1.5184575206093784,-1.0442555783485035
3538487,-1.3420037920688905,-0.9199481901558942
3656685,-0.9919692970434,-0.6456630090301362
1264163,-1.2415415933210499,-0.8194859914080536
624985,-2.9831204202236816,-2.0211900478305465
727979,-2.6958822113118974,-1.733951838918762
2267195,-1.4973451603507477,-1.0752895584377513
1006999,-1.8402194475164122,-1.418163845603416
931008,-0.5234628369187639,-0.10140723500576765
3755729,-1.3803582724875856,-0.9583026705745893
2277603,-0.7358630887224207,-0.3138074868094244
458014,-2.252099320397595,-1.2901689480044594
1170120,-1.405602214383987,-1.025209850625469
2830102,-1.6657295615270353,-1.2436739596140391
2874013,-1.7360317868121176,-1.3556394230535993
1245784,-1.0175913179265614,-0.5955357160135651
1139805,-1.07578304074663,-0.6537274388336336
3341321,-1.5124009847302808,-0.9709124128267848
2017154,-1.2268825516197805,-0.8048269497067843
658761,-0.4858821220538384,-0.1395758340405746
2571574,-2.3528918361416147,-2.102647596370569
3081847,-0.9288919887537,-0.5068363868407038
3168335,-1.094509948334267,-0.6724543464212707
983886,-1.0939098372606129,-0.7135174735020946
3853339,-1.5774651088274887,-1.1554095069144923
1945690,-1.5210032030634544,-1.1853937206339111
1371934,-1.8107670428339109,-1.464460754820647
1373872,-1.487132423458792,-1.0650768215457955
326023,-1.9001861530511188,-0.9382557806579834
1983285,-1.379479990941296,-1.0438705085117528
670113,-1.6169956252373492,-0.6550652528442137
2137458,-0.8450964611047582,-0.4230408591917619
2782029,-0.6975641306376724,-0.3512578426244086
1428310,-1.0407011737721,-0.6186455718591036
2427627,-2.9258207743788867,-1.9638904019857513
2938693,-0.31150655211500744,0.034799735898256356
3426429,-0.9322987156066982,-0.4580967733458235
488545,-1.4721107777673685,-1.0500551758543721
583030,-1.3395219637299574,-0.9174663618169611
2675546,-0.8861803640852686,-0.5057880003267505
2434705,-1.1555080044982968,-0.7334524025853005
626467,-1.6731970263921803,-1.251141424479184
2614463,-1.160102557510332,-0.7380469555973358
3721599,-2.8763687503954283,-1.9144383780022927
3189439,-2.164904904658456,-1.2029745322653205
2685554,-1.1333353814340805,-0.5918468095305843
1771150,-1.9643691169926494,-1.4228805450891535
1969730,-0.7679782672768236,-0.40048264644105636
3799453,-1.1498457967479754,-0.6756438544871006
359836,-2.440870109433381,-1.4789397370402453
206344,-1.5353939721570868,-1.1890876841438232
2738958,-2.8003449848244966,-1.838414612431361
960144,-1.7832832685013877,-1.3090813262405132
3957409,-0.5207217750771326,-0.09866617316413628
2841294,-0.798498776846285,-0.37644317493328877
3729754,-1.8822540284697191,-1.4601984265567227
2013032,-1.2427483962782946,-0.8206927943652982
3737953,-1.030221147756479,-0.649828783997961
3784517,-0.75033602170539,-0.32828041979239375
1004214,-1.637470399188005,-0.6755400267948697
2874114,-1.2350491236305823,-0.8129935217175859
3889044,-1.3461255397638023,-0.8046369678603063
1723390,-1.248042727667263,-0.9017364396539993
203561,-1.9403333925409048,-1.5182777906279084
1244800,-1.6021595995828168,-1.1801039976698204
2991149,-0.44046295921621403,-0.018407357303217742
867679,-1.0877161322208624,-0.6656605303078661
1624119,-1.221563491039492,-0.8411711272809738
1427574,-1.2463788160107494,-0.8243232140977532
553028,-1.6038130217496414,-1.1817574198366452
2156250,-1.8997357740212664,-1.4776801721082702
3167967,-2.392582618556935,-1.4306522461637994
1292460,-1.9092899894280646,-1.4872343875150684
3535025,-1.5925200605130088,-1.2462137724997449
3932574,-0.8431928890361378,-0.5075834066065945
3718078,-1.2456807646015053,-0.823625162688509
2513180,-0.723733569468003,-0.30167796755500675
2548480,-1.8797183206144505,-1.4576627187014544
2660979,-1.0227189190818644,-0.6423265553233463
2932774,-1.4428850655145609,-1.0208294636015645
1058720,-0.6686945665693586,-0.24663896465636226
2808412,-1.1285434673933696,-0.782237179380106
627662,-1.0753310757574306,-0.7290247877441668
1434085,-2.098550954986327,-1.6764953530733306
732619,-1.1251345418499508,-0.7030789399369545
1245222,-1.413446327660873,-0.9913907257478767
218597,-1.1225100861336448,-0.7421177223751266
2665867,-1.5180614004080255,-1.1717551123947616
1317328,-1.3840559268978896,-1.0036635631393713
454777,-1.9888604955989484,-1.5146585533380736
980151,-1.9101375683515305,-1.4880819664385343
217028,-1.493106569489946,-1.0710509675769497
1484533,-1.1940614670396694,-0.772005865126673
2667803,-0.9943155685469793,-0.5722599666339829
3500221,-1.651523176476616,-1.2294675745636197
3132817,-1.4143499304022804,-0.9922943284892842
1346765,-1.4518773228830644,-1.0298217209700682
1156448,-1.0315705754949462,-0.6852642874816823
1079733,-1.7851053542642008,-1.3630497523512044
1783159,-1.5347581256066962,-1.1543657618481782
1462762,-0.9896471334986784,-0.5675915315856821
945376,-0.48436424759380114,-0.103971883835283
1744999,-1.0448843666094618,-0.5033957947059657
615695,-1.6652610723969745,-1.1910591301360998
1391169,-1.555054318349745,-1.1329987164367485
3284427,-1.2167941436977223,-0.7947385417847259
3007225,-1.9590695516895378,-1.4175809797860417
3908516,-0.9880771476988387,-0.6076847839403205
308102,-2.6657281233729675,-1.7037977509798319
1146238,-1.2043867936320576,-0.886502955751839
2038756,-1.092249957353368,-0.6701943554403715
1199214,-1.0232092409143765,-0.6428168771558584
700770,-2.3856696707279754,-1.4237392983348403
1754930,-1.4722770940857692,-1.050221492172773
2568026,-1.4340719443738388,-1.0120163424608426
1944940,0.33444072980825923,0.6205400275932079
512888,-1.9303674179859827,-0.9684370455928472
3424690,-1.0699075026787395,-0.6478519007657431
3047319,-1.3636625836256828,-0.9416069817126865
2836225,-0.5884827027612753,0.1723068160002461
1733902,-1.6687599757785485,-1.3224536877652846
1890826,-1.724434564899946,-1.344042201141428
2438741,-3.0011889169524073,-2.0392585445592717
234588,-2.730956573230356,-1.7690262008372204
1164793,-1.1572208853684847,-0.7768285216099664
2046984,-1.8956210499545532,-1.473565448041557
2754163,-1.0218479176215407,-0.5997923157085445
1135437,-0.3078056873936902,0.03850060061957361
1421545,-1.2039333685663547,-0.7818777666533584
575259,-2.4327137925209206,-1.4707834201277854
2240032,-1.1711820723118078,-0.8355725898822646
1099665,-1.8057132386692685,-1.2642246667657724
3106625,-0.9956278246026647,-0.6152354608441466
2440984,-1.6972697546524673,-1.1557811827489712
3119872,-1.184137410930217,-0.7099354686693421
2457658,-1.4461788286375776,-1.0241232267245812
3351134,-2.3613701689879525,-1.3994397965948169
1467912,-1.0074912165026486,-0.5854356145896522
1266473,-2.7514098301843473,-1.7894794577912116
702994,-2.281429039248093,-1.3194986668549575
970199,-1.371063674540453,-0.9906713107819349
3101175,-1.2505295607259783,-0.9149200782964351
3384659,-2.374030731737747,-1.4121003593446118
3841292,-1.4531165687546928,-1.106810280741429
1822915,-0.7857104733224387,-0.36365487140944236
262511,-1.076445904442609,-0.6543903025296127
3876062,-1.20556569764736,-0.8876818597671415
3149992,-1.8392677519625944,-0.877337379569459
1404373,-1.1960623581616596,-0.7740067562486632
2246402,-1.32647836010051,-0.9044227581875137
1731201,-1.520775184040523,-0.979286612137027
362483,-2.9913904540809817,-2.029460081687846
3025743,-2.090110710439596,-1.6680551085266
2907517,-0.45374637911129445,-0.0733540153527763
1936874,-1.7263822390195593,-1.390772756590016
3657145,-1.6602481206776507,-1.2381925187646543
3803693,-0.77998737782359,-0.3579317759105937
1318274,-1.5835165839651684,-1.161460982052172
1742798,-0.7013868246437951,-0.3550805366305313
736050,-0.9875792391350708,-0.5655236372220747
255396,-1.648333972216342,-0.6864035998232065
2983399,-1.2621154700961885,-0.8400598681831921
1371187,-1.4940716403890026,-1.0720160384760065
718820,-1.3446717844778806,-0.9226161825648842
2149935,-0.6326874339733612,-0.21063183206036495
1888902,-0.8072075731785187,-0.3851519712655223
1135240,-1.4135295318927121,-1.033137168134194
1413383,-0.9630041214147544,-0.540948519501758
2239052,-1.178496201668948,-0.7564405997559516
3382439,-1.9234616298450091,-1.5014060279320127
3838080,-2.2003559189263604,-1.2384255465332252
2262575,-0.9010904754228977,-0.47903487350990137
1966357,-0.8590567057086835,-0.5234472232791403
3093074,-1.266430744226694,-0.8443751423136978
2489888,-0.7844128157457975,-0.3623572138328011
252860,-2.110020893990542,-1.1480905215974064
1549401,-0.6567722102952143,-0.23471660838221797
1523863,-1.834606938270079,-1.4125513363570825
732385,-2.153572418058417,-1.1916420456652816
2030422,-2.3381992761975967,-1.376268903804461
2561717,-1.1992442341052867,-0.6577556622017906
3777620,-1.986878609250179,-1.5648230073371825
3718131,-1.496622192034633,-0.5346918196414976
480409,-1.7964256434365404,-1.3222237011756657
2863219,-1.0871791526166878,-0.6651235507036914
3089467,-0.877288000666903,-0.45523239875390675
1421613,-0.895665440018995,-0.5152730762604769
2135378,-1.3332569910973517,-0.986950703084088
3802055,-0.906648340309693,-0.48459273839669675
264468,-0.43126556831209384,-0.05087320455357569
2009187,-1.0677749364205804,-0.7214686484073165
3949836,-2.270042079111767,-1.3081117067186319
2888531,-0.6044493439729384,-0.18239374205994208
1536645,-1.3936804213812173,-0.9716248194682211
3418430,-2.4889189494769566,-2.108526585718438
2047943,-1.1732933276918118,-0.7512377257788154
3214994,-1.0311293285026155,-0.6848230404893516
3183942,-1.9056486616431014,-0.943718289249966
1570117,-1.8228782133174821,-1.400822611404486
728308,-1.2313776812682184,-0.8093220793552222
533470,-2.5935484777820967,-1.6316181053889611
1705557,-0.7766660201941785,-0.44105653776463527
1935431,-1.898861524278092,-1.5632520418485487
197505,-2.200861180715694,-1.2389308083225585
3915018,-1.5982766065452463,-1.2178842427867282
958786,-0.8183413611001098,-0.4379489973415917
3422881,-0.8207629239970163,-0.47445663598375254
3116591,-1.859527865873401,-1.3853259236125262
2147756,-1.2415102353196572,-0.7000216634161611
1981973,-1.1540415016892647,-0.5577172463965255
2601909,-1.3780628922233376,-0.9560072903103414
2682901,-0.9067331900158937,-0.48467758810289735
1770405,-1.7555530951655787,-1.2140645232620826
275930,-2.760139088086075,-1.7982087156929398
2848279,-1.7713084122347384,-1.349252810321742
3053380,-1.419480112867963,-0.9974245109549666
1017358,-1.1467796831875818,-0.7247240812745857
1453870,-1.410217716282552,-0.9881621143695557
1500149,-1.4001280683681434,-0.978072466455147
470774,-3.0445227347905988,-2.0825923623974636
3342814,-2.357731096331583,-1.3958007239384473
1548058,-1.735497713757283,-0.9747081949957614
3084614,-0.7856125897721744,-0.36355698785917806
458879,-1.4198917311155936,-0.45796135872245813
2574939,-0.15008409923166321,0.2719715026813331
1772565,-1.420500614307984,-0.9984450123949877
228787,-1.7420543516051945,-1.3199987496921983
529256,-0.9753732503931998,-0.013442878000064384
207507,-0.6324412984087066,-0.2520489346501884
3919391,-0.7170347407366584,-0.3707284527233946
3146174,-1.322539018536007,-0.9004834166230108
404073,-2.7262412316034843,-1.764310859210349
2255826,-0.8987508954701233,-0.476695293557127
1816374,-1.9093883008194363,-1.528995937060918
3461704,-0.4031785876365168,0.018877014276479476
814686,-0.7102147321816012,-0.3224455692874847
3754605,-1.8372531196806252,-0.8753227472874898
3717224,-2.115109371747863,-1.6930537698348669
3885843,-1.2755818744369294,-0.8951895106784112
1871778,-0.7756210988710734,-0.3535654969580771
497032,-1.8873308660378125,-0.9254004936446771
503864,-1.359306958694937,-0.8851050164340621
1607826,-0.7760972385121214,-0.3957048747536033
981007,-1.2717873678385712,-0.8913950040800531
1439237,-1.7750566376021042,-1.3530010356891078
1627767,-0.7849104445682644,-0.4045180808097462
893056,-1.3985126068253295,-0.9764570049123332
503935,-2.296593065434568,-1.874537463521572
2560890,-1.6718874993519686,-1.2498318974389724
2061171,-1.4061088032586913,-0.9840532013456949
670595,-1.2774492912666378,-0.8553936893536416
2910675,-1.3531155768390752,-0.931059974926079
259291,-1.9585529716408583,-1.5364973697278619
3924779,-0.8734297911603788,-0.4930374274018606
3933393,-1.7898864050217538,-1.315684462760879
2562778,-1.5179483194421763,-1.137555955683658
1617255,-2.2562136324646365,-1.8341580305516403
2711395,-1.1136135741460826,-0.6915579722330862
3052605,-1.3199452858009477,-0.8978896838879515
1956536,-0.9766838530116408,-0.6410743705820976
524164,-1.755719159358315,-1.2142305874548187
1940286,-0.0770783807263079,0.25853110170323534
3803161,-0.7419111322950911,-0.36151876853657294
2704891,-1.1245148514327707,-0.7441224876742525
1555629,-1.1252825464650442,-0.7032269445520478
3390107,-1.6782183215321949,-0.7162879491390595
362591,-0.942660855930203,-0.562268492171685
2907823,-1.5329273727243073,-1.110871770811311
2478472,-1.1114757679696843,-0.689420166056688
3913178,-0.9523361000607493,-0.5302804981477531
1483201,-2.0187033498809726,-1.5966477479679764
2487814,-1.0876018742439608,-0.6655462723309645
1117531,-1.0999866203154522,-0.6779310184024558
1192299,-0.7649783761687176,-0.34292277425572126
503319,-0.488707093122295,-0.10831472936377684
2039990,-1.1579281524624383,-0.7358725505494419
3251047,-2.3912770678370983,-1.4293466954439629
3658366,-0.9687770611008695,-0.5883846973423514
256310,-1.0322349030910394,-0.6518425393325211
2509884,-1.582929608137915,-1.1608740062249185
3152000,-1.7333963948185944,-1.1919078229150983
314894,-2.029616470933116,-1.0676860985399803
2699582,-2.1949884598002614,-1.2330580874071257
688234,-1.32146517183016,-0.8994095699171637
740846,-2.504962613158415,-1.5430322407652795
1274246,-1.2327373862832889,-0.8106817843702926
1294141,-3.075074622569254,-2.113144250176118
980707,-0.6594102017047976,-0.2790178379462794
1240809,-1.5318972019165717,-1.1098416000035756
3410400,-1.9298590522224757,-1.5078034503094795
666699,-2.2530124072528612,-1.2910820348597258
759839,-2.1898611830168058,-1.7678055811038096
2467323,-0.35970478643036574,-0.013398498417101945
1894369,-1.3050523239337783,-0.8829967220207819
3163001,-1.4067468270278143,-0.4448164546346789
2582095,-0.8962864794426475,-0.4742308775296512
1759791,-1.4417366184405165,-1.0954303304272526
2947993,-0.9237345122229308,-0.5016789103099346
2660452,-1.7940514365254128,-1.3719958346124166
2724251,-1.3024824968028486,-0.9845986589226298
2172308,-1.0393413275922674,-0.6172857256792712
1017967,-1.5804264289069607,-1.0389378570034646
3856737,-0.6990864133821657,-0.2770308114691694
3266782,-2.4778419548148856,-1.51591158242175
2024573,-1.5548409143695832,-1.132785312456587
3850361,-1.9418869663057516,-1.4003983944022556
2145995,-1.119428206780817,-0.6973726048678208
432206,-2.0279298274793023,-1.0659994550861671
3864379,-1.1121991193113965,-0.7658928312981326
3781154,-1.5260328788345432,-1.1039772769215468
3659741,-1.5790894721193727,-1.1570338702063765
3514082,-1.07140130327948,-0.6493457013664837
1742643,-1.1592430871726065,-0.7371874852596101
1314884,-0.6791350350748979,-0.2987426713163798
1746229,-1.3196830827020922,-0.9733767946888283
1841269,-1.5597575096524454,-1.1377019077394492
429751,-1.1428372273355905,-0.7624448635770722
236585,-2.0861964936798643,-1.3254069749183428
3548526,-1.0210865617886906,-0.6747802737754269
1260565,-0.5649814619921016,-0.1845890982335835
3186198,-1.7494647980616886,-1.2752628558008139
3428358,-0.7944366006318425,-0.3723809987188462
2671110,-0.9228500476438741,-0.500794445730878
3757320,-1.0081290690815805,-0.5860734671685843
343601,-1.539280964937446,-1.0650790226765712
2473528,-1.383363516258629,-0.9613079143456327
1063435,-0.8243235571322326,-0.44393119337371445
3460778,-0.9047666929088733,-0.5584604048956094
1284476,-1.8012661766719344,-1.379210574758938
2538121,-1.723744893804995,-1.3016892918919987
2823765,-1.014916116490137,-0.5928605145771407
2772472,-2.4238222289679325,-1.4618918565747971
3508975,-1.224177336327506,-0.8021217344145096
1002634,-1.980855069331299,-1.3489228745753614
879184,-1.274981743504411,-0.8945893797458929
308040,-1.7577158779774784,-0.7957855055843429
842584,-0.6423425561224679,-0.2619501923639498
2004188,-0.9605354155842676,-0.5384798136712712
2941465,-0.7561566085541889,-0.3757642447956707
2177297,-1.6729261300823821,-1.250870528169386
439945,-1.04701250448804,-0.5728105622271653
664632,-0.6139540427004077,-0.19189844078741136
3379040,-2.7971785711138804,-1.8352481987207447
2165567,-1.2867914295164493,-0.8647358276034531
429920,-1.8550585855820927,-1.5087522975688288
619160,-1.4181998825618467,-0.9961442806488504
1440082,-2.108355757872741,-1.6863001559597448
1546679,-0.9314106884093584,-0.5093550864963621
3324475,-1.7651186579095526,-1.2909167156486778
2060951,-1.6088810914881937,-1.2284887277296754
2146697,-0.934902829521076,-0.5128472276080798
1896324,-1.1866087201613362,-0.8062163564028182
524662,-2.2745159060787237,-1.3125855336855883
3009344,-1.2516849797511371,-0.871292615992619
421419,-0.6097959378554865,-0.18774033594249018
2265558,-0.7056682177104312,-0.3593619296971674
2689477,-0.8818186631822263,-0.45976306126923006
2123630,-1.5364354084796987,-1.1143798065667023
1647050,-1.2668511122249417,-0.8447955103119453
2270316,-0.9440057625365942,-0.46980382027571943
555111,-1.3784948773961505,-0.9564392754831542
2551470,-2.6798173868947637,-1.2570431394135098
830378,-1.8248512714180982,-1.44445890765958
1021779,-1.761189637414437,-1.1292574426584994
3129219,-0.6160600066399764,-0.1940044047269801
686708,-1.4676038173206738,-0.5056734449275385
3250059,-1.8936212007986308,-0.9316908284054954
3207325,-2.9623305881612807,-2.0004002157681455
2896787,-0.4530784064077069,-0.03102280449471062
1670274,-1.7467752678332422,-1.411165785403699
1775425,-0.7497006596948145,-0.3276450577818182
3488440,-0.1584610930740229,0.2635945088389734
2745259,-1.4605597662384369,-1.0385041643254405
2444203,-0.6713616983069509,-0.29096933454843277
1940023,-1.2711682851364603,-0.935558802706917
1504334,-1.3410492569665007,-0.9189936550535044
2187232,-1.201462380359601,-0.7794067784466047
2521000,-1.3294200741181246,-0.9073644722051283
638124,-2.8963087658932083,-1.934378393500073
2904837,-1.7275692724247989,-1.3055136705118024
1635540,-0.7612985722514451,-0.33924297033844886
2183493,-1.5327835854376943,-1.110727983524698
690967,-0.6813256480774138,-0.2592700461644175
2754684,-1.587846410189825,-0.6259160377966897
508973,-0.630582335729873,-0.28427604771660925
1910037,-1.06724481435645,-0.6451892124434537
684483,-2.567390481892943,-1.6054601094998078
2516281,-1.5426678880413236,-1.1206122861283274
3326691,-1.0830850119796285,-0.7026926482211104
1815545,-0.7076065831775901,-0.2855509812645938
743858,-1.6567253220925118,-1.2346697201795154
3745687,-1.294868329322668,-0.8728127274096716
2471957,-2.471002260318629,-1.7102127415571076
1663456,-1.288233991250364,-0.9526245088208207
1285974,-1.337292910287969,-0.9152373083749727
3502961,-1.1764967482668736,-0.7544411463538774
3890063,-1.2389224485984474,-0.7647205063375726
287522,-1.7103020558188784,-1.2882464539058822
578210,-2.076073623342884,-1.1141432509497489
3206722,-1.1562858472099675,-0.6147972753064714
1830304,-1.723807917150665,-1.3017523152376687
630929,-2.6975344935437406,-1.7356041211506053
243083,-1.1228052887935636,-0.7007496868805672
2262156,-1.3073301222016462,-0.8852745202886498
1201668,-0.9671705859438615,-0.5451149840308651
1436419,-2.7037766891458905,-1.7418463167527554
2892632,-1.4897150338864789,-1.0676594319734825
1123785,-1.9137708376386358,-1.4917152357256396
1031103,-1.3635760566267612,-0.983183692868243
271863,-2.5931791550882792,-1.631248782695144
2661558,-1.2450108804179716,-0.8229552785049754
3303700,-1.4058894568114852,-0.9838338548984888
914149,-2.0913614728316445,-1.6693058709186483
1322824,-1.132740526039378,-0.7106849241263815
1289103,-1.5838287584754203,-1.2034363947169022
2978787,-1.2101292554815697,-0.8297368917230515
2531555,-1.4387028855619355,-1.0166472836489393
2171708,-0.6386243565668458,-0.2165687546538495
829890,-1.6059231149499025,-1.0644345430464064
1731662,-0.5178948235585182,-0.09583922164552194
2427570,-1.7755083002762708,-0.8135779278831354
2474313,-1.4012954017842043,-1.020903038025686
3777606,-1.071682767068063,-0.7253764790547993
1770071,-1.9929513363511995,-1.5708957344382033
249936,-2.2557331663558244,-1.2938027939626888
1718767,-1.1248815537610801,-0.8387822559761314
367276,-2.4137149701478706,-1.451784597754735
1582875,-1.2889790076760017,-0.8669234057630054
837689,-1.1666631617642043,-0.7446075598512079
468488,-1.0561070056737352,-0.6340514037607388
2944424,-0.8887127740074907,-0.4666571720944945
665472,-0.9791019809492382,-0.6690274073555968
3787658,-1.3209186645027264,-0.8988630625897301
2472752,-1.42449261110908,-1.002437009196084
3283491,-1.0947341809776796,-0.6726785790646834
1879594,-1.5182479168692753,-1.0961923149562791
2210378,-2.213685379991257,-1.2517550075981216
2459067,-2.697932245437963,-1.736001873044828
457603,-1.5823231142791254,-1.2644392763989067
2062289,-2.1969662750437635,-1.2350359026506281
3374834,-1.1309729626538227,-0.7505805988953046
413311,-2.3279108755214297,-1.3659805031282943
2052181,-0.06342182410842034,0.3169705396500978
2639081,-0.35846645964200197,0.06358914227099433
201233,-0.356645660549447,0.06540994136354927
2505272,-1.8083878517565848,-1.3863322498435884
3168346,-0.17952084157838688,0.16678544643487692
3727793,-1.3536952629445824,-0.9316396610315861
3011748,-0.9832287303853768,-0.5611731284723807
1728270,-0.9203989660170224,-0.4983433641040261
2701845,-1.1330996744121167,-0.815215836531898
3732378,-1.742518272129569,-0.7805878997364335
1098696,-0.731789826371259,-0.3513974626127408
1587535,-1.8597937470554273,-1.2278615522994898
2479761,-1.162347253497583,-0.7402916515845867
209348,-1.4798614723244696,-1.1335551843112057
3787180,-1.8073304081608144,-1.385274806247818
374492,-1.7990679571969694,-1.2575793852934734
1210768,-1.075552820130985,-0.6951604563724667
3078434,-1.5347780057199985,-1.112722403807002
2944602,-1.0796430712458347,-0.6575874693328384
2004608,-1.6165422101673421,-1.194486608254346
3243303,-2.397330592425897,-1.4354002200327616
3360900,-1.202194872836089,-0.8218025090775707
1464939,-1.9501122487609106,-1.5280566468479142
1150563,-1.5973200679153758,-1.1752644660023797
1899316,-0.9366883995996365,-0.51463279768664
3684265,-1.2455300981030781,-0.8234744961900817
1325057,-0.9870026282589628,-0.6066102645004448
214826,-2.0708164789942014,-1.108886106601066
3355484,0.10194991854368318,0.5240055204566795
719263,-1.7107279316903827,-1.3303355679318645
393070,-1.9706895098265784,-1.5486339079135822
1051335,-0.5815119654728439,-0.1594563635598476
3773753,-1.1647454788140077,-0.7843531150554895
3529570,-0.6087815150118883,-0.18672591309889197
2786429,-1.5600347795757379,-1.1379791776627415
2200690,-1.5280189569714757,-1.1059633550584795
1840974,-1.1393209168787377,-0.7172653149657414
602016,-1.881686556936398,-1.459630955023402
635639,-0.764694823171161,-0.4183885351578972
1630137,-1.9195161430038765,-1.5391237792453585
1548538,-2.718612317711763,-2.2965567157987667
700157,-1.768437012600404,-1.3463814106874077
1430293,-1.4551664168436256,-1.0747740530851075
2877741,-2.703970876944255,-1.9431813581827333
3291795,-1.4251746424617202,-1.003119040548724
1834919,-0.3664907277348137,0.013901636023704422
3332012,-2.356049033310249,-1.3941186609171135
1511764,-2.1040653763714454,-1.7236730126129272
3719406,-0.9266312801493001,-0.5045756782363038
2396867,-1.517206501471239,-1.0430045592103643
2171322,-0.4829997665985114,-0.06094416468551511
2482782,-1.4036679572238597,-1.0232755934653415
2936872,-1.5738516407278544,-1.151796038814858
2801448,-2.4116424166371857,-1.4497120442440503
1673086,-1.1612875633798532,-0.8256780809503098
386623,-2.0548582797462798,-1.5806563374854048
3072469,-1.2389028806634679,-0.8585105169049496
845579,-2.073706702481996,-1.5322181305785
917470,-1.5459695897091024,-1.0044810178056063
2577512,-1.8520890090990687,-1.4300334071860723
458957,-2.271416862153164,-1.3094864897600287
642314,-1.2569955461836388,-0.8349399442706426
3849638,-2.447432010696013,-1.4855016383028774
2401935,-1.1087986888061399,-0.6345967465452651
2711888,-0.5536567902696092,-0.20735050225634544
3885551,-1.0259568279797038,-0.4844682560762077
1571670,-1.6291126156556524,-1.2070570137426562
2178374,-1.3294177127126696,-0.9073621107996732
822235,-0.26468372650009653,0.12308543639402003
1453695,-1.1528540011541106,-0.7307983992411143
1105408,-1.2555447009519602,-0.8334890990389641
3076911,-1.5077695470817774,-1.085713945168781
3869956,-0.8032826203892378,-0.45697633237597407
1093298,-1.1732376765001957,-0.7928453127416775
946561,-0.8382476868151653,-0.4578553230566471
2586749,-1.3640372381115151,-0.9419816361985188
1587248,-1.173410696923905,-0.7513550950109088
720294,-1.1062029652613898,-0.6841473633483937
1682699,-0.5213580272729372,-0.23525872948798854
3299263,-0.7185457162315524,-0.24434377397067764
3355855,-1.8081710881147517,-0.8462407157216162
552861,-2.4298366880312057,-1.4679063156380705
2980721,-1.15755433040573,-0.7771619666472118
3931399,-1.0626453098674165,-0.6822529461088984
556891,-1.7260397385877244,-0.7641093661945889
462718,-2.039947534268954,-1.0780171618758188
2278861,-1.8818025303178318,-1.4597469284048357
1607338,-1.125748939929679,-0.7453565761711608
1753441,-1.3200556208761143,-0.9396632571175961
907540,-1.6392500134471484,-1.2929437254338847
3118630,-2.250273054817285,-1.2883426824241495
999129,-0.6356615472282952,-0.21360594531529886
1034367,-1.0262199947268957,-0.6041643928138994
1625937,-1.5415656204463815,-1.1611732566878632
3451203,-1.6708355279288873,-1.290443164170369
492771,-2.443857684993628,-1.4819273126004926
3686979,-0.8935055866995614,-0.471449984786565
3667923,-1.3799070715067119,-1.0336007834934482
2280578,-0.7270956042855884,-0.3050400023725921
652046,-0.41714102155627575,-0.07083473354301195
2765915,-0.9505146418094839,-0.5284590398964876
3760272,-1.353672529067255,-0.9316169271542589
715731,-1.2217020634788254,-0.799646461565829
1934155,-1.199587096607804,-0.8907231515002831
3440473,-2.4946567706814657,-1.5327263982883303
3417554,-0.9401371685136874,-0.5180815666006912
3707878,-1.4447292636918874,-1.022673661778891
2279735,-1.8512268511221674,-1.5156173686926242
3875936,-0.9713495801854092,-0.4971476379245344
1470413,-3.1524602172114866,-2.1905298448183514
1632699,-1.7676547320058607,-1.3455991300928645
1062392,-1.3358009200657641,-0.8615989778048894
2435868,-1.3179913933622143,-0.895935791449218
2639004,-1.2512102552259234,-0.8291546533129271
3444072,-2.4396419955253705,-1.477711623132235
3001465,-1.0058231000689446,-0.5837674981559484
883573,-1.5444501304465126,-1.1223945285335162
3311482,-1.5833552631026366,-1.1612996611896402
833433,-0.2633615208237745,0.15869408108922178
814485,-1.0182994545465844,-0.5962438526335883
1262489,-1.2893682462864444,-0.8673126443734481
3707454,-1.6032475793605596,-1.1811919774475632
1241064,-1.6998450920419288,-1.2777894901289324
3126250,-1.2779929082490364,-0.8559373063360403
522716,-1.3162702638858257,-0.8942146619728294
2132156,-1.5402893170684195,-1.1182337151554231
718549,-1.263995060047682,-0.8419394581346855
1146580,-0.5929896086985111,-0.212597244939993
1356291,-1.7984676431574935,-1.3764120412444973
1638306,-1.030743421176489,-0.6086878192634927
939647,-1.8044560757579275,-1.17252388100199
2153198,-3.132936284105136,-2.171005911712
2020617,-2.124621148309387,-1.7025655463963905
1660117,-1.827090101922499,-1.4595944810867318
1400979,-0.4271465605026622,-0.005090958589665906
2413887,-1.5867060432444615,-1.2403997552311976
3438988,-1.5328555823769436,-1.0586536401160689
1718059,-1.0985670946275237,-0.7629576121979805
1766386,-2.2486606357950487,-1.7071720638915524
244382,-2.3054078746146813,-1.3434775022215462
512573,-2.3089482617774366,-1.3470178893843012
1230986,-1.377299554171693,-0.9552439522586967
3064555,-1.8055669980462283,-1.383511396133232
2721381,-0.7472686785033584,-0.32521307659036214
2853146,-0.44542729669197645,-0.0650349329334583
412164,-2.470972849832065,-1.5090424774389293
739295,-1.7283196898274809,-1.3062640879144845
2724305,-1.3020371277276097,-0.8799815258146133
709206,-1.3565056123514458,-0.9344500104384497
3354049,-0.9248080448967432,-0.5785017568834794
451521,-1.7455982506352667,-1.3235426487222703
1542710,-1.803539701090095,-1.3814840991770987
1811757,-1.7045698083365253,-1.2825142064235289
2663658,-1.9233578658630643,-1.501302263950068
361043,-0.19516801686504304,0.15113827114822076
1103925,-1.3436565604967419,-1.0257727226165232
622309,-1.4128748884510511,-0.9908192865380547
1061316,-1.978641135669108,-1.0167107632759727
3703079,-1.1457310532311888,-0.7236754513181926
729324,-0.8601349260993718,-0.4380793241863756
1480970,-1.1357246267241685,-0.7136690248111721
3462875,-0.6256072275450714,-0.20355162563207507
571358,-1.16090447046808,-0.7388488685550837
731366,-1.2294288172937544,-0.8073732153807581
1133111,-1.4576000001157177,-1.0772076363571994
1893235,-1.4406660844841719,-1.0186104825711755
1741464,-1.47025635982973,-1.0482007579167338
805570,-1.1150893763746308,-0.6930337744616345
2972646,-0.8729223560806754,-0.49252999232215716
846221,-2.7544420329351476,-1.993652514173626
2912673,-1.987566358646295,-1.5655107567332986
2227874,-0.9449179948128843,-0.5645256310543662
2443241,-1.3680695357401274,-0.9876771719816092
3065685,-1.6593946080349427,-1.2373390061219462
2467950,-1.5688247502473733,-1.2509409123671547
1547218,-2.854635006556234,-1.8927046341630986
2805161,-1.1781986054110907,-0.7978062416525725
1304637,-1.6732918654301288,-1.2512362635171324
1198777,-1.1210885737685077,-0.6990329718555113
2694648,-0.9067531817319394,-0.4846975798189431
933628,-1.141352232904811,-0.7609598691462929
720564,-2.520138960341674,-1.5582085879485386
912260,-1.3187330340001704,-0.8966774320871742
2483590,-1.3296419763724354,-0.9075863744594392
3368226,-0.9168820561411002,-0.5705757681278364
2258165,-0.6751693122742839,-0.2531137103612876
1422429,-1.4962882341519643,-1.115895870393446
3784094,-1.0709908952136131,-0.690598531455095
3424462,-1.237622986900736,-0.8913166988874723
1064201,-1.2321229092442574,-0.8100673073312612
2701571,-1.0058868048822798,-0.5838312029692836
1852290,-2.3676115978570054,-1.40568122546387
3313089,-1.3122140992901383,-0.8901584973771419
1088294,-0.7277611757932162,-0.3057055738802199
1733224,-1.015645612783896,-0.6352532490253779
1003334,-2.4859029635431242,-1.5239725911499888
3164146,-1.9067724319618093,-1.484716830048813
2998934,-0.8981846136684384,-0.5177922499099202
2911760,-0.3018383458569768,0.12021725605601952
1452058,-1.1259159166514403,-0.7038603147384439
2405376,-1.9081173863508651,-0.9461870139577298
996445,-1.0163757447511819,-0.6359833809926636
2125977,-1.5327312078082889,-1.1106756058952925
316286,-1.4230915745275141,-1.0010359726145177
949801,-1.455809190107307,-1.0754168263487889
1192566,-0.9787990207973669,-0.5567434188843705
3936786,-0.8102437793844259,-0.38818817747142964
2145175,-0.7941816583859405,-0.3721260564729441
2746929,-0.943355400209047,-0.5212997982960507
1626159,-1.5916677388817262,-1.211275375123208
1727556,-2.2319433733068497,-1.8963338908773066
3951139,-1.8384982172838864,-1.077708698522365
876548,-0.7891001634879222,-0.408707799729404
715204,-2.4215461842456945,-1.459615811852559
3387589,-2.680152666073428,-1.7182222936802924
2821557,-0.6470253379136702,-0.22496973600067394
1784113,-0.8431062785610877,-0.49679999054782387
2273245,-0.5434610114968002,-0.163068647738282
