sample_id,y0,y1
752625,-33.51597176410126,-33.18367435327337
826708,-33.590222667255986,-33.2579252564281
2814421,-32.972938950157776,-32.640641539329884
2737910,-32.75500998532984,-32.42271257450195
410900,-32.472407629491805,-32.14011021866392
309429,-33.82279460452886,-33.49049719370097
3720240,-32.32060256763345,-31.988305156805563
2549172,-33.28644546517783,-32.95414805434993
1053245,-33.61189455800092,-33.27959714717303
2211157,-33.00376958105366,-32.67147217022576
1595241,-32.2465291062536,-31.914231695425705
1560665,-33.73878195061652,-33.406484539788636
532141,-34.15935872728406,-33.827061316456174
3884477,-33.344699768378796,-33.01240235755091
1530700,-32.974748861745574,-32.64245145091768
2668246,-32.94228940158253,-32.60999199075464
3525298,-32.86284186948017,-32.53054445865228
1519641,-33.839655383292964,-33.50735797246508
928407,-32.53718640717541,-32.20488899634752
2966614,-22.397157219082658,-22.064859808254766
841493,-34.03059819234621,-33.69830078151832
1324821,-33.37247931510858,-33.04018190428068
1366584,-32.615719426505876,-32.283422015677985
3847566,-32.545955612598036,-32.21365820177014
1055496,-32.76894909759715,-32.43665168676926
2993841,-23.96077658791409,-23.6284791770862
1892908,-34.00176752206374,-33.669470111235846
2549274,-32.91475877432021,-32.58246136349232
554091,-33.15086917396092,-32.81857176313303
1742933,-33.33918305427263,-33.00688564344474
3227559,-22.938086591545268,-22.605789180717377
900518,-23.036475544249917,-22.704178133422023
1891681,-33.93672053462178,-33.604423123793886
1808569,-32.460476540645374,-32.12817912981748
2784583,-32.897784051018064,-32.565486640190166
898671,-34.308744284680344,-33.97644687385246
1287631,-32.06610714570932,-31.73380973488142
1415694,-33.32769286052523,-32.99539544969735
362041,-22.64138318149506,-22.30908577066717
3141183,-22.35305847900728,-22.020761068179386
2675748,-33.55353336903458,-33.221235958206684
2770124,-33.253129001052386,-32.920831590224495
3446078,-33.057437371882436,-32.72513996105454
2596844,-33.80051245993383,-33.468215049105936
1766312,-34.41456879282511,-34.08227138199722
2555670,-33.88898424321927,-33.556686832391385
3407800,-33.13227186895006,-32.79997445812218
2524978,-33.59918560258545,-33.26688819175756
2566174,-34.17522064597185,-33.84292323514396
3422436,-22.75764123607023,-22.42534382524234
2621933,-23.265752796260447,-22.93345538543256
1700502,-33.915711303224676,-33.583413892396784
1685948,-33.283544954395836,-32.951247543567945
1789746,-33.425445561678394,-33.0931481508505
3390795,-22.753495419347573,-22.421198008519678
1170257,-33.09735537273238,-32.76505796190449
3547603,-33.49836357544565,-33.16606616461776
363403,-23.820855455400547,-23.48855804457266
1013015,-23.60535637493467,-23.27305896410678
1227489,-33.15411224268309,-32.8218148318552
2117347,-33.157560952146405,-32.82526354131851
1284208,-33.19045373732056,-32.858156326492676
956776,-32.63067081953669,-32.2983734087088
2651255,-32.62004891400246,-32.28775150317457
3952342,-33.06968910148958,-32.737391690661696
2611914,-33.37633208467346,-33.044034673845566
3369703,-33.660344781298626,-33.32804737047074
2525300,-30.787128259991707,-30.45483084916382
2245211,-33.86472210603197,-33.53242469520408
2151522,-32.42009837556059,-32.0878009647327
432465,-32.31646494997441,-31.98416753914651
1403431,-34.494194309985346,-34.161896899157455
374022,-32.33781679230463,-32.00551938147674
1961017,-32.788834621347036,-32.45653721051914
3905374,-34.65506341452804,-34.322766003700146
2947215,-34.68955567411611,-34.35725826328822
1292057,-33.26501889523043,-32.93272148440254
1033129,-23.08769257850861,-22.75539516768072
2227062,-33.75233968598435,-33.42004227515646
2262575,-33.23981456187211,-32.90751715104422
3081707,-22.812186057204794,-22.4798886463769
3895124,-32.96596849271125,-32.633671081883364
912064,-33.64760174996496,-33.315304339137064
644433,-34.8770551897039,-34.54475777887601
1840484,-33.32474618187806,-32.99244877105017
1778872,-35.09084912813502,-34.75855171730713
3834414,-23.035080802782193,-22.702783391954302
643284,-33.142096067358914,-32.80979865653102
538951,-34.203915831661355,-33.871618420833464
1707768,-25.64274137039172,-25.31044395956383
1105340,-33.4245803000185,-33.09228288919061
3383128,-32.42644916024987,-32.09415174942197
1379008,-33.36642180683104,-33.03412439600315
524807,-31.363650744155088,-31.031353333327193
2995577,-32.02202377877909,-31.68972636795119
3254884,-32.36123708715231,-32.02893967632442
2253229,-22.981004327769874,-22.64870691694198
2860582,-31.542331911518772,-31.210034500690885
656124,-34.32941040172438,-33.99711299089649
1842304,-23.314220665735157,-22.98192325490727
284162,-31.739552579246585,-31.40725516841869
2186391,-32.11582322303277,-31.78352581220488
3878863,-23.298578442843933,-22.96628103201604
2658318,-32.38328414544768,-32.05098673461979
2497369,-34.22903852014642,-33.896741109318526
1576390,-33.584551638605085,-33.25225422777719
449411,-33.181457237179835,-32.84915982635194
3848355,-32.663835925164506,-32.331538514336614
3231273,-22.795617870806737,-22.463320459978846
1978892,-32.93499882433689,-32.602701413508996
3521731,-33.815421628811904,-33.48312421798401
897151,-33.20010755214314,-32.867810141315246
665682,-32.825568842815976,-32.493271431988084
3886560,-30.824776554977078,-30.492479144149183
307469,-32.48206578798715,-32.14976837715926
962942,-33.48249868889599,-33.15020127806809
3176608,-33.18046953286493,-32.84817212203704
3469053,-32.16985606743122,-31.83755865660333
683630,-33.65968278299977,-33.327385372171875
2718106,-33.44603248359266,-33.11373507276477
1807039,-22.417739981939118,-22.085442571111223
2601154,-23.644821975461998,-23.312524564634106
3722428,-33.75391496635497,-33.421617555527085
3096595,-33.37731128853267,-33.045013877704775
2531371,-33.776849578735636,-33.444552167907744
618383,-32.99560935619598,-32.663311945368086
2557441,-33.931134001712,-33.59883659088411
1472786,-34.55139978326249,-34.219102372434605
374123,-34.5858991274033,-34.25360171657541
1130729,-33.545890615256155,-33.213593204428264
622688,-34.234571155060706,-33.90227374423282
1294141,-32.67801601347455,-32.345718602646656
495571,-22.16131943369602,-21.829022022868124
2412578,-32.979248868786826,-32.64695145795894
3101741,-33.258201366100415,-32.925903955272524
994932,-32.03135079254599,-31.699053381718098
1853321,-32.34107961689529,-32.0087822060674
2063016,-23.491541494766636,-23.15924408393875
291735,-33.283285764093826,-32.950988353265934
1833746,-23.221362967855967,-22.88906555702808
2611739,-33.64920077798276,-33.31690336715488
2857293,-23.71934930814642,-23.387051897318525
3255831,-33.233859618926616,-32.901562208098724
1040474,-31.885288018332027,-31.55299060750413
1689862,-33.28474693007861,-32.95244951925072
239831,-22.09306090509491,-21.76076349426702
1058683,-33.557073506259414,-33.22477609543152
3045706,-34.782189492434306,-34.449892081606414
265687,-32.716269757929446,-32.383972347101555
2939818,-32.967138833035115,-32.634841422207224
695909,-33.19147830188053,-32.85918089105264
2998329,-34.757379775046594,-34.4250823642187
247362,-32.69761859115834,-32.365321180330454
3136887,-32.97672431531023,-32.644426904482344
2576980,-32.91003190345113,-32.577734492623236
297706,-32.89958234522172,-32.567284934393825
460468,-32.7768220666316,-32.44452465580371
2504120,-33.32990023285283,-32.997602822024945
1195879,-33.23859560722983,-32.90629819640194
2689593,-32.86114207714223,-32.52884466631434
1708361,-32.14086660445516,-31.808569193627267
2275288,-32.41887178563849,-32.0865743748106
3769851,-33.19952147113218,-32.86722406030429
1677028,-23.280706651594905,-22.948409240767017
1325755,-32.49866654539684,-32.166369134568946
2674032,-33.61999173804565,-33.287694327217764
1053978,-23.461508640568958,-23.12921122974107
927080,-23.618888640307365,-23.286591229479473
1075340,-23.330524238235977,-22.998226827408086
3831607,-23.181498645888215,-22.849201235060324
902086,-34.06672818366859,-33.734430772840696
257544,-32.3197859568391,-31.987488546011214
2690640,-32.39187948965298,-32.05958207882509
709321,-22.560562837284724,-22.228265426456833
2890021,-33.99906493369131,-33.66676752286342
2397302,-33.029784360859445,-32.69748695003155
3933110,-23.38277838177644,-23.05048097094855
2906587,-34.20436308339955,-33.87206567257165
1631931,-22.957524344958134,-22.62522693413024
2639071,-33.17014743273577,-32.83785002190787
1342365,-33.742245354683995,-33.409947943856096
2258558,-21.715731623580133,-21.383434212752242
1588894,-33.4004921565157,-33.06819474568781
3391505,-23.67793167654985,-23.34563426572196
2779923,-33.56727660332906,-33.234979192501164
1222987,-33.54579739985457,-33.21349998902669
638886,-34.658576433621064,-34.32627902279317
1307659,-33.55487106652471,-33.22257365569682
1725180,-23.63688365843674,-23.30458624760885
1822930,-32.964273268441524,-32.63197585761364
3328162,-30.824201029872217,-30.491903619044322
2948496,-34.47246615946135,-34.14016874863346
2613469,-34.323997534886914,-33.99170012405902
1876819,-32.34611933762683,-32.01382192679894
895199,-32.927924716869235,-32.59562730604134
333930,-23.27450701742254,-22.942209606594652
412192,-33.69004068930686,-33.35774327847897
3407141,-23.332643361373545,-23.000345950545658
2172293,-32.99032134969537,-32.65802393886749
2614518,-34.12542520838652,-33.793127797558626
962878,-33.652988467202334,-33.320691056374436
3922236,-33.91766225177332,-33.58536484094544
620547,-32.458778724917046,-32.126481314089155
1078632,-33.69462968166963,-33.36233227084174
3343143,-33.57119113209762,-33.238893721269726
437509,-32.30198163898579,-31.969684228157906
387156,-22.82429560933085,-22.49199819850296
815255,-22.927192373665928,-22.594894962838033
644770,-33.0919843612277,-32.75968695039982
1753448,-33.87547695040575,-33.543179539577864
1334858,-33.765549410685075,-33.433251999857184
1824792,-23.962440968476837,-23.630143557648946
2728471,-33.86096593643507,-33.52866852560718
520202,-34.16014666567839,-33.827849254850506
875573,-32.08524490435193,-31.752947493524033
2755832,-34.08289246804319,-33.7505950572153
304402,-33.959000584968905,-33.62670317414102
1838423,-33.0870335735229,-32.75473616269501
3950797,-33.479723024209214,-33.147425613381316
1010641,-33.69665988386213,-33.36436247303424
303210,-34.161700263508955,-33.82940285268106
1373324,-34.05647110310505,-33.72417369227716
914879,-33.77977097102172,-33.447473560193835
887784,-33.516106691251615,-33.18380928042373
384804,-34.2002885118496,-33.86799110102171
3170728,-22.368097565938815,-22.035800155110923
1742679,-34.07643022926193,-33.74413281843404
2644653,-33.97456610490798,-33.64226869408009
2220389,-23.590042307442655,-23.257744896614764
3663200,-32.89002801864665,-32.55773060781877
806077,-34.27534929153003,-33.94305188070214
3931517,-33.82878617007692,-33.496488759249026
3190576,-33.856662930531066,-33.524365519703174
3073611,-22.295938802411328,-21.96364139158344
3809751,-33.83806270509413,-33.50576529426625
3539836,-33.41953069602152,-33.087233285193626
345380,-32.75993493370183,-32.42763752287394
3386405,-22.73066858616721,-22.398371175339317
1084511,-24.71839010667862,-24.38609269585073
3144422,-33.17579932539598,-32.84350191456809
1008015,-33.55127991341964,-33.21898250259175
399782,-33.780306933465994,-33.44800952263811
1831737,-32.92112926870141,-32.58883185787352
1495696,-34.651393490820396,-34.31909607999251
2708139,-31.567904752007045,-31.23560734117915
701676,-32.86467138698565,-32.53237397615776
1854996,-34.32930254216382,-33.997005131335925
2251068,-33.45153764056172,-33.11924022973382
1701673,-34.45338804833872,-34.121090637510825
3764411,-22.381261574524103,-22.048964163696212
3129211,-31.113598049546393,-30.7813006387185
2567389,-32.78256315767628,-32.45026574684838
1009717,-32.863310544550544,-32.53101313372265
3404227,-33.50501475019429,-33.1727173393664
2257177,-32.635312030776745,-32.303014619948854
923240,-34.17645371791445,-33.84415630708656
2525982,-33.56176026580272,-33.229462854974834
2820609,-34.48758393924981,-34.155286528421925
1290177,-33.79668308363393,-33.464385672806046
210312,-32.5021315883782,-32.16983417755031
2615505,-34.511582852235016,-34.179285441407124
2522883,-33.61477527057988,-33.28247785975199
2490255,-32.22658052166284,-31.894283110834948
3904431,-23.96195118116745,-23.62965377033956
3540724,-22.98774472460378,-22.655447313775884
1094665,-33.21856992096314,-32.88627251013525
1085450,-33.5824579691581,-33.25016055833021
2913476,-22.392929360569347,-22.060631949741456
3001526,-32.98592940659336,-32.65363199576547
2744935,-29.926620616289558,-29.594323205461667
2419123,-32.379650869054224,-32.04735345822633
1097373,-32.79606469998811,-32.46376728916022
3395599,-23.726344520613157,-23.394047109785266
917699,-34.40630852594397,-34.074011115116086
653533,-32.26074903205072,-31.92845162122283
2975329,-33.16286581446583,-32.83056840363793
2419961,-33.918661265101754,-33.58636385427386
2752195,-33.615753484777024,-33.283456073949125
2924471,-33.88588025797611,-33.55358284714822
394693,-34.34799981378644,-34.015702402958546
632403,-32.454098730401746,-32.12180131957385
2964363,-23.200298789710562,-22.868001378882667
2258321,-34.59713973427475,-34.26484232344686
1160303,-32.595637168783774,-32.26333975795588
3126417,-33.245358498778074,-32.91306108795018
1090750,-33.23057505412244,-32.898277643294556
2947910,-34.73791200266574,-34.405614591837846
3179797,-24.80374883083825,-24.471451420010357
3907304,-34.13973686719804,-33.80743945637015
2032987,-32.82393165835624,-32.49163424752834
2819886,-32.89048863071545,-32.55819121988756
3718967,-34.02569777414105,-33.69340036331317
2206835,-35.07703824773027,-34.74474083690238
2919047,-32.703953688995945,-32.371656278168054
2460762,-24.162105959387443,-23.82980854855955
1817145,-31.607106723863534,-31.27480931303564
2703226,-23.408700902514408,-23.076403491686516
2203287,-33.17366638719415,-32.84136897636627
240919,-32.142917073140744,-31.810619662312856
1428350,-33.716040464035196,-33.38374305320731
2772800,-33.678678951019215,-33.34638154019133
1140309,-22.524660466863807,-22.192363056035912
3152391,-22.985092416983118,-22.652795006155227
1624735,-32.316885953279865,-31.984588542451974
988770,-32.74460026918717,-32.412302858359276
2481251,-23.21769468596494,-22.88539727513705
635751,-33.392100164985706,-33.059802754157815
2811706,-33.05136321286593,-32.71906580203803
2458852,-32.32996189354459,-31.9976644827167
1886909,-33.09960390605405,-32.76730649522616
2192188,-32.730590922225666,-32.39829351139778
3774921,-33.53991154697139,-33.20761413614349
548036,-33.19533846074198,-32.863041049914095
959323,-32.82311653701956,-32.49081912619167
914947,-33.157154459418074,-32.82485704859018
1638337,-31.925893387363026,-31.59359597653513
1686002,-34.02397317750381,-33.69167576667593
2510492,-23.133431147433367,-22.801133736605475
2024890,-34.09222163595082,-33.75992422512294
1196283,-22.904128405451164,-22.57183099462327
3389243,-33.328521723677945,-32.99622431285005
3942746,-23.210693285575104,-22.878395874747213
3893409,-22.68502233936212,-22.35272492853423
3340557,-23.022949252259718,-22.690651841431826
727911,-34.32974627342694,-33.99744886259904
500524,-33.31046586923943,-32.978168458411545
3296944,-23.17304812521608,-22.840750714388193
3190448,-22.88480220105361,-22.55250479022572
3318063,-33.40091618560051,-33.068618774772624
828527,-33.03789910068069,-32.705601689852806
854215,-23.31163301561625,-22.979335604788357
2405554,-32.63050645177785,-32.29820904094995
2150950,-34.674821320512166,-34.342523909684274
3948744,-30.730913010782086,-30.39861559995419
3771086,-33.40869415081499,-33.076396739987096
1101962,-33.943958138848586,-33.611660728020695
682497,-34.51517465912918,-34.18287724830129
196188,-33.19167442622362,-32.85937701539574
2122390,-33.406492167127844,-33.07419475629995
2461307,-33.10575551820715,-32.77345810737926
940696,-32.95122972711556,-32.618932316287676
1523589,-23.718197012439997,-23.385899601612106
697408,-32.30406841554621,-31.97177100471832
3295229,-33.62621749015944,-33.293920079331556
3380543,-32.93184466241691,-32.599547251589016
1318488,-32.43145064578615,-32.09915323495826
1303051,-32.12590274604941,-31.793605335221525
3445556,-32.0662698426313,-31.733972431803405
1013704,-32.14473132771517,-31.812433916887276
736949,-33.30400581488122,-32.971708404053324
3358543,-31.28992832045405,-30.957630909626154
3845919,-23.66550182068243,-23.333204409854538
2417613,-25.015147100579494,-24.682849689751606
2469729,-34.64093828808104,-34.30864087725315
3197945,-33.210607235578046,-32.878309824750154
3517845,-33.241130077529384,-32.90883266670149
2797929,-32.04931541211754,-31.71701800128964
1488774,-33.21421010042888,-32.881912689600995
1318362,-32.11324827088188,-31.780950860053984
2633816,-33.76813865113892,-33.435841240311035
905464,-33.919689076709,-33.58739166588111
3161343,-32.33265953956216,-32.00036212873427
2880876,-34.120741221320394,-33.7884438104925
3957882,-32.811409046366066,-32.479111635538175
1243750,-32.92830754988125,-32.596010139053355
1106767,-22.42048062954505,-22.08818321871716
3087070,-23.91632705283476,-23.58402964200687
563166,-33.70102812580419,-33.3687307149763
2045316,-23.34312974857587,-23.010832337747974
979506,-32.07079428935169,-31.7384968785238
1576885,-33.9021702443484,-33.569872833520506
1323868,-22.68982918321548,-22.35753177238759
2011425,-33.29694749139615,-32.96465008056826
2770328,-22.711984555123426,-22.379687144295534
2478556,-33.208946557831496,-32.87664914700361
2443476,-34.21462666368632,-33.88232925285842
2866753,-32.484409701871684,-32.15211229104379
250936,-31.199787102401835,-30.867489691573944
2861934,-33.1431291044981,-32.81083169367021
2848279,-24.07583232465391,-23.74353491382602
3043202,-34.040168515794115,-33.70787110496623
1335854,-33.749312048750106,-33.41701463792221
2550815,-33.50377724601934,-33.17147983519145
3344077,-32.91603310844215,-32.58373569761426
2132683,-32.943638243369165,-32.61134083254128
606704,-33.17812979094937,-32.84583238012148
1037737,-32.602140306442635,-32.26984289561475
332703,-32.62092507078186,-32.28862765995397
690861,-32.82045811888914,-32.48816070806125
2011082,-23.008210545621427,-22.675913134793536
820443,-34.36196995051378,-34.02967253968589
1107381,-34.0690305747488,-33.73673316392091
3365999,-33.334473628938866,-33.00217621811098
289932,-34.71369267826499,-34.38139526743711
551720,-33.03756985419685,-32.70527244336896
3913104,-31.460634916454143,-31.12833750562626
3788533,-23.255081143478844,-22.922783732650956
671664,-32.588494521361895,-32.256197110534
580911,-32.595638043925966,-32.26334063309807
2751483,-34.270809782506134,-33.938512371678236
3395577,-33.62771347422693,-33.29541606339904
1878713,-32.13511303823224,-31.802815627404353
692175,-32.603021838507054,-32.27072442767916
1999961,-31.813058649345802,-31.480761238517918
3469941,-32.92234938443472,-32.59005197360683
269479,-32.26252905536382,-31.93023164453593
2979254,-34.00444768041044,-33.672150269582545
1790750,-23.08701926290008,-22.75472185207219
1242002,-31.962289261437782,-31.62999185060989
2154681,-32.30830992752146,-31.976012516693558
2986529,-35.05091116658148,-34.71861375575359
2186175,-23.582328706078737,-23.250031295250842
3481151,-23.41302237028773,-23.08072495945984
2449909,-32.44118198345444,-32.10888457262655
1633051,-32.66618921112196,-32.33389180029407
2198063,-33.07334896501623,-32.741051554188346
1373636,-22.847117917371623,-22.51482050654373
3517526,-33.87747026357675,-33.54517285274885
3464906,-34.028494106867235,-33.696196696039344
1580935,-33.17043114792266,-32.83813373709478
2665261,-32.882552710877334,-32.55025530004944
2847842,-33.302588531769146,-32.970291120941255
2159498,-23.12103142964107,-22.78873401881318
3001645,-22.99943192108727,-22.667134510259384
3796798,-22.174632229301135,-21.84233481847324
1247536,-31.967831102977833,-31.635533692149945
1674194,-33.701233375841774,-33.368935965013875
1369683,-34.16301439479489,-33.83071698396701
1715395,-33.57376746578673,-33.24147005495883
1448162,-34.58843871702467,-34.25614130619678
2674106,-33.573152247739166,-33.240854836911275
1293886,-33.96942403031104,-33.63712661948315
1590246,-34.59284703912592,-34.26054962829803
1352539,-33.55390560649906,-33.221608195671166
662631,-32.9057713644772,-32.573473953649305
3183903,-32.59125262129998,-32.25895521047209
3044527,-32.446251157291336,-32.113953746463444
1150283,-33.2488486244951,-32.91655121366722
1080005,-33.02512936561098,-32.69283195478309
1255915,-33.44510293814261,-33.11280552731472
1078921,-33.014407732848134,-32.68211032202024
942239,-33.20576975891032,-32.87347234808243
3439189,-33.16491555938024,-32.83261814855235
3218131,-33.025472238816384,-32.693174827988486
306965,-30.710527272845972,-30.378229862018085
2893222,-32.359293179021066,-32.02699576819318
2494593,-24.704745899736764,-24.372448488908873
685736,-32.982305302239624,-32.65000789141173
1716431,-33.60918086496067,-33.27688345413278
2130922,-33.16395064969759,-32.83165323886969
3348660,-32.56433439114845,-32.23203698032056
1067899,-31.14164750103218,-30.809350090204287
3297119,-32.19463192515776,-31.86233451432987
241187,-32.60581782686707,-32.273520416039176
3172890,-23.371830885357358,-23.039533474529463
2727646,-33.28400186719197,-32.95170445636408
2464024,-32.22221185607015,-31.889914445242265
1008646,-33.63512716783642,-33.30282975700853
1735660,-32.870109292276254,-32.537811881448356
1019010,-34.45357263899208,-34.12127522816419
844354,-23.510565038686238,-23.178267627858343
3802055,-23.988363645207322,-23.65606623437943
586585,-31.472291868363975,-31.13999445753609
2727608,-33.50024668249257,-33.16794927166468
984962,-32.43556084183262,-32.10326343100473
501933,-31.91312125209743,-31.58082384126954
2579476,-33.738446531879696,-33.406149121051804
3441820,-33.717858852703564,-33.38556144187568
1127414,-33.68543609583457,-33.35313868500668
1421159,-33.98916690546543,-33.65686949463754
594681,-31.44833245819302,-31.116035047365123
3156164,-33.51739398987003,-33.18509657904214
279855,-25.312146669303694,-24.979849258475802
1567980,-23.988022671112585,-23.655725260284697
3286713,-34.269734794120474,-33.93743738329258
2199495,-33.644537419407676,-33.31224000857978
3383283,-33.324389772355275,-32.992092361527384
2053383,-32.74049177373597,-32.40819436290808
1064430,-32.49067190738835,-32.158374496560455
1890826,-32.52774081865006,-32.195443407822175
858238,-32.84606293124675,-32.51376552041885
907428,-22.878920161740115,-22.546622750912228
3727750,-32.95763479456436,-32.62533738373648
2602926,-32.79932065178396,-32.46702324095607
3662609,-34.169095934423744,-33.83679852359585
1772491,-32.15829345150437,-31.825996040676475
255114,-32.81907622779372,-32.48677881696583
3289313,-32.795021854125736,-32.462724443297844
2234341,-32.98066366384029,-32.648366253012405
646332,-32.912257208071544,-32.57995979724365
2625238,-33.14657941730303,-32.81428200647514
3018756,-22.303110807615337,-21.970813396787445
524880,-31.008408083743372,-30.67611067291548
3110558,-34.22783281349032,-33.89553540266244
1828829,-33.584240753421305,-33.25194334259342
2504804,-33.96888800012958,-33.63659058930169
2434977,-32.54936229196805,-32.21706488114017
1232353,-31.15637931090379,-30.8240819000759
3455027,-32.39197025094387,-32.05967284011599
277879,-33.49063029904404,-33.158332888216144
432121,-34.25811166562253,-33.92581425479464
2694263,-32.81316740799118,-32.48086999716329
534071,-32.439363391142976,-32.10706598031508
3310311,-34.92308136001145,-34.59078394918357
3148430,-33.591001760186046,-33.258704349358155
1355112,-34.63759652605255,-34.305299115224656
844714,-23.1830192445832,-22.850721833755312
718451,-33.352739542203956,-33.02044213137607
1143253,-33.587304262424446,-33.25500685159656
3338041,-32.557745402567726,-32.225447991739834
2975834,-32.304806575707474,-31.97250916487958
2813353,-34.03370019619243,-33.70140278536453
927210,-32.96295664362006,-32.630659232792176
2055981,-34.24505628640849,-33.9127588755806
3060401,-33.363820192855535,-33.03152278202765
2036130,-21.784201440863622,-21.45190403003573
2127496,-34.14912994198632,-33.816832531158425
1330299,-34.23745489440975,-33.90515748358186
1060592,-32.817801462445146,-32.48550405161726
1145879,-22.87555492130066,-22.54325751047277
3131927,-32.90918553306645,-32.57688812223856
1314431,-34.0200712455331,-33.687773834705204
2196452,-32.98968314090669,-32.65738573007879
2506223,-33.239130503941205,-32.90683309311331
1503194,-23.085918228358402,-22.753620817530507
3015737,-32.97310662064951,-32.64080920982162
1747116,-23.46141211182975,-23.129114701001857
1083450,-34.79409963514382,-34.46180222431593
274220,-33.68265381014142,-33.350356399313526
1774379,-32.8303533750585,-32.49805596423061
1081291,-33.45932832925148,-33.12703091842359
2231921,-34.057294242581726,-33.724996831753835
1646541,-33.285632542119046,-32.95333513129116
3752590,-34.2398648362326,-33.90756742540471
2839092,-34.047423673955244,-33.71512626312735
1506239,-33.5940745909586,-33.26177718013071
2876111,-33.79407839891234,-33.461780988084456
2243847,-32.45472400581504,-32.12242659498715
2686532,-33.81139250307825,-33.47909509225036
675142,-34.363658097674325,-34.03136068684643
2193742,-33.7879162667639,-33.45561885593601
2271063,-22.22621288941738,-21.893915478589488
2471160,-33.54713920657374,-33.21484179574585
872574,-33.1919192909804,-32.85962188015251
441166,-31.860868085177383,-31.528570674349496
2179791,-33.516634163538804,-33.18433675271092
3835455,-33.30712706552166,-32.97482965469377
3861602,-34.51199494092129,-34.17969753009341
1850970,-31.6619476390053,-31.32965022817741
2258466,-33.764516510172264,-33.43221909934437
3745207,-32.60638867362663,-32.27409126279874
1074812,-33.59206761736691,-33.259770206539024
3729208,-23.425146019170935,-23.092848608343044
1319701,-33.213302619010555,-32.881005208182664
3898134,-33.800700447626305,-33.468403036798406
1900148,-22.581384892426286,-22.249087481598394
2825339,-32.78197711979926,-32.44967970897136
1026147,-32.86081247336485,-32.52851506253696
3941644,-32.57443540683125,-32.24213799600336
724673,-34.5310975943004,-34.198800183472514
3410147,-23.565561105834295,-23.2332636950064
3153994,-33.2533563220027,-32.92105891117482
1775477,-34.07744357503682,-33.74514616420892
3148991,-34.21102087783378,-33.878723467005884
1958174,-24.661673066537634,-24.32937565570974
1646844,-32.874384767817176,-32.542087356989285
1841360,-25.091276938866535,-24.758979528038644
3243380,-31.733408977274518,-31.401111566446623
3426870,-33.325302668316176,-32.993005257488285
3106852,-33.4352824159601,-33.10298500513221
1329313,-33.00273722416756,-32.67043981333967
2125383,-33.054906333114346,-32.722608922286454
497154,-32.74756562034906,-32.41526820952117
3054715,-33.45750013463669,-33.1252027238088
3259609,-23.333246484623476,-23.00094907379559
305160,-32.32490138201187,-31.992603971183975
2401955,-33.23047089280824,-32.89817348198035
3233824,-33.94973743423049,-33.6174400234026
389744,-32.3543758666316,-32.02207845580371
681068,-32.58562733734085,-32.25332992651296
2694087,-33.766244269191574,-33.43394685836369
714834,-34.34670336477412,-34.01440595394623
1237901,-34.13260391536274,-33.80030650453485
947740,-34.01147096273072,-33.67917355190283
2434781,-34.13334629507669,-33.80104888424881
2272366,-33.46791193803469,-33.135614527206805
2981673,-23.813992748671332,-23.481695337843437
1261070,-33.55934234775093,-33.22704493692304
2001757,-33.110525653155406,-32.778228242327515
3086019,-32.54013783759453,-32.20784042676664
1858238,-22.408749912526584,-22.076452501698693
1068339,-34.18649410270384,-33.85419669187594
259064,-32.49294937515304,-32.16065196432515
245608,-34.42365503926387,-34.091357628435986
3194219,-34.33119720819682,-33.998899797368935
961130,-33.81508280353488,-33.48278539270699
1519920,-34.10368202599823,-33.77138461517034
389414,-33.36467721818236,-33.03237980735446
3251868,-22.667129499366013,-22.33483208853812
423423,-32.60711940937012,-32.27482199854223
484695,-32.68404198180858,-32.35174457098069
195791,-34.10809554269982,-33.77579813187193
899817,-33.326010986497394,-32.9937135756695
3898692,-33.01555180005735,-32.68325438922947
2897217,-32.88385026870348,-32.5515528578756
2853452,-33.947979338151455,-33.615681927323564
429751,-32.34878676084202,-32.016489350014126
2148168,-32.6149715220371,-32.28267411120921
2608296,-33.34718069688377,-33.01488328605588
599262,-33.191021323194434,-32.85872391236654
204199,-24.692925492835602,-24.36062808200771
1129588,-35.27215258557985,-34.93985517475196
3658725,-23.88962677174641,-23.557329360918516
3448957,-34.338739476869456,-34.006442066041565
527498,-33.14831067102838,-32.81601326020049
3084996,-33.604635174697954,-33.27233776387006
1669773,-33.59948823336713,-33.267190822539234
3102047,-34.05454406252853,-33.722246651700644
2719529,-32.74852269951992,-32.41622528869203
649764,-33.44546863914232,-33.11317122831443
2555204,-33.02078834304721,-32.68849093221932
2694735,-33.19928870422183,-32.86699129339394
2860973,-33.50872542050226,-33.17642800967436
1966210,-34.09507806756592,-33.76278065673803
528587,-32.55867943756631,-32.22638202673842
3300244,-32.766215354346414,-32.43391794351852
2966354,-32.94925741810027,-32.616960007272375
2965878,-22.15712577755312,-21.824828366725225
2758569,-34.28295173021491,-33.95065431938702
1906874,-34.17757364934426,-33.84527623851637
1977957,-34.261606913685135,-33.92930950285725
1686643,-33.877434811007475,-33.54513740017959
2800461,-33.71380857396425,-33.38151116313636
322157,-33.245408599375594,-32.9131111885477
3750560,-23.36954906907699,-23.037251658249097
336071,-32.10909682132302,-31.776799410495126
3263467,-34.01630683539588,-33.68400942456799
518412,-33.40006537453538,-33.06776796370749
722622,-33.50060134486014,-33.168303934032245
3238521,-33.28750476016678,-32.9552073493389
1486289,-32.17259984770697,-31.840302436879075
3954006,-33.143648819304694,-32.8113514084768
3851091,-33.52727163170899,-33.1949742208811
1213768,-32.90580664944552,-32.57350923861763
1594165,-33.93407594063342,-33.60177852980552
1347787,-33.93814552580975,-33.60584811498187
3921450,-33.440249834667,-33.10795242383911
2239019,-33.4289789664241,-33.096681555596206
3345576,-33.23873846355516,-32.90644105272727
2495657,-33.719874487387884,-33.38757707655999
3382484,-33.12871055097653,-32.796413140148644
1449893,-33.38542565891081,-33.05312824808293
2745352,-34.028169442257095,-33.695872031429204
3802273,-35.00988115463197,-34.67758374380408
2407685,-32.57868323646513,-32.24638582563724
3308231,-33.17664750178364,-32.84435009095575
2193407,-22.47482922848677,-22.142531817658877
1038195,-31.91125204796622,-31.578954637138327
2115262,-33.15160234784671,-32.81930493701882
3255083,-34.1869721674296,-33.85467475660172
2746320,-23.198260214162556,-22.86596280333466
2027661,-34.29537307405784,-33.96307566322995
1223173,-23.03400915251937,-22.70171174169148
486480,-33.29537599616909,-32.963078585341194
397099,-32.81166432334002,-32.47936691251213
2508055,-33.89502507302407,-33.56272766219619
2608162,-32.81241686609607,-32.48011945526818
281185,-22.508909253949327,-22.17661184312143
1552311,-34.286139097322796,-33.953841686494904
728160,-23.443627763382317,-23.11133035255443
1979462,-34.41570804447915,-34.08341063365126
1318921,-32.62812297104472,-32.29582556021682
3949512,-31.67421780888321,-31.341920398055315
3424485,-33.560326246626325,-33.22802883579843
3832976,-32.8805730368398,-32.54827562601191
926916,-23.470323119875648,-23.138025709047756
1742489,-33.179525048404244,-32.84722763757635
548643,-33.490380430344814,-33.15808301951692
3519024,-22.69203970079414,-22.35974228996625
3480898,-34.12195867512365,-33.78966126429576
202218,-33.34622840407515,-33.013930993247264
2032135,-32.391819605279565,-32.05952219445167
1598247,-33.637070630574534,-33.304773219746636
1608196,-32.26799681708782,-31.935699406259925
3949571,-34.420502390077175,-34.08820497924929
2830924,-32.433401127236486,-32.101103716408595
1293509,-34.672751577719204,-34.34045416689131
3704627,-22.715461546315968,-22.383164135488073
1392129,-21.73513377019857,-21.402836359370674
1346701,-23.65820999831673,-23.325912587488844
3106899,-32.62325670789381,-32.29095929706592
533356,-32.579270604405444,-32.24697319357755
3836426,-34.21379892680388,-33.88150151597599
3418922,-32.36638732447026,-32.034089913642376
3878257,-32.869347078405546,-32.53704966757766
2278188,-34.269860255450446,-33.93756284462256
1449380,-22.288560970280066,-21.95626355945218
1622035,-32.476709151009985,-32.144411740182086
3455591,-33.49403251065271,-33.16173509982482
1388887,-32.78998541905148,-32.457688008223585
3702383,-34.21013374110657,-33.877836330278676
2800771,-33.1383665341266,-32.80606912329871
3737159,-32.491852931191566,-32.159555520363675
3331661,-34.35356026760481,-34.02126285677692
627734,-33.80658676079807,-33.47428934997018
1756332,-33.320785584288394,-32.9884881734605
3114069,-22.436883354215347,-22.10458594338746
2489888,-34.463813593787506,-34.131516182959615
3203453,-33.317702701371,-32.9854052905431
3536543,-32.820527106167305,-32.48822969533941
3160124,-32.438881515787486,-32.10658410495959
1333540,-33.17671370691905,-32.844416296091154
2279858,-33.397609651893845,-33.065312241065946
467536,-32.347027510844775,-32.01473010001689
2781550,-33.30735015159925,-32.97505274077137
357632,-33.4529753763219,-33.12067796549402
503140,-32.823854549346485,-32.491557138518594
933023,-33.68602224568066,-33.35372483485277
1250042,-33.354587539269204,-33.02229012844131
2693363,-32.61182608780998,-32.279528676982096
622589,-31.766453966638732,-31.43415655581084
1366404,-22.52194778997567,-22.189650379147775
1730901,-23.232029691306114,-22.899732280478222
2499492,-21.738986639359357,-21.406689228531462
3177327,-34.001606965475105,-33.669309554647214
669124,-32.02680248153983,-31.694505070711937
2553985,-34.18411227105551,-33.85181486022763
2986363,-34.13301369044761,-33.80071627961973
3874526,-22.3520663644166,-22.019768953588706
2023232,-33.78213700945778,-33.44983959862989
2899809,-31.160447784263607,-30.828150373435715
1056828,-33.84037275512279,-33.5080753442949
2974838,-23.050587871485977,-22.71829046065809
872369,-33.544644887481034,-33.21234747665314
436803,-32.73833822939881,-32.40604081857092
3722385,-22.80813872761276,-22.47584131678487
622816,-33.30118202553774,-32.96888461470986
1444076,-33.60863819902199,-33.2763407881941
3335777,-32.934526121186444,-32.60222871035855
2034015,-22.79403900331831,-22.46174159249042
1943396,-34.07554580391703,-33.74324839308914
654030,-31.987217602272896,-31.654920191445004
2150701,-34.27934239813967,-33.94704498731178
987237,-33.05698888037346,-32.72469146954557
2015782,-22.69926250334122,-22.366965092513325
3176111,-22.538999019770692,-22.206701608942804
3390967,-22.46047397232672,-22.12817656149883
2444240,-33.418184942054694,-33.08588753122681
1098830,-33.40019223918587,-33.06789482835798
662559,-33.73923211158052,-33.40693470075262
1682462,-33.15403356647218,-32.82173615564428
2786060,-32.73836229781633,-32.40606488698844
3433066,-33.89825834251685,-33.56596093168896
3214465,-33.369082106848275,-33.036784696020376
3688698,-33.21281067537752,-32.88051326454963
382213,-32.485452934609185,-32.153155523781294
474451,-32.945798593584705,-32.61350118275681
1903444,-31.733432254420546,-31.40113484359266
1752019,-23.670119591619553,-23.337822180791665
3291795,-23.52797137761459,-23.1956739667867
2446272,-32.42908702103025,-32.09678961020236
3940199,-31.922550093377687,-31.590252682549796
1728043,-32.47686458156886,-32.14456717074097
2777404,-33.88086375089155,-33.54856634006366
2846497,-34.54482478468077,-34.21252737385288
3660948,-33.57484839709306,-33.242550986265165
2255910,-33.00809545292954,-32.67579804210165
2032661,-33.37019640686515,-33.037898996037256
3715313,-33.87683288802429,-33.544535477196405
2911029,-33.528443521091475,-33.19614611026359
3403286,-31.17127850418736,-30.838981093359465
3335013,-34.055722515345224,-33.72342510451734
310621,-31.783090837695696,-31.4507934268678
382747,-32.61648908254263,-32.28419167171474
2053450,-32.69245216920746,-32.360154758379565
223755,-32.44883451390309,-32.1165371030752
3397186,-33.73069956941756,-33.39840215858966
3378248,-34.871052332608194,-34.5387549217803
3329660,-34.271698935962625,-33.939401525134734
2537743,-32.41808984297606,-32.08579243214817
2817912,-34.55897454221316,-34.226677131385266
3056669,-33.44212770964969,-33.109830298821805
666329,-33.03892480189939,-32.70662739107149
3106729,-32.64172843220179,-32.309431021373896
474507,-32.48901922796924,-32.15672181714134
2400177,-33.39956001241966,-33.06726260159178
2948729,-32.63815301485376,-32.30585560402587
2564382,-32.79507199393396,-32.462774583106075
3267546,-22.965069366033376,-22.632771955205484
1850725,-34.120287066729404,-33.78798965590151
3926299,-32.329338188776084,-31.997040777948186
2898953,-23.043625945736885,-22.711328534908994
1016854,-32.719967174231314,-32.387669763403416
3790854,-22.563118012685052,-22.23082060185716
2436109,-22.873850904044936,-22.541553493217044
3282068,-34.04508702689934,-33.71278961607145
1767983,-33.152003098200716,-32.819705687372824
356627,-24.63503349655281,-24.30273608572492
3205799,-32.83019509072766,-32.49789767989977
733911,-32.15581339236228,-31.82351598153439
3851634,-22.491581950886136,-22.15928454005825
3244750,-22.64231086195176,-22.31001345112387
1566711,-33.96399673234402,-33.63169932151613
1863563,-21.701307827351602,-21.36901041652371
3477769,-22.980715653206502,-22.648418242378614
202435,-35.16872032488808,-34.836422914060186
3918467,-33.30215493931209,-32.9698575284842
3687550,-33.37324631790604,-33.040948907078146
1091596,-33.42092658527827,-33.088629174450375
2792579,-33.01969943778609,-32.687402026958196
3241828,-22.89357618279278,-22.561278771964886
1313149,-30.81672566676293,-30.484428255935043
1647516,-32.80979265553108,-32.47749524470319
405992,-32.55554705862174,-32.22324964779385
3879468,-33.86067853529769,-33.5283811244698
314996,-33.61710721960297,-33.28480980877507
943298,-32.258581801691726,-31.926284390863838
1288778,-33.23347375817672,-32.90117634734882
1563007,-22.767918352855887,-22.43562094202799
3204771,-32.99104734898953,-32.65874993816164
3791756,-32.56960299497446,-32.23730558414657
3220113,-33.34531535991941,-33.01301794909152
441994,-33.64286966751523,-33.31057225668733
3403279,-32.70168739017017,-32.36938997934228
1613193,-33.79640142185278,-33.46410401102489
3424403,-33.07328137875668,-32.74098396792879
1305332,-33.07455147949798,-32.742254068670086
2539694,-33.63395611324048,-33.30165870241259
964984,-22.79820322349306,-22.46590581266517
577065,-33.450250077800824,-33.11795266697294
2738689,-32.050046159988284,-31.717748749160393
241068,-32.64683958482787,-32.31454217399998
260772,-32.68079911826699,-32.348501707439105
3950866,-32.86815924927628,-32.53586183844839
1640006,-22.587627553211465,-22.255330142383574
1528441,-32.872153506168765,-32.539856095340866
1715912,-33.35953553446199,-33.0272381236341
3523819,-23.230076880371183,-22.89777946954329
1601307,-32.86008488796693,-32.527787477139036
3308527,-33.10536580931228,-32.773068398484384
2555931,-31.57205567210293,-31.239758261275043
2888033,-32.33041572986485,-31.99811831903696
2498162,-30.90343266730018,-30.57113525647229
3338187,-33.298433594852405,-32.96613618402451
1244602,-32.83659867670409,-32.5043012658762
836523,-32.830390627542805,-32.49809321671491
1692683,-31.234093673017732,-30.901796262189844
1257405,-33.57258083100821,-33.24028342018032
1444849,-32.04665952389693,-31.71436211306903
1022720,-23.32504984720797,-22.992752436380083
3654303,-33.58099835157492,-33.24870094074703
2505686,-31.48957696155988,-31.157279550731985
2277655,-33.4036549452245,-33.07135753439662
1228501,-33.08511095141836,-32.75281354059047
1761112,-34.64532872473797,-34.31303131391007
3341788,-22.718434932936034,-22.386137522108143
407846,-33.917491663465874,-33.58519425263799
2123245,-34.32322727196309,-33.9909298611352
2283276,-32.773553407054465,-32.44125599622657
994780,-22.805291649814944,-22.472994238987052
2727843,-33.2790155656152,-32.946718154787305
216451,-33.09859517642849,-32.7662977656006
591842,-32.74875725917981,-32.41645984835192
1952881,-34.74518000137353,-34.412882590545635
1919707,-33.738939600257005,-33.40664218942912
328278,-32.55698873593693,-32.22469132510904
3933479,-22.457627058262297,-22.125329647434402
2505791,-32.990795395808405,-32.658497984980514
2607346,-34.59368533011788,-34.26138791928999
2133193,-32.26886379991621,-31.936566389088323
2912099,-33.83884395478087,-33.50654654395298
2987833,-32.97808360653384,-32.64578619570596
1240975,-23.047333149128132,-22.71503573830024
3282558,-23.946542419028354,-23.614245008200463
1037274,-31.73707570217733,-31.404778291349437
2218970,-22.629711649515354,-22.297414238687463
3096008,-33.38683840200324,-33.05454099117536
3110609,-33.1979210800832,-32.86562366925531
2619572,-33.06069394269201,-32.72839653186412
3432791,-23.011325155225702,-22.679027744397807
2655466,-33.068057243736966,-32.735759832909075
1877638,-34.36813639382473,-34.03583898299684
3490621,-33.24681824130511,-32.914520830477215
2774670,-32.65121988461652,-32.31892247378863
272685,-33.49133659484737,-33.15903918401948
1278129,-33.13768082739201,-32.80538341656412
708017,-33.364546519834754,-33.03224910900686
518123,-32.17678987003022,-31.844492459202325
3167960,-21.453383558408888,-21.121086147580996
3732150,-34.09706512044838,-33.764767709620486
1382967,-33.735472664806984,-33.40317525397909
1250319,-33.24715102994171,-32.91485361911382
2002077,-32.341209357054076,-32.00891194622619
240334,-32.375336339338624,-32.04303892851074
2968352,-33.38332110209801,-33.05102369127012
298829,-34.488779240066414,-34.15648182923853
2198533,-33.376034034480696,-33.043736623652805
1384136,-23.473529619716807,-23.141232208888916
2663732,-22.947912953284636,-22.615615542456748
1860311,-32.953178887302734,-32.62088147647484
1082514,-34.460350003954396,-34.128052593126505
1366886,-22.52840161654373,-22.196104205715837
2125675,-33.49992152333786,-33.16762411250996
1290632,-32.997065744586976,-32.664768333759085
2731011,-33.705543590020085,-33.37324617919219
891640,-33.15551003606218,-32.8232126252343
336439,-34.108261776352215,-33.775964365524324
1011970,-34.34914228456283,-34.01684487373494
2605055,-32.892090684233956,-32.55979327340607
3216505,-22.326192472669568,-21.993895061841677
507945,-33.0666886261727,-32.73439121534481
569849,-33.212837878520034,-32.88054046769214
3684186,-32.896033890945056,-32.563736480117164
3170587,-32.97605280706534,-32.643755396237445
1725055,-33.86008293937629,-33.52778552854841
3945141,-33.61319219848869,-33.2808947876608
3142912,-22.983597881877063,-22.651300471049176
2784920,-32.25541680494651,-31.92311939411863
1758374,-34.148063522657544,-33.81576611182965
1299281,-33.42937213991272,-33.09707472908483
751973,-33.106232822202166,-32.77393541137428
1115442,-32.891961640453594,-32.5596642296257
1791274,-34.884154777122575,-34.55185736629468
1992477,-32.887635379750265,-32.55533796892237
2860101,-33.65030791448351,-33.31801050365562
1839986,-23.502618569758976,-23.170321158931085
3274782,-24.33101540292161,-23.99871799209372
591067,-33.141434549429235,-32.80913713860135
1612636,-32.88272926672837,-32.55043185590048
534987,-32.183443356649924,-31.851145945822033
1537966,-23.29474476122321,-22.96244735039532
1044227,-32.631537619165925,-32.299240208338034
1342329,-33.60909545933,-33.276798048502116
3771400,-33.721166329303614,-33.38886891847572
261056,-33.55919743618896,-33.22690002536107
3275545,-33.82110992597144,-33.48881251514355
1968104,-33.743107087148715,-33.410809676320824
3061003,-32.379038228369474,-32.04674081754158
3213834,-33.32547670479164,-32.99317929396375
3522562,-32.90636427031505,-32.57406685948716
1482928,-22.7537276557587,-22.42143024493081
1423003,-34.71030561537179,-34.3780082045439
712804,-34.48156419128311,-34.14926678045522
1120261,-22.431505444209318,-22.099208033381423
3845202,-33.86568544364665,-33.533388032818756
1864713,-34.23076629054369,-33.8984688797158
2426261,-32.65375833627252,-32.321460925444626
3715294,-33.61152309186032,-33.27922568103243
2723546,-32.433193755952715,-32.10089634512482
1985509,-34.49543310579973,-34.163135694971835
880714,-32.07890342344442,-31.746606012616542
1115043,-22.298605975155237,-21.96630856432735
514895,-32.682423742242236,-32.35012633141435
2655219,-33.09425935058363,-32.76196193975573
2576483,-31.20980440574573,-30.87750699491784
997195,-32.20428620008923,-31.871988789261337
2807007,-33.75319130115269,-33.4208938903248
1134748,-33.98155473897362,-33.64925732814572
1603379,-33.11700240394466,-32.78470499311676
3017098,-32.877864533739434,-32.54556712291154
3132378,-34.4399139702568,-34.107616559428905
503473,-23.28722428885403,-22.95492687802614
2135214,-32.7133732141154,-32.381075803287516
1079470,-23.98435856363321,-23.65206115280532
2208106,-34.6497485136352,-34.31745110280732
707508,-33.471886167842186,-33.139588757014295
3444554,-32.84038226273644,-32.50808485190855
2017207,-32.7456073052565,-32.4133098944286
3303167,-32.65301735868678,-32.32071994785889
949205,-33.95473790700159,-33.622440496173695
360428,-32.324648062962645,-31.992350652134757
3404026,-33.04676262607704,-32.71446521524914
3700619,-33.1231217592051,-32.79082434837721
736183,-23.495911803007875,-23.163614392179984
393398,-31.86882821450754,-31.536530803679646
1468881,-34.035225743285274,-33.70292833245738
1506067,-22.462886321038052,-22.130588910210157
1342560,-32.546920851831246,-32.21462344100336
630381,-32.904434277675655,-32.572136866847764
2008507,-33.20191300491783,-32.86961559408993
3133948,-32.977294248413564,-32.64499683758567
3749282,-23.1325029308989,-22.800205520071007
3099342,-33.509707629332794,-33.1774102185049
1315701,-32.25272238141918,-31.92042497059129
1603465,-34.008263067221534,-33.67596565639364
485718,-31.081636020173498,-30.749338609345607
652816,-32.39452068397243,-32.06222327314455
815166,-33.61050231484682,-33.27820490401892
2638615,-23.03166123642703,-22.699363825599136
2009910,-33.19729162580699,-32.8649942149791
2112926,-33.68530714484319,-33.3530097340153
2652577,-33.31840429915549,-32.9861068883276
1344874,-32.98268116550571,-32.65038375467782
3070914,-33.21515634528089,-32.882858934453
2926763,-32.41318510643792,-32.08088769561003
2508547,-23.14321413563103,-22.81091672480314
2824829,-33.1532810460069,-32.82098363517901
607444,-32.988960244165966,-32.656662833338075
3332220,-32.683105345044936,-32.35080793421704
2809121,-34.12362320094273,-33.79132579011484
