sample_id,y0,y1
2171247,4.244987975229439,5.304167500879994
3235315,11.776019748218914,12.835199273869469
3877624,9.98404488996595,11.043224415616507
1214018,4.278557560991605,5.337737086642161
2211267,4.725117797620331,5.784297323270886
480705,11.665983235327827,12.725162760978382
984853,10.491745859058836,11.550925384709391
2115840,3.360815672704081,4.419995198354636
478220,11.501863363660949,12.561042889311503
3788856,11.911386405417167,12.970565931067721
1362686,11.612037021937775,12.67121654758833
2150484,11.189026731398855,12.248206257049409
2436754,12.169715247632453,13.228894773283008
407986,10.836968458759538,11.896147984410092
1823535,9.583975816989787,10.643155342640341
2924810,8.841257278819485,9.90043680447004
1670801,10.929223566027073,11.988403091677627
3403779,11.794322974709264,12.853502500359818
1624723,4.264698924460634,5.32387845011119
271262,9.638303829533426,10.69748335518398
2167405,11.7880523240275,12.847231849678053
2286899,10.113244568953553,11.172424094604107
2752162,11.181217015521726,12.24039654117228
1404391,3.194671334404972,4.253850860055527
3908952,11.618031318146926,12.67721084379748
1624840,11.780149040227746,12.8393285658783
711450,11.207570243182346,12.2667497688329
502949,11.78166109810102,12.840840623751575
1620797,12.208277736985526,13.267457262636078
3288179,10.215755036187744,11.274934561838299
1965949,10.954527288315175,12.01370681396573
2903344,4.825030541416355,5.88421006706691
3067612,11.413137652281646,12.4723171779322
321071,9.468588485635797,10.527768011286353
3020287,10.456038729968677,11.515218255619232
3890581,11.079018126283863,12.138197651934417
1975209,10.973118506320102,12.032298031970656
893387,11.032038781375554,12.091218307026109
1413665,11.17950821223292,12.238687737883474
3145243,9.860680457291593,10.91985998294215
2627826,10.88245512707166,11.941634652722215
2212037,11.05098955033185,12.110169075982405
2407022,11.64533510192781,12.704514627578364
3228138,10.811443046357908,11.870622572008463
3767999,3.810621298812354,4.869800824462908
2665938,11.528529429519327,12.587708955169882
3690765,11.84275304660339,12.901932572253944
284309,11.418340484864045,12.4775200105146
3071024,11.006782096111992,12.065961621762547
1046071,9.227365912608507,10.286545438259061
3218031,3.7716074929341845,4.83078701858474
1309625,4.857380664072337,5.916560189722892
618342,11.002740118000059,12.061919643650613
1618569,10.488763881552382,11.547943407202936
1321100,11.540168736395293,12.599348262045847
1394369,11.293209579903511,12.352389105554066
3759371,11.140853128267507,12.200032653918061
3303492,11.337547468469465,12.39672699412002
982093,5.011906552822286,6.071086078472842
2014991,81.7679466342589,82.82712615990945
1112111,4.615318121806933,5.674497647457488
807595,11.134134944987961,12.193314470638514
3376715,11.224643328297734,12.283822853948289
329794,9.085431300697214,10.144610826347769
3008824,10.191885255518057,11.251064781168614
2537507,12.093532210440411,13.152711736090966
2798315,9.58125351683339,10.640433042483945
2201844,11.587399586389523,12.646579112040078
725642,9.177636826736336,10.236816352386892
683798,3.2608209515012945,4.32000047715185
1382733,9.42599344102907,10.485172966679626
481543,12.220954402469696,13.28013392812025
1112792,11.825898699161714,12.885078224812268
2119420,9.386821884701984,10.44600141035254
1472493,9.911733653149039,10.970913178799595
3807653,9.903938999787336,10.96311852543789
999693,9.984816413677379,11.043995939327935
1704507,11.895593028801311,12.954772554451866
3484698,3.4589134301672817,4.5180929558178375
1791442,10.162238160623485,11.221417686274041
1495107,10.13153909685021,11.190718622500764
1471619,12.13650832609702,13.195687851747575
919730,11.744167387050126,12.803346912700679
1919314,9.816329575251542,10.875509100902098
700095,10.111314815879602,11.170494341530159
2129425,9.740158310641151,10.799337836291707
2053733,11.697117107581319,12.756296633231873
1159504,9.541039152564867,10.600218678215423
1590325,10.599888555146581,11.659068080797136
1126007,11.882685153409016,12.94186467905957
1156712,9.525096038727057,10.584275564377613
702084,11.13124853876474,12.190428064415295
1521501,12.01130025234591,13.070479777996464
3442329,10.569226574511724,11.628406100162277
898551,11.074460802086266,12.13364032773682
3327414,9.822583485306323,10.88176301095688
3056270,10.652605297335466,11.71178482298602
2219526,8.21611600069503,9.275295526345586
2666061,11.912826578838612,12.972006104489164
1604811,11.385350537135999,12.444530062786553
681120,9.631335547549098,10.690515073199654
3501865,10.109817760235467,11.168997285886022
2520698,11.267889968584027,12.327069494234582
1228915,3.060546642530174,4.119726168180729
3283016,11.274182568384454,12.333362094035008
1718708,9.844216437587617,10.903395963238172
3913419,4.852981186158663,5.912160711809219
1262489,11.09254043922178,12.151719964872335
1745412,10.080328648585132,11.139508174235687
977621,11.515581248211822,12.574760773862376
1809645,9.800374903869637,10.859554429520191
2649729,9.049893874983617,10.109073400634172
2734990,81.79766202199903,82.8568415476496
1579920,10.466624456525869,11.525803982176425
1721620,80.63861120099016,81.69779072664072
2948830,10.67482710076027,11.734006626410824
3181687,10.935530012197312,11.994709537847864
873918,10.89959173451551,11.958771260166065
1154029,2.643419433046685,3.70259895869724
3718202,10.635494725915876,11.69467425156643
2226101,10.900469504215266,11.95964902986582
2489529,11.191244083644172,12.250423609294725
1164624,10.715040260931614,11.774219786582167
2252222,10.798198062621816,11.85737758827237
663336,10.803648414467935,11.862827940118489
1571117,5.099254111517172,6.158433637167727
2484020,75.91064262726644,76.96982215291699
3318368,12.256934160864903,13.316113686515457
2145940,3.95575912070672,5.014938646357276
1861469,12.016786632677574,13.075966158328127
3156608,9.967732495045238,11.026912020695793
912161,4.576272665545339,5.635452191195895
1228864,9.626172661824734,10.685352187475289
3099840,10.363305266283191,11.422484791933748
363671,11.687717355181771,12.746896880832326
2935979,10.005155659650868,11.064335185301422
3017364,10.48992816579303,11.549107691443584
2522313,11.01631801789763,12.075497543548185
2922414,2.8041304313226,3.8633099569731555
709407,9.811404515442616,10.870584041093169
748422,9.850448921063926,10.909628446714482
2030831,9.66853077309858,10.727710298749136
3265930,10.250788619650484,11.309968145301038
334429,11.884632710368088,12.943812236018642
2480990,83.5516050478181,84.61078457346864
281515,11.348126054058781,12.407305579709336
930903,4.456643586877096,5.515823112527651
3193186,10.53582901607492,11.595008541725475
3090250,12.722842823462662,13.782022349113216
3730907,9.91507329129043,10.974252816940984
1737038,10.859661180564137,11.918840706214691
3261775,11.609803613605724,12.668983139256278
3118201,3.542139114582384,4.60131864023294
2414676,3.012866083547781,4.072045609198336
269350,10.806128969672647,11.865308495323202
1876643,11.068231360041523,12.127410885692077
2120363,3.9624534368106596,5.021632962461215
346109,10.224053581466862,11.283233107117416
3928016,12.635576684986846,13.6947562106374
2016232,10.85744298302937,11.916622508679925
2603448,10.09595539081224,11.155134916462794
321946,10.91175227293515,11.970931798585704
3084888,11.396916894759968,12.456096420410523
3749251,10.056197570005773,11.11537709565633
2807782,10.304642605918746,11.3638221315693
2477217,10.39979719588778,11.458976721538335
623683,8.96199850825688,10.021178033907436
3652638,11.71558973117457,12.774769256825124
2725048,11.681971948528268,12.741151474178823
739482,83.80863812836742,84.86781765401798
1547106,9.715941861520557,10.775121387171113
442857,82.99115293414344,84.05033245979399
446785,11.555749115474246,12.6149286411248
2646426,10.086353749448008,11.145533275098563
2901741,76.23474655609878,77.29392608174935
2837035,11.110629812967357,12.169809338617911
807153,4.159660659110743,5.218840184761298
666179,10.70942103056004,11.768600556210595
262236,10.026712490708013,11.085892016358569
322300,11.482385254140976,12.54156477979153
2238723,10.079778185114773,11.138957710765327
1873541,10.951208942401959,12.010388468052513
1243262,12.032696692182967,13.091876217833521
3513274,10.649669748838134,11.708849274488689
2695213,9.769116906786207,10.828296432436764
724834,11.36179835026874,12.420977875919295
1780045,9.114205461738297,10.173384987388854
374566,9.650041189664464,10.70922071531502
2687418,9.258382345665432,10.317561871315988
1120474,10.877435211430504,11.936614737081058
406408,9.832978241465867,10.892157767116423
1434761,11.000582844688292,12.059762370338847
3838904,9.449480748980902,10.508660274631458
3393368,11.153354950797526,12.21253447644808
814779,9.89999317410299,10.959172699753545
967210,10.1761791650102,11.235358690660755
1021779,10.455222317932495,11.51440184358305
2561961,9.554256523938108,10.613436049588662
1635452,3.1374024912910237,4.196582016941579
513339,11.689366729825267,12.748546255475821
3141422,3.7117773498967757,4.7709568755473315
1134419,9.684377778785985,10.74355730443654
3057534,3.8406029753434763,4.899782500994031
2555607,9.011860375808322,10.071039901458878
1561464,11.037256810633805,12.09643633628436
1192321,3.006605760929098,4.065785286579653
380475,10.542187751758759,11.601367277409313
2131401,9.971811318070605,11.03099084372116
1297687,9.893545292437024,10.95272481808758
2454807,10.379643579660778,11.438823105311332
749731,2.6160706970728973,3.6752502227234527
2159150,11.871388490239188,12.930568015889742
2110989,11.223506629123865,12.282686154774419
1683648,11.681911525915526,12.74109105156608
3010084,3.1321571207853673,4.191336646435922
552041,11.918367842398437,12.977547368048992
1459036,5.285405382797704,6.344584908448259
2629866,10.984056681947443,12.043236207597998
3908937,11.901960941567085,12.96114046721764
943126,11.67505951885321,12.734239044503765
1772939,12.38079971763001,13.439979243280565
1364786,11.791652595863493,12.850832121514047
1792331,10.672711167205147,11.731890692855702
1814492,4.015651944783059,5.0748314704336135
2546717,11.425773452864458,12.484952978515013
3066547,76.03750985267811,77.09668937832868
1428648,10.209028090964082,11.268207616614637
2717601,10.091412883762906,11.150592409413463
3476279,10.926398421999691,11.985577947650246
2971506,10.432936416852781,11.492115942503336
197604,9.188428209769265,10.24760773541982
1677028,11.321119765783981,12.380299291434536
2270847,9.641623285939644,10.700802811590199
600172,9.797081120989592,10.856260646640148
2225253,3.108007411554654,4.167186937205209
3702193,11.679046795548494,12.738226321199049
1155258,10.06781272734022,11.126992252990776
1679637,11.235218821850133,12.294398347500687
2018798,4.937646272646683,5.996825798297238
1402220,9.658340726343763,10.71752025199432
1569272,12.308726258391756,13.36790578404231
380363,11.676518324917259,12.735697850567814
2670036,11.837622500497796,12.89680202614835
744868,11.848485122102778,12.907664647753332
3908865,11.67102967544005,12.730209201090604
907540,76.24953330888196,77.30871283453253
230968,9.744667204627197,10.803846730277753
3123901,3.2530166048450107,4.312196130495566
3147853,9.71424684823199,10.773426373882547
2197729,12.576485049931117,13.635664575581671
2673880,11.326208114115671,12.385387639766225
2004189,11.364798496377416,12.42397802202797
1645929,10.686068045095768,11.745247570746322
2718639,76.39321926598436,77.45239879163492
2984664,11.225675974768208,12.284855500418763
3846150,10.769244652806176,11.828424178456729
972062,3.114127149919818,4.173306675570374
852720,3.872471858345753,4.931651383996308
3091323,10.973085179353111,12.032264705003666
900362,81.78167815636314,82.8408576820137
3160838,10.478054183247544,11.537233708898098
714769,9.586405858497146,10.645585384147703
3169679,3.443983072039704,4.503162597690259
2910228,10.14647485241176,11.205654378062317
3727793,9.630269782034691,10.689449307685248
577044,12.952301669173659,14.011481194824214
2391810,10.880017795607749,11.939197321258304
744644,11.841603654007706,12.90078317965826
3192643,10.881334115710416,11.94051364136097
1817893,3.282310916133074,4.3414904417836295
3887296,11.569229885443422,12.628409411093976
1382682,11.503446205033447,12.562625730684001
530727,11.713257188467635,12.77243671411819
3197630,9.321897309498384,10.38107683514894
2477812,10.346839497065101,11.406019022715656
1446590,11.221864983654765,12.28104450930532
3105137,10.363310937219437,11.422490462869993
245520,8.523057829148085,9.58223735479864
2259402,10.678458182972266,11.73763770862282
3534499,11.76752624968665,12.826705775337203
1343586,11.986473713904559,13.045653239555113
2683805,10.258074847577026,11.31725437322758
1066732,11.374400677729023,12.433580203379577
2188654,10.036326965617587,11.095506491268141
2166698,10.530071211594462,11.589250737245017
1820524,9.241536044834046,10.3007155704846
3659492,11.067755570871801,12.126935096522356
492616,12.18767039879085,13.246849924441404
3846126,10.913683183866604,11.972862709517159
3106328,9.765116871931326,10.82429639758188
1136995,10.42175005298909,11.480929578639646
1743701,11.42911592724004,12.488295452890595
2847870,3.9816499458566215,5.040829471507177
3513909,10.36250255532651,11.421682080977064
3796836,9.672904952211686,10.732084477862243
3173014,10.53947138638434,11.598650912034895
2806219,9.646782988831806,10.70596251448236
1621952,10.60592701677708,11.665106542427635
3322873,10.057530594549574,11.116710120200128
2251478,10.081961336806183,11.141140862456739
1531610,10.725470273241662,11.784649798892216
2671561,12.418863931378256,13.47804345702881
1428434,76.29666227201606,77.35584179766663
2106233,11.115433842754369,12.174613368404923
3679811,82.70415031820501,83.76332984385556
716876,3.845506747085422,4.904686272735977
426963,11.756034280380163,12.815213806030718
2444743,11.397051948331129,12.456231473981683
3792849,12.306074262355345,13.3652537880059
3919687,4.987960415254076,6.047139940904631
1441484,11.022837685236317,12.082017210886871
3733374,10.400335298730985,11.45951482438154
3845024,10.0974596395095,11.156639165160056
1282790,10.050856206096856,11.110035731747411
1555835,10.339515945958944,11.398695471609498
1259342,10.29652159324916,11.355701118899715
2036026,75.85370309823634,76.9128826238869
1096820,83.0693004084782,84.12847993412875
1674824,3.6854238534532886,4.744603379103844
3852810,10.578311742896199,11.637491268546752
2491050,11.319484630701496,12.37866415635205
415162,11.685735239972264,12.744914765622818
2509918,12.148406324637145,13.2075858502877
2596455,10.066888423214055,11.126067948864609
1671708,3.1808659623301745,4.240045487980729
865497,10.717641670322772,11.776821195973326
900621,3.720890300473566,4.780069826124121
826150,10.380770187870409,11.439949713520964
314160,9.702933596371624,10.762113122022178
1092368,81.83832232064943,82.89750184629997
2865101,11.078880859791026,12.13806038544158
369935,11.343896204426525,12.403075730077079
287766,11.003416092595886,12.06259561824644
214617,11.360136682752133,12.419316208402687
3028093,9.793701564061104,10.852881089711659
1452654,10.943913267252174,12.003092792902729
1634950,8.90099445415188,9.960173979802434
2160137,10.035514411124318,11.094693936774872
2792978,10.138879157503315,11.198058683153869
3700428,11.620780661292931,12.679960186943486
2838307,11.90942604109228,12.968605566742834
3396539,9.316019312542277,10.375198838192834
884192,11.28762472527763,12.346804250928184
3747226,10.550090007447562,11.609269533098116
820074,11.620503492654692,12.679683018305246
2548209,10.351536635858407,11.41071616150896
639511,11.066222036861285,12.12540156251184
326439,3.8972810981097883,4.956460623760343
403234,11.464571176096554,12.523750701747108
3336833,10.21672948340159,11.275909009052144
1720039,9.991047523405724,11.050227049056279
994038,9.940147430329995,10.999326955980552
1008360,10.99300773453005,12.052187260180604
3040035,11.17941583720304,12.238595362853594
2802023,10.418083323741657,11.477262849392211
3314138,11.635401037543154,12.694580563193709
353986,11.334991977324737,12.394171502975292
2113375,11.149106445029078,12.208285970679633
3893356,10.504854210711855,11.56403373636241
234045,10.45969427224394,11.518873797894495
3331819,12.30244342118069,13.361622946831245
1660438,10.313317674229761,11.372497199880316
3926053,4.946677763140237,6.005857288790793
2737046,10.95768574257595,12.016865268226505
3410702,9.868162879445622,10.927342405096178
2760803,3.5251423716103343,4.58432189726089
3785327,11.126949046011498,12.186128571662053
964053,11.429496702661751,12.488676228312306
3942668,3.074489584528274,4.133669110178829
424874,4.2037205322442786,5.262900057894834
2118141,3.5119767500004277,4.571156275650983
699802,10.896168934736728,11.955348460387283
439771,11.57726954226855,12.636449067919102
1974571,10.256700360862878,11.315879886513432
2009188,11.143971645146088,12.203151170796643
2748319,12.682450641641076,13.74163016729163
423523,11.31890452612058,12.378084051771134
2673356,11.600237306948777,12.659416832599332
721828,11.499384150279335,12.55856367592989
3107862,3.385895034254903,4.445074559905459
2749497,9.107284982959689,10.166464508610243
3285758,10.721876172329077,11.781055697979632
681740,8.69663252086516,9.755812046515716
3697247,12.092723268576204,13.151902794226759
3924140,12.268854076269095,13.32803360191965
1727046,10.55199132767152,11.611170853322074
1253355,9.94984350866079,11.009023034311344
3313076,4.5498149490628785,5.608994474713434
2411715,8.393101989784384,9.45228151543494
3904622,11.568204076659665,12.62738360231022
1957446,10.170495560548476,11.229675086199029
657906,9.961301870375465,11.02048139602602
1156451,9.37325554649352,10.432435072144076
2664621,12.141834549377258,13.201014075027812
2671980,11.41269687683623,12.471876402486785
1504810,10.555470039847854,11.614649565498409
425064,11.464462565427686,12.52364209107824
2215312,10.332585852211926,11.391765377862482
3832464,83.1833737000627,84.24255322571325
3333068,4.815683048485544,5.8748625741361
1583873,3.6145358363464615,4.673715361997017
1253724,9.56345222521574,10.622631750866294
2641920,4.530766396765531,5.589945922416087
3761436,9.009721377703617,10.068900903354173
3882895,11.770777859712222,12.829957385362777
966261,12.060429276746667,13.119608802397222
401017,10.781840407503344,11.841019933153898
608507,11.074555426603606,12.13373495225416
3220302,10.223460630820274,11.282640156470828
925486,11.812916084901683,12.872095610552238
2978478,10.907825815982594,11.967005341633149
2787423,82.99934151551405,84.05852104116461
2680611,2.8866034774991167,3.945783003149672
2866111,4.415851691053082,5.475031216703638
1280730,11.807038615762567,12.866218141413121
1543233,10.565137974932753,11.624317500583308
2243384,11.04579267967956,12.104972205330114
2733805,11.771515658265457,12.830695183916012
958220,11.483581775335994,12.542761300986548
2616891,10.281748747437371,11.340928273087926
1057304,10.066540912339544,11.1257204379901
1855054,4.459156346892979,5.518335872543535
2666298,11.495023634734373,12.554203160384928
2721061,9.756496888802875,10.81567641445343
3070028,11.42651981290002,12.485699338550575
2210655,9.778202370143266,10.83738189579382
845221,10.647190882218382,11.706370407868937
1733754,9.957557893925435,11.01673741957599
3161157,11.315531559648063,12.374711085298618
2616993,9.306552866361248,10.365732392011802
1965137,11.666520753738505,12.72570027938906
2716436,11.00807863008831,12.067258155738864
3038534,9.682054443047434,10.741233968697987
2269333,9.672952697478552,10.732132223129108
1614041,10.777971004900255,11.83715053055081
2986368,9.877065274973816,10.936244800624372
855771,10.001461641478912,11.060641167129466
2902558,4.67001067853741,5.729190204187965
2136646,9.658171255271784,10.717350780922338
2999647,10.951386958169572,12.010566483820126
2903827,11.95814819964737,13.017327725297925
1192934,10.48043793991252,11.539617465563074
2661753,11.993847715657713,13.053027241308268
1736408,3.7088559638615677,4.768035489512123
335217,10.874411258035192,11.933590783685746
863009,10.801090164454012,11.860269690104566
2863219,11.458067472115864,12.517246997766419
2912542,75.80897003456816,76.86814956021873
566075,10.34622231168137,11.405401837331924
3719215,11.799051517799018,12.858231043449573
3094924,9.243737700984289,10.302917226634843
1685610,82.26529506984738,83.32447459549793
1958312,11.034432510735446,12.093612036386
3244934,10.954538274336178,12.013717799986733
3397583,10.026476151064847,11.085655676715403
3452974,10.729833598856306,11.78901312450686
2453651,3.699763695756351,4.7589432214069065
884136,10.904016297880245,11.9631958235308
1955927,11.537068496849018,12.596248022499573
3227972,4.299920301516412,5.3590998271669665
1938842,3.610369271512286,4.669548797162841
369796,10.989226048149431,12.048405573799986
3920472,11.988788915797816,13.04796844144837
1323809,4.891142868876613,5.950322394527168
2477240,11.340008833480578,12.399188359131132
533295,5.120425129798487,6.179604655449041
2176729,10.428106911215119,11.487286436865674
3416280,10.715336253963326,11.77451577961388
3346994,12.433801323757317,13.492980849407871
1914905,9.429394147890248,10.488573673540804
581190,10.866589452892315,11.92576897854287
3441712,10.18430296731266,11.243482492963215
196465,10.900791851531608,11.959971377182162
3528409,11.170693707929681,12.229873233580236
3012582,10.95734050056697,12.016520026217524
530718,10.811733034935925,11.87091256058648
345882,9.808051769833986,10.867231295484542
2200010,12.207546981538789,13.266726507189343
347681,4.0548971277554156,5.11407665340597
3542145,10.397263996169956,11.45644352182051
2174040,11.597679984686966,12.65685951033752
3475903,9.177498350461804,10.23667787611236
2050686,4.197679706928917,5.2568592325794725
2846339,11.076822288965252,12.136001814615806
2012418,10.696103902719509,11.755283428370063
2877741,11.221777761900627,12.280957287551182
256825,10.805930335664307,11.865109861314862
2235199,9.719429329234865,10.77860885488542
337103,10.919524210792506,11.978703736443059
1594551,82.68105599659071,83.74023552224126
696534,10.263637257861776,11.32281678351233
3110231,10.011429708804675,11.07060923445523
3125155,10.177725460368883,11.236904986019438
3492577,9.745351660747067,10.804531186397623
1995271,10.59427133105157,11.653450856702124
3124511,9.544317715987154,10.60349724163771
1883143,10.151432532239859,11.210612057890414
3292371,5.037743239153066,6.096922764803621
3017513,9.709314267470031,10.768493793120587
3874878,11.003171612668137,12.062351138318691
3744958,10.373616969646358,11.432796495296913
1156017,10.7826862756582,11.841865801308755
2949272,10.68362344717821,11.742802972828764
1137709,11.554311561404898,12.613491087055452
2911821,10.924983187512373,11.984162713162927
1538753,8.679070824866661,9.738250350517216
544326,5.0112835114082666,6.070463037058822
2706309,10.744252660821894,11.803432186472449
825994,10.986481941756814,12.045661467407369
1593457,9.9352528450999,10.994432370750456
2432761,11.783715033535161,12.842894559185716
2501348,10.867293810362018,11.926473336012574
3523570,12.139086979906306,13.19826650555686
1055071,10.403751819243524,11.462931344894079
907339,10.926311303275343,11.985490828925897
1402147,9.88459902625609,10.943778551906647
3149448,10.199188569032794,11.25836809468335
352029,3.8328005113434847,4.89198003699404
2541633,12.481618523480318,13.540798049130874
1879353,11.8740537519445,12.933233277595054
1331307,12.281934634068053,13.341114159718607
1640549,3.144713147502939,4.203892673153495
2114933,9.834023757362562,10.893203283013117
578715,10.01533411790887,11.074513643559426
1976582,10.563011991785093,11.622191517435647
1393929,3.1061451481417186,4.165324673792274
3300628,10.162347573976858,11.221527099627414
510502,11.05239388650331,12.111573412153867
3711056,11.996772886001967,13.055952411652521
3832093,10.441866512576368,11.501046038226923
2182898,11.497380276644357,12.556559802294911
2694168,10.122607789790818,11.181787315441374
2818911,83.9837421663275,85.04292169197805
3796092,82.84334626193338,83.90252578758394
453749,9.813809407510341,10.872988933160896
2214706,10.242354436753596,11.301533962404148
1115389,76.15445096805945,77.21363049371001
966986,5.194537274145416,6.253716799795972
1460867,11.350641315983921,12.409820841634476
475796,11.777688314467479,12.836867840118034
3234774,3.8141988287580992,4.873378354408654
1946844,10.398444324484522,11.457623850135077
1897970,12.154885639327563,13.214065164978118
441453,12.293184638725897,13.352364164376452
3358430,11.724117519653577,12.783297045304131
3716765,12.785627806670517,13.844807332321071
1053354,82.83541573339585,83.89459525904641
2697938,9.173026105214255,10.232205630864811
633885,10.730795118437385,11.78997464408794
840633,10.417485393266155,11.476664918916708
3187481,10.321020771130506,11.38020029678106
2763542,9.961901537162495,11.02108106281305
1074793,10.042194253802005,11.10137377945256
2511811,11.440337440005319,12.499516965655873
1571716,10.903742668987896,11.96292219463845
1487586,8.497458499938594,9.55663802558915
2510803,4.259423210188468,5.318602735839024
1247390,9.49983341391171,10.559012939562267
1318066,10.158361423687053,11.217540949337609
3368140,12.32889663689962,13.388076162550174
1170257,10.690612545159318,11.749792070809873
1559555,9.878808556320024,10.93798808197058
3651416,9.044417220367505,10.103596746018061
1542392,11.265102072996115,12.32428159864667
939366,11.686933133250736,12.74611265890129
3345808,10.983204595984343,12.042384121634898
3688297,11.774562087422504,12.833741613073059
3255295,9.98314005893061,11.042319584581163
2684460,12.129791759519406,13.188971285169961
1563721,11.13228637474238,12.191465900392934
1057082,3.519644217607039,4.578823743257595
2585525,3.53915634480588,4.598335870456435
2178188,4.533029196471963,5.5922087221225185
493307,11.9915616342847,13.050741159935253
1389619,9.777846781230384,10.837026306880938
2424424,10.488788034776615,11.54796756042717
2650102,4.687933478329055,5.74711300397961
988101,10.586407840347704,11.645587365998258
3165820,10.958355547063821,12.017535072714375
319733,10.006317517860364,11.065497043510918
2644109,11.622370256534365,12.681549782184918
3067328,11.11006469466897,12.169244220319525
916709,10.776031189288572,11.835210714939127
2919284,8.804627207336763,9.86380673298732
234331,10.959600206667327,12.018779732317881
1978879,10.018543317686314,11.077722843336868
224332,3.746074984657027,4.805254510307582
3739948,9.97742413962771,11.036603665278266
3420178,10.570281435468559,11.629460961119113
3526203,11.19859107809957,12.257770603750124
2857833,11.250546665044475,12.309726190695029
1705637,9.692828229589535,10.752007755240088
889703,3.6937206590128904,4.752900184663446
3175731,10.505026521472853,11.564206047123408
2484367,10.093232669623866,11.15241219527442
2981384,10.660194974864753,11.719374500515308
1480223,9.773452229885091,10.832631755535647
1468870,12.00460369756642,13.063783223216975
2875922,83.7605460385789,84.81972556422944
1832317,10.232442767813758,11.291622293464313
924309,9.983297407811067,11.042476933461622
271017,10.62767108913187,11.686850614782424
3323550,11.837454429912603,12.896633955563157
761171,82.9059384749204,83.96511800057097
3410391,11.696497648663081,12.755677174313636
512840,11.59862847658602,12.657808002236575
1943846,11.306670212984528,12.365849738635083
3314310,10.231315560815151,11.290495086465706
1118488,4.912886570010246,5.972066095660802
482980,11.582911313579643,12.642090839230198
2605507,11.320139357570104,12.379318883220659
1876257,10.209520071524421,11.268699597174976
3127730,10.064596773107745,11.123776298758301
1404571,10.419427763918256,11.47860728956881
2894558,11.726826950906625,12.786006476557178
1936304,10.335314624165775,11.39449414981633
597704,10.433823577098572,11.493003102749126
2401666,3.725449305136679,4.784628830787233
3790774,11.315291268553604,12.374470794204159
3430825,10.916457100615773,11.975636626266327
3453526,9.948896570282795,11.008076095933351
3922556,12.1140011265153,13.173180652165854
2668294,82.86039395937796,83.91957348502852
418725,10.967339639527962,12.026519165178517
666010,3.348047430633927,4.407226956284482
2478247,9.910190240221727,10.969369765872283
1367097,12.479121573729126,13.53830109937968
3114410,10.615056294388317,11.674235820038872
2886829,11.145762512837553,12.204942038488108
2861147,4.944437115564903,6.003616641215458
299835,10.826698253020105,11.88587777867066
227765,10.49946116179393,11.558640687444484
3046035,83.66517257004368,84.72435209569424
3315490,11.812716832952354,12.871896358602909
488425,3.350706009098305,4.40988553474886
3365068,11.51940247589885,12.578582001549405
1818321,10.835735372296044,11.894914897946599
1540100,10.05159234745846,11.110771873109014
1570866,10.603053852414838,11.662233378065393
2974525,11.429883084064013,12.489062609714567
3947489,10.595305513692173,11.654485039342728
1418951,10.21724580914867,11.276425334799224
2247675,9.683613072269203,10.74279259791976
969142,11.118230191834975,12.17740971748553
2195990,2.9710737907677864,4.030253316418341
3051588,11.5510547752144,12.610234300864954
284530,10.033355694694285,11.092535220344839
3273088,11.24747756033987,12.306657085990425
3783824,10.425485224015075,11.48466474966563
2781421,11.57726279665617,12.636442322306724
599670,82.27973015845188,83.33890968410245
2930625,9.234526208639508,10.293705734290064
1105862,4.729864535639141,5.7890440612896965
1071603,4.0791692921741705,5.138348817824726
1911417,10.25861510786716,11.317794633517714
3243490,3.7990297038118896,4.858209229462444
982036,11.776199921718888,12.835379447369442
2652583,4.927133687386121,5.986313213036676
1790750,3.410993185450838,4.470172711101394
638612,9.442453012922414,10.50163253857297
1135266,12.285788679653233,13.344968205303788
1063146,83.38247173961108,84.44165126526161
2163268,3.8044694167196544,4.86364894237021
2875574,11.365545469177295,12.42472499482785
3690856,11.20804744472059,12.267226970371144
813138,10.017442304200902,11.076621829851456
648905,10.216265658333302,11.275445183983859
1019215,9.577686110754248,10.636865636404803
755317,10.028191991341302,11.087371516991857
3921467,12.200310477168259,13.259490002818813
1633910,10.20501142515409,11.264190950804645
2702223,9.913424338741136,10.97260386439169
2274940,9.087888695073726,10.147068220724282
2796348,11.563392062854504,12.622571588505059
1440216,11.491402021932613,12.550581547583167
1589959,9.005069907953368,10.064249433603925
3913887,11.197305820328095,12.25648534597865
1735455,10.495742659295468,11.554922184946022
1202236,10.718940201271227,11.778119726921782
729314,10.402735367152697,11.461914892803252
2032844,82.56517824852929,83.62435777417984
2115062,9.084225455229973,10.143404980880527
1563702,11.723237664404664,12.782417190055217
3228042,4.025484511868653,5.084664037519208
1321185,12.214230690417551,13.273410216068106
3519366,11.511075054650698,12.570254580301253
1283743,3.337095366780564,4.396274892431119
3893422,9.858019080935563,10.917198606586117
1131399,81.77317992112349,82.83235944677405
2658927,11.776567664036968,12.835747189687522
1967008,10.72069057202517,11.779870097675724
1596880,3.2753363361642394,4.334515861814794
3659167,82.65821171755711,83.71739124320766
1634557,10.31276675736019,11.371946283010745
588254,9.576974521160635,10.63615404681119
3064978,9.79020635379921,10.849385879449764
3430514,8.901794316061881,9.960973841712438
3173178,10.419739235518115,11.47891876116867
1090584,11.296469553263648,12.355649078914203
1574713,10.957631835515937,12.016811361166491
1580281,9.340641795483888,10.399821321134445
1217636,11.64679879257527,12.705978318225824
926974,4.640020144613841,5.699199670264396
2040378,10.739910414753059,11.799089940403613
2892129,76.24591813693998,77.30509766259054
2060704,4.611187938756287,5.6703674644068425
247543,11.24398015428947,12.303159679940023
1326652,11.392282406963284,12.451461932613839
3225806,4.0723761288344935,5.131555654485048
1680414,3.8743060491541077,4.933485574804663
3106634,10.469114130956669,11.528293656607223
2754301,10.964446063874513,12.023625589525068
2441544,12.514673939004027,13.573853464654581
524662,11.602809829433964,12.661989355084518
2105501,4.1120223542421375,5.171201879892693
2485690,10.272290228899756,11.33146975455031
1313149,10.9743869557995,12.033566481450055
3688238,10.944941256997254,12.004120782647808
2465067,10.47170966885299,11.530889194503544
3549266,11.033298370186971,12.092477895837526
3282858,10.30222063664907,11.361400162299622
3372944,10.421875688648374,11.481055214298928
3917576,12.366536982255978,13.425716507906532
3906432,4.6869652094762095,5.746144735126765
1985251,10.644981039386742,11.704160565037297
2581802,9.931831748730975,10.991011274381528
2879891,10.992254952684114,12.051434478334668
3147497,9.115374729039644,10.174554254690198
3067687,12.182895891913343,13.242075417563896
3483057,12.22059550006794,13.279775025718495
2263390,12.122720589415584,13.181900115066139
2670269,11.93179348854918,12.990973014199735
979281,11.162315290690033,12.221494816340588
3006626,10.207703458296981,11.266882983947538
368937,11.469966624150258,12.529146149800813
3158980,10.203192251681877,11.262371777332431
2494333,11.299479244014675,12.35865876966523
1451175,10.525999217501019,11.585178743151573
485900,12.268266169805612,13.327445695456166
1943640,10.809040203966127,11.868219729616682
2010700,11.006043628969543,12.065223154620098
1845189,11.15818606029503,12.217365585945585
554304,12.493680739386628,13.552860265037182
1514806,4.778970535862476,5.838150061513032
2645052,12.048391893221538,13.107571418872093
3249677,10.754780622779485,11.81396014843004
3436286,9.355101611367896,10.414281137018452
1825134,3.8915372630315033,4.950716788682058
249799,9.942040120590175,11.00121964624073
1114252,11.64356515991072,12.702744685561274
1020375,11.180143704377507,12.239323230028061
3406683,9.42421206960735,10.483391595257906
3759752,10.588693846439515,11.64787337209007
731647,11.289056403336694,12.348235928987249
865994,11.010440927418486,12.06962045306904
3069552,10.87997696168235,11.939156487332905
3081782,12.10853411034371,13.167713635994264
357638,11.364656277378986,12.42383580302954
3742453,9.653976003490122,10.713155529140678
3706361,11.97096410096848,13.030143626619035
1526377,83.41231693483402,84.47149646048457
630388,3.0471369925985545,4.10631651824911
2399911,10.040373270355555,11.09955279600611
659614,10.317754536488023,11.376934062138577
1968120,11.936573104865522,12.995752630516076
1253294,10.888201308296033,11.947380833946587
521756,11.451661170688059,12.510840696338613
1987567,10.973412290100171,12.032591815750727
3715766,12.019712311679376,13.07889183732993
815990,3.597842454144125,4.65702197979468
1630950,12.822299953342307,13.881479478992862
1033129,3.197581533285552,4.2567610589361085
2680623,10.950586453232253,12.009765978882808
3237996,4.11744127788056,5.176620803531115
467732,10.577978558536941,11.637158084187496
398923,11.449173180335286,12.50835270598584
1368708,12.529746681010177,13.588926206660732
3119725,9.433745010519685,10.492924536170237
3944940,10.100102890366902,11.159282416017458
3453216,3.697340608586505,4.75652013423706
3752752,10.352035497352864,11.411215023003418
1888032,12.28431330941285,13.343492835063405
2616610,10.749013267745548,11.808192793396103
1814414,10.25131101324512,11.310490538895674
1047178,9.777181793381942,10.836361319032498
2713100,10.86383856440231,11.923018090052864
3102325,2.567764510118496,3.626944035769051
2024307,10.052403757735387,11.11158328338594
1391541,11.08475039942164,12.143929925072197
2768134,9.515907001735878,10.575086527386432
651047,9.586254768583075,10.645434294233631
3155572,10.960049614405499,12.019229140056053
3144422,10.402488659548174,11.461668185198729
1751679,83.12997157039108,84.18915109604164
1341960,11.151269443405823,12.210448969056378
811587,10.378834386415289,11.438013912065843
3936346,11.953552307827998,13.012731833478552
1223548,9.717941728821579,10.777121254472135
356063,11.305528998934042,12.364708524584596
1549158,2.9792771297286404,4.038456655379195
2761816,9.842779177783768,10.901958703434323
1777373,9.123802078015158,10.182981603665715
3215427,4.364749429884598,5.423928955535153
2058233,4.887377843100236,5.94655736875079
1397018,10.736373502702472,11.795553028353027
1730714,11.015664726400775,12.07484425205133
3717336,82.92262527085407,83.98180479650463
2112232,12.031829734683866,13.09100926033442
3468585,9.69851192922216,10.757691454872717
1474993,10.021366062513943,11.080545588164497
3922922,12.034197247126713,13.093376772777267
3011578,10.221922072646924,11.28110159829748
679809,3.3557003002860832,4.414879825936639
2052659,4.425649414765616,5.484828940416171
803313,11.005296398993863,12.064475924644418
2791938,11.436862884144128,12.496042409794683
1245054,10.518201889568207,11.577381415218762
2427815,10.77823959352238,11.837419119172935
3248003,10.674108609402163,11.733288135052717
2147590,11.13485823359671,12.194037759247264
934327,4.712238259249116,5.771417784899671
482306,11.29989263636146,12.359072162012014
1520045,10.638610360303753,11.697789885954307
391831,11.675794487084415,12.73497401273497
382005,11.381157732468978,12.440337258119532
1306241,3.9357202852177133,4.994899810868269
1431051,11.414561765666969,12.473741291317523
475892,12.26534771917948,13.324527244830035
1840493,11.297653599083262,12.356833124733816
362763,10.608335241473014,11.667514767123569
3937621,82.73244664130911,83.79162616695966
3727153,82.64481098857914,83.7039905142297
3858970,10.24442891424474,11.303608439895294
987267,9.979941378596594,11.039120904247149
1161295,11.013624762797201,12.072804288447756
1134919,82.13976207198775,83.19894159763831
2824662,11.16593567387087,12.225115199521424
3430262,9.657144977158598,10.716324502809154
3368831,12.459237187641016,13.51841671329157
2118443,9.97638056681375,11.035560092464305
2811420,9.757215331819257,10.816394857469811
1970216,4.959802393551073,6.018981919201629
282661,11.63204565861875,12.691225184269305
1621828,11.511938700205441,12.571118225855995
3851926,10.443102994390008,11.502282520040563
1279866,82.86765622147328,83.92683574712383
3185065,11.03955817853724,12.098737704187794
1697478,4.748791534963059,5.807971060613615
1918402,10.31791378682557,11.377093312476125
1337531,10.312525243792455,11.37170476944301
1267417,3.757562687647499,4.816742213298054
1993466,10.351085219297524,11.410264744948078
2208655,8.641499539173408,9.700679064823962
217765,3.208210006663734,4.267389532314289
294793,10.593922986985065,11.65310251263562
2893511,10.940601686447259,11.999781212097814
1827531,11.329821677555262,12.389001203205817
1601088,10.088155170484312,11.147334696134866
2897204,8.538461364362336,9.59764089001289
2419198,10.755426373026802,11.814605898677357
1093346,4.492037761581393,5.551217287231949
2865020,10.953726604085627,12.012906129736182
820748,11.131901909517756,12.19108143516831
2738316,12.143074288142742,13.202253813793297
1997047,11.269751819686588,12.328931345337143
858875,10.419286648578057,11.478466174228611
3696064,11.263491236845507,12.32267076249606
1335854,10.762528701362621,11.821708227013175
3787160,4.793016451199176,5.852195976849732
2144213,75.8021537072008,76.86133323285136
2747168,11.683622403150602,12.742801928801157
3372766,12.449114188997468,13.508293714648023
1911206,10.349418833499712,11.408598359150266
1604933,11.001407086342343,12.060586611992898
2174343,11.724051273902763,12.783230799553316
750340,9.987535218509505,11.046714744160061
345806,12.030726124402971,13.089905650053526
2981166,10.781595396438895,11.84077492208945
1154943,8.858288248999816,9.917467774650373
3524180,11.330092672475987,12.389272198126541
308822,11.27291330489717,12.332092830547724
206074,10.267337735023915,11.32651726067447
2691564,10.026105148521154,11.08528467417171
1948625,4.112133034447451,5.1713125600980065
3423886,11.54337540255979,12.602554928210344
2788507,11.007158807747222,12.066338333397777
345393,11.047971203397806,12.10715072904836
1231789,10.663270868728242,11.722450394378797
2419215,82.5749454943293,83.63412501997986
1121516,11.002070812341952,12.061250337992506
3904569,11.21660247644298,12.275782002093534
2275327,10.19035131357531,11.249530839225864
3143227,3.504115253675043,4.563294779325598
2921961,10.147098457650255,11.20627798330081
3679464,10.150474952190566,11.20965447784112
2679308,8.381840593161307,9.441020118811863
3839633,3.1058580704594707,4.165037596110027
3067030,4.289031626607647,5.3482111522582025
1394111,9.934603008502638,10.993782534153194
1326280,10.582963522331404,11.642143047981959
3211954,9.51760994171809,10.576789467368645
3734114,10.120096971166774,11.17927649681733
2013953,11.945238738806129,13.004418264456683
2948049,3.5543196503548984,4.613499176005455
1333037,11.394087514996663,12.453267040647217
1320316,10.361615070931277,11.420794596581832
2452389,11.307851870002231,12.367031395652786
479891,10.750631223152293,11.809810748802848
3106620,9.14304579521443,10.202225320864985
1014621,11.39558862600509,12.454768151655644
1448363,10.960809380141459,12.019988905792014
3352762,5.023193159015869,6.082372684666424
1468596,11.220412717801675,12.27959224345223
1520614,11.94965546005375,13.008834985704304
2723022,10.605151627602698,11.664331153253253
1817670,10.199629347370356,11.258808873020913
1547010,10.564333660104275,11.623513185754828
3674032,10.801797184504624,11.860976710155178
1756483,10.575024976422725,11.63420450207328
2858636,11.737497818759692,12.796677344410249
2627187,10.736126665324361,11.795306190974916
1358919,9.986021051070823,11.04520057672138
1983366,10.233689638613575,11.292869164264129
2970125,10.748863564003432,11.808043089653987
2831915,10.192478834438605,11.251658360089161
1558020,11.579918327919078,12.639097853569632
303331,9.503602096863503,10.562781622514057
3759077,10.572760628875898,11.631940154526452
1400539,9.720382296884102,10.779561822534657
2756994,8.803090029468041,9.862269555118598
1836215,11.468253922142807,12.527433447793362
2927841,3.0594060250112074,4.118585550661763
2544185,8.973388303491387,10.032567829141943
759114,10.369033664128539,11.428213189779093
345596,10.780548795728762,11.839728321379317
684477,3.642732454909377,4.701911980559933
3355471,4.832336892219906,5.891516417870461
3488879,9.512822563744773,10.572002089395328
931263,3.0450903593639476,4.104269885014502
225026,10.144665676900006,11.20384520255056
1876126,11.629584556479289,12.688764082129843
1075159,9.879625504404347,10.938805030054901
906252,10.934822412021484,11.994001937672039
1692583,75.30076792754319,76.35994745319375
1120188,12.278862299592355,13.33804182524291
877252,10.364420765712003,11.423600291362558
3407655,9.819798243668284,10.87897776931884
3470455,10.333534120473722,11.392713646124276
1739572,9.968421742475812,11.027601268126366
3257770,10.506748741159482,11.565928266810037
3788390,5.183783828624842,6.242963354275397
3797350,9.79356997005066,10.852749495701216
243703,9.853842761576411,10.913022287226966
1622347,12.351111076004972,13.410290601655527
811654,81.84447802988107,82.90365755553164
2022641,9.3473867540264,10.406566279676955
2415560,3.508312153003182,4.567491678653737
2137388,10.477415148105381,11.536594673755936
820156,11.172080380130529,12.231259905781084
1625745,10.800910819078782,11.860090344729336
2237847,11.040938700694548,12.100118226345103
3093933,10.688330202449901,11.747509728100455
1136873,10.632299737062642,11.691479262713198
3701927,12.051806831850513,13.110986357501066
2491600,10.17687266855247,11.236052194203024
476799,11.99457311917581,13.053752644826364
629447,9.306300650050396,10.365480175700952
978608,9.435370728016704,10.49455025366726
2877544,4.368785355707691,5.427964881358246
2584138,3.3448587943632244,4.404038320013779
2206416,9.556003696786664,10.615183222437219
2140949,10.809269376229036,11.86844890187959
686983,10.431683079866596,11.490862605517151
231243,8.981745832897541,10.040925358548098
2852053,10.944748726788509,12.003928252439064
3408389,10.984349363682021,12.043528889332576
1828306,83.85201339466873,84.91119292031928
1110099,10.986824546382092,12.046004072032646
1974310,9.439644342739818,10.498823868390373
911588,11.189224775486998,12.248404301137553
3902137,10.227996455350596,11.28717598100115
1325289,4.384239501373494,5.443419027024049
3673044,10.584633730823052,11.643813256473607
2848569,11.18529437191391,12.244473897564465
1977680,8.061602837287525,9.12078236293808
1367659,12.590334697901751,13.649514223552305
2526634,12.23855098441481,13.297730510065364
534877,10.890574858856557,11.949754384507111
3363649,3.927389360096745,4.9865688857473005
2881637,76.13900240967283,77.19818193532339
397397,11.071749534200798,12.130929059851352
1725654,10.603067500506045,11.6622470261566
412065,11.43641199680605,12.495591522456605
3391340,9.36557440699054,10.424753932641096
206344,10.955868710849122,12.015048236499677
3732416,8.56853935217318,9.627718877823737
1817145,10.110019650229432,11.169199175879987
3249165,10.125977544673194,11.185157070323749
519500,12.086896457484078,13.146075983134633
683071,10.312196069573732,11.371375595224286
