sample_id,y0,y1
2657259,-0.2147115909101519,-0.2361828197048792
3714618,-0.9895774015360633,-1.0110486303307906
207817,-0.5359207497141774,-0.5557195313803756
691708,-0.8307947600494434,-0.8517289000862746
2576621,-0.6888906354021003,-0.7098247754389314
2761349,-0.9316638449347049,-0.9595335549400693
2722800,-1.2699795266692608,-1.2921871669588874
2447551,-0.5778327067522881,-0.6008290695518691
2155372,-0.5108526176312689,-0.5307893520063014
1980305,-1.9873304898526996,-2.016859114170887
2911736,-0.7561882572653156,-0.7766115237229678
608475,-0.8728631608386129,-0.9000913180429796
1385159,-1.1080061812625435,-1.1285762727979025
3100428,-0.9608289089830178,-0.9801701249317976
3761436,-0.4754937839077576,-0.4952925655739559
3955284,-0.4799641684496022,-0.5017625510634565
1291044,0.1076429922533102,0.1225831439162906
2980657,-0.8801274016858619,-0.9004059243081619
3487901,-1.2072696182772238,-1.227548140899524
248905,-0.6043865911465834,-0.6254750216505534
1124261,-0.10816768730837978,-0.12859095376603202
3352843,-1.1590318909129111,-1.1818449019997312
851341,0.04915047800938965,0.027516909137023537
3118599,-0.40951532673093016,-0.4297938493532302
1749766,-0.7933684942017073,-0.8137917606593595
3106869,-0.8452296014560788,-0.8650283831222771
1549818,-0.9884926206652442,-1.0102910032790986
2758579,-0.9299602454214015,-0.9500960615080599
3668458,-0.3056480145117207,-0.325446796177919
1727758,-0.951121452432437,-0.9720555924692681
2209844,-1.115606365334672,-1.1354051470008701
1275951,-1.3645998385429654,-1.349659686879985
1495349,-0.8895127570073578,-0.8742197483438636
1768470,-0.3619143353510654,-0.3841219756406918
2889086,-1.088533831815639,-1.1081965568586079
3432394,-0.3620992622371805,-0.3884694404610094
3792411,-0.6835984516171566,-0.7053968342310108
1077060,-0.9011776454233349,-0.9209764270895331
2879289,-1.8685689919204282,-1.8917516777192704
677007,-0.40116270634404044,-0.42279627521640656
3167883,-0.07426203020386846,-0.09360324615264826
3522324,-1.1102940721106074,-1.1305725947329073
1486750,-0.9052796939199468,-0.9262138339567778
650936,-1.0643514205068993,-1.0859849893792655
1885417,-0.9307427317504111,-0.9518311622543809
2812678,-0.5086455529775729,-0.5284443346437712
2722485,-0.9964653926249321,-1.0173995326617633
3951564,-0.24406391486307594,-0.2631471411899345
949880,-1.3706611017826305,-1.3934741128694506
898920,-0.8497487680284119,-0.870682908065243
3439632,-0.7132906877583494,-0.7349242566307155
1560032,-0.7610188298540889,-0.78195296989092
875573,-0.37149397215149405,-0.39370161244112045
377882,-0.38503166058606736,-0.4056017521214264
212254,-0.8996403697121919,-0.9281825971705292
2695459,-0.03810707758345644,-0.05904121762028758
3008146,-0.4778176880818057,-0.49875182811863683
215187,-1.4030877434628026,-1.4241761739667727
2767205,-0.4864170067811448,-0.5075054372851147
1327955,-0.5125861400198934,-0.5328646626421935
3158999,0.22534627591709877,0.20477618438173972
3934461,-0.446013220062821,-0.46993993008125506
1698421,-0.14495222401985186,-0.16578706872146287
3073541,0.050608825088479525,0.03081004342228122
1938989,-0.5078294572180777,-0.5275393995406062
598733,-0.6153087334086966,-0.6369423022810627
3494524,-1.070805427982518,-1.0917395680193493
2443962,-0.6929392282654678,-0.7132177508877678
3530022,-0.7005906796817507,-0.7215248197185818
2123461,-0.5611570474784489,-0.5829554300923031
3876856,-0.7060595498238871,-0.727147980327857
884213,-0.7519654762933403,-0.7758921863117744
2705795,-0.5971277302848175,-0.6175509967424697
3339799,-0.592369168158205,-0.6118420126737535
334897,-0.9372608687011714,-0.9587320974958987
401779,-0.45202781431484274,-0.4721044373997766
1040898,-1.0315826435725743,-1.0548442917777219
596575,-1.5887200710871399,-1.610353639959506
3721314,-1.1540914464512861,-1.1738902281174843
3837706,-0.6942570485139418,-0.7158906173863079
2135768,-1.2722987006529776,-1.2927219671106298
860751,-0.6519243871124014,-0.6723476535700537
1263337,-0.8010066843376205,-0.8247349702759637
1975665,0.29509285042167555,0.3097447710662601
2115302,-1.3784986316481547,-1.4007787211414202
2607057,-0.901667193319965,-0.9220904597776173
2875849,-0.9047470096327812,-0.923958364641899
3034055,-0.47360251716049506,-0.4938810397827951
2677956,-0.6959044437028692,-0.7168385837397003
887605,-0.8891037455948102,-0.9089025272610085
3323590,-1.0197597198258712,-1.0412309486205986
3507165,-1.1728217789131805,-1.1942930077079077
3015682,-0.5356106169087864,-0.5578182571984127
3056532,-0.7610770256443787,-0.7807397506873476
599132,-1.3887148715556386,-1.4091381380132906
3231802,-1.087901931419583,-1.1083251978772353
1271612,-1.1938323081972366,-1.2153035369919638
2209017,-0.8828408065789912,-0.9041521136820534
3219532,-0.8715721575485091,-0.891234882591478
3103065,-0.6516052650939592,-0.6366651134309788
3685856,-0.2539932089400252,-0.27725485714517284
2153198,-0.22612632686773743,-0.24654959332538967
1559225,-0.978887324210703,-0.9993105906683553
2817559,-1.240111518587803,-1.2664816968116321
1484024,-0.4428674054936401,-0.46343749702899917
3397886,-0.3371125550714319,-0.3593201953610583
475352,-0.5444259955002362,-0.5660595643726023
3231855,0.04151094866684968,0.01964276685110866
1112522,-0.4461641150575528,-0.4679624976714071
1057483,-0.31679752512985604,-0.339793887929437
3663149,-0.3547494119345766,-0.37568355197140774
1760600,-0.843311355137508,-0.8640303982085122
2150910,-0.5752022306659936,-0.5971679576607489
904167,-0.49455640799240375,-0.514355189658602
197579,-0.8675868921375595,-0.8886753226415294
3520719,-0.2659171878633827,-0.2861957104856827
3674720,-0.45597538520937086,-0.476909525246202
3025369,-0.9554188530561014,-0.9772172356699557
254822,-1.1728019669770728,-1.193225233434725
233427,-1.0398045769898034,-1.0640518656881877
2419961,-1.07035674519354,-1.090780011651192
3093478,-1.0827937857903744,-1.1054263459351585
3675243,-0.7738537452308136,-0.7936525268970119
2146122,-0.33932028057096714,-0.35911906223716544
2866753,-1.152915416796771,-1.175547976941555
835264,0.21879543937732693,0.19899665771112862
2174368,-0.7891657596139615,-0.8095890260716138
1296216,-0.16898548602211894,-0.18926400864441895
663681,-0.5033706504274906,-0.5250042192998567
3099969,-0.3102273015296445,-0.33065056798729675
1601063,-1.0677006514697436,-1.0922942512508618
2278705,-0.14711300891676926,-0.1675362753744215
1824746,-1.068516912977552,-1.0542357801417856
571080,-0.03794371903463423,-0.060151359324260634
3130023,-1.2518679814796023,-1.2767882146053862
1433830,-0.32905726051777656,-0.34899399489280897
3710475,-1.026585377395182,-1.047519517432013
3349462,0.33708656710891804,0.31630447615553314
3710141,-1.5974250848325353,-1.6183592248693666
3260144,-0.7672154719516742,-0.7870142536178725
2895203,-0.8582670932115857,-0.8786903596692379
1757060,-0.826698607192744,-0.8483321760651101
2775274,-0.08788757839353978,-0.11107026419238197
294832,-0.7733481492063417,-0.7955557894959681
1484494,-0.5443474655295765,-0.5640101905725453
607654,-0.3903151743195872,-0.4107384407772394
2518925,-0.5851448191717226,-0.6079578302585427
2894864,-0.41689174420488095,-0.43798017470885087
3853920,-1.3180440488583198,-1.339355355961382
2503994,-0.3959563204764123,-0.41704475098038224
3748280,-0.7177443098519796,-0.7393778787243457
622859,-0.4406731786838125,-0.46247156129766676
3197553,-0.6524759513572636,-0.6742743339711178
2942109,-1.375418555546466,-1.3997522393866586
1479816,-0.8207923604658124,-0.8434249206105965
1199072,-0.5366265466673332,-0.5590078993459198
3341466,-1.4043912929244269,-1.426024861796793
410131,-0.7057991584318853,-0.7274327273042515
2585019,-0.7734139578877732,-0.7950475267601393
812736,-1.2982308361543444,-1.3185093587766445
1727350,-0.6265955144855528,-0.6113025058220587
3498366,-1.019951901182127,-1.0403751676397792
947489,-0.531739681261912,-0.5515384629281104
1891512,-0.4149957134542731,-0.4366292823266392
3089467,-1.4777646542970726,-1.4988530848010426
3652614,-0.7159049394425773,-0.7340401596680214
2444743,-0.8904156519242924,-0.8751226432607982
3681041,-0.6524046513567406,-0.6733387913935718
1789618,-0.8014593340985876,-0.8234959378872152
557490,-0.17649546599036225,-0.19629424765656056
353896,-0.3042479202051561,-0.32467118666280836
2210050,-0.5622126018703868,-0.5831467419072179
3482225,-0.8283562445873225,-0.8487795110449747
1697252,-1.0144065321086027,-1.0357733176250319
3160148,-0.36364789101305156,-0.38646090209987166
3526103,-1.3249348601596918,-1.3465684290320579
1954733,-0.6415808565091632,-0.6655075665275972
2645068,-0.8558913413570595,-0.8745491241373371
3750556,-0.5929179372207015,-0.6133412036783538
1267021,-0.9813737999094099,-1.0075841501975653
1941387,-0.6418821114227687,-0.6634096555211814
3106656,-0.644962778916225,-0.6646255039591938
523430,-0.5086685483496396,-0.5284673300158379
3952355,-0.9187807060829762,-0.9385794877491747
1529446,-0.9094436178992175,-0.9310771867715836
280603,-0.9389894806317902,-0.958200835640908
1442481,-0.36058392652079313,-0.3820551553155204
2526646,-0.7013840382031588,-0.7230176070755249
2500530,-1.0644793060041242,-1.0847578286264241
2020900,-0.9303902729168172,-0.9513244129536482
3805369,0.08736394968245453,0.06532734589382694
3139290,-0.22662791127180204,-0.24756205130863318
3382602,-0.5552074383266143,-0.5774150786162408
359784,-0.5668470188240393,-0.5881583259271014
620977,-0.4929133036874279,-0.5133365701450802
2423478,-0.6707115259289246,-0.6941638388151545
1274119,-0.855055209980056,-0.8811845685440862
1204918,-0.7140082186600663,-0.7356417875324324
359833,-0.47492059520661295,-0.49600902571058286
3445138,-1.0931635705237241,-1.112504786472504
3176628,-0.7220910086003836,-0.7430251486372147
1665389,-0.3024230674429902,-0.3232579121446012
1479802,-0.980107601544939,-1.0015788303396662
755588,-0.11164084895270243,-0.13471490779969064
1170452,-0.9630488066494748,-0.984293818935443
249860,-1.0238660473346248,-1.044289313792277
844855,-1.5428892593473738,-1.5622304752961536
2177047,-0.3079855566307811,-0.3289196966676122
2241376,-0.9358564626329458,-0.956279729090598
3391607,-1.4097669528061845,-1.4300454754284846
2120961,-0.3865675873123645,-0.4093805983991846
641046,-0.7258517967830955,-0.7457885311581279
1228529,-0.45545590803078506,-0.4763900480676162
3187072,-1.181215540589132,-1.2014940632114322
2985438,-1.18799910872312,-1.20827763134542
2062646,-0.5071173042015307,-0.5275405706591829
1036954,-1.0004997170564225,-1.0207782396787226
3846289,-0.49013518680290086,-0.5105584532605532
1222254,-0.5458810811081349,-0.568513641252919
3471846,-1.4096005088555905,-1.4327831946544327
3707454,-0.6594650469348984,-0.6792638286010967
3428908,-1.3013356529843114,-1.3232038348000525
862737,-1.0265885216952682,-1.046867044317568
2760310,-0.36602087688975854,-0.3869550169265897
3945421,-0.729370570053919,-0.7480283528341967
1132136,-0.9136016810732925,-0.9358817705665583
2879417,-0.9898613332553039,-1.0120689735449302
3347850,-1.2652731923862137,-1.2873097961748412
3150856,-0.6584234037335126,-0.6787019263558126
888239,-0.4528645480772941,-0.47328781453494634
3526177,-1.0500346509179788,-1.070457917375631
1754649,-0.8971949493566611,-0.9174734719789611
2871200,-0.5417369818542149,-0.5634277220019935
3262209,-0.3403096002947959,-0.3613980307987658
1309508,-1.611865162309902,-1.6342465149884886
2106008,-0.8313349349199481,-0.8529685037923143
904725,-0.35182788708924606,-0.37176462146427847
1230530,-0.49574128230346143,-0.5172125110981887
2188429,-0.4706714288766751,-0.4934844399634952
1370091,-0.6217249933226796,-0.6437615971113071
653497,-0.33343118306431896,-0.35322996473051727
432121,-1.0257286172991382,-1.0456653516741705
3766201,-0.9388227067539544,-0.9591012293762544
2423552,-0.6729062340399358,-0.6980220436623361
263955,-0.15437321677972138,-0.17530735681655252
327993,-0.6977762739035864,-0.719812877692214
999073,-1.592187507249014,-1.614820067393798
1059709,-0.7674727612146492,-0.7884069012514804
3889063,-1.0139089782035795,-1.0346910691569644
2520979,-1.4223303356770725,-1.4451433467638926
1692493,-0.229192161430121,-0.25359820314338133
2432917,-0.9314297323918618,-0.9523638724286929
3296053,-0.8408394464009366,-0.8627076282166776
2562763,-0.43893324089406843,-0.46056680976643455
3415674,-1.0997692891323074,-1.118306197874111
3168480,-0.9253235720324868,-0.946257712069318
483602,-0.9460067206600834,-0.9716116730029705
2556547,-0.4346507745948353,-0.4545875089698677
2690797,-1.093319200449044,-1.1157005531276305
1236432,-1.826929579434197,-1.8493109321127836
1092478,-1.0564141249848364,-1.0773482650216675
623872,-0.46261603022388575,-0.4835501702607169
3500952,-0.5931357036648813,-0.6147692725372474
2948112,-0.2060618092743351,-0.22572453431730394
242299,-1.0541806017534157,-1.0758141706257818
1318477,-0.8196286949358561,-0.8405628349726872
3347887,-0.8372710522096937,-0.8602674150092746
1731379,-1.0440093841894353,-1.0642879068117355
1766751,-1.0777857694228692,-1.0988741999268392
288180,-0.29068984719429697,-0.3104886288604953
261048,-0.7002863019420894,-0.7200850836082877
894469,-1.276253952187529,-1.296052733853727
3540156,-0.5964431555625457,-0.6161058806055145
615604,-1.6212244259186537,-1.6456084342480923
3172200,-0.39466338805355833,-0.41629695692592444
409932,-0.3069014557198918,-0.2922982449505791
1195067,-0.32747071984150894,-0.34910428871387506
370908,-1.406260426605745,-1.4266836930633975
720017,-0.7095698721997683,-0.7298483948220683
534681,-0.299061790173639,-0.3201502206776089
2595937,-0.6539990506020209,-0.6744223170596731
382270,-1.121196560753874,-1.1440095718406942
3267674,-0.6317583198391827,-0.6526924598760139
2170913,-0.6241543955290023,-0.6440911299040347
1414476,-1.297485215723965,-1.3177637383462648
1360005,-0.9799147655942857,-0.9997135472604839
2896270,-0.7549515107736541,-0.7758856508104852
1576231,-1.2739588087760043,-1.2957571913898585
3329229,-0.8560058865645889,-0.8762844091868889
2904837,-0.9832164436866032,-1.0071431537050373
1293665,-1.077022454066264,-1.0996550142110482
1941356,-0.7843745749773806,-0.8053622445434783
1362121,-0.8163553808409548,-0.8374438113449247
3344253,-0.5253612332701383,-0.5473978370587658
3327591,-0.35070643273970936,-0.37098495536200937
1328140,-0.8000310868224172,-0.8211195173263871
2277409,-0.5264806470488295,-0.5462794287150278
1741974,-0.42276875283621296,-0.4431920192938652
644770,-0.7797724273106521,-0.7997091616856846
465014,-0.12875084999098685,-0.1500621570940489
3493725,-0.527464593863977,-0.5498459465425636
1353745,-0.4769213169952501,-0.5022595453382561
210766,-0.7423449072353168,-0.7639784761076829
815111,-0.4690313807850837,-0.49158918503573196
1759327,-1.0509189330132052,-1.0713421994708574
3412395,-0.46094449011697924,-0.48172658107036415
723502,-0.9534854599075426,-0.9755220636961701
866560,-1.259268856118552,-1.281723797790188
2415906,-1.0979410804872658,-1.119574649359632
1024557,-0.6749600830655187,-0.694758864731717
518310,-1.1098637950344838,-1.1298005294095164
853295,-0.5880701325986357,-0.6091585631026057
1998593,-0.7950311833757784,-0.8166647522481445
2801309,-0.30870006067543426,-0.3303336295478004
2815502,-0.41553251413696846,-0.43533129580316676
1427733,-1.086308308552424,-1.112678486776253
2781540,-0.07087028006978224,-0.09114880269208225
358298,-0.0034572364853650006,-0.023256018151563307
254051,-1.0468642340300172,-1.0668009684050497
3269907,-0.16978744981455474,-0.18972418418958714
1095002,-1.269333695712083,-1.2931768714873741
1724364,-0.9147019210517064,-0.9363354899240726
1170859,-1.1506082045842618,-1.1725739315790173
2574082,-1.0313106717900538,-1.0509733968330224
3797232,-0.30968538308745264,-0.33077381359142255
874827,-0.6379455050488102,-0.6583687715064624
1676856,0.13882963576800877,0.1534815564125933
702600,0.13930748884950672,0.11888422239185448
2046278,-1.4491838894572546,-1.4691206238322871
3338602,-0.6488942677297973,-0.6709308715184249
1957984,-0.5014341906820199,-0.5217629382962838
2849438,-0.0786050965059858,-0.09902836296363804
1504880,-0.9158391431305035,-0.9373103719252308
1550764,-0.9204157576933797,-0.9413498977302108
2249622,-0.2723832310132926,-0.2910410137935702
566286,-0.9792904078301186,-0.999089189496317
1290949,-0.6571273203626282,-0.6779094113160131
1597162,-1.0733284100767495,-1.0952941370715048
3030179,-0.7356177760618435,-0.7560410425194958
3682295,-0.5975928635386515,-0.6168042185477692
3509522,-1.6239069665246473,-1.6464647707752955
339229,-0.9060089935754965,-0.9264322600331487
1977186,-0.38767089710752695,-0.407856232883445
1784306,-0.500171984549867,-0.5222085883384946
2819165,-0.5781156363223015,-0.600152240110929
1557503,-0.7119430494977217,-0.73174183116392
279275,-0.8924376473287118,-0.9152506584155319
1137805,-0.9126135406719975,-0.9335476807088287
1664148,-0.013914121831696713,-0.036010049971100244
694246,-0.6821184338216775,-0.7025417002793297
3322228,-0.9510343383341588,-0.9714576047918111
3243437,-0.8272869380948225,-0.849668290773409
1485888,-0.5579008014142846,-0.5788349414511156
2992914,-0.6590379209761675,-0.6806714898485337
3424184,-1.001072551847141,-1.0237051119919252
2871181,-0.7021252825717156,-0.7230594226085467
1375265,-0.6337623927922706,-0.653561174458469
3277011,-1.0118112640808035,-1.0327454041176345
3439425,-0.688691880013635,-0.7084906616798333
3135771,0.1623739731544941,0.14257519148829578
2978428,-0.8631860772984439,-0.884120217335275
2163188,-0.02401822562975553,-0.04532953273281759
586527,-0.09997270970062355,-0.12166344984840216
733913,-0.6742791791327695,-0.6947024455904217
1527380,-1.135231594117088,-1.1568651629894542
1223278,-1.1475456521067866,-1.1745171392728055
3523703,-0.9258025281567237,-0.9478984562961272
3449477,-1.231927980754023,-1.2547409918408432
1296866,-0.6521047482583655,-0.6745596899300015
862799,-0.8074548764212431,-0.8302678875080632
403141,-1.4182766283038082,-1.4457663879651643
283341,-1.0664208112465863,-1.0878920400413135
1435759,-0.32330867796547685,-0.34494224683784297
1904304,0.40248456328981486,0.3820612968321626
1487874,-1.233027682721806,-1.2550642865104338
3775292,-0.39055000182896255,-0.4109732682866148
1425624,-0.9432079551611894,-0.9639900461145743
582223,-0.9687189078569055,-0.9885176895231038
1025972,-1.0287840473260372,-1.0495661382794221
955921,-1.350653448421238,-1.3709319710435381
1202183,-0.49847335047804253,-0.5182721321442408
3524187,-0.5891639452806423,-0.6113715855702688
1199054,-0.802991483459843,-0.8240799139638129
1465211,-0.3119723613595141,-0.3341800016491405
3543635,-1.1901513000760688,-1.2110854401128999
2714279,-1.1734165360019981,-1.1936950586242983
1586006,-0.8827159455732165,-0.9049235858628429
1990555,-0.7427147938047935,-0.7625135754709917
197651,-0.6369590859578195,-0.6603311388625813
3500582,0.08848955937257863,0.06755541933574749
2531103,-0.009522541636926007,-0.029801064259226018
543334,-0.9876809943752396,-1.0064612379668851
2146737,-0.7914329177351305,-0.8123670577719616
823411,-0.5135322430915559,-0.5449505181578207
3052637,-0.980212204897879,-1.0016834336926062
1632042,-0.5951218643660554,-0.6167554332384215
1545106,-0.3259017268828538,-0.3452429428316336
415562,-0.5391254535152843,-0.5595487199729365
2184636,-0.7660976251146919,-0.7871860556186618
1501025,-0.26436020411828176,-0.28656784440790817
2608395,-0.6709841865428752,-0.6948273623181662
1070643,-0.4539047405534488,-0.4753759693481761
2225743,-0.4670263017716415,-0.4869630361466739
2572343,-0.9591724122053824,-0.9806436410001096
2200985,-0.14541967714354576,-0.16521845880974406
2992491,-0.7895783264921649,-0.8100015929498171
1484885,-0.9772229139952031,-0.9981570540320344
1116979,-0.8030436168201496,-0.7884404060508368
2932785,0.24311513322782774,0.2226918667701755
1970990,-0.5829676532508639,-0.5679765140347901
2063402,0.28307869143121056,0.26199026092724065
3879850,-0.17218192575192426,-0.1926051922095765
1882122,-0.7599043336364659,-0.7824621378871142
2619398,-0.8001999144799687,-0.8218334833523349
3890965,-1.2037168292769165,-1.2321402634218144
3921070,-0.481184687008659,-0.5009834686748573
2543754,-0.41453626691255185,-0.43433504857875016
1563481,-1.37993954411583,-1.3997383257820282
825886,-1.2003012765069045,-1.2205797991292044
1691605,-0.6693017505083312,-0.6908292946067438
3490437,-0.20656452405690418,-0.2276529545608741
3063343,-1.106985335529966,-1.1311138163830234
1064200,-0.007694580641857018,0.006908630127455684
966896,-1.063648214477081,-1.0844303054304658
504930,-1.1482544082623773,-1.1693428387663471
3122599,-0.8408619832387672,-0.8641236314439148
2884846,0.03721693097970147,0.015009290690075061
403487,-0.5001763527570301,-0.5216475815517574
2240922,-0.3820008183372192,-0.40121217334633696
2937504,-0.4352193829960289,-0.45412370562498916
653178,0.17357029563070425,0.15278820467731935
3491354,-1.0233011594309427,-1.0430999410971409
2226917,-0.8798904876093767,-0.9019270913980044
2411083,-0.6388791607254797,-0.6599675912294496
2598877,-0.665218214960849,-0.685496737583149
225942,-0.8542350893889453,-0.8766164420675319
981860,-1.6535965881203567,-1.6746850186243267
2170076,-0.9261790250615775,-0.9489920361483976
816068,-0.35398903932262055,-0.3749231793594517
2849458,-1.0130698989142937,-1.034004038951125
688105,-0.5101474057349881,-0.5305706721926403
3060854,-1.7479643536035847,-1.772595275880512
371057,-0.6132322961966672,-0.6383481058190676
1316372,-0.5978685494406315,-0.6188026894774628
3881987,-0.6403237310464911,-0.6627050837250776
1135311,-1.2063406966836223,-1.2272748367204536
423788,-1.0987909076332498,-1.1198793381372196
3762159,-0.5774233838180561,-0.5972221654842544
1865920,-1.5092298611830526,-1.5296531276407048
1146077,-0.026632706500890002,-0.04989435470603765
3335727,-0.6857540459603713,-0.7070653530634333
258257,-0.502014682608476,-0.48741147183916333
1279891,-0.6453410814769965,-0.6664295119809664
2525453,-1.1017905264424137,-1.1234240953147798
1741132,-0.9293643992834647,-0.9504528297874346
3015415,-0.6238940083538026,-0.6446760993071875
2587634,-1.709140401276029,-1.7332688821290865
608136,-0.5895490947423456,-0.6106375252463155
1848943,-0.724752448794145,-0.7435326923857905
446382,-0.21939785020232008,-0.20479463943300738
1001109,-0.8766027403500939,-0.89823630922246
3935391,-1.007316534402631,-1.029771476074267
3924140,-1.1521159015851552,-1.1725391680428072
458755,-0.3029338128245849,-0.3221451678337027
1296551,-0.63475017990752,-0.6551734463651723
1012060,-1.495325437376525,-1.5231951473818894
2214590,-0.3927867604549513,-0.4174176827318785
1493030,-1.1134937917635388,-1.1349650205582662
1598563,-0.9575431004347134,-0.9790143292294406
259496,-0.14881457585578095,-0.1692378423134332
974861,-0.5654165823254447,-0.5847577982742245
2774929,-0.9710513203703324,-0.9916835551331598
1539447,-0.7465726845940384,-0.768609288382666
3283776,-0.45406936559478034,-0.4750035056316115
3159760,-0.931011554076174,-0.9533929067547605
258990,-0.06828525170124156,-0.09049289199086796
3260759,-1.3830556562627432,-1.402718381305712
859088,-0.5240652411670201,-0.543727966209989
712869,-0.4912384596333773,-0.5116617260910296
643204,-0.6478230212269296,-0.6689114517308995
2624193,-1.4499007249274645,-1.4713719537221919
2543310,-1.0899142635030887,-1.1137574392783798
2219943,0.03214094919400523,0.010272767378264214
3707174,-0.578515903084951,-0.6007235433745775
1236696,-1.4307485200773544,-1.4533810802221385
3540902,-1.0488623197877345,-1.0697964598245657
1593655,-0.6475147529753947,-0.667938019433047
429995,-0.2405634504327644,-0.262600054221392
2501904,-0.6540565457272736,-0.6749906857641047
1589007,-0.8167777634096356,-0.8377119034464666
1116134,-1.5006934801219873,-1.5213257148848147
517879,-0.32890039679484695,-0.34869917846104526
3461644,-0.9351123439998706,-0.9565835727945979
2589685,-0.14275785456756618,-0.1638462850715361
2909962,-0.6693650227792942,-0.6909985916516603
925561,-0.11811312811059582,-0.13958435690532311
574520,-1.5401783840931258,-1.5637429234299165
3321204,-0.8120019343357386,-0.8329360743725698
1276648,-0.7029126153043579,-0.7233358817620101
3729846,-0.8420827608857766,-0.8631711913897465
411863,-0.39712092416732986,-0.41975348431211396
553785,-0.662215107867828,-0.6826383743254802
1042117,-0.42389708487111843,-0.44417560749341845
1373524,-0.3832675225277422,-0.40420166256457335
2429187,-1.402201332917957,-1.4232897634219268
852002,-0.8367972377482421,-0.8596102488350622
1097517,-0.3577010888032324,-0.37812435526088467
1264652,-0.8929147964144725,-0.9133380628721247
2881036,-0.5767062984280799,-0.597640438464911
1354627,-0.8734837493572218,-0.8932825310234203
2211786,-0.9081308772469554,-0.9293758895329236
1106434,-0.8550757339968333,-0.8756458255321924
3693601,-0.6594609871855587,-0.6813291690012997
1255762,-1.099503506689623,-1.1238875150190617
3016510,-1.020607025658136,-1.0415411656949674
386871,-1.0025662334820746,-1.0256402923290628
717790,-0.6800770603283489,-0.7033387085334966
284751,-0.6445317543619453,-0.6644684887369777
1570864,-1.0543668617803148,-1.077179872867135
824339,-0.9474782935832049,-0.9679015600408571
1619386,-0.7934901702335049,-0.8139134366911571
3333578,-1.1057604542683943,-1.1261837207260466
2820609,-0.6311685522466126,-0.6503799072557304
810705,-0.4790808209783446,-0.5017133811231287
1740769,-0.18268813323136812,-0.20296665585366813
3413964,-0.9958410105988774,-1.0153695362785853
3101838,-1.44388394120969,-1.4641624638319901
1282964,-1.2003417471758884,-1.2233381099754694
3676163,-1.0264574568174085,-1.0473915968542398
2282995,-1.002905086532735,-1.023839226569566
3028880,-1.2605020784746128,-1.2815905089785828
1534472,-0.7615435524526886,-0.7831771213250547
3444660,-1.0266363302668258,-1.047059596724478
2222303,-1.2170360794067823,-1.2381245099107523
3336024,-0.23901753033849232,-0.25881631200469063
2263326,-0.7977164132246797,-0.8173791382676485
2009904,-1.4186919938191895,-1.439115260276842
1688265,-1.1983012770065815,-1.2199920171543601
2751008,-0.7565991023029481,-0.7409361654787936
1088294,-0.6658134404877883,-0.6867475805246195
1242002,-1.4781057172726628,-1.500663521523311
397995,-0.9017627070495869,-0.9228511375535569
1468928,-0.6648425670826903,-0.6846413487488886
3275247,-0.8395108546016706,-0.8597893772239706
2961916,-0.5918610074789077,-0.6127951475157387
1384111,-0.8837978751724688,-0.9072501880586987
3200906,-0.5781958435947165,-0.5968536263749942
2971033,-1.3124611067469951,-1.3384335347337313
2909925,-0.46296861376899995,-0.4853499664475865
1080909,-0.2604988734563015,-0.24589566268698884
2893086,-1.6183845391710943,-1.6401829217849486
203392,-0.7518439301439349,-0.7721224527662349
2675990,-0.8660444105755228,-0.8871328410794928
688103,-0.5215956766363722,-0.5425298166732033
345596,-0.6750844410626109,-0.6948832227288092
1757573,-0.23078741617484744,-0.2517215562116786
2479576,-0.34627104982374346,-0.3666943162813957
3421488,-0.7216366475133293,-0.7408480025224471
473035,-1.2934417685118187,-1.3120995512920963
1351420,-0.16653301056562475,-0.18816657943799087
3153050,-0.06577513360522969,-0.08670927364206082
1225046,-0.39295155756775546,-0.4145851264401216
474714,-0.41964260295842815,-0.4400658694160804
344482,-0.9256006742153551,-0.9452633992583239
317565,-0.7977267388504291,-0.8175255205166274
288688,-1.0214394900011592,-1.0418627564588114
1520079,-1.054005428903966,-1.0744286953616182
958570,-0.8319164485941015,-0.8537148312079557
3936827,-0.572142521073652,-0.5942384492130556
1126116,-0.20297532933398005,-0.22277411100017835
1529532,-1.265985292113295,-1.2846430748935727
3128446,-1.0353877861151872,-1.0575954264048137
3956090,-0.7067911659089969,-0.7260025209181147
2451516,-1.2188368711109487,-1.239260137568601
1049520,-0.4686768010449936,-0.49088444133462
1432799,-1.0019502413863435,-1.02433159406493
229097,-1.0193696778969625,-1.0403038179337936
673976,-0.6432122082587723,-0.6628749333017412
2693086,-0.19000866264994576,-0.2109428026867769
654694,-1.3531364867425544,-1.3740706267793854
1813105,-0.9678070724765041,-0.9887412125133352
1510221,-0.9560417811693175,-0.9763203037916175
2628509,-0.36325483924331675,-0.3856361919219033
2225754,-0.21120848668268566,-0.2321426267195168
2150046,-1.405429832835595,-1.427063401707961
2901492,-0.5316080806674479,-0.553241649539814
3320235,-1.7595181263045303,-1.7793169079707285
422642,-0.8593497014483433,-0.8791484831145415
283402,-0.5363450452890915,-0.5567683117467438
2423268,-0.3727529383351589,-0.3922257828507074
3332220,-0.8489650153101884,-0.8705985841825545
1733582,-0.061940736988574385,-0.0822192596108744
2533578,-0.9185275405958913,-0.9394616806327224
2161478,-2.0851862777311516,-2.1078188378759357
2973935,-0.5391328302292359,-0.5602212607332058
1726320,-0.4962378130162132,-0.4809448043527191
914234,-0.8422321470000822,-0.8677414584457794
3096008,-0.7704040194807888,-0.7914924499847588
1632002,-1.4829203273524152,-1.5034904188877742
724314,-0.8546557970644759,-0.8750790635221282
670102,-1.1820217927644743,-1.2023003153867742
3729218,-0.6970658683806724,-0.7180000084175036
1336675,-0.9101246558002833,-0.9306947473356424
2844070,-0.4151238257288649,-0.43605796576569605
466127,-0.6704541942195523,-0.6924907980081799
999830,-0.8063173909375321,-0.8256586068863119
3349481,-0.9035685232341693,-0.9252020921065354
3113725,-0.761232167355158,-0.7810309490213563
581565,-0.13793711955706778,-0.15773590122326608
2974407,-1.2321972764973104,-1.2531314165341416
2639855,-0.5584655672199776,-0.578264348886176
2609325,-1.1916760896221552,-1.2120993560798075
1393527,-1.435968055262777,-1.459420368149007
3774622,-0.9505023754120501,-0.97078089803435
1949894,-1.4999627197876042,-1.5207975644892153
2271277,0.4654799675634119,0.4438463986910458
2549407,-0.5128681995539551,-0.5331467221762551
1352628,-0.9864798666074344,-1.0067583892297343
3960967,-0.13423610479182324,-0.15465937124947549
2462646,-0.6513258129778423,-0.6717490794354946
2975030,-0.41536907165468606,-0.4370026405270522
814531,-0.24528578047027372,-0.26494850551324256
3927206,-0.9922090813830369,-1.0120078630492353
2711657,-0.4920088116559833,-0.5129429516928145
3849930,-0.6916925828185747,-0.7139002231082011
1411722,-0.6481593016274291,-0.6690934416642602
3882272,-0.8678040846781958,-0.888227351135848
3796494,-0.8506065983060823,-0.8733144114949218
251028,-0.6145180176759392,-0.6344547520509716
3542719,-0.8820230519628567,-0.901821833629055
3937862,-0.6135716555635142,-0.6335083899385466
1222239,-1.435828789130747,-1.4569172196347169
3318452,-0.9758517128210437,-0.997322941615771
314237,-0.8792877738078853,-0.8992245081829178
627680,-0.6435976083404946,-0.6638761309627946
993643,-0.793268708532175,-0.8136919749898273
2560631,-0.9446244629011006,-0.9674374739879207
212609,-0.4802594425290583,-0.4653192908660779
3489313,-1.118130525233271,-1.141126888032852
3517766,-0.7817585857760982,-0.8025406767294831
3794408,-1.1015918146629344,-1.1213905963291326
2971506,-0.67422296247577,-0.6938856875187388
920624,-0.5424630832707846,-0.563934312065512
2923075,-1.1600554408731698,-1.180989580910001
360544,-1.4506305559332335,-1.4710538223908858
2215283,-0.7945674915809502,-0.8149907580386024
1891828,-0.8417826904901645,-0.8634162593625306
1990199,-0.5687254887022318,-0.589659628739063
2945895,-0.3501559446877217,-0.36995472635392
1637169,-0.10261683586172499,-0.12241561752792329
1344577,-0.22010118575682025,-0.2418995683706745
1563413,-0.3331432993200949,-0.35356656577774714
3065563,-1.1557430696822713,-1.1766772097191025
2219760,-0.33478884978534895,-0.35587728028931886
641632,-0.5906992887482148,-0.611122555205867
964984,-1.6871921358063338,-1.7098246959511179
3886644,-0.9062223034916564,-0.9276935322863837
1635452,-0.8304541915571042,-0.8580550524687565
3127997,-1.0260629577939282,-1.047151388297898
1997925,-0.9186382536836106,-0.9401094824783379
2855915,-0.20889322653545805,-0.2298273665722892
2979514,-0.7735242782435264,-0.7959792199151624
3253597,-0.5240558277555587,-0.544479094213211
3053651,-0.5456784377514672,-0.569130750637697
1460889,-1.2925002921880298,-1.3142986748018841
2985487,0.014522575264103388,-0.006259515689281514
3947470,-0.7467773683314228,-0.7682485971261501
3806961,-0.4121581958670777,-0.4332466263710476
1257262,-0.9009680288836044,-0.9212465515059044
3532583,-0.7028298999443683,-0.7239183304483383
2611694,-1.3845350469807196,-1.4049583134383719
3845566,-0.4726747174894463,-0.4952325217400945
3267541,-0.6934860980057784,-0.7156937382954048
2540914,-0.7654257397245672,-0.7846370947336849
2689925,-0.6093818339735809,-0.633308543992015
382750,-0.811327882857327,-0.832416313361297
1281024,-1.0812071530587744,-1.1021412930956054
2691533,-0.5055768053964851,-0.5253755870626833
2026406,-1.4681141450675526,-1.4883926676898527
1171196,-0.8049683392709064,-0.8276008994156905
2766259,-0.35578133653117466,-0.37781794031980226
3771289,0.12434041082006775,0.10270684194770163
1092347,-0.9422599948456214,-0.9269669861821273
2932253,-0.7550501478810507,-0.774848929547249
2051489,-1.2743154717858138,-1.2975771199909616
3219963,-0.1091530792404597,-0.12957634569811194
612547,-1.0572645735018944,-1.0776878399595469
1379641,-0.6741891781015801,-0.6965705307801666
3494589,-0.06551223225199365,-0.08644637228882479
3320080,-0.37660381923740893,-0.39607666375295747
264583,-0.7918284973914099,-0.8122517638490622
1110099,-1.2571971289949333,-1.2769959106611317
415491,-0.766183357249649,-0.7882199610382766
1063007,-0.7887205611137075,-0.8105189437275617
1672671,-0.8765077332496137,-0.8981984733973923
1003819,-0.7473680702444032,-0.7684565007483731
1574300,-0.7692329174923814,-0.791614270170968
1408351,-0.7945709710509987,-0.8137823260601165
2769800,-0.8385630980201385,-0.8605288250148939
1160191,-0.5362065417288773,-0.5562831648138111
2133408,-0.5649390501153864,-0.5853623165730386
453728,-0.3109488995348132,-0.33137216599246544
664066,-0.8286694263365944,-0.8489479489588944
2984430,-0.9544494445644703,-0.9760830134368365
3868241,-0.8908802453538476,-0.9118143853906788
299835,-0.9556288663880473,-0.9771000951827746
565860,-0.8696195303196634,-0.8900427967773157
2809170,-0.13970804844814144,-0.15998657107044145
2043513,-1.1525690193357183,-1.1723678010019165
3681883,-1.2179061115901557,-1.2388402516269867
3837755,-0.539684049699781,-0.5601073161574333
3223306,-0.31744515122868733,-0.33869016351465553
1854991,-0.4286622747859754,-0.44923236632133445
2062684,-0.6567430101971928,-0.6778314407011627
819262,-0.3466561052347978,-0.3675902452716289
1030886,-1.2592708983568879,-1.2813075021455156
2885775,-0.07787245200523818,-0.09767123367143649
3684186,-0.5703915816439176,-0.5554514299809372
1672299,-0.9373279111747204,-0.9605762620072293
1452654,-0.8424366035134023,-0.8627151261357023
3848102,-1.0670327457485225,-1.0909594557669564
2584775,-0.700566547942299,-0.720845070564599
2715135,-0.7094066460618716,-0.72920542772807
1130203,-0.8700987953475581,-0.8558176625117917
1377358,-0.5561772333860522,-0.5759760150522504
2155990,-0.5285516457351569,-0.5480244902507054
2652583,-0.27500347876833103,-0.29609190927230095
2823467,-0.6829307611146543,-0.7032092837369543
2633935,-0.5123069064620793,-0.5336182135651414
1250510,-0.4946094433604257,-0.514408225026624
1646005,-1.010231387359073,-1.0300301690252713
3154220,-1.1015132371018235,-1.1213120187680217
1290394,-1.4824489223009727,-1.5032310132543576
3533175,-0.5805084914875243,-0.6021420603598904
442424,-0.5134576508376938,-0.5387958791806999
1233664,-1.0275071200716934,-1.04988847275028
2563215,-0.8623366536575542,-0.8826151762798542
572424,-0.31759601858921566,-0.3380192850468679
420118,-0.7796290742983476,-0.8000523407559998
737218,-1.7727446180972741,-1.7936787581341054
1140194,-0.49543278528596607,-0.5167440923890281
1165125,-1.5448045046473142,-1.5647412390223465
1716355,-0.7500573023878813,-0.7697672447104098
2760300,-0.4028492791440649,-0.42769407790663916
3693899,-0.32352023100016697,-0.3427315860092847
2195194,-0.1562946690250172,-0.17760597612807927
2972916,-0.6244010828451485,-0.6472140939319686
2510753,-0.833695866766866,-0.8547842972708359
3040494,-1.2191492648356692,-1.2415306175142558
3106919,-0.36050167120200166,-0.3801643962449705
2035999,0.20378378017951837,0.18300168922613347
3751710,-0.7697652066203671,-0.7906993466571982
1515389,-1.3371387518859934,-1.3622545615083939
3139559,-0.5178316948448437,-0.5389201253488136
1447382,-0.26297233915097407,-0.2833956056086263
3536593,-0.5162456293833408,-0.5365241520056407
3064702,-0.7668362690734926,-0.7879246995774625
1956645,-0.3827588757876336,-0.4030876234018976
2926013,-0.6400040504878692,-0.6623854031664558
726495,-1.2415041147018608,-1.2629753434965882
827076,0.1464299214909468,0.12600665503329456
2269674,-1.002115346960896,-1.022393869583196
1708467,-2.8405996542436602,-3.0091170939536314
692992,-0.564633018027354,-0.5871908222780022
1282138,-1.19341013301567,-1.2141922239690548
420735,-0.6463816344478727,-0.6698339473341026
3054406,-1.3552805945773998,-1.3816507728012286
3762837,-0.8721428965424072,-0.8925661630000594
3653003,-0.12965201389770942,-0.15058615393454056
1696234,-0.5721846239909312,-0.5937121680893438
3322175,-1.1742978814737093,-1.1942346158487416
3265631,-0.01691791185414948,-0.03685464622918189
3456870,-1.027066534430061,-1.0485377632247883
1122415,-0.7291531675671991,-0.7500873076040302
2668329,-0.9540245608102803,-0.9793627891532863
3896434,-0.21441446219165605,-0.2348377286493083
337088,-0.8575915255817024,-0.8785256656185335
3185366,-0.6039858617333285,-0.6249200017701596
3951073,-1.1330798314116726,-1.1547705715594512
3076034,-0.43301524581507206,-0.4548136284289263
1912840,-1.591924409719147,-1.6180537682831773
2921220,-0.12319925888025207,-0.11033657341382141
2698500,-0.788654810574524,-0.8095889506113552
1302644,-0.8275908912486091,-0.8499722439271956
2459627,-0.8667645883653204,-0.8870431109876205
2139144,-0.7695409099320673,-0.7915066369268227
354732,-0.5393691711997282,-0.5597924376573804
319548,-0.4360930086792794,-0.45702714871611055
3186940,-0.8672733165796602,-0.8875518392019602
1318100,-0.4064090587206239,-0.4263457930956563
3661735,-0.4913033490172765,-0.4767001382479638
2656563,-0.9017270202074082,-0.9228154507113782
1909906,-1.5745596988366823,-1.5948382214589825
3102148,-0.7359608041146154,-0.7556235291575842
2779289,-0.39354157447676075,-0.41574921476638715
3948886,-0.7735135529740667,-0.7928547689228465
3024703,-0.7465279666497017,-0.7674621066865328
1946996,-1.66570263624271,-1.6882191793046681
1575163,-0.9828643310312893,-1.0050719713209157
2146802,-0.5544569354404258,-0.5755453659443956
3859508,-0.2926731947075945,-0.31398450181065657
716100,-1.1734436393579948,-1.194377779394826
3462735,-0.14641788039541725,-0.1673520204322484
1116688,-0.7031168816072894,-0.7240510216441205
451161,-1.2236233113676303,-1.243286036410599
219273,-0.6805737855505011,-0.701662216054471
1203198,-1.4379110302805052,-1.458999460784475
1495983,-0.44657916324391916,-0.4668576858662192
965479,-0.6500846143453434,-0.6705078808029956
3887900,-1.0400335774381009,-1.0604568438957531
3542752,-0.7430422117451218,-0.764513440539849
1231447,-0.915376756186521,-0.9370103250588872
438330,-0.6972717117132878,-0.718905280585654
1051390,-1.0320597786842534,-1.0535310074789808
304826,-0.9841477796504259,-1.005781348522792
1083243,-1.3852553908214078,-1.406189530858239
2193586,-0.5229069033354136,-0.5431854259577136
2932838,-1.2271898360590774,-1.2469886177252758
372088,-0.8328751254289984,-0.8531536480512985
3222973,-0.4825648909560011,-0.5028434135783011
3283222,-0.698268368649585,-0.7192025086864161
1108290,0.07546034805946988,0.05414904095640782
232774,-1.0356635411573678,-1.0554623228235662
1866835,-0.7034674967829964,-0.7262805078698165
3177771,-0.8392132260659102,-0.8601473661027415
1861165,0.05608333395783738,0.035451099195009994
2682954,-1.3259887003483635,-1.3465587918837225
3273708,-0.046711607637105024,-0.06637433268007387
984170,-0.8996567814452309,-0.9199353040675309
3469697,-0.6496997040799581,-0.6710110111830201
2622918,-0.7310914795647734,-0.7520256196016045
1232910,-0.8488437578910053,-0.8692670243486575
3321484,-0.9136193688904259,-0.9379530527306186
3711533,-0.8384354939757961,-0.8599067227705234
957038,-0.3898976303947366,-0.41402611124779404
3741199,-0.526200457339789,-0.5484080976294154
2511453,-0.6139409012655419,-0.5990007496025614
2261099,-0.5784103471666643,-0.5986888697889643
3283919,-0.8565976548058825,-0.8758090098150002
1617255,-0.8747918807270143,-0.8955739716803992
2577518,-0.8355181159011363,-0.8569893446958636
1876879,-1.014100666184836,-1.0345239326424882
3040286,-0.8637743263132385,-0.8835731079794369
449256,-0.7992821294363222,-0.8256523076601512
3847153,-0.8657154235286068,-0.8859939461509068
3455366,0.07837974936286507,0.05810122674056506
2424831,-0.3542245786356147,-0.3745031012579147
508672,-1.0724368795413048,-1.0925726956279633
2041931,-0.7678012561521914,-0.7927720405739398
2905017,-0.4397041138815995,-0.46063825391843066
2391531,-0.95612420593789,-0.9785055586164766
3251854,-1.0845102146078145,-1.1063783964235554
356553,-0.6704090222203171,-0.6920425910926832
1060155,-0.6053574823857054,-0.5904173307227251
3728576,-0.7547541202855931,-0.7745529019517914
870511,-0.6749450797190022,-0.6947438613852005
1842212,-0.631844669981334,-0.6522679364389863
2821184,-0.8990727698893609,-0.9193512925116609
1701678,-0.25495548774468846,-0.27664622789246707
3118262,-0.6885741802359335,-0.7096626107399034
992664,-0.6509564452141375,-0.6724276740088648
1169038,-0.5898743890729361,-0.6151582813010552
241327,-0.7184188922257417,-0.739890121020469
1236025,-0.378715190466141,-0.39913845692379324
3736634,-0.9104409854612193,-0.9308642519188716
3724207,0.11025920527660205,0.09046042361040374
1586780,-0.8154272340203836,-0.8363613740572148
2188305,-0.30848031992806313,-0.32841705430309553
2417358,-0.11898954042072507,-0.10404938875774467
2876635,-0.5979341630964694,-0.6183574295541217
2982593,-0.6796845967222134,-0.7007730272261833
1727840,-0.5047193300243686,-0.48977917836138823
1482027,-0.40583002109735067,-0.4269184516013206
257315,-1.1030845004757068,-1.1213353963872998
885759,-0.6593651242093602,-0.6802992642461914
1390208,-0.44618912593619237,-0.4666123923938446
351455,-0.632293465458467,-0.6520922471246653
1114988,-0.4038573758745378,-0.4236561575407361
1299916,-1.267958842809834,-1.2897572254236882
567053,-0.3242580489860954,-0.34392077402906424
2860625,-0.7393145313034007,-0.759737797761053
3311610,-1.2497027382673467,-1.2721576799389827
3111601,-0.4180256923821553,-0.43895983241898645
1738372,-0.9889870348377496,-1.0100754653417194
1405327,-1.0711914956891597,-1.092125635725991
1602118,-0.9853104641443975,-1.0057337306020497
557608,-0.3682150392245969,-0.38787776426756576
3875457,-0.09072066991896466,-0.11219189871369195
1483994,-0.7221069918220397,-0.7430411318588709
3205388,-1.1500646277178088,-1.176037055704545
979986,-0.6336934181200432,-0.6544755090734281
2024451,-0.6124501715415365,-0.6333843115783676
2236110,-1.7174613957667275,-1.7390949646390936
1438587,-1.0432681101021362,-1.063546632724436
3802812,-0.47708141622627886,-0.4973599388485789
3133899,-0.846518050073767,-0.8687256903633934
2503178,-0.3170255668765567,-0.3381139973805266
2822876,-0.7170637408411615,-0.7379978808779927
3363367,-0.29636390214036223,-0.31616268380656054
1700316,-0.5895166149104298,-0.6110441590088425
2494868,-0.8333174276445703,-0.8565001134434125
1170042,-0.8958170921884707,-0.881213881419158
3066215,-0.8769294745020906,-0.8985630433744567
3216862,-1.004729390043512,-1.0246661244185442
2730082,-0.24476296860845848,-0.26623419740318577
2471739,-0.41010782093982484,-0.43174138981219096
517409,-0.8933455483403656,-0.9142796883771966
1609992,-1.2735967290333217,-1.296779414832164
1554019,-1.070156853144044,-1.093609166030274
332874,-0.12747510543390217,-0.147137830476871
1628611,-1.0073948350848734,-1.0291932176987275
322780,-0.609901509390779,-0.630180032013079
1570925,-1.1784816496199046,-1.1987601722422048
3003304,-1.1477861298809708,-1.1680646525032707
3308638,-1.0017948133120809,-1.0222180797697331
2192737,-0.7920766824244331,-0.8124999488820853
3332097,-0.8530760410035353,-0.8748744236173895
363116,-1.4559576486997092,-1.4763809151573615
327106,-0.5820191518568816,-0.6038873336726226
471114,-0.18093569038860313,-0.20186983042543427
2040536,-0.4166737891870925,-0.4426462171738287
1841918,-0.32520521630891025,-0.34500399797510856
3850046,0.1810191344950276,0.1595479057003003
3106867,-0.8379474461225689,-0.8577462277887672
1503655,-0.5253622617058255,-0.5481752727926456
3725489,-0.8626313651577393,-0.8839426722608014
511624,-0.78188708210598,-0.8023103485636323
2190558,-1.388161372836088,-1.4084398954583879
3414446,-0.15443440836182443,-0.17396293404153218
926780,-0.2902225379523988,-0.3095637539011786
2704541,-0.6360905332533505,-0.6211503815903701
710504,-1.0640763897718675,-1.0844996562295197
2600407,-0.7948343688405023,-0.8147711032155347
1308241,-1.0909763139118835,-1.1112548365341837
393381,-0.9625216380768225,-0.9823204197430206
1358949,-0.19357445667744377,-0.2152080255498099
3469095,-0.5204011923147234,-0.5422693741304645
1710777,-0.47098906437553106,-0.4925166084739437
377176,-0.5099083384599662,-0.5297071201261645
455764,-0.31580006610419165,-0.33607858872649166
625878,-1.0733003244386208,-1.093099106104819
2735890,-1.3502283367838093,-1.3726096894623958
388637,-0.8838811056349405,-0.9041596282572404
3040548,-0.3225203844358217,-0.34392432124406075
2274797,-1.0894045659472509,-1.108660992752129
2632432,-0.9638958488813186,-0.9856942314951729
602424,-0.5701049281488078,-0.5900416625238402
1284607,-1.5562887025014631,-1.5783253062900908
228747,-0.0428026535406858,-0.06443622241305191
2237248,-0.6783479226730418,-0.6981467043392401
3265773,-0.1524125879246232,-0.17283585438227544
3691731,-0.527838772291271,-0.5482620387489232
1893538,-0.9347950178510387,-0.9555771088044236
550035,0.28505068504945885,0.26396225454548894
2633577,-0.7376025019874717,-0.7604155130742918
3335125,-1.0281222178696674,-1.0501588216582949
546578,-1.3882011624970718,-1.4092895930010418
2804601,-1.1851771064648187,-1.2066483352595458
3165630,-0.7321271565270748,-0.7525504229847271
1465203,-0.03900996550278091,-0.060878147318521925
3366680,-0.43027352472270475,-0.450696791180357
2011550,-0.3394887692718462,-0.3599120357294984
3076428,-0.5723388214945447,-0.5922755558695771
3185966,-0.16753698555250796,-0.1884711255893391
3498703,-0.5233080934273862,-0.5435866160496861
2665909,-1.4871139631161612,-1.5116563704245032
431094,-0.5183110230074693,-0.5392451630443005
2243186,-0.3645586874217201,-0.3872538287513421
3027679,-0.5501530386824092,-0.5707852734452366
958246,-0.7672573266550011,-0.7881914666918323
2582466,-0.8458375774377844,-0.8667717174746156
2771193,-0.5392327602530901,-0.5607039890478174
2787463,-0.7089054781911746,-0.731113118480801
1348323,-0.2611873178350147,-0.28374512208566294
1846891,-0.7562763778025434,-0.7772105178393744
473730,-0.44340028198393255,-0.4626116369930503
1460746,-0.6843408611360273,-0.7063774649246549
3688058,-0.7720621923783686,-0.7946947525231527
1068399,-0.28726842514350687,-0.27232827348052646
3231496,-0.4976972823952194,-0.5181205488528716
1386668,-0.6345615702761799,-0.656195139148546
564360,-0.25060522886305653,-0.2710284953207088
1764860,-0.8580671815082177,-0.8808801925950378
1192320,-1.317430469013603,-1.3375662851002614
2744212,-0.878434222409011,-0.8979070669245596
2029693,-0.5695758282232706,-0.5899990946809228
2735266,-0.9168190759248214,-0.9384526447971875
1452877,-0.6598480357460338,-0.6822293884246203
3732704,-0.6432187982106558,-0.663642064668308
1764938,-1.236043631966674,-1.2563221545889742
1538221,-0.6973228436706321,-0.718411274174602
2445484,-0.8509121449422744,-0.8718462849791055
1397195,-0.508889013657482,-0.5298231536943131
739805,-0.46875768590193145,-0.49096532619155786
370651,-0.17757796678823123,-0.19921153566059735
1101120,-0.9970761198615177,-1.01749938631917
1956523,-1.0149045649399853,-1.0352333125542492
2795932,-0.3771491099766912,-0.3969478916428895
838336,-0.4018100613950997,-0.4238466651837273
1071681,-0.40053658258241526,-0.42274422287204166
