sample_id,y0,y1
3383341,0.06806414462487204,-0.18927840909513446
3534223,-0.06602204662998698,-0.3131230214940751
1223013,0.027035996298287054,-0.2267990543866498
2038485,0.12393073378236177,-0.12649173209761347
2247083,-0.6075764708791589,-0.8649190245991654
2110815,-0.05944374346485497,-0.30654471832894314
1699174,0.10080772040492542,-0.15399947299887393
293166,0.033562476663902024,-0.22378007705610448
1980605,-0.5111611300960796,-0.7659683234998789
1053354,-1.063263725930629,-1.3206062796506355
434948,-0.11758511701151261,-0.36800758289148783
683502,0.24206283087333766,-0.029130839007066867
2394238,-0.47160350571897885,-0.7343709063347157
2932943,0.6015825667838379,0.34774751609890103
2740339,-0.3044418732065959,-0.5582769238915327
316619,0.3214429956104089,0.06410044189040237
2823935,0.22255622347483214,-0.03478633024517436
1333783,0.1492491660030996,-0.10809338771690691
3873575,-0.3386499223131059,-0.6015065246009276
1973958,0.3391700326648964,0.07904618941896252
3693945,-0.6481964130186378,-0.9193900828990424
2936620,0.1403178288689795,-0.1269807086939424
278193,-0.4151072178244812,-0.677874618440218
1616044,0.44775680386339034,0.1904142501433838
2005932,0.2525028200974412,-0.001332230587495653
3895351,-0.5574534172292176,-0.8286470871096221
2590248,-0.6372031222659296,-0.8999705228816665
2682608,0.03302283830020625,-0.22431971541980025
2638463,-0.12108131413592585,-0.37150378001590106
1209855,-0.15487106285151023,-0.4087061135364471
711436,-0.0587186554461072,-0.3160612091661137
1912556,0.14065261222342262,-0.12211478839231421
2285786,-0.837167040023062,-1.1000236423108836
2708340,-0.18372052312872628,-0.4252935795453897
1074340,-0.11329415035481932,-0.4189377795027213
1946977,-0.646095517769627,-0.8974639498392014
1981797,0.2988065976574134,0.05470941894205639
3733932,-0.3787476606253234,-0.63609021434533
3133994,-1.1933516100683104,-1.4506941637883168
1908675,0.24715652524100523,-0.006678525443931604
412118,0.11189613079753821,-0.1454464229224683
896097,0.827719011135794,0.5838520540344185
333237,-0.12391724367353703,-0.35938676408681697
3709454,0.23866495861268774,-0.018677595107318756
1524303,-0.23974909044879483,-0.5025164910645317
749282,0.2432844743596945,-0.014058079360312004
1289646,0.12452952915543655,-0.13281302456456995
967062,0.7612621026656174,0.503919548945611
2015545,0.3309121937497952,0.07356964002978872
3787364,0.16328993597958735,-0.09947746463614948
3186225,-0.5801960111694661,-0.8375385648894726
2455426,0.2484034882155527,-0.014363912400184142
659928,-0.7909216160916667,-1.0347885731930422
3526855,-0.0740019812339787,-0.3513310607958829
1335396,0.5530137984794994,0.311440742062836
1084856,0.4094173652136368,0.15207481149363028
3448695,0.14809710890478492,-0.10924544481522158
2172368,0.6468107784769079,0.3894682247569014
2121289,0.013787447219303223,-0.2489799533964336
1610400,-1.071673337252678,-1.3344407378684149
3035039,-0.05112785826162668,-0.30847041198163316
3378753,0.5561390866865712,0.29879653296656467
3023281,-0.5269283488491919,-0.7897849511370136
1687615,-0.03712940288135644,-0.2919365962851558
635229,-0.19906090896917913,-0.4580594992217576
1699526,-0.5844679269857761,-0.8392751203895754
3840713,-0.06452335058150048,-0.32186590430150697
1978348,0.02233852084440771,-0.23246867255939163
1480970,-0.4094105039097242,-0.6667530576297307
3859907,-0.132364541149822,-0.3897070948698285
3846115,-0.7538381183159267,-1.0111806720359333
3739890,-0.2525941664299659,-0.5153615670457027
3894532,0.3190255423042442,0.06168298858423771
1913108,-0.509308169837439,-0.7666507235574455
410558,0.29552769306115845,0.038185139341151975
3895933,0.3298196987878198,0.05258998963496686
2611373,-0.5440188392171588,-0.8141372673143638
372174,-0.5957058943512441,-0.8530484480712506
3063648,0.4985900935614477,0.24124753984144115
1053373,-0.20690183968967862,-0.46424439340968515
2652648,0.3412071676986579,0.08386461397865136
3909127,0.7407879913591604,0.4834454376391539
316761,-0.38449186015196646,-0.6473484624397882
2925935,0.02103589396133909,-0.2363066597586674
1282737,0.1989438990555454,-0.05839865466446109
395419,-0.42651163940283693,-0.6892790400185738
1723262,-0.24056374530131883,-0.4979062990213253
258883,-0.5743962269626018,-0.8248186928425771
977603,0.08025022870902405,-0.1735848219759128
262306,1.026590028811663,0.7692474750916565
1499667,0.8160972591033488,0.5532406568155273
454607,-0.2191187186623298,-0.4764612723823363
442315,-0.5179080311706924,-0.7806754317864293
247188,0.3799095599877005,0.12948709410772524
920946,-0.788444329852804,-1.065674039005657
817012,-0.15767294583989866,-0.4163163398573608
1389244,0.2901102299536027,0.03627517926866586
3918467,-0.17816822936962606,-0.4409356299853629
1745786,-0.08271073705038617,-0.36003981661229034
2659077,-0.7392555947393098,-0.9965981484593163
2826912,0.9529158491701066,0.6955732954501002
1125654,0.042163074120833643,-0.2206043264949032
1124009,-0.38705894289637666,-0.6444014966163831
1854457,-0.2992383297374802,-0.5565808834574868
1419310,0.11760181954541729,-0.1397407341745892
1032465,0.0691049955234655,-0.188237558196541
1035325,0.1012834888638871,-0.16148391175184973
3054890,-0.53439400189912,-0.7972506041869416
390505,-0.37902580783796974,-0.6328608585229065
2462273,0.08662429533412366,-0.17614310528161317
1746428,-0.4504730833515487,-0.7078156370715551
3875717,-0.5587029971058657,-0.8684093170499714
245889,-0.3965935104218147,-0.6594501127096364
3793187,0.1418807689280545,-0.12088663168768232
1071391,0.16077263050058066,-0.22471321212033812
2811228,0.24048602069805872,-0.016856533021947784
3843086,0.23479188542988944,-0.028064716857932215
3776416,-0.30918839659031155,-0.5596108624702868
2808454,-0.4195285251691533,-0.6733635758540901
3343626,0.21504926256640788,-0.03537320331356736
1131315,0.4988672088938265,0.20044021611847906
1304541,0.4395908543064025,0.19801779788973906
1075115,0.49298260548647177,0.23564005176646524
3235350,-0.1992141034104719,-0.46198150402620874
1680177,-0.3504264004061558,-0.6052335938099551
2875922,-0.06257557954886175,-0.3164106302337986
2043132,-0.3291643986466677,-0.5920210009344893
2772163,-0.7079292729251501,-0.961764323610087
2803953,-0.10169206436948149,-0.3644594649852183
3443540,0.0889971483373373,-0.17377025227839954
272851,0.3582421516338625,0.10089959791385605
2132837,0.7735353269164201,0.5107679263006832
2221030,0.22109542090058001,-0.036247132819426486
3326822,-0.40966022758042514,-0.6600826934604004
2771631,-0.029934347177076506,-0.28035681305705173
429161,-0.1605209102410802,-0.4178634639610867
1001728,0.49172369171696817,0.24462271685288
1274350,-0.12747173737068188,-0.3902391379864187
3405245,0.09473611652406022,-0.16812048576376143
2926013,-0.37741623649649164,-0.6546459456493445
947312,0.1438639269271548,-0.1134786267928517
3713297,0.3408555941665373,0.0835130404465308
1917324,0.04457778182120664,-0.21276477189879986
3954820,-0.034976382701595365,-0.2923189364216019
1732814,-0.8488045690266991,-1.126034278179552
3008867,-1.105350480374552,-1.3626930340945584
256456,-0.5053914204512735,-0.7645886546120739
3854161,0.5072086032010259,0.26020935853493504
3661253,-0.19493999302635806,-0.4522825467463646
3337007,0.3469022604237945,0.08404565813597287
1620624,-0.25612958367707367,-0.5333592928299267
3096544,0.4982971689881728,0.24095461526816625
1315437,-0.19330075447961906,-0.45064330819962556
3733374,0.2656825180915387,0.015260052211563457
3469053,-0.02354090977813872,-0.28630831039387555
1671022,-0.08712619520645401,-0.3614127353891228
2284649,-0.6257771142117972,-0.8886337164996188
3436976,-0.6041558659648367,-0.8614984196848432
906819,-0.3516248803104118,-0.6054599309953487
1336614,-0.14643285586602597,-0.4092002564817628
1205014,-0.03786904631986049,-0.29706628048066097
2511793,-0.09311722732286908,-0.35045978104287556
1273188,-0.8478812347696839,-1.1052237884896905
685196,0.2966493242316349,0.0393067705116284
3010695,0.7602778994791453,0.5029353457591388
1220803,-0.24071544084786872,-0.4980579945678752
1234758,-0.13704523348768463,-0.39438778720769113
3050351,-0.520750642714435,-0.7835180433301718
1247611,-0.1942185935871131,-0.4446410594670883
3193340,0.2518164295307975,-0.007182160721780906
563113,-0.14716333319331507,-0.42449241275521926
2029745,-0.26660720241619795,-0.5438369115690509
1872248,-0.09950980468098575,-0.3668083422439077
2012340,0.1348841878654078,-0.11553827801456745
844685,-0.316785304267523,-0.6241291467211076
3454392,-0.5918704632991597,-0.8492130170191663
2480429,-0.42049759784940854,-0.7386701426442025
2716128,-1.012290788375115,-1.266125839060052
1834615,-0.3431793600871542,-0.6005219138071607
3116622,0.3216149502767621,0.06427239655675565
1810301,-1.581544245859601,-1.8388867995796074
1968092,-0.7504397628244832,-1.0106510095635313
3240803,0.0915967744552223,-0.17117062616051454
1426598,-0.49148203230373144,-0.7488245860237379
300003,0.09518845385275543,-0.16766814843506622
678189,-0.43410901447182815,-0.6914515681918347
3514907,-0.17572367535569416,-0.4330662290757007
3872354,-0.25330134921280856,-0.5161579515006303
2038961,-0.5660780184880765,-0.8433077276409294
3877108,-0.507429556253282,-0.7647721099732885
3093528,-0.26578123662334585,-0.5285486372390826
2015096,-0.576173074991317,-0.8335156287113235
2868191,-0.164348233352264,-0.4234587483446493
3426930,-0.35879274738931344,-0.6215601480050503
3312053,0.04001447744525398,-0.21382057323968287
233171,0.9501428145328026,0.6928002608127961
1882456,-0.286876277534247,-0.5442188312542535
3858318,-0.48958593650102056,-0.746928490221027
890580,0.5104264823422959,0.24756988005447422
2047721,-0.9466839961837842,-1.2053273902012462
1663030,-0.7184102677399101,-0.9785341109858441
2610037,-0.5972791234901459,-0.8684727933705504
2195797,0.08164778840508594,-0.1811196122106509
2948170,-0.24363086524579147,-0.5063982658615283
1508726,-0.976168809806227,-1.2335113635262336
1606707,0.3553849847382921,0.09252838245047046
1074771,0.11292573623669014,-0.1374967296432851
761449,-0.11348126233504316,-0.37624866295078
3908201,0.8860022991031138,0.6286597453831073
3236202,0.4210279161846408,0.15817131389681915
3378862,0.4248786514753321,0.16753609775532557
1446780,-0.48458094069187824,-0.7473483413076151
198019,0.49293963545879926,0.23559708173879274
915064,0.3018417542626909,0.04449920054268436
3477798,-0.12668625928582683,-0.38945365990156366
1261569,-0.4679599940897047,-0.7253025478097112
2119517,-0.6244847234291483,-0.8749881537509031
915041,-0.5505588118947424,-0.8079013656147489
353663,-0.7182124998145081,-0.9755550535345145
2464501,-1.042063248285543,-1.2994058020055494
1996929,-0.2706880465366005,-0.541881716417005
2492377,-0.10137324237724077,-0.3587157960972473
1405870,0.30013340227520113,0.053790093071038936
2604259,0.8108313876305797,0.5534033021195313
1135044,-0.35273591488756906,-0.6100784686075755
3923662,0.8404432458293553,0.59002077994938
2800352,0.05901828496905798,-0.19832426875094852
727465,-0.5570344780929194,-0.828228147973324
801578,-0.09612431731948562,-0.4221464150312358
3172798,-0.04202469809709758,-0.2883680073012598
3795062,-0.1560614266756328,-0.39700326790559504
1335758,-0.09552148884114395,-0.35286404256115045
1443683,-0.054056928388689474,-0.3312866375415424
2826338,0.01576913716556308,-0.24157341655444342
634488,0.16337037897736115,-0.09397217474264535
2587945,-0.22074156620230923,-0.47116403208228447
1240513,0.40747218319168765,0.1570497173117124
369712,0.2554511452656987,-0.0018914084543078524
1446966,0.13169713334279565,-0.1187253325371796
1225634,0.479477529726636,0.22564247904169915
967928,-0.7982112173646678,-1.0555537710846743
1213996,-0.6268338820056801,-0.8841764357256866
418685,-0.03531530340405703,-0.29265785712406356
928417,-0.003144411584922152,-0.26048696530492865
2584299,-1.5216292187144795,-1.7807397337068647
2236240,0.21585716590075132,-0.04691023471498551
2835636,-0.2285945192271484,-0.48593707294715494
3399466,0.00856847132429625,-0.2542881309635254
2464936,-0.16142467087526702,-0.4187672245952735
1689809,-0.2364522157026432,-0.510738755885312
3802207,-0.08069991335273619,-0.3222729697693996
1768730,0.6025904336116871,0.34524787989168054
2643242,-0.45800340713607546,-0.7153459608560819
803423,-0.26499122283367066,-0.51979841623747
3481708,-0.7533725539737789,-1.0306022631266318
1946895,0.20435906371527954,-0.050448129688519805
2537125,-0.07623727942154705,-0.33534779441393237
3051687,-0.1355489752254077,-0.3928915289454142
2396168,-0.6487925015574841,-0.9061350552774907
1602637,-0.3044303742901779,-0.5617729280101844
1394312,-0.06718083727197287,-0.32452339099197935
2645020,0.31075483360153544,0.05341227988152891
1868485,-0.3880332710150357,-0.6751249491394241
3674993,-0.25668359911233485,-0.5140261528323413
2789006,0.45064605581554695,0.19330350209554042
1836869,-0.35127247590100563,-0.6058118614109604
3873479,0.06378681977507686,-0.19898058084065998
254471,0.47662856483206356,0.2137719625442419
2996407,0.004324552556518563,-0.25301800116348794
2798904,-0.1653065514904777,-0.4280739521062145
2002809,-0.08664945010812143,-0.35394798767104335
3223306,-0.3773927568862442,-0.6546224660390971
2740212,-0.20645646010677876,-0.46565369426757924
941255,0.10321703324545273,-0.15412552047455377
3775913,0.23432146766882653,-0.023021086051179973
1864705,0.37787303671084393,0.1205304829908374
1061378,-0.36720906813264526,-0.6273329113785792
3675771,-0.009560037836881988,-0.2669025915568885
2003777,0.048773476085606865,-0.20856907763439964
1824852,0.05611336725541327,-0.20674323503240838
1959210,0.5599043271820996,0.31188251321457205
3297149,0.15441153451763295,-0.10835586609810388
3532909,0.1334896213461114,-0.12385293237389511
3695819,-0.27422961764829157,-0.531572171368298
3533026,0.12509030298454896,-0.13225225073545754
3180060,-0.04637196379387405,-0.3091393644096109
3953982,-0.3714618295501958,-0.6288043832702023
3693618,0.4459336454283267,0.18859109170832017
1251030,0.20093453548125553,-0.05640801823875097
989810,-0.4806849949152049,-0.7311074607951802
3418233,0.4968583434038243,0.23951578968381776
3148493,0.3984648839590331,0.12113580439712895
229502,-0.4926834409031843,-0.7500259946231908
1644886,-0.8862332386513949,-1.1435757923714014
2746757,-0.6935818763799907,-0.9509244300999973
418810,0.3639779461182755,0.11355548023830025
1267380,-0.15813451283515734,-0.4154770665551638
3421488,0.05199714691268162,-0.20534540680732488
471295,0.20673947174655433,-0.043682994133420916
1486827,0.2012722091006367,-0.04915025677933854
2992913,-0.13853742919077827,-0.3801104856074417
1017308,0.01666480314737609,-0.2406777505726304
3779544,-0.6929683030423974,-0.9345413594590609
3168478,-0.5129503217967559,-0.7702928755167624
3530119,-0.3979126159390409,-0.6552551696590474
306249,-0.33303630741942486,-0.5903788611394314
2991385,-0.23996086386251383,-0.5028174661503355
508494,-0.3014852809794132,-0.5588278346994197
3917188,0.2988621269223497,0.04151957320234323
2579566,-0.7014905007370771,-0.9635104466654956
2926812,-0.7670044649385002,-1.0243470186585066
1674148,-0.6441372213800483,-0.9042610646259821
2173821,-0.3944632557565986,-0.651805809476605
417773,-1.0004266496814167,-1.2631940502971535
3442738,-0.2705044051151934,-0.5332718057309302
2174054,-0.09850670193576995,-0.35584925565577646
1163392,-0.47539097495282795,-0.7258134408328032
433948,0.1504068981055873,-0.1069356556144192
1234100,0.36694914401343043,0.10409254172560878
2857870,-0.12233597207304658,-0.37967852579305306
2412664,-0.18075585536050015,-0.4380984090805066
3870708,-0.8544408240658854,-1.1646700986136476
619864,0.43126802398345054,0.1808455581034753
1938767,-0.620245402982177,-0.880369246228111
2680858,0.32725092337744394,0.0644835227617071
487718,-0.2714037918631166,-0.5287463455831231
485087,-0.5258485771200098,-0.7886159777357467
321852,-0.7934169137931595,-1.056273516080981
2476098,-0.6281715011877821,-0.8855140549077886
2000347,-0.5365516757185094,-0.7938942294385158
1052430,-0.46199695103946115,-0.7193395047594677
3163798,0.5221967281656024,0.25934012587778066
1788816,-0.15384187497332455,-0.41118442869333105
826537,0.12121050215548985,-0.1258904727085983
485718,-0.08035181821472354,-0.3307742840946988
1345875,0.26340510197206674,0.012982636092091493
3368384,-0.21501363910888838,-0.4588805962102638
1839965,-0.3711707134054959,-0.6285132671255025
1424455,0.18467517027499428,-0.07266738344501222
3418574,-0.43429045469136685,-0.6916330084113733
1367112,-0.5655829942516888,-0.8160054601316641
3170034,-0.1283189241823118,-0.3910863247980486
415722,-0.32133441819225905,-0.5786769719122655
3008639,-0.22982972243911207,-0.49259712305484893
2425955,0.8376890959619296,0.5803465422419232
2773429,-0.01725467166370269,-0.2635979808678649
837218,-0.5828864920670865,-0.840229045787093
2605619,-0.09357905315782969,-0.3647727230382342
287918,-0.13447065039004985,-0.3918132041100564
1323187,-0.39495783226220527,-0.6413794734145858
1092093,0.5126787563425611,0.2553362026225546
575363,0.21713018650385327,-0.04021236721615323
2149687,0.418563888893298,0.16122133517329146
1106391,0.16756142575457605,-0.09520597486116078
2613211,-0.13579802626954005,-0.3862204921495153
1033438,-0.2349391577984831,-0.5061328276788876
3452566,-0.044871365774958455,-0.3076387663906953
3716254,-0.6345890769454857,-0.8755309181754479
3721858,0.6138697792466151,0.36003472856167823
2979313,-0.3239637864241962,-0.586731187039933
3776505,-0.16403881278476656,-0.40561186920143
2926152,-0.7321727399470567,-0.9949401405627936
2437952,-0.5545152112925995,-0.811857765012606
2253259,-0.015661193575324583,-0.2784285941910614
970172,0.3472135536713087,0.08444615305557185
1839929,0.40259835765574925,0.13983095704001242
620140,-0.46132730084198237,-0.7186698545619888
2223392,0.5476797820325079,0.29033722831250136
196734,0.5986134514346901,0.35548437069246475
3249638,-0.28276768572650074,-0.5401102394465073
733563,-0.21817004484885355,-0.4755125985688601
1465938,-0.583988900843887,-0.8467563014596238
1275673,-0.10935409148503958,-0.37212149210077644
3206077,-0.01179197224356332,-0.27455937285930015
2393791,-0.13962102725542602,-0.3969635809754325
2244122,0.008907093198763816,-0.24590010020503553
811329,0.1907398325434546,-0.07202756807228222
2913183,-0.5912929669155128,-0.8540603675312497
1708162,-0.22920631832104343,-0.4732266444341716
2459461,-0.5000197421574782,-0.7573622958774848
1340809,0.23860893195138305,-0.024158468664353783
3758377,0.45886689080707266,0.20152433708706613
312508,-0.1444000174366116,-0.3948224833165868
3533084,-0.8352791804869172,-1.0857016463668925
3242224,-0.08132908071944461,-0.34418568300726626
312161,-0.09694073026526692,-0.3542832839852734
2592460,-0.14077759505726628,-0.3981201487772728
3046787,0.09387551274590328,-0.16889188786983356
3300040,-0.3513824397451331,-0.6087249934651396
2008349,0.43714681878616546,0.17980426506615893
2210300,0.2044010931579739,-0.058366307457762945
653183,-0.3196163800292239,-0.5769589337492304
541886,0.3081533780785842,0.05773091219860893
984334,-0.3974465183604152,-0.6547890720804217
2988811,-0.39741479556649884,-0.6595234328445392
1985745,0.33287299280833266,0.08485117884080512
3893975,-0.16985741928784004,-0.4327140215756617
1813339,-0.6015924646544991,-0.8589350183745056
2906443,0.42550863061868405,0.14817955105677988
1886726,-0.33969940292975054,-0.597041956649757
1098459,-0.39878260133841387,-0.6615500019541507
493822,-0.11177161503992664,-0.3746282173277483
3135311,0.12371007903599371,-0.1336324746840128
1643090,-0.33285785931999745,-0.5956252599357342
1266630,-0.8330617313567253,-1.090404285076732
2416749,-0.6952221147279919,-0.9525646684479985
2219760,0.17519270142178306,-0.07522976445819218
2034015,-0.5399106838380358,-0.7972532375580423
3286117,-0.6220606009954419,-0.8794031547154484
350511,0.44874728967343114,0.1914047359534246
456954,0.5633294856723042,0.3059869319522977
2497406,0.11276735450147363,-0.14457519921853287
715313,-0.5041577809783307,-0.7670143832661525
2845110,-0.12555204239347326,-0.38289459611347976
1245210,-0.043071201468751735,-0.31426487134915626
927013,-0.036467915439617235,-0.2938104691596237
889635,0.10084509447973147,-0.15649745924027503
747297,-0.44810321986036183,-0.7054457735803683
1252891,0.23102421015679564,-0.03183239213102601
2455067,-0.1172420795256987,-0.36766454540567395
2697689,-0.23489800195413096,-0.4820777943768726
643284,-0.1409224152648383,-0.40377901755265994
1049071,0.1194404961738855,-0.13098196970608975
466069,-0.5883408438644017,-0.8655705530172546
473514,-0.1677229457304107,-0.42506549945041716
1739479,-0.7653872825000079,-1.0227298362200143
635682,0.02600927624203886,-0.22441318963793638
731667,0.06894857395389917,-0.19390802833392248
1118651,-0.3377682319565313,-0.6006248342443529
2107128,-0.13925826484815665,-0.39660081856816315
1638981,0.4422687246377074,0.19184625875773215
545321,0.1207874072920462,-0.1365551464279603
3110015,-1.0884585073211595,-1.3512259079368962
730564,0.22902972849432116,-0.028312825225685345
355746,-0.7576726207728119,-1.0150151744928184
1194830,-0.16549314183050903,-0.42826054244624584
1592638,0.45558012485436084,0.1982375711343543
1336016,-0.6519374164325121,-0.9092799701525187
2548349,0.1074295634093757,-0.15533783720636113
1490933,-0.41908487913896414,-0.681852279754701
2872808,-0.2351503069246234,-0.4924928606446299
1363607,-0.3759592623889802,-0.629794313073917
1749353,0.10008692118641732,-0.16276968110140433
3243552,0.2127550161831616,-0.04458753753684491
3339799,0.3113496715953517,0.04849306930753006
3350265,-0.42251101751218023,-0.6763460681971171
2034001,0.20639064188713685,-0.056376758728599985
2902507,0.44644665288625285,0.18910409916624632
370662,0.27551801557969713,0.004324345699292631
889231,0.29974278428867507,0.036975383672938233
3518462,0.9672673385346504,0.7099247848146439
1934589,-0.049813064286056016,-0.3047041012795471
1614397,-0.3847335399256946,-0.6420760936457011
3347481,-0.6160632908593537,-0.889319002079201
1617809,-0.029169444767141214,-0.29193684538287806
272819,0.555351225878075,0.3049287599980997
2198090,0.01895893361924675,-0.23838362010075975
2751340,0.4202738343591069,0.1629312806391004
3445355,0.4812225284623698,0.22387997474236326
733769,0.02303462538827522,-0.22738784049170002
653252,-0.23787436161069697,-0.49521691533070344
806507,-1.1983584852627034,-1.4611258858784402
357033,-0.20785166866620794,-0.45171862576758337
3087470,-0.31563292201920323,-0.57840032263494
1546127,0.31093000348324296,0.05358744976323643
984062,0.0565146533805449,-0.20634194890727675
643089,0.03773603212874076,-0.2054693374542134
1513787,-0.7697322740492942,-1.0325888763371158
529931,-0.38529035859942695,-0.6480577592151637
1820841,0.21296717011019364,-0.04437538360981286
1662023,0.7714930435201501,0.5166858501163507
3482134,-0.11313382923359627,-0.37047638295360275
2125962,-0.8508863698232799,-1.1082289235432865
1245460,-0.7759735457014572,-1.0263960115814323
3075832,-0.08667223544686925,-0.3440147891668758
652603,0.7712260070362323,0.520803541156257
1823403,-0.6508181217480596,-0.9012405876280349
1263530,0.1905533047576841,-0.08064036512272044
3169749,0.09681124122963361,-0.1605313124903729
1526872,-0.8663613072670097,-1.1201963579519465
1853491,-0.06307524965083246,-0.30941855885499464
1815582,-0.779964719341417,-1.0427321199571538
3026317,-0.3953208125726584,-0.6526633662926649
3053104,0.2724021538084277,0.015059600088421166
3284320,-0.6747695260465757,-0.9321120797665823
423523,-0.22005324360334916,-0.4773957973233557
3393142,-0.6673242499550271,-0.9246668036750336
2741424,0.16194971849735834,-0.1152799906554946
324600,-0.38062958551359927,-0.6434861878014209
1775093,0.2780473867028228,0.020704832982816335
1066780,-0.23485560167980352,-0.49762300229554035
2572979,-0.2901052443118619,-0.5612989141922664
365885,0.09038148694529302,-0.16696106677471348
2112309,-0.613236956384704,-0.8760043570004409
3734039,0.17705758911772126,-0.08028496460228524
468897,-0.4153386318247628,-0.6781060324404997
2245383,-0.23054639625185167,-0.48788894997185817
1249000,-0.4805384681166568,-0.7378810218366633
650467,0.6767110663329797,0.4262886004530045
2773566,0.466435466105492,0.21601300022551678
2732325,-0.14025479153341586,-0.3975973452534224
1687111,-0.2608100949188447,-0.500149362817125
397657,0.17217911240716036,-0.08516344131284614
1986206,-0.7968312974025269,-1.0516384908063263
1668837,0.3016701778412801,0.046779140847789
2728278,-0.1943699285202026,-0.4517124822402091
1563702,-1.0780686958762828,-1.3354112495962893
1742298,-0.031346884040069106,-0.2776901932442313
3110523,-0.40991793180196867,-0.6672604855219753
1306241,-0.3032630112282455,-0.57445668110865
2905845,-0.12158320274666057,-0.37892575646666704
2221058,-0.20624087894097912,-0.469008279556716
856416,-0.42799968535709204,-0.6743429945612542
1485176,0.12365357304164307,-0.13368898067836343
1169214,-0.23664235242889378,-0.4939849061489003
1768245,-0.3330725713392697,-0.5869076220242065
3724027,0.032669796546774404,-0.2246727571732321
2930038,-0.4068630195032648,-0.653206328707427
880485,0.2595864292809662,0.0022438755609597294
2505977,0.17693434878883726,-0.08040820493116924
2737089,-0.18323109384277445,-0.42171311422219426
1580632,-0.13895818947974536,-0.39630074319975184
3291650,-0.5298706912003758,-0.7872132449203824
1431392,-0.44929899831466236,-0.7066415520346688
2149324,0.26047558591056663,-0.010718083969837866
2897907,-0.15199827747110123,-0.4231919473515058
2999904,-0.04499352226830475,-0.30233607598831125
516077,-0.41861543431311765,-0.6759579880331241
2889890,0.42581936834634315,0.1753969024663679
2877807,0.21078482004548726,-0.03963764583448798
234362,-0.2671728058451244,-0.5245153595651308
1613825,-0.0243588552848273,-0.2817014090048338
1507020,-1.0514762623270437,-1.3053113130119807
1989924,0.8129998183516487,0.5714267619349853
857818,-0.6104762998531029,-0.8643113505380398
587249,-0.18809917017268402,-0.4454417238926905
2704767,0.27567482477311994,0.012818222485298292
321049,-0.14603145525800285,-0.40337400897800935
1316869,0.11858339277189853,-0.13875916094810797
837100,-0.010722871568356857,-0.2699201057291573
3292394,-0.3495611053919514,-0.612417707679773
1945079,1.037160632744371,0.7823534393405718
1916625,-0.474459258018175,-0.7318018117381815
1437831,-0.3015706899231485,-0.558913243643155
3915710,0.04035588801221268,-0.21006657786776256
3002751,0.5671963393082492,0.3207746981558687
1593643,-0.052962718256266306,-0.3103052719762728
562791,-0.1700000782566457,-0.44722978740949865
1739601,0.12729196037159532,-0.13005059334841118
1819547,-0.02557855305516324,-0.28220435471360816
1636967,0.4144148641964325,0.15164746358069564
2141385,0.12012376464298016,-0.13721878907702634
628991,-0.008615962441461747,-0.2524829195428372
1624737,0.615578373122742,0.35895257146429704
2119751,0.19462796401062304,-0.06813943660511379
723159,-0.28427556236611096,-0.5416181160861175
2881445,-0.2150687114285515,-0.472411265148558
1398132,0.01047993379068729,-0.2468626199293192
1492312,-0.08398194280349919,-0.3413244965235057
3142877,0.22583708029249946,-0.031505473427507036
2160220,-0.5957150884645455,-0.8585716907523671
1430051,-0.044792063131562046,-0.29113537233572423
2125052,-0.2306446484566304,-0.4879872021766369
2561559,-0.1612310852781562,-0.4240876875659778
896505,-0.824635530174642,-1.0874921324624636
3320080,0.3236043684723845,0.06626181475237797
1147957,0.19526217200366186,-0.05516029387631338
3262984,-0.189702167471002,-0.45255876975882364
2627922,-0.2838235085339455,-0.541166062253952
1808007,-0.5764311309178813,-0.8391985315336181
1630795,-0.5506548711997139,-0.8079974249197204
314852,0.36944130193662095,0.11209874821661442
3511398,0.00864807770894116,-0.2542085245788805
351020,-1.204896360680219,-1.4622389144002255
1026533,0.2829350320459788,0.02559247832597228
2044988,0.1638396236055811,-0.0935029301144254
2843620,0.3875641522266274,0.12470754993880573
3427935,0.4357963654966741,0.15856665634382117
2835583,-0.8953506092390006,-1.1526931629590071
2608190,-0.047765846551735616,-0.31053324716747244
3509341,-0.30848508143143777,-0.5757836189943597
1133847,-0.13103854854015565,-0.38838110226016215
744312,-0.5540352993112825,-0.811377853031289
847552,-0.3089897176249139,-0.5663322713449204
2816785,-0.44739690549168554,-0.71859057537209
614189,-0.2653867278442843,-0.5227292815642908
1572061,0.09065316987077435,-0.1722034324170473
3443201,-0.011625973511371263,-0.26896852723137776
898495,-0.5093740312116494,-0.766716584931656
2889086,0.04543562851728017,-0.21376160564352029
1993721,0.05753680749246867,-0.19288565838750657
3191437,0.5652833727489507,0.30251597213321385
2852223,0.020399013835107505,-0.236943539884899
3757110,0.43401162772148466,0.18017657703654782
1377458,0.004358852201564262,-0.25298370151844224
1417050,0.44897341359756504,0.1862060129818282
913032,-0.22174075367907548,-0.4845081542948123
580930,-0.030298239433853555,-0.2930656400495904
946671,-0.07432884961883832,-0.32475131549881353
1584295,-0.15836034336725446,-0.4211277439829913
1871164,-0.18418168466495224,-0.44694908528068905
1485627,0.3476548112648136,0.09022672575376517
1208393,-0.1983182168463648,-0.45566077056637133
3532523,-0.6713176171317667,-0.9286601708517732
271359,0.28971989410167165,0.032377340381665176
3074208,-0.2984595131670028,-0.5548899559260214
974508,-0.7200877173035606,-0.9828551179192975
1240696,0.2602890573160717,-0.00247834329966512
644721,-0.05825684895868423,-0.32102424957442105
1873817,-0.7546721419527134,-1.0120146956727198
2223846,-0.30385673969207216,-0.5612848252031206
3751343,-0.40142662476991664,-0.6587691784899231
1427712,-0.2709322282948706,-0.5247672789798075
2025201,0.22127750514415603,-0.03606504857585047
473432,0.27377737779510036,0.016434824075093835
3190089,0.41396539027251444,0.15662283655250792
2281154,0.014032232897158575,-0.22754082351950486
932606,-0.5542296415118617,-0.8115721952318682
1137753,0.050146559224612974,-0.2600827153231491
3920588,-0.20675133813223273,-0.4640938918522392
3793973,-0.22996116074044165,-0.4873037144604482
2524878,-0.28947188417539144,-0.6077756444680733
3389419,0.1930661026794947,-0.06979049960832695
2145176,-0.11283217660517038,-0.3900618857580233
847452,-0.09327756079349857,-0.35062011451350505
2242909,-0.7571719229494815,-1.0162824379418667
2276975,-0.6108497052173809,-0.8737063075052025
2014991,0.27371033778823617,0.016367784068229696
686587,-0.6374029775346093,-0.8947455312546158
3123276,0.4498202581354076,0.19247770441540107
986496,-0.15037090098250108,-0.39194395739916454
1320899,0.05898900370196103,-0.19835355001804547
2438555,0.3954657518367699,0.13812319811676338
3916128,-0.5612280659869726,-0.8385571455488767
1242628,-0.05358937211465463,-0.3109319258346611
3461749,-0.670773276610707,-0.9335406772264438
281227,-0.13541813197577618,-0.39827473426359783
1157983,0.24023453683312038,-0.017108016886886124
3494909,0.3459238377077589,0.08858128398775239
1455756,0.021835103150260632,-0.2493585667301439
397793,-0.004508287480538109,-0.2618508412005446
1424254,-0.4861131577656541,-0.7489697600534757
2547945,0.15624140639769046,-0.10652599421804637
3868688,0.17508095288850314,-0.08226160083150336
3377367,0.21143789979055372,-0.032429057310821685
1996789,-0.4325109209378222,-0.6916214359302075
2038245,0.3801806162289472,0.11732401394112557
1392245,-0.6994166254829923,-0.9567591792029988
330970,-0.16936838073299604,-0.4321357813487329
3656439,-0.15088228301024445,-0.4137388852980661
865372,-0.36393578362481144,-0.621278337344818
315673,-0.028368339364356898,-0.28571089308436337
1782313,0.32323308399939354,0.06589053027938707
3058641,-0.04776123373507435,-0.3051037874550808
1224727,-0.2431303281583605,-0.500472881878367
1706529,0.06406175228233313,-0.1907454411214662
254254,0.07944302703065975,-0.17789952668934675
1485342,-0.6796388653926393,-0.9369814191126458
1396163,0.16388212943332378,-0.09346042428668272
234052,-0.516029775434919,-0.7733723291549255
3435543,0.17802862672428296,-0.07931392699572354
1756385,0.24677106127901963,-0.010571492440986874
2576980,0.6857166653544684,0.4228600630666467
1760894,-0.09268183080337553,-0.350024384523382
3484201,-0.5186864098569302,-0.7760289635769366
1288227,-0.14159829212621092,-0.3989408458462174
2835427,0.3192975171706143,0.056440914882792625
3415333,-0.14569140632558675,-0.4084588069413236
2871778,-0.0326176245707402,-0.2899601782907467
2240197,0.42650082072261875,0.16915826700261222
1707840,0.07895369258864401,-0.17585350081515533
1914673,-0.8007435733460513,-1.0580861270660578
3423886,-0.381406926168651,-0.6297063931702269
1558720,-0.13280586268563915,-0.3901484164056456
1943865,-0.0850463985207196,-0.33985359192451897
500747,0.03554424650662183,-0.22179830721338467
2655466,0.13121819142127225,-0.12612436229873425
397433,-1.0129191828783837,-1.2633416487583589
455037,-0.8831590392164809,-1.1405015929364875
2193614,0.02980283531949557,-0.22753971840051093
3320433,0.31033988532515644,0.05299733160514991
1903662,0.6054595756458191,0.34811702192581256
2901815,-0.3582919323284142,-0.6156344860484207
538362,-0.3401515304234969,-0.5974940841435035
3057325,-0.20717819714031305,-0.4645207508603195
1561784,-0.6215868690000713,-0.8927805388804758
492616,0.11476344865838739,-0.14800395195734944
1565156,0.10884670970630997,-0.16234696017409456
3262464,0.219068925113578,-0.04369847550215883
1821496,-0.4546184641449742,-0.7530454569203217
1196869,-0.08354174769033793,-0.3408843014103444
3530363,0.11605778271826214,-0.15513588716214238
1267722,-0.6371982987939597,-0.8999656994096966
2870191,0.5577660369629787,0.31619298054631517
3183379,-0.3068494905632365,-0.564192044283243
2205847,0.08845990857309954,-0.1743074920426373
3746554,-0.38910552918989855,-0.6395279950698738
3095200,0.21714865745825587,-0.04019389626175063
2801300,-0.4140803328506011,-0.6714228865706076
1093068,0.2505051635479962,-0.026724545604856764
1697860,0.32004117054578307,0.06523397714198376
1008180,-0.9355740646563884,-1.1819173738605506
1412549,-0.41375873204636254,-0.6910878116082667
3195520,-0.00870497077358573,-0.26604752449359226
216567,-0.5611997635562256,-0.8240563658440473
1483075,-0.2554149663159815,-0.5175236035940217
3454315,0.7828520322531645,0.5200846316374277
1509277,0.8435293483259239,0.5861867946059174
1006703,-0.15405552057979574,-0.41139807429980224
535393,-0.006417299579402735,-0.2637598532994092
2520993,-0.5611409153326834,-0.8184834690526899
882555,-0.8434778746539555,-1.1063344769417771
1228873,-0.30063786493861805,-0.5579804186586246
2754499,0.22374227447646292,-0.033600279243543585
2658313,-0.10203890059816875,-0.35938145431817525
205636,-0.26384992008961944,-0.5176849707745563
583380,-0.43767021642405096,-0.7005268187118726
1072027,-0.6330100751502481,-0.8745831315669115
2869735,-0.08761913393978366,-0.3380415998197589
1105567,0.10424962146599023,-0.15309293225401627
3137017,-0.39953786510928146,-0.6568804188292879
3195287,-0.04045123522390874,-0.3032186358396456
1550764,0.41826412595931284,0.1609215722393063
1415599,-0.7559573627640268,-1.0132999164840333
3340294,-0.2691415562328466,-0.5264841099528531
743603,0.08253877212580932,-0.17480378159419718
1788985,-0.31841789281948996,-0.5775284078118753
2053165,-1.1706660391160337,-1.4280085928360402
1444649,0.3823819333328461,0.12503937961283956
1937325,0.002668172824125098,-0.25213902057967424
2184636,-0.3650593216737883,-0.6188943723587251
621815,0.2977814350720752,0.03501403445633838
3738840,-0.3048803388437305,-0.5676477394594673
2239074,0.38900498133738326,0.13166242761737673
3422498,-0.3999945351965624,-0.6627619358122993
3298957,0.4429878374360154,0.18915278675107855
2527618,-0.01863329418047953,-0.275975847900486
1513128,-0.007205204228039552,-0.2645477579480461
2245653,-1.090216043836512,-1.3475585975565185
700659,0.39402140998276197,0.15244835356609854
3336171,-0.1554775833315113,-0.40931263401644813
3007527,-0.40682150728770095,-0.6641640610077075
371458,-0.009712008989614246,-0.26705456270962075
1438614,0.2776856668433879,0.023850616158451077
3337411,-0.018133627848278627,-0.27547618156828513
3216156,-0.5331980556811827,-0.7905406094011893
3334475,-0.003992078438693036,-0.26133463215869956
2939593,-0.5044203385954966,-0.7617628923155031
830601,-0.7521979931622957,-1.0095405468823022
1966710,0.6143522519048109,0.35954505850101154
2282463,0.2558431100196291,-0.001499443700377412
3319240,-0.24845083931668516,-0.5113074416045068
1736699,0.22480098053915426,-0.05252809902274991
1035778,0.48058457574234825,0.2112834520378768
1047771,-0.5221099947815453,-0.7725324606615205
1125566,0.005323178534655998,-0.2575334237531657
525865,-0.42727058777710214,-0.6907850653063214
3471028,-0.2639302202226501,-0.5266976208383869
2858152,0.23834316804309302,-0.012079297836882219
3213790,0.07227667551903968,-0.18506587820096682
572180,0.08115850143438752,-0.18160889918134931
866219,0.157464291190888,-0.10530310942484883
401110,0.012661814271126892,-0.2446807394488796
3439685,-0.39016065102626174,-0.6529280516419986
1878068,-0.07016685758369072,-0.33293425819942757
2973436,-1.2414874873976425,-1.504344089685464
511397,-0.008676277501010743,-0.2660188312210172
3940161,-1.0141766506621832,-1.26801170134712
953996,-0.2837104366447674,-0.5472249141739867
1212395,-0.5697228097127713,-0.8201452755927465
3872147,-0.3037568145763164,-0.561099368296323
3423441,-0.31602809291541356,-0.57337064663542
677690,-0.32837938296874536,-0.5788018488487207
1914835,0.16003549155031171,-0.10273190906542512
202922,-0.07507680274937506,-0.33241935646938153
3492634,-0.5352673387326828,-0.7926098924526893
2940301,-0.8924756125115505,-1.1552430131272873
2042707,-0.5130731153027245,-0.770415669022731
337670,-0.17498170182105796,-0.4482374130409052
3342390,0.09947129090854506,-0.16329610970719177
596465,0.3991293333568404,0.1417867796368339
2491989,0.20168802645931688,-0.04873443942065836
1097361,-0.3738124607939156,-0.6311550145139222
1390253,0.2876319847784704,0.016438314898065853
3246476,0.3926120254225782,0.1352694717025717
3886520,0.5863334539427335,0.32356605332699667
880484,-0.47023342082040176,-0.7330008214361385
1447146,-0.3332535870714796,-0.5796752282238602
3446225,0.905102305634303,0.6477597519142966
837780,-0.02581847380045045,-0.28316102752045696
3310338,0.04001717342288105,-0.21732538029712545
2029542,0.20923656640343952,-0.04987394858894578
1836569,0.7326063668228959,0.46974976453507433
1015458,-0.6155174613749748,-0.8782848619907117
2590610,0.19982530052108272,-0.06303130176673893
2391822,-0.05239680446180432,-0.315253406749626
935984,0.5855540344618045,0.3351315685818293
2763631,-0.017749135288809448,-0.2681716011687847
3918984,0.05191074925736294,-0.2108566513583739
2610814,-0.7180506675882514,-0.9753932213082579
1077630,-0.6275487200070143,-0.890405322294836
498490,0.5367079966007661,0.2594782874479131
3018149,0.05383895658199045,-0.20350359713801605
1676373,0.1426021758651887,-0.10541963810233884
3262868,-0.33276402800215676,-0.5901065817221632
2469644,-0.3807283056769175,-0.6434957062926543
3868945,-0.22672984342036206,-0.4894972440360989
3115416,0.04637108754023453,-0.2163963130755023
2799533,-0.9168139525705878,-1.1940436617234407
3389728,0.787487780293629,0.5301452265736224
1241286,-0.15376419511830144,-0.4166207974061231
3843897,-0.8209460084149907,-1.0782885621349971
509088,-0.477553015420066,-0.7279754813000412
1522175,-0.4030993579011881,-0.6604419116211946
1578653,-0.28561182138925717,-0.5294787784906325
2478799,0.2392384299525725,-0.011184035927402747
2027201,0.011987621257708025,-0.24535493246229848
1902959,-0.3827077039767695,-0.6455643062645912
268437,-0.16732224797232725,-0.4301788502601489
2554250,-1.3003086217151354,-1.5576511754351419
3110540,-0.004720334185017647,-0.2552237645067724
3525410,-0.13271390935865907,-0.39005646307866554
425604,-0.17264738886387004,-0.42998994258387657
2145530,0.44573298958735474,0.18839043586734822
1989988,-0.493925299898832,-0.7530358148912173
2931208,-0.17127462448358338,-0.4340420250993202
1975110,0.48048774479664436,0.22314519107663783
3955131,-0.22489317035214007,-0.4876605709678769
1295693,-0.28504806347481537,-0.5423906171948218
834119,0.29435144493598137,0.03158404432024453
2488982,0.0068159974149683,-0.2643776724654362
2721918,0.13510042198720928,-0.12766697862852755
864114,-0.12920013318213375,-0.3920567354699554
3265773,-0.6209018695693657,-0.8981315787222186
2416485,-0.49678881254463314,-0.7448106265121607
418244,1.0089000108736061,0.7515574571535997
2546137,-0.4833768690513555,-0.7607059486132597
3109020,-0.11135507804212047,-0.36869763176212694
1664148,0.3446802837807851,0.08455644053485123
1943640,0.04015641840916863,-0.20786539555835892
1003331,-0.05826602185486514,-0.3211226241426868
1817666,-0.9233694188602648,-1.1861368194760016
388858,-0.4844146912570031,-0.7417572449770096
3920424,-0.10392437445402791,-0.3612669281740344
3706784,0.07133307555859936,-0.19143432505713748
615981,-0.5088864122740533,-0.7504594686907168
1570717,-0.7423950328339732,-1.0052516351217948
874798,-0.5192123634084806,-0.7696348292884558
2448366,-0.1912324630150712,-0.4450675137000081
213049,0.4174798180295117,0.15462321574169002
3055571,-0.4186282798388481,-0.6690507457188233
2916054,0.3706165572338189,0.11678150654888209
1671669,0.5011347111801016,0.253112897212574
3409075,-0.37329593743529244,-0.6360633380510293
3033839,-0.45285301555249685,-0.7157096178403185
1593980,0.007296097847133226,-0.2500464558728733
508140,-0.5793792504782272,-0.8367218041982338
3172200,0.022484859768562404,-0.2348576939514441
3669212,-0.22813326031021935,-0.4854758140302258
2064663,0.275125969274266,0.01235856865852919
1435576,-0.5582819371480175,-0.8156244908680241
1872732,-0.23147408057227278,-0.49058459556465805
544164,0.3619317932698987,0.09907519098207707
1364492,0.09683253884475185,-0.1660240634430698
3960056,-0.6378136320713841,-0.9006702343592057
3353398,-0.32236767111164644,-0.579710224831653
3136962,0.518015872652999,0.25524847203726214
3211610,-0.4249340020667749,-0.6877906043545965
433323,-0.3390874111243688,-0.5895098770043441
3917710,-0.4825546335860932,-0.7329770994660685
356702,0.002135447814797964,-0.25520710590520856
2228154,-0.10680616467094103,-0.36414871839094753
1957563,-0.6169362948264413,-0.8717434882302406
3318756,-0.39305084733407397,-0.6558182479498108
3291683,-0.12858175582324807,-0.3859243095432546
2424277,-0.5535118251399278,-0.8108543788599343
2630844,-0.7040871965373339,-0.9614297502573403
1226961,-0.3847860801055981,-0.638621130790535
300820,0.23682641683690192,-0.025940983778834914
3070028,-1.3826060125432358,-1.6399485662632423
3096842,0.15243922578698604,-0.0979832400929892
2125547,0.13061069258463995,-0.12673186113536655
3329419,0.5119288900963783,0.25273165593557784
3417923,-0.48498992526287654,-0.7477573258786134
3664758,0.0035588069984258397,-0.25378374672158066
2524011,-0.352460064086023,-0.6152274647017598
1620911,-0.07860632103211299,-0.3359488747521195
2577586,-0.5840290706672074,-0.8467964712829443
3703847,0.2107834193253764,-0.04655913439463011
684842,0.021223114680244293,-0.24154428593549254
547317,0.3899414809769137,0.1325989272569072
1331125,0.32973218554780537,0.0723896318277989
1640862,0.04520583930273844,-0.21213671441726806
2142077,-1.0130399344214054,-1.2758965367092272
3138997,0.593463141518329,0.3306957409025922
1012192,0.434995243284034,0.17213864099621234
1303171,0.497578225379968,0.24023567165996146
1139210,-0.07571504318463845,-0.333057596904645
204285,-0.012833958796644812,-0.27569056108446643
2924019,0.2663433823129598,0.019242407448871623
1028355,-0.19741727841276818,-0.4478397442927434
751833,-0.013813573847833036,-0.2711561275678395
1618103,0.4518885581942149,0.18069488831381036
2020037,-0.3331835372940932,-0.5905260910140997
3345410,-0.4492099646040174,-0.7065525183240239
313145,0.1514115772009801,-0.10593097651902639
3941806,-0.5476980551424905,-0.8104654557582274
3881525,-0.3348373068037719,-0.5921798605237784
513489,-0.8140452625977712,-1.0769018648855928
3101900,0.34032157121821693,0.08297901749821046
2961777,0.22227670392122503,-0.03506584979878147
2565524,-0.020160231427544528,-0.28226886870558476
3388585,-0.14002496279601023,-0.40279236341174707
1255032,0.3145885951822798,0.05914277765856141
516178,-0.17406398163620398,-0.43692058392402566
555746,0.19342400557896783,-0.07578345757142568
541087,-0.2045363753976192,-0.46187892911762574
386271,0.35133512206217216,0.09233653180959372
376971,-0.36912340236404323,-0.6318908029797801
2811122,-0.23568676131219313,-0.4930293150321996
1971994,-0.37708879892318836,-0.6318959923269877
3953047,-0.22525769298934203,-0.48260024670934853
2577696,0.23145206264630838,-0.02589049107369812
2597088,0.19722139820413026,-0.056613652480806576
3307442,-0.14192590185758325,-0.3923483677375585
2246241,-0.0193608796286959,-0.2767034333487024
306531,-0.28615925760319105,-0.5365817234831664
232411,-0.4167634477605587,-0.660630404861934
2236507,-0.5470643678188222,-0.8044069215388288
3156164,0.28571864013004555,0.028376086410039025
1076907,-0.22076024141721484,-0.4711827072971901
1092907,0.310545273339858,0.04777787272412115
1097644,-0.2955411525548908,-0.5528837062748972
1009609,-0.39439271972536194,-0.6572493220131835
1336439,-0.3185832702243842,-0.5759258239443907
1145561,-0.035425228838676284,-0.2981926294544131
1985998,0.20386985013667366,-0.06450767381515571
1503009,0.23135624667543997,-0.019066219204535273
2258573,0.0459772301021423,-0.2113653236178642
2797443,-0.7190315458784702,-0.9763740995984767
2716243,-0.4761754894956014,-0.7335180432156079
280665,0.2921565476173691,0.03481399389736256
1820445,-0.6402325502790156,-0.9029999508947524
3755395,0.1417531213169399,-0.10211383578443553
1504936,-0.04293472391501722,-0.3002772776350237
2948988,-0.7683005907035615,-1.0154015655676496
2441343,-0.5427625896773728,-0.7859679592603269
2422660,-0.49358859983444325,-0.7563560004501801
1894329,-0.6055399273708206,-0.864650442363206
1314850,-0.8379764134991758,-1.1007438141149126
435363,-0.37803731225541304,-0.6353798659754195
2517169,-0.4577827384446127,-0.7151252921646192
3220548,-0.46508503131131196,-0.7224275850313184
1678500,-0.1911276736124916,-0.4459348670162909
1673174,-0.0005021934355781965,-0.25530938683937754
3461186,-0.3421676365396206,-0.5995101902596272
1202909,0.25833324015724757,0.0017074384988026714
2640093,0.5489671302936071,0.2916245765736006
1394430,-0.20309847991032004,-0.4604410336303265
819458,-0.059299871310375216,-0.2920925002180011
2483218,-0.3289867016138054,-0.5794091674937807
1531006,0.6938386748096013,0.4346414406488008
1575853,0.0616743020761189,-0.1956682516438876
1442012,0.05447222187785712,-0.19194941927452341
3323559,0.6911005134008845,0.433757959680878
1693299,-0.1812158199652888,-0.43602301336908816
1887837,0.3525285711890293,0.08967196890120765
2961715,0.11948344482443347,-0.1268598643797287
1237696,-0.15035300860030604,-0.3974539834643942
2436611,-0.1408982463405275,-0.398240800060534
822030,0.37693896242634145,0.11272463530967919
3432314,-0.42338814115781,-0.6861555417735468
564511,0.44479524469205034,0.1874526909720438
3291464,-0.37686017052274035,-0.6342027242427468
2431058,-0.04384778300241729,-0.30304501716321774
959044,0.02782708859178834,-0.22951546512821816
391567,-0.08361149736666383,-0.3409540510866703
2168226,-0.3799780208806086,-0.6373205746006151
3095224,0.14904615811831975,-0.10829639560168675
643407,-0.473100112101944,-0.7304426658219505
1535943,-0.2448292930358696,-0.4986643437208064
2222429,-0.6928448286170913,-0.9432672944970666
1364643,0.07631954450653033,-0.18102300921347617
975887,-0.4044420913872083,-0.6617846451072149
2885487,-0.6910035618153145,-0.948346115535321
2561797,-0.011528965373584985,-0.26887151909359147
2785277,-0.12107621011935939,-0.3784187638393659
2459627,0.4002485343614276,0.14982606848145236
2577717,-0.3606903879331784,-0.6180329416531849
564199,0.3011005229083512,0.043757969188344736
3101809,-0.42867970628139296,-0.6860222600013994
913354,-0.6323582257676479,-0.8951256263833847
3148286,-0.24876777407353273,-0.5061103277935393
3259706,-0.4714949866686683,-0.7288375403886749
3105770,-0.1877108919459018,-0.45056749423372344
3458071,-0.6449490340542987,-0.9077164346700355
1868700,0.3148623006216804,0.057519746901673885
3939836,-0.2274070704624866,-0.48474962418249307
597575,-0.4043221306223763,-0.6815518397752293
1729232,-0.7000087723345035,-0.9627761729502404
