sample_id,y0,y1
2445839,4793.770842859717,4786.27423083219
530295,4529.298774664686,4521.802162637159
3320963,8447.385009090513,8439.888397062985
1684196,5471.071227541774,5463.574615514247
3326600,4996.869324379735,4989.3727123522085
2689973,2812.155734829183,2804.6591228016564
194092,7464.395719543016,7456.899107515489
1918066,1693.8525119188143,1686.355899891288
1254721,4232.006647462359,4224.510035434832
726855,2948.054815516189,2940.5582034886625
2794896,5029.168010957983,5021.671398930456
1039622,3017.118465343424,3009.621853315897
3399548,3093.5628524990875,3086.066240471561
2198286,5987.114816308558,5979.6182042810315
2755316,7743.192864798892,7735.696252771365
3389619,5308.386059289848,5300.8894472623215
3440791,8630.28806724265,8622.791455215123
1620562,3024.873825361361,3017.3772133338343
3864794,11100.388931761936,11092.892319734408
2736175,7542.837780653571,7535.341168626044
3776749,5028.173592358448,5020.676980330922
3471714,2550.7532514417376,2543.256639414211
3086173,3349.3550476585774,3341.8584356310507
3670173,4999.28890110688,4991.792289079353
2520036,4484.040174553706,4476.543562526179
3739935,-48988.747877890615,-48996.24448991814
3863420,4427.716475545142,4420.2198635176155
2742017,2497.157236816368,2489.6606247888412
2641108,4777.2111882273,4769.714576199774
3942242,3976.606232295864,3969.1096202683375
3480305,1899.4703169969837,1891.9737049694572
2861004,-47057.16727255905,-47064.663884586575
1118988,-47464.32842476529,-47471.82503679282
2443461,-48744.803025996735,-48752.29963802426
1331007,6255.248820212085,6247.752208184558
3696049,6086.146920838254,6078.650308810727
1738439,7446.3123979513575,7438.815785923831
2662556,5210.506690038225,5203.010078010699
509667,3138.5838606689945,3131.087248641468
2872936,5713.492952507229,5705.996340479703
1086235,2148.1428228704544,2140.6462108429278
3320174,2720.5226638698527,2713.026051842326
3450988,5605.9914959069365,5598.49488387941
814819,3155.6193176896454,3148.1227056621187
3782862,2852.9264646739766,2845.42985264645
3715527,6999.388190604419,6991.891578576892
583995,6627.763746961358,6620.267134933832
1411186,5681.343283296548,5673.8466712690215
2838307,9201.24605721102,9193.749445183492
280533,2674.938673871365,2667.4420618438385
2720183,5713.492952507229,5705.996340479703
499758,2708.7673999494327,2701.270787921906
518545,3664.0932246779557,3656.596612650429
3420714,3104.871556376727,3097.3749443492
664632,2636.1882373192457,2628.691625291719
1232111,6281.482952799074,6273.9863407715475
3404854,4006.485992074268,3998.989380046741
639239,5162.636726897817,5155.140114870291
1547385,4155.43780087145,4147.941188843924
1554139,-49962.860040701366,-49970.35665272889
3024662,1974.2212280635918,1966.7246160360653
2785291,3867.162123270845,3859.665511243318
3905434,5759.578821310542,5752.082209283015
981417,7290.90760749227,7283.410995464743
1451740,3371.748513466493,3364.2519014389663
3244750,3285.0065116903056,3277.509899662779
1158982,2594.2741687935577,2586.777556766031
1772813,-46907.25946162943,-46914.75607365696
1581984,2791.746465028219,2784.2498530006924
2858832,7436.593884873013,7429.097272845486
322689,7043.369062252898,7035.872450225372
2214733,4145.181967813444,4137.685355785918
874867,5684.038077860031,5676.541465832504
735450,5315.965606426886,5308.468994399359
2174395,2863.133568873905,2855.6369568463783
3889990,4253.175845016828,4245.679232989301
3908749,10580.649578645864,10573.152966618336
2423022,1955.205526694502,1947.7089146669755
2231058,2812.3004813720295,2804.803869344503
451705,5937.807539993141,5930.310927965615
1327007,4795.459024044027,4787.9624120165
214526,3979.238806968591,3971.742194941064
1877465,6695.522994743529,6688.026382716002
2985439,4694.185901834483,4686.689289806956
1671781,3154.288924875693,3146.792312848166
456385,4154.382383467384,4146.885771439857
2278667,5107.462056490264,5099.965444462738
483614,3944.3712859240313,3936.8746738965046
2587166,4461.568279274379,4454.0716672468525
2935412,7023.713546216963,7016.216934189436
1984701,5413.858455075925,5406.361843048398
3273626,6760.782418859603,6753.285806832077
3159627,5597.913594256251,5590.416982228724
860929,3525.1194042270704,3517.6227921995437
1236319,3892.681521079374,3885.184909051847
3164625,2048.774106450385,2041.2774944228584
1531126,6761.874685092287,6754.37807306476
1999914,4046.9489245143486,4039.452312486822
3435015,8199.781372993382,8192.284760965855
311576,2840.8135530245613,2833.3169409970346
1526540,3945.540377786932,3938.0437657594052
3797232,8148.325207057021,8140.828595029494
288095,9741.193540035072,9733.696928007545
1532033,5995.0416180442035,5987.545006016677
2038438,7744.164003381462,7736.667391353935
1125686,2296.194323201906,2288.6977111743795
743617,-43694.806235158256,-43702.30284718578
893162,3220.157433780548,3212.6608217530215
2003798,7124.017804017879,7116.521191990352
3904582,3708.902308756966,3701.405696729439
3763828,3211.327158130273,3203.830546102746
2401039,3077.3882443522107,3069.891632324684
472312,6663.915368512593,6656.418756485066
3535272,3380.673827752562,3373.1772157250352
2281154,6673.424849682516,6665.928237654989
2546831,5129.507980463887,5122.0113684363605
2149671,7196.9775463749875,7189.480934347461
1840167,6436.023087471578,6428.526475444051
2649347,7426.038654476707,7418.54204244918
2696084,7483.317286302218,7475.820674274692
1310679,6826.6389519237455,6819.142339896219
3117819,1917.7831494878405,1910.286537460314
1861972,2729.589470025106,2722.0928579975794
1900148,2879.4332456268057,2871.936633599279
204103,2846.288154871846,2838.7915428443193
730749,5382.714539685253,5375.217927657726
1256798,-50680.46047207046,-50687.95708409799
1234611,5250.033898546066,5242.537286518539
2649151,-50237.84630479983,-50245.34291682736
3243836,4764.043185629074,4756.546573601548
661700,4910.9184210205985,4903.421808993072
2512530,5268.712045653209,5261.215433625683
1400026,4187.687296665378,4180.1906846378515
994847,4891.675760152078,4884.179148124551
3015746,3315.043005632233,3307.5463936047063
1888645,-48380.27330250011,-48387.769914527635
897419,3957.2910866641723,3949.7944746366456
3156856,3838.12948137794,3830.6328693504133
543364,6328.398355159967,6320.90174313244
920277,7667.139195064025,7659.642583036499
3679232,6478.164998064124,6470.668386036597
1849032,3713.279377959803,3705.782765932276
1712850,7182.345879792111,7174.8492677645845
387383,6523.654069702749,6516.157457675223
365357,4545.3844532353105,4537.887841207784
1014600,4191.027249190758,4183.530637163231
1242150,3879.739181948853,3872.2425699213263
2748143,7030.796316038941,7023.299704011414
497287,3115.84241604736,3108.3458040198334
3215750,2671.253141745572,2663.7565297180454
1790769,4654.165920654838,4646.669308627312
3462900,4567.4239188786505,4559.927306851124
3727161,3441.8434632631743,3434.3468512356476
709366,4400.240949007694,4392.744336980168
336840,5130.034459520079,5122.537847492552
1740389,4940.790802393319,4933.294190365792
3361161,7000.0668860112355,6992.570273983709
3930180,4078.9861374950583,4071.4895254675316
455235,1891.5828502117884,1884.086238184262
1197925,5460.254244341771,5452.757632314244
1684312,6419.349781483387,6411.853169455861
3363187,7482.2896750501895,7474.793063022663
643571,5529.103199453122,5521.6065874255955
3068496,2205.0523933957,2197.5557813681735
2205287,9184.614583008064,9177.117970980536
1491994,5877.283431919404,5869.786819891878
1644412,3866.037554998747,3858.5409429712204
1347569,1701.0140670203937,1693.5174549928672
1226089,5701.377523004787,5693.88091097726
838830,-47259.92735184644,-47267.42396387397
1876207,3653.3355049545144,3645.8388929269877
2189554,8166.512035912863,8159.0154238853365
1575235,6998.835505657151,6991.338893629624
2203331,5446.396240139795,5438.899628112268
1048663,-45160.968061405154,-45168.46467343268
568297,4056.1580162435994,4048.6614042160727
3414851,3500.0456481429833,3492.5490361154566
2639731,2615.398123607341,2607.9015115798143
576525,5844.5114330583265,5837.0148210308
1043354,-48920.39740816358,-48927.89402019111
3044975,5702.79667658166,5695.300064554133
364573,5686.42977309224,5678.933161064713
392434,6217.295442353689,6209.798830326163
1859863,3071.268152653635,3063.771540626108
449662,3647.697619984289,3640.201007956762
3208162,4315.906232593783,4308.409620566256
2654916,-45633.53220495006,-45641.02881697759
3308978,2488.193826446777,2480.6972144192505
1447059,9490.920512472923,9483.423900445396
3300702,2730.0002511220687,2722.503639094542
2772842,2374.42549036023,2366.9288783327033
2456739,6606.001619003243,6598.505006975716
362041,1844.1651689702621,1836.6685569427357
2053520,3840.157544862543,3832.6609328350164
2995275,4427.275164505174,4419.778552477647
321946,6581.724885598243,6574.228273570717
1793816,7109.999488211535,7102.5028761840085
3300939,3461.0108947347458,3453.514282707219
315382,5569.24015560924,5561.743543581713
1573216,3124.2485716807073,3116.7519596531806
272819,8308.398657890511,8300.902045862984
1808227,5891.273468241672,5883.7768562141455
577363,8563.299108741565,8555.802496714037
845285,2894.3044162302854,2886.8078042027587
284669,9207.158531545554,9199.661919518026
2454902,7958.381994651047,7950.88538262352
320384,6056.986374421107,6049.48976239358
1094338,-47667.90354808838,-47675.40016011591
2148206,6059.01471649574,6051.518104468213
2015012,3469.902190597661,3462.4055785701344
258436,5106.801949063984,5099.305337036457
2678858,4060.4310587305113,4052.9344467029846
3224899,4592.571586246758,4585.074974219231
704298,2167.7153489372777,2160.218736909751
1323759,5251.645340336753,5244.1487283092265
2462346,6562.999641961145,6555.503029933619
831931,3491.092968804335,3483.5963567768085
3106625,4615.440450625665,4607.943838598138
2281452,3916.662359290576,3909.1657472630495
3713290,4142.486373257059,4134.989761229533
246516,6173.402270889035,6165.9056588615085
643938,4967.9858055050245,4960.489193477498
3403058,2981.2020967077387,2973.705484680212
2906131,6410.731045118564,6403.234433091037
2683125,7363.286138953226,7355.7895269257
2588751,4526.575641973327,4519.0790299458
2040917,3292.9547290584505,3285.458117030924
2797720,6313.7272826635,6306.230670635973
931559,8543.643968822782,8536.147356795254
1717920,10033.957607007163,10026.460994979636
2250442,5602.87088759962,5595.374275572093
3950687,7751.32956493223,7743.832952904703
3782292,5306.586506858401,5299.089894830874
636492,9033.938358729565,9026.441746702038
2889019,5047.216150412796,5039.7195383852695
2649135,3068.615631516757,3061.11901948923
2536669,8001.100604834461,7993.603992806934
611098,3624.339129348436,3616.8425173209093
1038794,-44513.28328099201,-44520.779893019535
2239379,4109.410479370647,4101.913867343121
852762,1648.8271059664487,1641.3304939389222
1483191,3284.3553012949264,3276.8586892673998
1557139,3361.93184280457,3354.435230777043
2639421,7421.291369093231,7413.794757065704
3318580,4533.02321777902,4525.526605751494
3422437,6657.927678608827,6650.4310665813
2894786,5662.022133395325,5654.525521367798
2538358,3161.528544439011,3154.0319324114844
3027526,6691.947575909139,6684.450963881613
2496300,5700.488784209025,5692.992172181498
1987027,5383.235810463937,5375.73919843641
3370101,5680.839505615808,5673.342893588281
1328221,4341.530068375976,4334.033456348449
2447797,2672.7130214369076,2665.216409409381
2208106,3703.702613125397,3696.2060010978703
2134382,6320.5206981973715,6313.024086169845
1919630,4228.698364263697,4221.20175223617
907717,3169.5313580682046,3162.034746040678
1858981,4153.533783300021,4146.037171272495
3104400,4975.037335284874,4967.540723257347
668767,4486.128276492272,4478.631664464745
3046507,5905.6120296564595,5898.115417628933
3047737,6694.094275093494,6686.597663065967
3846076,7187.538878963688,7180.0422669361615
3233969,4904.547028134072,4897.0504161065455
1107792,2851.7790615815884,2844.2824495540617
2800496,7232.441231151087,7224.94461912356
2884474,5603.901284160016,5596.404672132489
2893947,6322.994730211528,6315.498118184001
2001960,1984.1839766985388,1976.6873646710123
2512644,4759.368393771107,4751.87178174358
903975,2916.1849812508212,2908.6883692232946
1771932,-46474.524574947995,-46482.02118697552
1263093,9818.029542774033,9810.532930746505
1369388,5479.38574087971,5471.889128852184
2674138,3079.635388096203,3072.138776068676
2449949,3141.704468976311,3134.2078569487844
1307502,5966.083786398077,5958.58717437055
3106654,4060.4054578418754,4052.9088458143488
3167658,4718.387163122087,4710.890551094561
2702937,8620.41926892786,8612.922656900333
1710594,2727.4147810053596,2719.918168977833
279700,2881.9573984654835,2874.460786437957
3454764,2346.9585128805265,2339.461900853
3916199,6742.559539460595,6735.062927433069
1771901,4089.687855838883,4082.1912438113563
1059220,5675.843643777866,5668.34703175034
2967764,1903.6600323828366,1896.16342035531
3918806,7396.997113691112,7389.500501663585
627397,3450.467926650446,3442.971314622919
2209705,5836.172750269343,5828.676138241816
409779,4192.427992837325,4184.931380809799
1665388,5096.8729138366125,5089.376301809086
3771542,7593.117272466428,7585.620660438902
335091,5372.573975807511,5365.077363779984
531714,5127.810116895384,5120.313504867858
2979368,-45730.22781357935,-45737.72442560688
1661773,5881.052633794874,5873.556021767347
1302479,2707.8251849699036,2700.328572942377
2770163,4089.637691285448,4082.1410792579213
2654669,3673.807393030887,3666.3107810033603
3773282,1632.490249483524,1624.9936374559975
1272125,4793.219788017162,4785.723175989635
2672799,5927.17094330327,5919.6743312757435
1045536,-48537.92877443506,-48545.425386462586
979813,4664.254993026157,4656.75838099863
809338,6396.579849985051,6389.083237957524
242546,2526.794211745741,2519.2975997182143
2891542,4258.553185797387,4251.056573769861
2633538,7733.790847024275,7726.294234996748
1757505,5810.288649839715,5802.792037812188
2921961,6093.585876348455,6086.089264320928
1742933,3767.0012853389367,3759.50467331141
2994386,2908.9053943064096,2901.408782278883
2492478,5926.140546742874,5918.643934715347
323133,3753.2484182986946,3745.751806271168
724067,4961.367091482618,4953.870479455091
3229115,6054.985491049491,6047.488879021965
1874896,5575.594386237493,5568.097774209967
927516,7187.283510873127,7179.7868988456
1738592,6984.374222639059,6976.877610611532
1868882,7140.173092716251,7132.676480688724
3541377,3288.042229507164,3280.5456174796373
3841707,2292.551300228953,2285.0546882014264
949267,4047.1404112955706,4039.643799268044
2481339,9451.289730613564,9443.793118586036
3669312,5463.649222549614,5456.152610522087
1980681,2387.1259354419776,2379.629323414451
3110678,4844.103695159067,4836.60708313154
2173952,2797.2437387639284,2789.7471267364017
1484581,2181.0703732414368,2173.57376121391
2003626,3374.595697052806,3367.0990850252792
3027829,4902.999644088915,4895.503032061389
894615,5006.13584436217,4998.639232334644
2273641,2683.679703015423,2676.1830909878963
1838410,4057.429875593726,4049.9332635661995
3243730,5668.856945122149,5661.360333094623
3893422,3205.823850994533,3198.3272389670065
2248824,3727.3086338072885,3719.812021779762
2989470,6584.716760718238,6577.2201486907115
1607727,4972.792732744199,4965.296120716673
2580865,5437.772857423243,5430.276245395717
3222995,6700.463696879653,6692.967084852126
550199,7841.949703443948,7834.453091416422
253175,3328.0893300743205,3320.592718046794
416500,7116.64336194227,7109.146749914743
269226,1760.4955790217675,1752.998966994241
472593,3034.0111925342703,3026.5145805067436
1092797,5695.507226629991,5688.010614602465
2916977,9062.736399471643,9055.239787444116
893363,5153.364585576397,5145.86797354887
941609,2534.2025247378365,2526.70591271031
3386728,1530.0328431852558,1522.5362311577294
2648791,3272.8531210448496,3265.356509017323
1296117,3571.496493705845,3563.999881678318
928915,3231.4761144451095,3223.979502417583
450978,4992.640205602158,4985.143593574631
2282370,5418.533250735491,5411.036638707964
2115295,2674.876804199077,2667.3801921715503
2979313,1676.3970557116018,1668.9004436840753
1785141,2104.0054510981968,2096.50883907067
2472840,5350.662575994558,5343.1659639670315
2467038,1406.4231003091863,1398.9264882816599
2747388,6223.149242649733,6215.652630622207
1423726,8195.219181538887,8187.72256951136
2570346,5202.243646791455,5194.747034763928
3402254,2926.881257176391,2919.3846451488644
3422025,1842.5098545916987,1835.0132425641723
669641,4255.372239151287,4247.875627123761
829870,6916.3041548862,6908.8075428586735
2921094,1963.4921005391036,1955.9954885115772
3005135,2736.3019891523704,2728.8053771248437
2003701,5291.628659589781,5284.132047562254
2593718,4492.391048063091,4484.8944360355645
2635066,5356.519898827349,5349.023286799822
3447579,6984.374222639059,6976.877610611532
1021514,6760.782418859603,6753.285806832077
1753997,6556.082602365858,6548.585990338332
3345931,2301.49376205213,2293.9971500246033
426716,6879.142381078202,6871.645769050675
2263741,3252.4650000540105,3244.968388026484
2214442,3791.689685457868,3784.1930734303414
430226,6375.756700118842,6368.260088091315
2454399,2189.275323010873,2181.778710983346
1671535,3990.729293582767,3983.23268155524
324056,3544.879413245664,3537.3828012181375
3233772,2567.495831185803,2559.9992191582764
3224241,6469.564621136305,6462.068009108778
1577260,3676.8587972751097,3669.362185247583
1832195,5269.156075827568,5261.6594638000415
2868704,4240.445689836754,4232.949077809228
2777493,6543.8379274629715,6536.341315435445
3164066,4548.357850125595,4540.8612380980685
1477044,4884.322139991393,4876.825527963866
1284833,3548.6319176139973,3541.1353055864706
2484567,-48438.24300864575,-48445.73962067328
1839072,3549.0834578325926,3541.586845805066
966505,4983.7463891049,4976.249777077373
1915628,4819.626958842149,4812.1303468146225
1192294,2841.8080834375814,2834.3114714100548
829054,5817.674562164076,5810.177950136549
1139503,5748.0083223561805,5740.511710328654
837732,9322.401369120355,9314.904757092827
2744507,5408.90353349562,5401.406921468093
3338277,3963.549749457134,3956.0531374296074
751726,3196.3818190356533,3188.8852070081266
671711,5753.345532012503,5745.848919984976
448143,5752.551356800472,5745.054744772945
1053339,3359.870955741865,3352.3743437143385
656474,3356.939494543831,3349.4428825163045
3384271,10150.325367604542,10142.828755577015
3531791,5771.408483437885,5763.911871410358
1047558,2216.510719930902,2209.014107903375
3320649,7133.843772097475,7126.347160069949
2037527,4119.97471270391,4112.478100676383
1689958,3572.635228327654,3565.1386163001275
3667249,3864.986408735151,3857.4897967076245
489098,6320.925251308674,6313.428639281147
3273704,5755.571184446961,5748.074572419434
1682938,4597.211641381354,4589.715029353827
631321,3628.9088868841195,3621.412274856593
1322203,4144.157950822552,4136.661338795026
1560519,3172.4604933120418,3164.963881284515
2709341,6758.720884132477,6751.224272104951
3849930,3451.1460156666076,3443.649403639081
1070991,-48806.72069751743,-48814.217309544954
2700757,2679.1033931088887,2671.606781081362
928361,7899.027933892792,7891.531321865265
2197742,4181.437892673414,4173.941280645888
2899593,4770.5999089724555,4763.103296944929
1397747,6328.398355159967,6320.90174313244
832440,7765.972636893668,7758.476024866141
3260850,2774.480469922703,2766.9838578951762
682873,2489.307734365866,2481.8111223383394
1746925,7228.948171986992,7221.451559959465
2272465,5040.89821035865,5033.401598331124
3198100,8632.95745966651,8625.460847638982
1436737,4899.9639262720575,4892.467314244531
1023783,2051.4483787181407,2043.9517666906142
2024307,3555.572037527372,3548.075425499845
2183427,4425.275786348051,4417.779174320524
3751336,6574.1488653073775,6566.652253279851
2704673,6665.007634745276,6657.511022717749
2615338,3775.5604261973504,3768.0638141698237
1772491,3994.21398570634,3986.717373678813
2832233,3947.3850876269453,3939.8884755994186
3762786,-47835.59974389026,-47843.09635591779
2205619,3879.739181948853,3872.2425699213263
3885764,4600.643742818819,4593.1471307912925
3892783,5992.523936193193,5985.027324165666
516278,3058.4284452619277,3050.931833234401
3219910,4995.079395774884,4987.582783747357
2694040,4286.959485945605,4279.462873918078
910078,4546.784635550687,4539.2880235231605
196995,7358.735922891041,7351.239310863514
3371810,6291.480672754439,6283.9840607269125
2408563,3499.0370830557495,3491.540471028223
3449870,3966.4605534372727,3958.963941409746
3029327,4224.067971172574,4216.571359145048
2549717,5938.236043495226,5930.739431467699
551223,2848.2974946934037,2840.800882665877
929096,2011.071224240991,2003.5746122134644
580623,3460.165753544109,3452.6691415165824
1761095,4850.487646139877,4842.9910341123505
3289941,5028.173592358448,5020.676980330922
2692283,6582.894820818981,6575.398208791455
368870,6448.715166293429,6441.218554265903
1971404,4844.071717842016,4836.57510581449
3693899,3415.2771727348686,3407.780560707342
2143488,2030.3772136114617,2022.8806015839352
821646,2876.031082355591,2868.5344703280643
606400,4031.409082235797,4023.9124702082704
664653,5483.057095002437,5475.56048297491
2562586,6063.730645181929,6056.234033154402
1508001,6023.562786008358,6016.066173980831
1252975,9829.316895079308,9821.82028305178
2608946,3110.738182752137,3103.2415707246105
1682849,5708.319432718745,5700.822820691218
1939116,4774.001096866536,4766.504484839009
3043161,3204.1305957330105,3196.633983705484
260792,5028.173592358448,5020.676980330922
452036,4974.382719465405,4966.886107437878
2110426,5087.375183037074,5079.878571009547
1706411,8744.119563722037,8736.62295169451
1024586,3075.652330761158,3068.155718733631
1905367,3015.017353788806,3007.520741761279
3855026,7062.354768560704,7054.858156533177
582333,9388.423536855356,9380.926924827829
986496,4646.27531710321,4638.778705075683
468185,2326.1001876074747,2318.603575579948
3768526,6221.0173821466915,6213.520770119165
909822,4422.990063838287,4415.49345181076
1729181,6071.939578346454,6064.442966318928
260624,6067.153082092789,6059.6564700652625
3163497,3666.842455667333,3659.3458436398064
1624417,7271.517047912138,7264.020435884611
746070,7426.230120029122,7418.7335080015955
2737046,3906.767233545793,3899.270621518266
313651,7996.746485119456,7989.24987309193
537505,2340.6698531165334,2333.1732410890068
2881870,4909.417791652419,4901.921179624892
2034662,7205.466326538961,7197.969714511434
2114093,10368.329699977903,10360.833087950376
3773064,5071.813721320888,5064.317109293362
3082654,3272.8531210448496,3265.356509017323
3041613,5837.943711908843,5830.447099881317
2872591,6426.373637268365,6418.8770252408385
1318921,5881.046305348728,5873.549693321202
1007857,5061.121973129274,5053.625361101747
2235535,3499.013636625387,3491.51702459786
1665416,3726.1247032344377,3718.628091206911
1104323,4614.923174886822,4607.426562859296
2133778,2884.476435814519,2876.9798237869923
3183710,2304.206825551279,2296.7102135237524
1480046,6150.311252949154,6142.814640921627
1998045,3148.390092493099,3140.8934804655723
297967,3795.439167010026,3787.942554982499
2526756,6264.587153635853,6257.090541608326
1281349,5715.691199342407,5708.194587314881
2391760,2949.2226903969517,2941.726078369425
2752050,5205.981179161632,5198.484567134105
1735455,7277.117995765289,7269.621383737763
3840111,7135.615381401399,7128.118769373872
2824219,5059.121089757659,5051.624477730133
3930643,4911.794426787241,4904.297814759714
1694251,10352.178649646461,10344.682037618933
677935,5351.845106969381,5344.348494941854
514646,-49430.00115418112,-49437.497766208646
1093152,5326.252988752124,5318.756376724597
901351,6997.485858989335,6989.989246961808
732836,5711.464610432597,5703.96799840507
3654449,6396.579849985051,6389.083237957524
3353134,6294.1707723746285,6286.674160347102
3231423,9634.537393226286,9627.040781198759
491428,7148.706736091021,7141.210124063495
1335303,4152.4415170673365,4144.94490503981
290319,4608.907935659151,4601.411323631624
3049703,7110.839123717465,7103.342511689938
2259380,3082.5413868481323,3075.0447748206057
3239204,3515.1217805479077,3507.625168520381
3716499,6724.074854574857,6716.578242547331
1534376,4159.908855938083,4152.412243910557
826987,2138.2417233977967,2130.74511137027
3360086,4483.212958965111,4475.716346937585
3421679,2804.44578018404,2796.949168156513
2486670,7855.994724055984,7848.498112028457
3950929,8223.34103749084,8215.844425463312
3051236,3411.441164998141,3403.9445529706145
2601566,2305.9384822927395,2298.441870265213
3017902,6673.87051232287,6666.373900295343
3489181,3208.0925401536374,3200.5959281261107
644959,-49438.43699102719,-49445.93360305472
279968,6019.726634934527,6012.230022907001
976036,7580.791039458624,7573.294427431098
1310047,9148.843094565267,9141.34648253774
314652,6580.455642559123,6572.959030531596
380725,2979.894815130609,2972.3982031030823
267226,7732.064494293984,7724.567882266458
3008816,2690.213313797186,2682.7167017696593
2655016,3041.8497609083934,3034.3531488808667
910342,3760.5725678897334,3753.0759558622067
3101809,5421.653859042807,5414.1572470152805
3051212,1737.7583073034903,1730.2616952759638
3138505,5824.4703825598035,5816.973770532277
1137407,1950.7137804098347,1943.2171683823083
3526158,4706.168791526639,4698.672179499113
253464,7764.808882139397,7757.31227011187
2472178,10297.414880370401,10289.918268342873
2868216,5311.400059064168,5303.903447036641
2430657,10118.666309343369,10111.169697315841
3413246,1832.3337172486579,1824.8371052211314
1935643,5452.214100904361,5444.717488876834
1689392,3572.697305804457,3565.20069377693
1387396,4992.596362905295,4985.099750877768
510596,3891.892572594309,3884.3959605667824
1094656,5413.980738963048,5406.484126935521
1394318,5581.827092020134,5574.330479992607
3873532,7576.840408651747,7569.34379662422
3494254,2789.4364600704203,2781.9398480428936
1546919,4014.3337011994504,4006.8370891719237
1474887,2415.4089382546777,2407.912326227151
362336,7893.659033512999,7886.162421485472
2415693,7288.5902968860955,7281.093684858569
3348594,7404.223850173453,7396.727238145926
1850145,3877.023542328953,3869.5269303014265
2119068,5087.467404046228,5079.970792018701
1864612,5030.943066548374,5023.4464545208475
1249547,2312.624406086974,2305.1277940594473
865341,-48463.6060528594,-48471.10266488693
532237,6663.915368512593,6656.418756485066
2623816,8702.277862841323,8694.781250813796
2245501,3307.8458596682603,3300.3492476407337
1347732,6016.446975422815,6008.950363395288
2810245,4452.243819879496,4444.7472078519695
1239622,8517.927678602833,8510.431066575306
1016235,6048.5797776993695,6041.083165671843
261946,5513.386159405711,5505.889547378184
2000347,2300.360375850357,2292.86376382283
299279,6149.838399719712,6142.341787692185
2645478,3286.87598449208,3279.3793724645534
472272,5059.121089757659,5051.624477730133
2803351,4115.011086036504,4107.514474008977
1149212,2323.357297721378,2315.8606856938513
1500372,3510.3700897257336,3502.873477698207
2963373,6304.923827752149,6297.427215724622
1531194,2848.3164969464783,2840.8198849189516
3223789,3241.907207106006,3234.410595078479
2696113,3255.060425284628,3247.563813257101
1429623,5038.869868284018,5031.373256256491
1689916,8079.659720875595,8072.163108848068
1997007,2766.6767917425077,2759.180179714981
3291881,7465.590260479091,7458.093648451564
3354186,5737.614102091751,5730.1174900642245
1345000,4357.240753386903,4349.744141359376
1107004,4759.280212190238,4751.783600162711
413224,4522.883968810354,4515.387356782828
1916229,6637.614587462899,6630.1179754353725
3658888,7880.418871571055,7872.9222595435285
3122722,9212.50559910076,9205.008987073232
3276936,4135.314405649213,4127.817793621686
2580529,4790.393111451817,4782.896499424291
913682,3131.839589908173,3124.3429778806462
514230,5879.416070689688,5871.919458662162
1341342,6420.459212078649,6412.9626000511225
3728538,-44744.517749481594,-44752.01436150912
2996239,7750.355060873519,7742.858448845992
3051965,4521.551566046484,4514.054954018958
3009344,3400.609368012157,3393.1127559846304
2686340,5692.085050046877,5684.58843801935
2411438,4239.490135712122,4231.993523684595
1627767,5330.3061616039495,5322.809549576423
3409203,2774.258915187453,2766.7623031599264
2209116,4834.801691669653,4827.305079642127
1080900,5351.845106969381,5344.348494941854
711919,3876.9535127478784,3869.4569007203518
3936867,2792.576706986552,2785.0800949590252
1151545,2745.4595662591123,2737.9629542315856
3938067,9176.42259078724,9168.925978759713
3692024,4911.77225692437,4904.275644896843
275992,5608.937291043163,5601.440679015636
714416,5068.9173901536915,5061.420778126165
1538560,5980.3705455477375,5972.873933520211
648070,4690.695213805366,4683.198601777839
693366,9850.91348240874,9843.416870381212
2268050,4534.368332706505,4526.871720678978
1865999,8294.87927429297,8287.382662265443
2751406,5327.075320273114,5319.578708245587
2706544,5552.7703095786055,5545.273697551079
3388056,2978.828328991359,2971.331716963832
3539179,3913.3822739044485,3905.885661876922
3218680,3172.9434797409353,3165.4468677134087
2483237,3637.8460800612547,3630.349468033728
3520932,3380.673827752562,3373.1772157250352
3699293,2525.404727633854,2517.908115606327
2249770,5094.097812603118,5086.601200575591
3801817,4146.994049422035,4139.497437394508
747863,5560.927444914601,5553.430832887075
547567,-48752.43230337963,-48759.92891540716
3834063,1973.5090768826478,1966.0124648551214
715915,7046.675132790032,7039.178520762505
1679227,4705.732834890241,4698.236222862714
3000090,2227.7560877427536,2220.259475715227
3913700,8146.410919203962,8138.914307176436
3474639,2058.72636921566,2051.229757188133
1742577,2274.9746079388433,2267.4779959113166
1147636,4045.896864767769,4038.400252740242
1691811,6332.1834924971845,6324.686880469658
3379141,3987.302508221434,3979.8058961939073
2587689,4851.9731117883375,4844.476499760811
562540,2926.881257176391,2919.3846451488644
1195992,8973.613693235022,8966.117081207494
248905,6644.800632519653,6637.304020492126
2001716,4625.566156121119,4618.069544093592
2257677,8528.026392802634,8520.529780775107
1504952,4204.909580352691,4197.412968325164
3143122,5415.703627863225,5408.207015835698
2535499,4581.965389037778,4574.468777010251
3427148,7666.069975460566,7658.573363433039
2542461,3574.0116456890896,3566.515033661563
1395898,5758.822955391472,5751.326343363945
2605217,4221.1305442050625,4213.633932177536
1710728,9077.73699891165,9070.240386884123
328570,6755.378793911165,6747.882181883639
3208540,2509.823526553043,2502.3269145255163
1326304,3975.4728460940914,3967.9762340665648
306596,6711.534821779885,6704.038209752358
2415137,8018.367173349745,8010.870561322218
433112,6947.768727486428,6940.272115458902
3317006,4983.372758054131,4975.876146026604
3326443,6545.980934731737,6538.48432270421
2909962,9062.528590162308,9055.03197813478
1377261,4464.334190641293,4456.837578613767
355602,5667.674137923463,5660.177525895936
2213924,6156.357715693371,6148.861103665844
2451921,5862.991263551219,5855.4946515236925
600835,6612.614082218539,6605.117470191012
3276307,4940.179847270766,4932.683235243239
3866667,7408.494088920117,7400.99747689259
3414410,6336.563550596635,6329.066938569108
1877212,7645.671964914136,7638.175352886609
2847313,3791.4509890317554,3783.9543770042287
1132617,3908.568441861939,3901.0718298344123
358234,2920.0361065825477,2912.539494555021
1402220,10729.970872556003,10722.474260528475
1050707,2814.0089364068617,2806.512324379335
2511913,4018.3272259021446,4010.830613874618
2898977,5231.800761084888,5224.304149057361
2549888,5671.869582420528,5664.372970393001
3089382,4547.380506714344,4539.883894686817
1432441,4554.273934767707,4546.77732274018
1991316,2813.5607334587057,2806.064121431179
1059603,-47718.13880135458,-47725.63541338211
617434,4205.125840818732,4197.629228791206
3752752,5381.58227749306,5374.085665465534
3422498,5752.551356800472,5745.054744772945
3737174,6402.606376540565,6395.1097645130385
3320535,4616.223924645825,4608.727312618298
1336668,6310.851348720387,6303.354736692861
2282095,4766.112664531928,4758.6160525044015
314293,3942.378649510527,3934.882037483
3875457,5444.74130676372,5437.244694736193
2766207,5403.45083315119,5395.954221123663
1076369,-45742.51830362667,-45750.014915654196
1426008,5954.020619724994,5946.524007697467
2763606,4688.15690749935,4680.660295471824
3468644,3293.898466087877,3286.40185406035
3457732,2302.7767540163336,2295.280141988807
1991704,5093.410116340868,5085.913504313341
2842128,5987.114816308558,5979.6182042810315
2755391,1884.958107959775,1877.4614959322485
3673327,2765.327145074692,2757.8305330471653
3770770,-46855.35747059064,-46862.85408261817
632769,3956.3550108222244,3948.8583987946977
1144254,2399.557577060682,2392.0609650331553
2136986,7073.732494696781,7066.235882669254
2773564,6816.6364150631325,6809.139803035606
997102,2714.569455730725,2707.0728437031985
2553854,2469.3985694816524,2461.9019574541257
2665762,4834.666301278616,4827.169689251089
1915265,2978.9885931881736,2971.491981160647
1497853,6118.270893238779,6110.774281211252
837100,5167.460636332459,5159.9640243049325
1838234,3576.5525603881506,3569.055948360624
3248289,5322.859995055269,5315.363383027742
1288778,6154.251393555777,6146.7547815282505
1649513,3869.026711012234,3861.5300989847074
1853984,6996.998058293606,6989.501446266079
413565,2351.4934632787263,2343.9968512511996
2181311,4318.414771134258,4310.918159106732
1129271,4423.247444273418,4415.750832245892
2986601,4841.69809961185,4834.201487584323
1000026,4818.9643926787285,4811.467780651202
2837956,5773.436825512517,5765.940213484991
1253383,6092.034367419245,6084.537755391719
2219537,5401.33798258851,5393.841370560984
2621818,4954.830506206822,4947.333894179295
1841769,3286.3561583581213,3278.8595463305946
641078,5607.1059138268165,5599.60930179929
3467888,4245.130457251066,4237.6338452235395
1885776,3998.7930083017045,3991.296396274178
1298001,2669.6455970198176,2662.148984992291
1103850,2568.6521868648015,2561.155574837275
1472777,2884.9853523012816,2877.488740273755
687663,1977.127962063553,1969.6313500360266
3871234,4873.923255409467,4866.42664338194
2845868,6478.573031362546,6471.07641933502
1878119,9002.560583984241,8995.063971956713
374441,6270.534371880135,6263.037759852608
2850676,6521.1707165689795,6513.674104541453
895163,4710.395380436452,4702.898768408925
2134352,4194.332415434164,4186.835803406638
1897720,4736.257433365401,4728.760821337874
2790976,2404.5680242364606,2397.071412208934
3477720,4431.662277760766,4424.16566573324
1698071,2678.5993218351073,2671.1027098075806
2755346,5494.377927800767,5486.88131577324
3173779,4956.957287252494,4949.460675224967
3195236,6515.712699775531,6508.216087748005
2751289,3284.3553012949264,3276.8586892673998
524305,6023.718664103136,6016.222052075609
295917,3927.358635216146,3919.8620231886193
2222429,4442.219463732547,4434.722851705021
3944914,5269.777897051161,5262.281285023634
2934660,3083.2030010547446,3075.706389027218
305962,2803.8034021108897,2796.306790083363
2760928,2634.826586846107,2627.3299748185805
318790,3782.4499296910126,3774.953317663486
3128771,4751.273311055239,4743.776699027712
687683,2833.364142563484,2825.8675305359575
1512993,4150.413174992704,4142.916562965177
1791599,4171.482748863138,4163.986136835611
502747,4638.298116785707,4630.80150475818
2880680,6844.5816444056145,6837.085032378088
2515244,5413.30204355623,5405.805431528704
1756512,4039.0464938669343,4031.5498818394076
1192134,2163.439863118653,2155.9432510911265
1956523,2905.202734808718,2897.7061227811914
3186671,2292.384728162353,2284.8881161348263
2773183,4179.409550598782,4171.912938571255
1743953,4169.360737540378,4161.864125512851
3778116,4511.054306683011,4503.557694655485
2831993,5656.341131253478,5648.844519225951
2026786,9460.96841550621,9453.471803478682
1559531,4323.152649150082,4315.656037122555
887605,4368.297862773354,4360.801250745827
384135,5013.835030943662,5006.338418916135
3933354,8377.149128826111,8369.652516798584
1762714,5621.568640460595,5614.072028433068
1877628,2426.900306773673,2419.4036947461464
3246790,4586.250780246226,4578.754168218699
715655,7048.016204476831,7040.519592449305
2656827,6523.368860101785,6515.872248074258
1049603,-46215.02853118092,-46222.52514320845
940134,2363.3721907959293,2355.8755787684026
3901679,2477.7105850234298,2470.213972995903
1056039,4060.4054578418754,4052.9088458143488
2595307,2676.4208778171983,2668.9242657896716
2885775,5673.690655438126,5666.194043410599
438324,1643.8410840953652,1636.3444720678388
961808,3102.0289482562434,3094.5323362287168
2258206,3137.4504744672213,3129.9538624396946
3155522,3571.496493705845,3563.999881678318
2455382,5708.760884291338,5701.264272263811
1518424,4361.759798540083,4354.263186512556
3445564,3086.8460404412817,3079.349428413755
1916787,2488.934391525882,2481.437779498355
532423,-44650.22213517893,-44657.718747206454
3010119,4005.966473212508,3998.4698611849813
479874,5021.765775014979,5014.269162987453
3484439,4501.353545322203,4493.856933294676
1015638,7604.251875928661,7596.755263901135
2929598,2689.490689861326,2681.994077833799
3295153,3365.157420161108,3357.660808133581
3066929,5806.880929165065,5799.384317137538
422408,6520.550944933737,6513.05433290621
644770,5366.316514955301,5358.819902927774
3323805,2191.059887251221,2183.5632752236943
2623331,4118.7111511360035,4111.214539108477
1973184,5640.675143600471,5633.178531572944
2018320,-49793.21700329713,-49800.71361532466
2838419,4064.5661290893754,4057.0695170618487
953986,4678.235226496378,4670.738614468852
1509386,3776.563070878221,3769.0664588506943
1661854,1989.2303361003967,1981.7337240728702
484598,4879.959411947613,4872.462799920087
1888902,5582.680927923905,5575.184315896378
264123,4159.273698419575,4151.777086392049
1297665,3480.3907150460004,3472.8941030184737
865922,7359.807026907102,7352.310414879576
2807716,3430.7563106298335,3423.259698602307
1382904,5772.344559279833,5764.847947252307
3365885,4704.630862653601,4697.134250626074
2162186,5386.452367134507,5378.95575510698
1130719,7099.415882975758,7091.919270948231
649921,2734.322408741681,2726.8257967141544
3267489,1929.1599383124367,1921.6633262849102
2548810,2326.300346047006,2318.803734019479
615695,2291.8726048221365,2284.37599279461
3255831,6791.6716154799,6784.175003452373
823546,3341.681077687096,3334.1844656595695
3883531,3833.7714828461153,3826.2748708185886
309671,9463.857333057935,9456.360721030407
1012948,6637.614587462899,6630.1179754353725
821522,5796.492131680952,5788.995519653426
3107716,1991.456351943496,1983.9597399159695
1427648,4129.330342817097,4121.83373078957
1273104,2939.686087556225,2932.1894755286985
1092391,6623.965157523186,6616.468545495659
1857781,2483.2214597271864,2475.7248476996597
3779415,6026.066335724914,6018.569723697387
2464137,4883.551669397856,4876.055057370329
1665212,4737.3130662704125,4729.816454242886
3179071,8300.33495663767,8292.838344610142
3137225,3239.9751849273275,3232.478572899801
408234,7451.264957369479,7443.768345341952
2058156,10512.74797832755,10505.251366300023
1943127,8007.131756023112,7999.635143995585
2530064,3816.016361525222,3808.519749497695
1263159,7915.938597061272,7908.441985033745
2685081,7728.792433711818,7721.295821684292
2412604,3544.879413245664,3537.3828012181375
2450510,5489.2506199478485,5481.754007920322
647937,6645.828225835769,6638.331613808243
2496648,5649.003055576299,5641.506443548772
1609642,2399.557577060682,2392.0609650331553
3510824,3839.2448169092713,3831.7482048817446
970237,3798.2326817818634,3790.7360697543368
3245355,4046.6227203590724,4039.1261083315458
915867,3586.67481989142,3579.1782078638935
1074124,-49360.90307158981,-49368.39968361734
1396224,4198.739029800181,4191.242417772654
2020802,3381.7660939852462,3374.2694819577196
2649844,2157.828978559605,2150.332366532078
3801300,5633.274137368946,5625.777525341419
2521905,3913.3822739044485,3905.885661876922
3717224,-46913.14190551249,-46920.63851754002
2753031,4474.377567615031,4466.880955587504
2263212,4706.987143923432,4699.490531895905
1254178,6001.161027968232,5993.664415940705
948617,2394.022370656151,2386.5257586286243
2696668,3086.0176122544326,3078.521000226906
2004651,4092.7582995927655,4085.261687565239
2052104,7061.478762794061,7053.982150766535
1227690,3207.4395941016446,3199.942982074118
3099141,4166.705665442647,4159.20905341512
2592714,5583.513163169177,5576.01655114165
971902,6051.979936304689,6044.483324277162
2513975,4451.808984616655,4444.312372589128
2975154,2673.8995915289074,2666.4029795013807
3725027,7572.967542461422,7565.470930433896
1949080,3291.0053562768576,3283.508744249331
3077963,2362.1566228906195,2354.660010863093
3531981,3794.0039888787032,3786.5073768511766
3292029,11049.365137636194,11041.868525608666
1314736,5666.540751721689,5659.044139694162
2019400,6647.07238355197,6639.575771524444
903001,3979.6663719938338,3972.169759966307
1130484,3063.96891516724,3056.4723031397134
2135786,8704.306204915956,8696.809592888429
633837,4766.112664531928,4758.6160525044015
2828587,-44920.797561594925,-44928.29417362245
547317,3299.843336966263,3292.3467249387363
2992767,4576.703782377626,4569.2071703501
751885,5288.19288033297,5280.6962683054435
2604838,4465.619727687237,4458.1231156597105
3230478,4342.530143673765,4335.033531646239
2820907,5694.024063746206,5686.527451718679
3175377,6260.527680419034,6253.031068391508
3340218,7048.016204476831,7040.519592449305
543489,5994.552278267825,5987.055666240299
3198697,5435.892712095091,5428.3961000675645
2403256,2703.8731798051554,2696.3765677776287
3413911,9074.838809502462,9067.342197474934
1105308,2856.764518687511,2849.2679066599844
606256,5641.819861934236,5634.323249906709
927374,6587.19038021897,6579.693768191443
3517392,4542.424691284545,4534.928079257018
1036123,6024.716689057099,6017.220077029572
481558,3550.010662983417,3542.5140509558905
1062312,3909.5293233833954,3902.0327113558687
3476353,2220.435821631454,2212.9392096039273
2636778,7215.5376041525415,7208.040992125015
971341,4060.8047325931157,4053.308120565589
1732975,1909.0922522919107,1901.5956402643842
337777,3639.359143642817,3631.86253161529
851655,8354.664736616704,8347.168124589176
3666619,5487.222277873216,5479.725665845689
2600731,5327.523523221271,5320.026911193744
298474,2986.8251301816795,2979.328518154153
3176304,2825.047444544381,2817.5508325168544
477669,4279.046075135719,4271.549463108192
2637585,4483.908763195394,4476.412151167868
3072717,4209.994765633127,4202.4981536056
1608261,4010.9196535814767,4003.42304155395
1673636,9413.400173517868,9405.90356149034
1712439,5520.977715963867,5513.48110393634
3464865,4549.822419614844,4542.325807587317
2894272,5458.225902267138,5450.729290239611
3496931,6328.398355159967,6320.90174313244
2860712,5994.767704208312,5987.271092180786
2653192,6413.248726969574,6405.752114942047
464558,2813.5481642017003,2806.0515521741736
587214,4772.971561653978,4765.474949626451
3428118,5173.56623060694,5166.069618579413
226356,4933.232024224053,4925.735412196526
3715313,4197.455772109155,4189.959160081628
1609092,3645.4462034370918,3637.949591409565
2923291,6428.034879696902,6420.538267669375
1373300,3542.571520873029,3535.0749088455023
548617,4953.7659064673035,4946.269294439777
418810,6021.891294465927,6014.3946824384
1159029,-46961.29067457586,-46968.78728660339
3380594,3861.6089065966585,3854.112294569132
983000,2336.9554398928585,2329.458827865332
476978,7519.953984507204,7512.457372479677
1660384,9479.904668190227,9472.4080561627
1660792,6230.32454780954,6222.827935782013
2170356,3804.832075680392,3797.335463652865
3887649,5451.818634387043,5444.322022359516
1709615,6173.380000919917,6165.88338889239
716171,2461.198334212316,2453.701722184789
832838,3805.9009562502383,3798.4043442227116
3891808,9473.918684098056,9466.422072070529
376412,7116.64336194227,7109.146749914743
1749586,3699.1719206392895,3691.675308611763
3870218,5971.718966340951,5964.222354313424
2561134,3233.2223391854895,3225.725727157963
391456,3333.8116376675152,3326.3150256399886
875247,6740.5311973859625,6733.034585358436
2777252,8251.326903470344,8243.830291442817
1790496,4268.099019530955,4260.602407503428
1233739,3028.984849657397,3021.48823762987
2580776,3722.972270040056,3715.4756580125295
1987502,3013.8588590487275,3006.362247021201
1090720,3335.3291716927765,3327.83255966525
2785417,4305.189400678001,4297.6927886504745
2796013,7429.413070617527,7421.916458590001
754394,6581.050379846926,6573.5537678194
3095680,6265.936800303669,6258.440188276142
1265438,9036.340987970461,9028.844375942934
