sample_id,y0,y1
3267385,5598.7385463327755,5603.728388516939
2807875,6061.697310635365,6066.687152819529
2205904,5896.738199601612,5901.7280417857755
3959908,5860.088763787333,5865.0786059714965
1644278,5895.86323767171,5900.853079855873
3851511,4610.177252011944,4615.167094196107
3855949,5598.328614693828,5603.318456877992
3144422,5622.026379227617,5627.016221411781
2041482,5799.788064075423,5804.777906259586
1396730,5029.248715773782,5034.238557957945
212061,5870.725921101465,5875.715763285629
3696165,5028.97753425826,5033.967376442423
1219121,5316.1249308007245,5321.114772984888
3878833,5012.936088469706,5017.92593065387
1027337,5304.0689136507635,5309.058755834926
2039767,5612.762789884185,5617.752632068348
1677229,5348.94252891718,5353.932371101344
593929,5333.499110518112,5338.488952702275
1989163,5092.693122581972,5097.682964766134
2720943,4841.463439628095,4846.453281812259
3202816,5848.455156938111,5853.444999122275
2742785,4850.245722142925,4855.2355643270885
2504511,5618.870348873262,5623.860191057425
3447263,5783.472724885968,5788.462567070132
2644144,5613.821470863223,5618.811313047387
2273242,5784.381329567174,5789.371171751338
2029855,4797.6142615970975,4802.604103781261
2727592,4466.028750401731,4471.018592585894
1263220,5842.328393850364,5847.318236034527
3706694,5074.012741108522,5079.002583292686
2797443,6668.278998781729,6673.268840965892
1243627,5274.958517143787,5279.94835932795
1791888,6474.580954932185,6479.570797116348
3382533,5276.76140964768,5281.751251831844
1704032,5596.122130015222,5601.1119721993855
3297213,5889.480669241525,5894.470511425688
2549797,6434.2869567011985,6439.276798885362
3536506,5332.504581269284,5337.494423453448
278928,6315.490460771399,6320.4803029555615
531908,5843.3251915112405,5848.315033695404
1284944,7312.878225809795,7317.868067993959
1123063,5557.214410120125,5562.204252304288
987183,5536.921476010701,5541.911318194864
1198595,5284.38576317583,5289.375605359994
3652092,6100.890811279511,6105.880653463674
1053668,5032.920983776115,5037.910825960278
3856784,6725.855078611438,6730.844920795602
1245402,5597.372298903601,5602.362141087765
3123692,5074.240780156679,5079.230622340842
3679218,5821.933078845564,5826.922921029726
3390722,4578.553246749721,4583.543088933885
3267797,5616.363928334597,5621.353770518761
728750,5869.281480302551,5874.271322486715
3081067,5809.9362219534105,5814.926064137573
1835292,5844.274544543724,5849.2643867278875
198860,5362.930671333665,5367.920513517828
290871,5812.435044405841,5817.4248865900045
3109184,5594.841775840071,5599.831618024235
803016,5614.289797455821,5619.279639639984
1580596,5844.014697892146,5849.004540076309
1878807,6433.583955184596,6438.573797368759
1156377,4064.3275887008426,4069.317430885006
2204683,5596.80819083948,5601.798033023643
1848603,5572.074603825202,5577.064446009365
1523240,5597.6629255404905,5602.652767724654
1429658,5598.041597631462,5603.031439815625
1449703,5583.904034008565,5588.893876192728
651721,35536.58686338932,35541.57670557348
443607,5427.838311264541,5432.828153448704
1513906,7023.488999640071,7028.478841824234
1971153,6351.04105623542,6356.0308984195835
1266254,5092.455407137677,5097.4452493218405
1978447,5243.73275362287,5248.722595807034
1064205,5345.861699091007,5350.85154127517
759714,5048.336621286296,5053.326463470459
910342,5293.983167176463,5298.973009360627
352584,5311.668556131098,5316.658398315261
2738783,5558.255186666861,5563.2450288510245
375509,5617.263247593231,5622.253089777394
2864313,5811.469728198796,5816.459570382959
316324,5808.505406147896,5813.495248332059
3941799,5576.822706689062,5581.812548873226
1725999,3641.393882655781,3646.383724839944
2522702,5857.1974306709735,5862.187272855137
1026526,5274.892073644566,5279.88191582873
201346,5540.600168192848,5545.590010377012
3206743,6315.536362838257,6320.52620502242
1043950,5539.5324914460025,5544.522333630166
1258008,5537.948898163662,5542.938740347825
1091899,5809.280467737517,5814.27030992168
736493,5507.309725446979,5512.299567631142
1332783,5606.201522469,5611.191364653164
1616508,5570.10745496145,5575.097297145613
1414745,5074.170183193147,5079.16002537731
862119,5337.75273937358,5342.7425815577435
2989302,5888.205071124363,5893.194913308526
3953742,5849.080563896755,5854.0704060809185
393216,7025.314671843573,7030.304514027735
910344,5536.4348163076875,5541.424658491851
2427491,4777.948946537742,4782.938788721905
2721596,5809.639076431311,5814.6289186154745
296344,5320.368680941611,5325.358523125774
807960,5781.200355273251,5786.190197457415
2517453,6149.43183026733,6154.421672451494
1080492,5001.260791852144,5006.250634036308
1583224,5822.016779972937,5827.0066221571
266391,5539.933460356455,5544.923302540618
3384797,4818.49336301067,4823.483205194833
3229633,5307.519223455039,5312.509065639201
3149055,5813.741392862384,5818.731235046547
1754874,5073.271408943211,5078.261251127375
1289032,5613.62530271414,5618.615144898304
2421763,4843.0226763116925,4848.012518495856
1145974,5828.874084577931,5833.863926762095
1688759,5867.623030410897,5872.61287259506
1231393,6148.746068876543,6153.735911060707
3219184,6374.880570178723,6379.870412362887
694145,5333.674862585235,5338.664704769399
1155448,5022.229427135178,5027.219269319342
2407954,3793.981884848351,3798.9717270325145
1302874,5752.075320988458,5757.0651631726205
2228928,5122.931783194346,5127.92162537851
1236934,5780.0328159654655,5785.022658149629
2163250,4627.448984596717,4632.438826780881
3809937,5763.389442225533,5768.379284409696
3544405,5580.991775029745,5585.981617213909
1193666,5615.864750537833,5620.854592721997
2966640,6163.081681525759,6168.071523709923
1912754,5544.091148241921,5549.080990426084
1955582,5330.404038914867,5335.39388109903
674872,5047.913097759712,5052.902939943876
3733598,5581.289017948541,5586.278860132705
3106656,6377.44493870555,6382.434780889714
1300811,5567.056017792461,5572.045859976624
2679850,5335.5598671047055,5340.549709288869
216627,5597.469927905157,5602.459770089321
1560024,5820.940043960573,5825.929886144736
2400729,6149.620213243717,6154.610055427881
1131468,5749.090167503956,5754.0800096881185
3535007,5821.168365005538,5826.158207189701
1145180,6730.720302844394,6735.710145028557
2725498,4090.028658154042,4095.0185003382057
604336,5271.790001512066,5276.779843696229
1264821,5818.611506839661,5823.601349023825
1079092,5540.262187257037,5545.2520294412
1601949,5272.566470352945,5277.556312537108
3883979,6417.4750908434,6422.464933027563
3238776,4806.160880573677,4811.15072275784
1334071,5091.920056361887,5096.9098985460505
2439713,5253.969541357972,5258.959383542136
3451109,4303.902901066062,4308.892743250226
350260,5549.408504638518,5554.398346822681
2222853,5885.3600938559175,5890.349936040081
1974633,5595.31338104736,5600.303223231524
2843850,5540.116146237925,5545.105988422089
3360701,5542.06524134976,5547.055083533924
896500,6128.484707322603,6133.474549506766
2165722,5083.374710880016,5088.364553064179
3476342,7013.324943205849,7018.314785390013
2627575,5512.747012835747,5517.736855019911
1961731,6146.06601273067,6151.055854914834
2459993,5869.916952222807,5874.90679440697
852977,5875.894162164115,5880.884004348279
1248428,5812.6764200757525,5817.666262259916
1596802,5614.529939239821,5619.519781423985
2683675,5567.151277118125,5572.141119302288
834131,5564.194399295693,5569.184241479857
1785141,5542.245532608211,5547.235374792374
307058,4320.684330719727,4325.67417290389
449549,5246.281359095509,5251.271201279673
1289997,5591.927320719496,5596.917162903659
2963830,5606.132088811238,5611.121930995401
3890251,5812.315740584791,5817.305582768954
2693697,5854.629737373941,5859.619579558104
3876919,6665.471723546667,6670.4615657308295
2190364,4421.707393433299,4426.697235617463
464219,5539.8278503372485,5544.817692521412
3882125,5422.187280590601,5427.177122774765
758904,5843.79443837254,5848.784280556703
641151,5826.98629391806,5831.976136102224
1006603,5884.726188250331,5889.716030434494
549368,5300.58246190918,5305.5723040933435
3223238,5426.404596171865,5431.394438356028
1610375,5067.162196699715,5072.152038883879
2119068,4126.7228456077555,4131.712687791919
3440436,4519.903200318175,4524.893042502338
1415474,4595.24149704685,4600.2313392310125
3663855,4582.36743188366,4587.357274067824
1576209,5819.646421933351,5824.636264117515
3218950,4810.437793130164,4815.427635314328
2881265,34712.54664518944,34717.5364873736
3701118,4780.226819614947,4785.216661799111
3306270,5844.1174668849835,5849.107309069147
1277681,5569.753038381455,5574.742880565618
690583,5284.406712955106,5289.396555139269
3063260,5870.1892690089235,5875.179111193087
2880788,5897.590441230765,5902.580283414928
500637,6766.440177221601,6771.430019405764
1604113,4885.5788702568325,4890.568712440996
1103303,4822.778906284621,4827.768748468785
2062367,5811.822535766962,5816.812377951125
1062629,6120.329835871814,6125.319678055977
1549263,5360.998516380151,5365.988358564315
1424833,4382.830507482807,4387.82034966697
2715217,5050.201733434067,5055.191575618231
803313,5011.0697214726,5016.059563656763
2986828,5812.133888286904,5817.123730471068
1390185,5534.053688285688,5539.043530469851
3314232,5953.159089682218,5958.148931866382
3038284,5821.795128085067,5826.784970269229
3516268,5539.568813107607,5544.55865529177
3914375,5891.128099320179,5896.1179415043425
675471,5888.188942933845,5893.178785118009
3305798,5878.373896552137,5883.363738736301
3263488,3225.319283810564,3230.309125994727
588392,4249.295822729693,4254.285664913857
1273472,5622.030845383038,5627.020687567201
1850145,5479.6669562794405,5484.656798463604
3059477,5603.326785181539,5608.3166273657025
2576730,6088.406910724033,6093.3967529081965
563324,6090.733037397027,6095.722879581191
609324,4041.2601432993524,4046.249985483516
3471626,5616.524236164256,5621.514078348419
3739419,35031.981319574115,35036.97116175827
2883557,6970.910246032966,6975.9000882171285
803747,5601.613278755498,5606.6031209396615
2844341,5795.554596681521,5800.544438865684
3669284,5890.2201527202305,5895.209994904393
3261783,4837.369611697216,4842.3594538813795
3201348,5337.830496390215,5342.820338574378
2414871,5572.769006454986,5577.75884863915
489030,3617.256051395689,3622.2458935798522
3343969,5573.339459486318,5578.329301670482
2177214,5870.689215796028,5875.679057980192
978315,5607.149871678409,5612.1397138625725
384958,4739.033572622944,4744.023414807108
1678701,4574.093074549424,4579.082916733588
1487904,7034.882055788184,7039.871897972347
349142,5897.32047083388,5902.310313018043
1007114,5332.123289525687,5337.113131709851
3434269,5295.279040169098,5300.268882353262
3835387,5572.331437670625,5577.321279854788
1668755,5898.390955668369,5903.380797852533
3411237,5617.545177931458,5622.535020115621
2878146,5502.919981321477,5507.909823505641
654690,4297.361803861249,4302.351646045412
3847153,5597.528403484207,5602.518245668371
1335566,5810.714659194238,5815.704501378401
2181640,5870.099507845032,5875.089350029196
2633300,5596.080206478299,5601.070048662463
1749244,5553.623135475207,5558.612977659371
974129,5815.71422500187,5820.704067186033
956875,5657.934821019429,5662.924663203592
830029,5218.287786698693,5223.277628882856
2647212,6076.066594453928,6081.056436638091
267486,5887.4282398108135,5892.418081994977
3892445,5577.823464651014,5582.813306835177
2442908,5628.189919856792,5633.179762040955
491195,5813.018630589988,5818.008472774151
1741374,5594.577956004173,5599.567798188336
1092728,3914.346204718757,3919.33604690292
492364,5332.053694667587,5337.04353685175
3326205,7619.202408621022,7624.192250805185
2113983,6452.048274648857,6457.0381168330205
3902417,6701.016168007038,6706.0060101912
2929700,6421.8282670622875,6426.818109246451
3857408,5527.937009645058,5532.926851829222
3021536,5574.232447975835,5579.222290159999
635751,5094.0044243887,5098.994266572863
1486193,5869.515745191,5874.5055873751635
1209827,5831.088588692119,5836.078430876282
834341,5572.721589555698,5577.711431739862
2973543,5536.095671453504,5541.085513637668
1239857,5869.217837321005,5874.207679505169
563399,5853.5027392768425,5858.492581461006
1291214,5613.257072171938,5618.246914356101
460505,6132.704316970562,6137.694159154726
1605665,6120.723806528609,6125.713648712773
3153050,5573.6308400690605,5578.620682253224
2654795,6151.163660706492,6156.153502890656
3372134,5746.81528107734,5751.8051232615035
1894206,5463.79515297714,5468.784995161303
2736459,5274.54926497287,5279.539107157034
2753974,5869.3219933878,5874.3118355719635
3214994,4760.761992738569,4765.751834922732
2710574,6109.977714509403,6114.967556693567
1329608,5273.897901060305,5278.887743244468
1621994,5317.634448659464,5322.624290843628
1095716,4817.948095450862,4822.937937635025
2939710,5869.810394620268,5874.800236804432
3027757,5583.611337153268,5588.601179337431
690487,5274.745828636627,5279.735670820791
2539563,5536.897609605595,5541.887451789758
745183,5574.9537555720135,5579.943597756177
3288364,4714.195176987284,4719.1850191714475
2155512,5834.118183992391,5839.108026176555
580673,5307.064746912171,5312.054589096335
2821385,3886.9731679723886,3891.963010156552
3697068,5770.02826109915,5775.018103283313
1248314,5597.5333433978,5602.523185581964
972958,5017.000784880001,5021.990627064165
221619,5603.568190222588,5608.558032406751
1643356,5797.60006297682,5802.589905160983
965479,5335.828900033214,5340.818742217378
1294718,5620.967528037179,5625.957370221343
2886235,5535.843326826555,5540.833169010719
357233,5511.7574809453,5516.747323129463
391760,6153.748874139363,6158.738716323526
1881507,5597.270037148261,5602.259879332424
2403092,5507.248022717839,5512.237864902003
3711077,5012.912274907637,5017.9021170918
1958996,6063.876252915508,6068.866095099672
565312,4841.239671962254,4846.229514146417
3292038,5479.639445940868,5484.629288125032
3089467,4522.8303175621695,4527.820159746333
879791,5086.528776076273,5091.518618260437
230486,5888.574348766059,5893.564190950223
2408032,6445.216131613817,6450.20597379798
915219,5529.858839072659,5534.848681256823
1584583,5274.853231131878,5279.843073316041
959830,5865.649941723577,5870.639783907741
2501666,5502.33130433188,5507.321146516044
1981335,5894.562103782957,5899.55194596712
3786131,5691.3829602685755,5696.372802452739
2205736,6347.18505134072,6352.174893524883
3072558,6148.517144776923,6153.506986961086
242546,5813.364505645008,5818.354347829171
1855845,5909.92983493503,5914.919677119194
228500,5625.550670393282,5630.540512577446
2981829,5539.871043061633,5544.860885245796
2714726,6167.906706271582,6172.896548455746
1708193,5059.796502464139,5064.7863446483025
2395228,5082.828074678241,5087.817916862405
2471053,5691.75501810346,5696.744860287624
3171769,5597.128041160294,5602.117883344457
2568968,6091.239616544822,6096.229458728985
3885021,5572.405556230391,5577.395398414555
1160323,5546.8199413850725,5551.809783569236
2880826,5606.867567921099,5611.857410105263
2451516,5538.00874029857,5542.998582482733
2583455,5339.185743924791,5344.175586108954
3065569,1801.4487269094466,1806.4385690936099
1258620,5615.380201292092,5620.370043476256
375812,5244.913775533175,5249.903617717338
2999378,5600.744345321561,5605.734187505725
2435382,6132.239579788748,6137.229421972912
2144604,5844.301639420604,5849.291481604768
1287142,6062.763542554717,6067.75338473888
811817,6753.023190093874,6758.013032278038
3028114,3611.8995227111013,3616.8893648952644
248736,4265.420401922231,4270.410244106394
1289402,5828.011229669021,5833.001071853185
267590,5889.542643419974,5894.532485604137
2573072,5841.933005088954,5846.922847273117
1337799,5348.346021235555,5353.335863419718
3941169,5045.978875397678,5050.968717581842
2919557,5572.403915141968,5577.393757326132
1999329,5306.018701726449,5311.008543910612
2715564,5597.8083015646735,5602.798143748837
2435267,5536.098037914985,5541.087880099149
2565210,5319.5679133729955,5324.557755557158
1380906,5569.0800516344625,5574.069893818626
2964232,5605.9262464776875,5610.916088661851
966829,5852.915123441105,5857.904965625268
2165795,5816.075795381532,5821.065637565695
538160,5275.016028845151,5280.005871029314
3099437,6078.5018683491635,6083.491710533327
3206044,4565.157656471955,4570.147498656119
2452444,4358.426315893122,4363.416158077284
1663666,5071.715198129713,5076.705040313876
2926891,5843.9424637414595,5848.932305925623
528374,6110.5191762917275,6115.509018475891
1571454,5598.528039475832,5603.5178816599955
3016682,3373.924695897071,3378.9145380812342
3305797,5812.755104693576,5817.7449468777395
622897,6159.463983458567,6164.45382564273
2941624,5620.325549705699,5625.315391889862
367658,5353.0976533802295,5358.087495564393
759864,5035.287376510098,5040.27721869426
3442909,5258.183471666384,5263.173313850548
3141428,5606.548615810189,5611.538457994353
3086947,5487.927230790264,5492.917072974427
1334871,5797.292477375813,5802.282319559977
473644,5812.4897075261315,5817.479549710295
229216,5028.529987056469,5033.519829240632
1411124,7056.3670182000205,7061.356860384184
1617260,5292.223479169876,5297.213321354039
626210,6124.411735894204,6129.4015780783675
249914,5479.343648545172,5484.333490729336
3517311,5074.089411556657,5079.079253740821
2554192,5306.862290624619,5311.852132808782
2877941,5539.824468266532,5544.814310450695
3930704,5856.948056339821,5861.937898523985
855914,5783.968506264083,5788.958348448246
2013410,5306.805466085049,5311.795308269212
293133,5853.368095510536,5858.357937694699
2243314,5414.414100524481,5419.403942708644
1259342,5512.5460015221815,5517.535843706345
362089,5015.8654390775955,5020.855281261759
2692873,5600.901890139146,5605.89173232331
1405074,5130.549776844662,5135.539619028826
2566496,5616.79232904461,5621.782171228773
3318371,5597.267809572009,5602.257651756173
1134564,5015.7117950541215,5020.701637238285
2395932,5599.118935455884,5604.108777640047
1109497,5329.572767197788,5334.562609381952
2859440,6229.786922525969,6234.776764710133
653042,5625.721594603426,5630.711436787589
232928,5606.580875724566,5611.570717908729
1997525,5013.581028704695,5018.570870888859
2713868,6066.0422611111835,6071.032103295347
700347,4551.557969069155,4556.547811253318
210230,5869.621557341504,5874.611399525667
1130443,5841.652220042764,5846.642062226928
974683,5373.438563811222,5378.428405995385
2476465,4858.147261050903,4863.137103235066
2778126,3594.9987312442663,3599.9885734284294
254838,5084.3110178539655,5089.300860038128
1452570,4917.117228683554,4922.107070867717
501933,5617.703203599496,5622.693045783659
426209,5527.747291501976,5532.73713368614
2123532,5274.648602118214,5279.638444302377
3003075,5100.701268537257,5105.691110721421
2178421,6097.8839749786575,6102.87381716282
3779930,5606.532308005922,5611.522150190085
669420,5304.203162964523,5309.193005148686
411202,4828.206954888937,4833.196797073099
1966909,5810.244841955671,5815.234684139835
455798,7332.8984595348675,7337.888301719031
2820515,5811.915111141772,5816.904953325936
1093269,5546.780019578758,5551.769861762921
449732,5869.647331467604,5874.637173651768
1827683,6266.435682028941,6271.425524213105
406331,5889.158446895637,5894.148289079801
2766397,5598.936530326349,5603.926372510513
2650908,5378.969910840392,5383.9597530245555
490194,35020.32577872341,35025.31562090757
2645210,6758.266931988646,6763.25677417281
592144,5290.316853503954,5295.3066956881175
2282315,6122.590335757181,6127.580177941344
268955,5306.9554154625575,5311.94525764672
1996195,5754.970408374417,5759.960250558581
3950929,6078.875945301158,6083.865787485322
665400,35475.282532808415,35480.27237499258
1061184,5041.1022471502265,5046.09208933439
1376581,5613.886952879462,5618.876795063626
2702445,5313.042055292538,5318.0318974767015
843314,5574.498374157183,5579.488216341347
1855102,5844.087333354582,5849.077175538746
3383896,5571.582329136025,5576.572171320188
2598753,5582.440195255631,5587.430037439794
3716672,4542.518608441179,4547.508450625342
847963,5616.900493684959,5621.890335869122
987440,5845.259338676489,5850.249180860653
1995439,5787.18782616919,5792.1776683533535
2468607,5569.5510199449445,5574.540862129108
1905125,3873.8272067675116,3878.817048951675
370459,4773.8851320300855,4778.874974214249
3650812,5844.099316679915,5849.089158864079
2848974,5410.7750027366665,5415.76484492083
1900022,6147.296658625565,6152.286500809729
2175947,5844.125101596437,5849.114943780601
279489,5353.097434150678,5358.087276334842
1712178,5273.764250157078,5278.754092341242
3935409,6093.642984130307,6098.632826314471
1540925,5843.68979890831,5848.6796410924735
1970721,6997.572602259374,7002.562444443538
3482397,6458.292073095845,6463.281915280008
441976,6124.266148670009,6129.2559908541725
1465903,4257.538697602062,4262.528539786225
1577672,5628.867099116935,5633.856941301098
2904552,5853.313856531989,5858.303698716152
1319597,5537.3651285207325,5542.354970704895
1040033,6513.929756615957,6518.91959880012
211946,6061.273546091012,6066.263388275175
554186,5308.458854563357,5313.44869674752
605355,5900.656868286447,5905.646710470611
336518,5352.403805112053,5357.393647296217
217509,5349.077842438084,5354.067684622248
587016,5766.642699393756,5771.632541577919
2786129,7665.165369776388,7670.15521196055
1596492,2755.510770316263,2760.500612500426
342313,5839.105755989611,5844.095598173774
479409,5542.616989768977,5547.6068319531405
2543310,4552.223127596615,4557.212969780779
2498174,5311.6591012258095,5316.648943409973
2170913,5661.769713575998,5666.759555760162
2138445,5557.338055400103,5562.327897584267
1223278,6065.721971390688,6070.7118135748515
3161946,5117.165283849218,5122.155126033382
3719191,4352.227019984457,4357.2168621686205
1217244,5295.021299217236,5300.0111414014
1724805,6146.088622303065,6151.078464487228
1779335,5306.619959110848,5311.609801295011
3778997,6377.414701219406,6382.40454340357
3701272,4516.071359514804,4521.061201698967
2106304,6034.696192666321,6039.686034850484
1780690,5335.815654849663,5340.805497033826
2740277,5812.399751842277,5817.38959402644
408565,5598.293735804786,5603.283577988949
2021713,6149.079842690509,6154.069684874673
3890158,5875.879609409305,5880.8694515934685
2392222,5598.761427864201,5603.751270048365
1471619,5844.4093807060535,5849.399222890217
1120755,5329.62536678877,5334.615208972934
3206234,5331.599396553951,5336.589238738115
2628419,5866.919831742608,5871.909673926772
3424378,5890.137160420631,5895.127002604793
1382769,6121.771716955453,6126.761559139615
1343864,5569.103008708181,5574.092850892344
3297868,5571.96693829321,5576.956780477373
1963345,5368.050390575805,5373.040232759969
1836139,5287.10458614687,5292.094428331034
2636208,3561.3001520316316,3566.2899942157946
632521,34275.64023129839,34280.630073482556
642753,5812.210618313385,5817.200460497548
3267658,6127.553729291174,6132.543571475338
1001970,5888.395873167223,5893.385715351386
2277781,5812.655942103706,5817.64578428787
1636256,5526.1528927639365,5531.1427349481
282665,5365.027227681858,5370.017069866021
1685929,5345.877283320122,5350.8671255042855
828134,4091.9536371373724,4096.943479321536
3224727,3706.5641771286746,3711.5540193128377
2148094,6187.110622856197,6192.10046504036
2512128,5597.640569789853,5602.630411974016
1557660,4777.351746596753,4782.341588780917
1060154,5090.017251861299,5095.0070940454625
1123790,4785.1038140312885,4790.093656215452
841958,5337.650589607567,5342.64043179173
349976,5572.738194909742,5577.728037093905
1330076,5841.6259597210155,5846.615801905179
1878026,4314.396875307989,4319.3867174921525
2277522,5870.005467217599,5874.995309401763
2819490,5618.438845720633,5623.428687904797
2758014,5306.955113710648,5311.944955894811
262483,5870.787346296055,5875.777188480219
3265083,5869.280615220343,5874.2704574045065
369541,7047.711027538345,7052.700869722508
3892410,6127.937507334175,6132.927349518339
1458773,5597.293119164479,5602.282961348643
1671545,5332.697967118297,5337.68780930246
2285598,4552.028936454479,4557.018778638642
1052846,5511.880122432,5516.869964616163
1144242,3586.5878394864944,3591.5776816706575
808955,5525.0753823312425,5530.065224515406
3917279,5527.894013747135,5532.883855931299
3917232,5597.370568095764,5602.360410279927
856219,5536.348917022727,5541.33875920689
2645020,5876.079642512184,5881.069484696348
3797722,5844.419194712747,5849.409036896911
3059194,4357.520247208246,4362.510089392409
1890813,5250.040044516035,5255.029886700198
3128151,5539.695715537953,5544.685557722117
3281018,5800.512341340263,5805.502183524427
3078437,5356.676698749427,5361.66654093359
279863,5299.816522846605,5304.806365030769
2838859,5249.453126453774,5254.442968637937
1570525,5812.261600145916,5817.25144233008
1620224,5594.523346730297,5599.51318891446
2400838,5348.89689554197,5353.886737726133
2727900,5571.908173282983,5576.898015467146
508608,5351.159651421187,5356.1494936053505
274941,5276.826858224296,5281.81670040846
205589,5598.965648323661,5603.955490507825
488238,5870.7612147218115,5875.751056905975
2025201,5572.377475448189,5577.367317632353
2694216,5013.283945442692,5018.273787626855
1781668,5841.545058255552,5846.534900439716
3332723,5869.603127549337,5874.5929697335005
3422498,5902.174919203554,5907.164761387718
3222299,5331.844333562132,5336.834175746296
622613,5309.4382070681995,5314.428049252362
888239,5619.868773413285,5624.858615597449
1107259,5658.534564837464,5663.524407021628
1946540,5597.9326242992465,5602.92246648341
809409,5828.358548006988,5833.348390191151
2548584,5350.871856685532,5355.861698869696
3091491,6420.970306979291,6425.960149163455
1326593,5582.409720872131,5587.399563056295
3179568,5355.692646945151,5360.6824891293145
2228681,5307.208028843058,5312.197871027221
3154713,34241.43051089454,34246.420353078705
2179138,5372.178119989322,5377.167962173486
3660517,5616.04299925766,5621.032841441824
1633121,5291.165959160274,5296.155801344437
3761436,5315.655361085185,5320.645203269349
2929140,5536.3299558223625,5541.319798006526
3858306,5215.977296143854,5220.967138328017
1870760,5274.726882395515,5279.716724579678
1355692,7927.453241573983,7932.443083758147
2648187,5885.600092102538,5890.5899342867015
2721758,5836.625061423529,5841.614903607692
2142026,5843.826753119308,5848.816595303471
3681502,5571.232404568551,5576.222246752714
641773,5507.287525337677,5512.2773675218405
416669,6478.101118945633,6483.090961129796
937553,2866.632023969466,2871.621866153629
2895359,5348.166634296581,5353.1564764807445
2459067,5565.298601350213,5570.288443534377
2627113,5613.145876129087,5618.13571831325
1316085,6120.46799228387,6125.457834468034
2156246,6377.017682331372,6382.007524515536
526648,5908.945762657688,5913.935604841851
618550,5899.94779466599,5904.9376368501535
649237,5574.1795439773405,5579.169386161504
471512,5349.187622618839,5354.177464803002
3082327,5572.41643773844,5577.406279922604
3510533,5616.852155134495,5621.841997318658
287643,4779.0074876538565,4783.99732983802
900531,5572.071173528388,5577.061015712551
884429,5332.24138149419,5337.231223678354
3862762,5869.176754197662,5874.166596381826
1103219,4809.360858888979,4814.350701073143
2654851,6089.160751396151,6094.150593580314
2623866,4830.923816205683,4835.913658389845
2749365,5307.195002864974,5312.184845049137
1637444,5068.72704071311,5073.7168828972735
1200301,5844.1525944209025,5849.142436605066
1555473,4822.252473165202,4827.2423153493655
2530064,4916.5495793572045,4921.539421541368
3428498,5016.589362601813,5021.579204785977
3316196,5013.337631754788,5018.327473938952
3790774,5935.3480463031365,5940.3378884873
3277220,5262.364110800431,5267.353952984595
1126320,6145.857733358278,6150.8475755424415
1091443,5164.763212529696,5169.7530547138595
3276126,5294.863810709985,5299.853652894149
443589,5813.504826374945,5818.4946685591085
3132079,4345.255478017062,4350.245320201226
565925,5331.831419203354,5336.821261387518
3305432,4827.662577609676,4832.65241979384
2524311,5577.166751051254,5582.156593235418
3174516,5334.075979170516,5339.065821354679
1689593,5112.257541790041,5117.247383974204
1139685,5894.833365731351,5899.823207915514
3029295,5591.258298427668,5596.248140611831
1090625,6124.876334316221,6129.866176500384
362624,5207.82608959741,5212.815931781573
2636874,4505.394836354169,4510.384678538331
3543093,5811.30999746106,5816.299839645224
246393,5571.3965583974705,5576.386400581634
1772322,5526.688791495407,5531.67863367957
1098736,5269.7846163246,5274.774458508764
3676348,6408.483802656296,6413.473644840458
2215672,5573.980312163095,5578.970154347258
1419310,5331.829948537836,5336.819790721999
1110504,5594.752089485351,5599.741931669514
629848,6171.684129553757,6176.6739717379205
3697582,5334.632953171366,5339.62279535553
3922228,5072.50525166808,5077.495093852243
2004134,6114.427770819191,6119.417613003355
2856893,5021.762371032408,5026.752213216571
733869,5293.496217289913,5298.486059474077
2426607,4371.91483876906,4376.904680953224
648914,6091.626838745603,6096.6166809297665
2602454,5841.303827663619,5846.293669847782
3740902,5536.6947036670335,5541.684545851197
663927,5868.982859085551,5873.972701269715
3881603,5570.932040292091,5575.921882476254
2019212,5636.950716344931,5641.940558529094
3772675,5298.94897609303,5303.938818277194
296828,5841.990559283953,5846.980401468117
2253361,2931.8316808280656,2936.8215230122287
1239851,5985.084615331162,5990.074457515326
3353134,5331.98984478965,5336.979686973814
1717233,5330.954301462685,5335.944143646849
1819451,4751.928372568272,4756.918214752435
343871,5306.313911626817,5311.303753810979
3739057,6124.076096664293,6129.065938848456
364435,5842.449334526667,5847.439176710831
1948976,5538.513369136677,5543.503211320841
1453172,5283.725191632147,5288.71503381631
2246626,5572.859103559898,5577.848945744062
2244180,5596.913840514281,5601.903682698445
3068150,7359.431038145382,7364.420880329545
1436056,6671.946841005665,6676.936683189829
1480722,5363.090242033133,5368.080084217297
2558226,5539.752369052299,5544.742211236463
2812786,5082.550094904492,5087.539937088655
687718,4544.09916718096,4549.089009365123
1217247,5573.2037099717445,5578.193552155908
2443461,5340.6856321317255,5345.675474315889
972094,5751.522306416871,5756.512148601035
3462538,5876.092696909408,5881.0825390935715
987673,5016.595667952758,5021.585510136922
2115840,6143.636704667176,6148.626546851338
1095978,5101.340931219642,5106.330773403805
3364755,6065.899620814498,6070.889462998662
1934780,5601.283723892724,5606.273566076887
924227,7030.041038114888,7035.030880299051
931998,5310.775782570397,5315.76562475456
3541242,5539.601002080679,5544.590844264842
935909,5073.856138258592,5078.845980442756
1387030,5504.3847836181385,5509.374625802302
2875296,5539.4859252685665,5544.47576745273
209477,5902.048080017879,5907.037922202043
3674356,6123.290847096531,6128.280689280695
3004368,5275.513624914999,5280.503467099163
2603727,6088.790125444203,6093.779967628367
3182752,5869.476820526422,5874.466662710585
524242,4969.345641992947,4974.33548417711
2755686,5540.1862296141735,5545.176071798337
1257804,5601.197987337585,5606.187829521748
2818131,5275.544784478004,5280.534626662167
2002961,6100.54400622437,6105.533848408533
450978,5536.563824006261,5541.553666190424
2167484,5598.558367964649,5603.548210148812
1255304,5534.325075365249,5539.314917549413
3463169,5540.678676094245,5545.668518278409
2006131,5432.219394283117,5437.209236467281
2854261,5845.0873613308695,5850.077203515033
2591886,5282.320875445843,5287.310717630006
1739034,5721.331221834791,5726.3210640189545
2494503,5817.045049001437,5822.034891185601
3026544,4784.043591356801,4789.033433540964
3502112,5508.746932013073,5513.736774197236
3377343,5276.805421735362,5281.7952639195255
3148984,5581.2020119274775,5586.191854111641
2574567,35039.88758112934,35044.877423313505
3796269,5909.513835042154,5914.503677226317
3848153,6180.727351710468,6185.717193894631
2249628,5594.85269511031,5599.842537294474
1078082,4505.997073040892,4510.986915225056
893360,5031.450433366783,5036.440275550946
1429317,5617.79726040489,5622.787102589053
2439356,5812.465128382944,5817.454970567108
3141950,6132.571034197743,6137.560876381906
1918435,4955.273497249832,4960.2633394339955
3534605,5050.553118406131,5055.542960590295
918640,5884.222249768171,5889.212091952335
1749845,5269.256698612728,5274.246540796891
2644633,5537.996229529533,5542.986071713695
3317712,5479.367489235526,5484.357331419689
1968507,6145.996628176736,6150.986470360899
1316823,5072.768805454861,5077.758647639024
2397247,6039.860429919907,6044.85027210407
2791568,5982.659531112281,5987.6493732964445
2643854,5540.330439626488,5545.320281810651
459986,5906.937503039279,5911.927345223443
342596,6179.000892689098,6183.990734873261
1226089,6525.330083329066,6530.3199255132295
2730064,5576.161448996241,5581.151291180405
3734135,5276.5204941144075,5281.510336298571
3452302,5617.899665336338,5622.889507520502
1769922,4733.063117213981,4738.052959398145
3528136,5596.973731071075,5601.963573255239
1146074,5885.99700742721,5890.986849611373
3759658,5617.353115595315,5622.342957779478
845814,5631.004451071681,5635.994293255844
3898666,5004.148855691813,5009.1386978759765
2154057,5275.143620734678,5280.133462918841
589416,5541.297322589593,5546.287164773757
2254970,5810.997239653013,5815.987081837176
3831817,4773.542431835838,4778.532274020002
545334,5856.9388848659555,5861.928727050119
1886959,5887.560139994021,5892.549982178184
749343,5572.092044691767,5577.081886875931
1246020,6123.273161395957,6128.26300358012
1572179,6148.456564119097,6153.44640630326
732768,4551.923332554555,4556.913174738718
1665681,5078.150283775806,5083.14012595997
3414282,5812.032622021136,5817.0224642053
1207246,5637.422216981116,5642.41205916528
2598462,5463.4415697211325,5468.431411905296
3870915,6148.562725173159,6153.552567357323
694078,5870.556201983716,5875.54604416788
2472340,6726.295713255683,6731.285555439847
1081870,5077.313825376094,5082.303667560258
3470330,5423.578836166357,5428.568678350521
487861,6078.583382482899,6083.573224667062
658513,5352.490441463238,5357.480283647402
3468356,6268.316744336449,6273.306586520612
1371510,5886.203694863011,5891.193537047175
2534673,5844.011636663429,5849.001478847593
1489880,5309.534501198972,5314.524343383135
862729,5051.0292072126895,5056.019049396853
2550815,5111.894238173795,5116.884080357959
1393378,5835.746573256872,5840.736415441035
2827899,5944.110176291737,5949.1000184759005
583433,5338.493953979982,5343.483796164145
2727015,5306.672705056566,5311.662547240729
1254425,5534.702938993562,5539.692781177726
915774,5548.813209683992,5553.803051868154
1135240,5828.125691415049,5833.1155335992125
1066023,5331.35857706532,5336.348419249483
1901362,5540.4455914358805,5545.435433620044
3917374,5426.895335091673,5431.885177275836
3949051,5577.020330885025,5582.010173069189
1025379,5333.817331802169,5338.807173986333
2405544,5876.577311289436,5881.567153473599
3093017,4538.716825364001,4543.706667548165
1220817,5324.864400076225,5329.854242260389
3335819,5308.412665090762,5313.4025072749255
3511457,5057.5711747197565,5062.56101690392
1413925,5618.917109555563,5623.9069517397265
816882,5558.481889010265,5563.471731194428
2172368,5341.180590994767,5346.170433178931
987795,5890.550362353339,5895.540204537502
2046155,5332.320990824422,5337.310833008585
3448732,5617.576466366926,5622.566308551089
496995,5598.848867563689,5603.838709747853
719066,5540.284811810961,5545.274653995125
3020815,5910.095385626788,5915.085227810951
3351119,5909.75397536341,5914.743817547574
379307,5306.551569955483,5311.541412139645
250183,5629.477919765917,5634.467761950081
1829959,7481.428099086766,7486.41794127093
1027889,5283.737195449774,5288.7270376339375
3692348,2872.908201892859,2877.898044077022
3772066,5306.283059306439,5311.272901490602
1513511,5092.220667863082,5097.2105100472445
1083439,2988.7672477307333,2993.7570899148964
2719227,5550.133726728831,5555.1235689129935
1587520,5307.172679963611,5312.162522147773
3893505,5568.486439736858,5573.476281921022
2616108,5315.836000885339,5320.825843069501
563743,5540.463349556295,5545.453191740458
1742921,4562.452263133783,4567.442105317947
2827169,5331.966427956284,5336.9562701404475
822706,5818.497315601954,5823.487157786118
806507,5764.642962194758,5769.632804378922
528587,5245.2800777703915,5250.269919954555
2981090,3344.6160156625924,3349.6058578467555
380557,4578.336313212788,4583.326155396951
2753009,5932.341188570731,5937.331030754894
1764286,5537.96541397798,5542.955256162142
1193790,5331.906410130454,5336.896252314617
2685655,6145.753600904241,6150.743443088404
1630950,5046.790683161125,5051.780525345289
2030707,5104.405853764536,5109.3956959486995
1082621,5283.875094169594,5288.864936353758
1345890,5314.615373431063,5319.605215615226
3217892,5292.49401843847,5297.483860622634
3120071,5853.21118847867,5858.201030662834
2873479,5276.059227837245,5281.049070021409
3360269,4556.026088915093,4561.015931099257
3845393,5868.986799356305,5873.976641540468
2828797,6433.8862568769055,6438.876099061069
372313,5622.135324528732,5627.125166712895
2893152,5275.530404967479,5280.520247151642
1164734,6998.7449852670825,7003.734827451246
717723,3925.3151889955507,3930.305031179714
2571511,5616.481027129188,5621.470869313351
1918207,5583.778195066561,5588.768037250724
1159761,5356.96273206447,5361.952574248634
920805,5633.648599187741,5638.638441371904
1380563,5305.824692218201,5310.814534402364
2115780,5324.310530851982,5329.300373036145
2261989,5060.430726332234,5065.420568516398
3045058,5624.70071675026,5629.690558934423
1237487,5811.9353640179315,5816.925206202095
1237822,5307.498462771927,5312.488304956089
2524474,5909.587141908542,5914.576984092706
2962377,5901.031949229487,5906.02179141365
2287473,5875.30451517646,5880.294357360623
3492032,5584.688363832254,5589.678206016418
3282327,5294.17259015537,5299.162432339534
209414,4777.640490023685,4782.630332207848
1240905,5599.413127661668,5604.402969845832
195396,5572.106496224008,5577.0963384081715
260045,5333.58905852151,5338.578900705674
3894893,6028.725025111431,6033.714867295595
1962379,5291.133291115338,5296.1231332995
3259546,5332.1222672724325,5337.112109456596
3233248,5549.077249907592,5554.067092091755
3216699,5889.677084652662,5894.666926836825
3870708,6137.068337273146,6142.05817945731
1332201,6431.195553627269,6436.1853958114325
734572,6151.220786219767,6156.210628403931
1819413,5502.226960977357,5507.21680316152
679993,6123.451948511965,6128.441790696129
3528000,5540.418104171341,5545.4079463555045
1557662,4339.283580245179,4344.273422429343
2140281,5572.105011667623,5577.094853851787
2449290,5821.947423252227,5826.93726543639
2649116,5619.168110944011,5624.157953128174
1130719,5885.913877049565,5890.903719233728
3941504,5248.331221733002,5253.321063917166
2240139,5130.610837039272,5135.600679223436
3741721,6179.587483752668,6184.577325936832
2874449,4765.074068634701,4770.063910818864
906761,5333.547422035585,5338.537264219749
3545640,5101.952765267093,5106.942607451257
2218520,3829.0643233315013,3834.0541655156644
3405617,5555.015441285135,5560.005283469299
3457691,5598.892337058502,5603.882179242665
3689548,5869.318167972684,5874.308010156848
658732,4728.988170992755,4733.9780131769185
2172013,5861.648865529922,5866.638707714085
1372873,5546.476933277282,5551.466775461445
607687,6122.7177831217305,6127.707625305894
2628336,5597.082789509772,5602.072631693935
3370101,6435.109439675304,6440.099281859468
1434462,5616.199491548746,5621.189333732909
3899405,5571.884211989794,5576.874054173957
621709,4610.169162021606,4615.15900420577
1079251,4536.003730309543,4540.993572493706
225333,4796.593843322089,4801.583685506253
1916689,5154.540755454052,5159.530597638215
343872,4699.799953476914,4704.789795661078
2035310,5597.031872063614,5602.021714247778
2001192,5306.8375852807685,5311.827427464931
430122,6167.428558020214,6172.418400204378
3928016,5668.1966669238855,5673.186509108049
1646460,5058.723415393233,5063.713257577397
3228113,5332.377657462582,5337.367499646745
2699572,5013.849215077794,5018.839057261957
639332,5352.171397091674,5357.161239275838
2414226,5580.864821062016,5585.854663246179
1566408,5638.052395569263,5643.042237753427
297637,5844.681533150571,5849.671375334735
3861591,5869.011313910451,5874.001156094614
2697406,5872.624272584955,5877.614114769119
1256347,5566.227543586118,5571.217385770282
1359673,5570.056688732055,5575.046530916218
2654916,5570.180810619798,5575.170652803961
755750,5294.164876665451,5299.154718849614
2701373,5432.366475739527,5437.356317923691
3741444,5572.3573500547645,5577.347192238928
1444849,6453.675304013798,6458.665146197962
2162530,5559.2845191984115,5564.274361382575
1340725,5305.2747150301175,5310.264557214281
2391810,5569.780799370814,5574.770641554977
2721402,5309.177641151634,5314.1674833357965
2016035,5907.422710535701,5912.412552719865
1952086,5698.9822521262795,5703.972094310443
1484775,5029.519003045773,5034.508845229937
3294608,5302.324473998103,5307.314316182266
883281,5050.942032063565,5055.931874247729
2703984,5071.876144351177,5076.86598653534
759831,5048.420141734615,5053.409983918778
2436436,5811.767283072329,5816.757125256492
956956,5815.484699755656,5820.47454193982
2239019,4521.1067951427485,4526.096637326912
1611703,6711.81013014857,6716.799972332734
3879046,6396.153247448255,6401.143089632418
1148878,5537.275306035805,5542.265148219968
2501665,5843.874289470362,5848.864131654525
1391984,5846.661713001184,5851.651555185347
1732346,5809.600058919939,5814.589901104102
2858482,4291.382591509857,4296.37243369402
397651,5309.65515760273,5314.644999786892
3339995,5597.1740878802475,5602.163930064411
3247613,5813.321476268642,5818.311318452806
324271,5546.473770309535,5551.463612493699
3846320,5301.406210388508,5306.396052572672
3790037,5853.468250454438,5858.458092638602
619542,5821.096876821217,5826.08671900538
857018,5811.952738344151,5816.9425805283145
3103503,5840.772448585001,5845.762290769165
1344973,5305.17313566288,5310.162977847043
1507562,5352.194255856057,5357.18409804022
3329660,5540.103926537973,5545.093768722137
1011455,5571.886698666847,5576.876540851011
2110966,5702.866120338871,5707.855962523035
999318,6408.3188834682005,6413.308725652363
1700044,5077.7970368274455,5082.786879011609
1758802,5348.5982430065005,5353.588085190664
1390974,5046.691996530393,5051.681838714557
970819,4821.218652013981,4826.208494198144
2752989,5753.754749505643,5758.744591689807
265031,5597.639700606542,5602.629542790705
3086642,5679.074488987716,5684.0643311718795
2224354,5844.551551927634,5849.541394111798
963752,5338.641296226018,5343.631138410182
451705,5368.881141689245,5373.8709838734085
2113660,5635.219170880045,5640.209013064208
586405,5812.934948560786,5817.92479074495
1147124,4507.655914226737,4512.6457564109005
2567518,5869.030992283836,5874.0208344679995
3035984,6757.256502520794,6762.246344704958
3357595,6090.605787985047,6095.59563016921
2961715,6741.1733457201,6746.163187904263
1763948,5332.8918885495195,5337.881730733683
2053339,5878.567416327718,5883.557258511882
3490137,4828.090017758248,4833.079859942411
2853784,5348.06564862521,5353.055490809374
3027473,6166.887746481065,6171.877588665228
3706686,5812.116026016615,5817.105868200779
1036200,5016.060255545832,5021.050097729995
1384604,6827.05289130854,6832.042733492703
807272,6742.349654867166,6747.339497051329
656176,6458.763920230316,6463.75376241448
532470,4726.176038965652,4731.1658811498155
2114811,5016.456590083091,5021.446432267255
1463730,5869.42110213964,5874.410944323804
272171,5599.192313826666,5604.182156010829
2812556,5093.037113712675,5098.0269558968375
1014089,4284.605961870196,4289.595804054359
3196609,5018.380595996739,5023.370438180903
1482186,5540.39575245586,5545.385594640024
1070643,6117.651486992865,6122.641329177029
2681938,5351.143113077516,5356.13295526168
1792978,4939.700631788788,4944.690473972952
639339,7031.198052495677,7036.187894679841
1692583,63124.1014931465,63129.091335330675
2685081,5014.217973968369,5019.207816152532
890635,4753.411062740289,4758.400904924452
2685898,5557.6645471884,5562.654389372564
