sample_id,y0,y1
1972596,1.5332651104309636,1.3287242662519319
3320701,1.5216508569055975,1.3173097125721984
3512778,1.557035248693466,1.3526941043600669
3097161,1.3647526146000453,1.1604114702666464
2522908,1.603247515430963,1.398906371097564
2490378,1.5736092895433405,1.3692681452099413
297184,1.4145308580409452,1.2101897137075461
1572769,1.397201876415417,1.192860732082018
658403,1.6654725477698886,1.4611314034364895
2112913,1.4970783632004447,1.2927372188670456
3069047,1.4637886355191885,1.2594474911857894
2773225,1.5493933960879231,1.3450522517545243
302974,1.4828272168754255,1.2784860725420264
556477,1.6613793010865927,1.4554996271568665
1378190,1.4786379707851516,1.2742968264517525
660548,1.422004834690812,1.217663690357413
449025,1.6044362443682951,1.400095100034896
406300,1.5223560061214616,1.3180148617880625
1704483,1.7370934308487285,1.5325525866696967
1564454,1.4043936456314854,1.2000525012980863
1998343,1.5739202521263493,1.3695791077929502
2051695,1.5621440026550326,1.3578028583216335
3731423,1.570749130680017,1.3664079863466179
404048,1.444934876793702,1.240593732460303
1110344,1.478583493134819,1.2846948966176759
1151484,1.6327353186446458,1.4283941743112467
2231322,1.5378983519011844,1.3335572075677853
590864,1.6385221655485225,1.4341810212151234
422908,1.6691526292812506,1.4648114849478517
1872248,1.5996780560708665,1.3953369117374674
1045279,1.3166825058919953,1.1108028319622691
645377,1.6371951448869286,1.4328540005535295
1284178,1.5402515141627846,1.3359103698293855
1059951,1.4775413375374025,1.2732001932040033
1448657,1.6693626530528338,1.4650215087194347
3377671,1.9013568156592129,1.6970156713258138
2033833,1.8518558746349432,1.6475147303015438
2840977,1.4129064779174294,1.2085653335840303
2982497,1.5353777917215297,1.3310366473881305
1886128,1.5950074929759992,1.3906663486426
2557537,1.7267669559118524,1.5224258115784532
1747849,1.7155280502864827,1.5111869059530836
3063507,1.46245398541981,1.2581128410864109
851331,1.576974427225478,1.3726332828920789
2508905,1.6539461831838693,1.4496050388504702
2927220,1.4667282974050873,1.2623871530716881
3347093,1.5844827279922575,1.3801415836588584
1148998,1.7060585529709742,1.501717408637575
2747388,1.5130833380444,1.3087421937110009
3777034,1.5520057912349652,1.347664646901566
1023417,1.5419300612734559,1.3375889169400568
244757,1.4978120091807985,1.2934708648473994
492256,1.4958908215573847,1.2915496772239856
2191523,1.537728743837169,1.3333875995037698
3386951,1.5185809045441405,1.3142397602107414
1869658,1.5660541402518144,1.3617129959184153
3241630,1.694499303890901,1.490158159557502
2165801,1.6349735496589353,1.4306324053255364
1837991,1.5016900242371858,1.2973488799037867
3519024,1.6987798008048445,1.4944386564714454
1094789,1.2825910851519884,1.0782499408185893
3849655,1.4990295653724701,1.294688421039071
3477582,1.6140107085879876,1.4096695642545884
1775805,1.7153522530820942,1.511011108748695
1334211,1.408297502374619,1.2039563580412196
3675348,1.3041494326812486,1.0998082883478495
3423180,1.4309821787724903,1.2251025048427642
2919375,1.5157629414540923,1.3114217971206932
752021,1.5449365646798854,1.3405954203464863
625661,1.3833423560694793,1.1790012117360802
3916094,1.627388043306341,1.423046898972942
3750321,1.5794704199170406,1.3751292755836415
1115483,1.5518234656556615,1.3474823213222624
2167001,1.4177999441872344,1.2134587998538353
430853,1.5055600863250806,1.3012189419916815
2719539,1.5603863413721786,1.3560451970387795
374642,1.645588123890237,1.441246979556838
308909,1.5507016915948213,1.3463605472614222
972517,1.5175158293858397,1.3131746850524406
1689947,1.4678459534546566,1.263305109275625
839537,1.4883376918029219,1.2839965474695227
3775514,1.4145541582873897,1.2086744843576636
1397501,1.3834330440162321,1.179091899682833
595001,1.626903485625796,1.4225623412923967
1207814,1.5014381401042673,1.2970969957708682
1289693,1.6432226060572603,1.4388814617238612
2520797,1.7078743477995124,1.5035332034661133
2785807,1.5528696618874656,1.3485285175540664
3069795,1.395992020799233,1.1916508764658338
2923937,1.4091718008787137,1.2048306565453146
853189,1.5211417208689963,1.3168005765355972
3536361,1.3810487698578435,1.1767076255244444
3293702,1.5149070957771482,1.310565951443749
1205966,1.548821779232956,1.3444806348995568
311449,1.6785076339368428,1.4741664896034434
3944663,1.611265982571942,1.4069248382385429
629999,1.393918061176256,1.189576916842857
230822,1.695925697457803,1.4915845531244039
1957446,1.6390313870208881,1.4344905428418564
1069270,1.533714700556156,1.3293735562227569
2893962,1.5699908434962846,1.3656496991628855
3102130,1.7311794811265755,1.5268383367931764
1229295,1.5854806769505612,1.381139532617162
2521253,1.6187787224611516,1.4144375781277525
3279900,1.7956457464285094,1.5913046020951103
3008403,1.6847078576693961,1.480366713335997
1972895,1.54548420680712,1.3409433626280882
3077559,1.6834663182546683,1.4791251739212692
3262052,1.5256192261455532,1.3232328691259196
3890534,1.6316238528846823,1.4272827085512831
2910400,1.4817167927118842,1.277375648378485
1597533,1.6966389142561344,1.4922977699227353
2513078,1.5681775647665104,1.3638364204331113
666624,1.4319269058682922,1.227585761534893
1218607,1.451729021811181,1.2473878774777818
2993663,1.6320738327437943,1.4277326884103951
3671678,1.7460564447784372,1.5417153004450381
938911,1.7005119491748057,1.4961708048414066
394377,1.5814230978567532,1.377081953523354
2828953,1.403673364405572,1.199332220072173
904986,1.5936376346249832,1.389296490291584
1892717,1.5360816229417906,1.3317404786083915
2000548,1.5857406948690835,1.3813995505356844
2918089,1.6111583711804338,1.4068172268470347
3705469,1.5890506238267295,1.3847094794933303
1192137,1.4988750624164562,1.294533918083057
3165731,1.702395892603385,1.4980547482699862
3412766,1.4755768946361183,1.2712357503027192
712863,1.6046991408411106,1.4003579965077115
3337276,1.3784881234726813,1.1741469791392825
842473,1.505412612703583,1.3010714683701838
912006,1.363348565494062,1.159007421160663
2134857,1.5105377167433054,1.3061965724099063
989663,1.5172088532983683,1.3113291793686421
2162013,1.7765531563739476,1.5722120120405485
1683697,1.4202739754159976,1.215733131236966
3258542,1.5126116767170634,1.3082705323836643
660527,1.3832958035893623,1.1789546592559632
1246257,1.6584906907400403,1.4541495464066412
1465203,1.4680898635672681,1.263748719233869
3139050,1.518680346394088,1.314339202060689
2135148,1.6681022484881343,1.463761104154735
3535430,1.6631881451140438,1.4588470007806447
3317629,1.3932438400752198,1.1889026957418207
2837068,1.5342797566432225,1.3299386123098234
3201166,1.8620740027010259,1.657732858367627
263002,1.6937326680205962,1.489391523687197
2873999,1.4607495729617357,1.2564084286283366
2794956,1.534299141018629,1.32995799668523
2653612,1.5924281278471757,1.3880869835137766
2129875,1.3728647453292497,1.1685236009958508
3887819,1.4565058694422301,1.2521647251088308
563416,1.4260066127052944,1.2216654683718953
1662684,1.5272653976204187,1.322724553441387
2891542,1.4195242223597324,1.2136445484300062
1754822,1.51090062321391,1.3065594788805108
1316022,1.5364255889877758,1.3320844446543767
344968,1.4999309609999738,1.2955898166665747
1308513,1.6714267016291315,1.4670855572957324
391456,1.4019745872427554,1.2011006544184013
1877762,1.2695698387833625,1.0636901648536363
2939061,1.4201194402180224,1.2157782958846233
3495925,1.5566314560546848,1.3522903117212857
3204773,1.4611431921803197,1.2568020478469206
2904506,1.3716450581397248,1.1673039138063257
267870,1.4125357926780069,1.2081946483446078
3296941,1.4647532406751904,1.2604120963417913
1279507,1.5867157024821457,1.3823745581487465
2584220,1.6186147807131814,1.4142736363797823
2411986,1.5708346661489212,1.366493521815522
3086977,1.471887281832402,1.267546137499003
3281762,1.6911082870476977,1.4867671427142986
2676686,1.4645931497035756,1.2602520053701765
1549511,1.5986918398167649,1.3943506954833658
2561717,1.5811932234897355,1.3768520791563363
1694997,1.6361994180034538,1.431658573824422
2886660,1.401876422873864,1.197535278540465
2888744,1.6355418458672684,1.4312007015338692
676374,1.6301163894893564,1.4257752451559573
838643,1.6644275643335962,1.460086420000197
1022609,1.5465864345925482,1.342245290259149
528233,1.389275146075645,1.184934001742246
269936,1.5224402128935794,1.3180990685601803
604710,1.4604406284143854,1.2560994840809863
3783154,1.5867260306440403,1.3823848863106412
1701074,1.6567045267661082,1.4521636825870765
3256328,1.4639799505480207,1.2596388062146215
933767,1.4840752563848525,1.2797341120514534
1635452,1.6383064419830418,1.4339652976496426
3922884,1.619586635934894,1.415245491601495
2771157,1.6203041236327744,1.4159629792993753
3938634,1.3558862718328422,1.151545127499443
440289,1.6210901771357202,1.4167490328023211
3219916,1.7571432323785743,1.5528020880451752
1376312,1.4968091332895828,1.2924679889561836
1718542,1.492483580067802,1.2879427358887703
194671,1.56891323326421,1.3645720889308108
2986159,1.8262959214297558,1.6219547770963567
1342809,1.43462334689622,1.2302822025628208
2149730,1.571512541995658,1.3671713976622588
1258625,1.3256111462974556,1.1212700019640565
1816444,1.6484813131737401,1.4441401688403412
1238632,1.6829374230910503,1.4785962787576512
3309744,1.606087982292867,1.401746837959468
3494635,1.4452103798319171,1.240869235498518
2790372,1.389241491677314,1.1849003473439148
1409976,1.2738268119742369,1.0694856676408377
1819678,1.4532920635823405,1.2489509192489414
1214307,1.6665288323996994,1.4621876880663003
1264955,1.5532987795609745,1.3489576352275754
3386283,1.5969698205840428,1.3926286762506437
1376169,1.6801589744000462,1.4758178300666471
3069421,1.5456658997456292,1.3411250555665974
2756274,1.6003488164170263,1.3960076720836272
1376172,1.402689879525208,1.198348735191809
1715499,1.4297124129080006,1.2251715687289688
1205646,1.6501327542227815,1.4457916098893824
3324118,1.310073111243873,1.105731966910474
3958743,1.5278858208771406,1.3235446765437415
3241053,1.491976698414019,1.28763555408062
3441538,1.3857427704759109,1.1814016261425118
3126696,1.4224263030557776,1.2165466291260514
1700679,1.6376303963740222,1.4330895521949905
1088446,1.6820356985681792,1.4776945542347801
2636460,1.4646043162507931,1.260263171917394
391709,1.5372251371018277,1.3328839927684286
3872113,1.4798947886850518,1.2740151147553256
2233848,1.7995459926957234,1.5952048483623242
2529290,1.625606532963349,1.4197268590336227
1430058,1.20954536396238,1.0052042196289808
3889990,1.4170629486493824,1.2127218043159833
1199953,1.5709477576039768,1.3666066132705776
471862,1.5588869144800088,1.3545457701466097
3474294,1.3198831280682997,1.1155419837349005
3033302,1.69411600813369,1.4897748638002908
248506,1.5844453801554026,1.3801042358220035
2568156,1.5887576093358902,1.384416465002491
3740393,1.2868427392631974,1.0825015949297985
712916,1.3893969077946315,1.1850557634612324
1617071,1.7414293318312544,1.5370881874978553
2721829,1.3337081965833664,1.1293670522499673
3462572,1.637470139653793,1.4331289953203938
3704404,1.4994148767267534,1.2950737323933543
3427025,1.540530562765798,1.3361894184323988
3506708,1.395717969684526,1.191376825351127
1021299,1.2466877762042126,1.0421469320251808
3439462,1.5852455499625475,1.3809044056291484
1161414,1.5710698833431767,1.3667287390097775
335225,1.6546143431824085,1.4502731988490094
3269874,1.4441080523367735,1.2397669080033744
3526603,1.8540311751109726,1.6496900307775735
2985557,1.4144618449508253,1.208582171021099
3108325,1.5018963404247496,1.2975551960913505
1914826,1.547766006368839,1.3434248620354399
3721925,1.5818087040873945,1.3774675597539954
2167220,1.671016539137409,1.4666753948040099
1596612,1.6073462550862345,1.4030051107528354
429759,1.7218944915163477,1.5175533471829485
2104535,1.4238284837286341,1.219487339395235
1590768,1.4011660411710567,1.1968248968376576
262511,1.5598508881183475,1.3539712141886213
946859,1.7060397028230796,1.5016985584896805
2973654,1.6222535289151716,1.4179123845817725
2138963,1.5443915624338873,1.3400504181004882
1168511,1.47136687056681,1.2670257262334108
2622806,1.5680184210620751,1.363677276728676
1316519,1.4815603826469061,1.2772192383135073
3438413,1.5712883648970895,1.3669472205636903
2600147,1.6030974674959364,1.3987563231625373
2181314,1.4771700913402084,1.272828947006809
979328,1.4889367659145174,1.2845956215811183
744075,1.5877441286648712,1.3834029843314721
636198,1.6066422850681747,1.4023011407347756
3746554,1.6388563945091157,1.4345152501757166
1585172,1.5717828905729327,1.3674417462395336
1139813,1.6136913284439363,1.4093501841105371
3189957,1.297545458412383,1.0932043140789838
690540,1.5479748495674455,1.3436337052340463
1766764,1.4990684218590036,1.2947272775256045
3837256,1.6427934789963166,1.4384523346629174
1548171,1.6340138164644837,1.4296726721310846
3517693,1.469334294904081,1.264993150570682
518998,1.4579186107162896,1.2535774663828905
2405952,1.5850545657366366,1.3807134214032375
2620599,1.4395464769614508,1.2352053326280517
945341,1.5889377069062747,1.3845965625728756
2458793,1.5785345108933069,1.3741933665599078
3439402,1.4279824774628636,1.2236413331294644
1645219,1.4262908780296555,1.2219497336962564
2921181,1.5738185696026534,1.3694774252692543
1860254,1.5204203403083325,1.3160791959749334
1210282,1.5304553555986868,1.3261142112652877
3893303,1.5859206786864044,1.3815795343530053
3348004,1.592969569154756,1.388628424821357
1290294,1.4752503927711942,1.270909248437795
373049,1.5476284682293562,1.343287323895957
3678389,1.4069548407351873,1.2026136964017882
2420756,1.402965013227139,1.1986238688937398
1125908,1.512774710893509,1.30843356656011
2613865,1.4685217811394609,1.2641806368060617
848027,1.4836045468491,1.2792634025157008
581562,1.264028972032998,1.059687827699599
2139186,1.6401707377532422,1.435829593419843
998206,1.5132078505583184,1.3088667062249193
1557090,1.4325039485122912,1.2281628041788921
312671,1.574275567742809,1.36993442340941
3525435,1.5669552290760589,1.3626140847426598
2225968,1.5905493117707326,1.3862081674373337
1168901,1.4656873744289731,1.27179877791183
3145504,1.6130714593615558,1.4087303150281567
1115947,1.460217179418582,1.255876035085183
2663176,1.6788006560307887,1.4744595116973898
1479133,1.722189574140746,1.517848429807347
393037,1.6357493432200045,1.4314081988866054
308799,1.5842926334407765,1.3799514891073774
3158469,1.449226937315522,1.2448857929821229
2551009,1.7654379122103714,1.5610967678769723
318972,1.6882005515476464,1.4838594072142473
3052252,1.507207718135144,1.3028665738017449
3731205,1.7532319503031513,1.548890805969752
1537104,1.586344868726791,1.3820037243933918
2141473,1.1393348826393583,0.9349937383059593
3797403,1.5616525492448305,1.3573114049114314
2654322,1.4516456490046281,1.247304504671229
3392290,1.6937097485238282,1.489368604190429
2859440,1.6882811484689284,1.4839400041355293
1541866,1.6815873889785546,1.4772462446451555
541116,1.4096213418122083,1.2052801974788092
1504607,1.4252161655062043,1.2208750211728052
2611493,1.5887561772546483,1.3844150329212492
2724042,1.422852140052301,1.218510995718902
1057242,1.5247415306005605,1.3204003862671614
1710203,1.5153285936385152,1.3107877494594835
1417865,1.4497595883808985,1.2454184440474994
2646139,1.3318083158623875,1.1274671715289883
1504915,1.5744090010713794,1.3700678567379803
2433580,1.644059437330584,1.4397182929971848
513065,1.6127367938100592,1.40839564947666
896422,1.6643540729295876,1.4600129285961885
3474850,1.5292406854763,1.324899541142901
3234580,1.5907757363732973,1.3864345920398982
2746747,1.5848642409518743,1.3805230966184752
1084338,1.7545843645060013,1.5502432201726022
1984976,1.5669373350383151,1.3623964908592834
3789956,1.6156906049277977,1.4113494605943986
976414,1.4489751113302647,1.2446339669968656
566305,1.4184394544903351,1.214098310156936
3891811,1.5128133286418406,1.3084721843084415
562791,1.5078978818121647,1.3035567374787655
2987111,1.5471659396315012,1.342824795298102
374123,1.5011306985947481,1.296789554261349
2822237,1.3261427669962391,1.12180162266284
1903522,1.4091635956411068,1.2048224513077077
2243704,1.4658468032522074,1.2615056589188083
1732505,1.4448465591079762,1.240505414774577
1088102,1.800497193033207,1.5961560486998079
3931254,1.4658415387208397,1.2599618647911135
2719383,1.6000526731811235,1.3957115288477244
427219,1.395497797402999,1.1896181234732728
1558548,1.4902515418624034,1.2859103975290043
1956517,1.4581881610980916,1.2536473169190598
2187580,1.2999655536281376,1.0990916208037835
456462,1.3889204995576236,1.1845793552242245
857553,1.6285315646776142,1.424190420344215
495545,1.6759489061018336,1.4716077617684344
2909470,1.5899099931554457,1.3855688488220466
1445873,1.3756531782679502,1.171312033934551
3685161,1.63772291450492,1.4333817701715208
1323420,1.387663435198135,1.1833222908647358
858254,1.6446057999141028,1.4402646555807037
2425540,1.437443837652594,1.2331026933191949
1910944,1.4002745843338,1.195933440000401
2829578,1.5614358164372666,1.3570946721038675
1266132,1.5812737621222166,1.3769326177888175
209323,1.4512823345751402,1.246941190241741
749904,1.731489624415593,1.527148480082194
1848077,1.4251415725988112,1.2208004282654121
1468596,1.71609567315963,1.5102159992299038
2929798,1.488084973160531,1.283743828827132
1762222,1.6331697899286495,1.4288286455952504
3223140,1.7851521244337305,1.5808109801003314
3837808,1.2639082232250451,1.059567078891646
471961,1.6304519881817754,1.4261108438483763
2211074,1.4321581016643479,1.2278169573309488
1488669,1.581212942793695,1.380339009969341
1323809,1.5804726560473386,1.3761315117139394
3033703,1.5823504448192696,1.3780093004858704
1718344,1.5358832376491927,1.331342393470161
458041,1.3049603134158725,1.1006191690824734
626052,1.2894984596490553,1.0851573153156562
1340725,1.5306757751445825,1.3263346308111834
1458381,1.3993915664663201,1.195050422132921
1623772,1.413697412246534,1.2093562679131349
1575295,1.3850333910721346,1.180492546893103
2116770,1.4664382371599172,1.262097092826518
538410,1.5593926452101412,1.355051500876742
2594822,1.5556001007051978,1.3512589563717987
948618,1.6466397559667056,1.4422986116333065
2568207,1.3461898607705405,1.1418487164371414
1210364,1.5520612585714522,1.347720114238053
2995387,1.6176781508214182,1.413337006488019
3153263,1.6412341652566333,1.4368930209232342
3731800,1.5713869412046846,1.3670457968712855
2395947,1.6253815555628985,1.4195018816331724
3262286,1.5980665260699833,1.3937253817365842
1614152,1.5486475767628207,1.3443064324294216
374292,1.7215862501562833,1.5172451058228842
3917222,1.5403692655193746,1.3360281211859755
2404189,1.7554807740113798,1.5511396296779807
1130164,1.6055307858505314,1.4011896415171323
1541774,1.383359557830113,1.1790184134967139
2639124,1.584757945559864,1.3804168012264648
2153539,1.5707681383284635,1.3664269939950644
3023057,1.401660683799195,1.1973195394657958
2682693,1.8498879061148215,1.6455467617814223
568297,1.2803989720010405,1.0760578276676411
579354,1.364553850080763,1.163679917256409
2698725,1.5805397510329169,1.3761986066995178
3854439,1.1259465384404848,0.9216053941070856
1446560,1.4659204061079858,1.2615792617745867
904898,1.6780921531002941,1.473751008766895
3754685,1.3806346033829826,1.1762934590495835
921350,1.4192081532916474,1.2148670089582483
349474,1.6396458502904458,1.4337661763607197
1834524,1.5780302237331227,1.3736890793997236
2037309,1.5678084761059372,1.3634673317725383
3768451,1.2773365894670716,1.0729954451336725
290040,1.640144569857491,1.435803425524092
1277660,1.744184915981339,1.5398437716479398
242463,1.3394554569115467,1.1351143125781475
1311601,1.2264309732097267,1.0220898288763276
802233,1.5423143775816013,1.3379732332482022
1860485,1.5339285199316361,1.329587375598237
2478028,1.5925960919911175,1.3882549476577184
290138,1.6516316746331465,1.4472905302997474
3368843,1.3455750707330392,1.14123392639964
2692283,1.717130387282793,1.5127892429493939
2807453,1.465359779505607,1.261018635172208
1440406,1.4235887463055301,1.219247601972131
1359769,1.6430147605854735,1.4386736162520743
2534892,1.4475866041161907,1.2432454597827918
2043747,1.643326635993865,1.4389854916604659
1067933,1.6669122263609621,1.461032552431236
1959826,1.5811817232283991,1.3751008458688063
403633,1.5790483267929998,1.3747071824596007
868069,1.5567505117586569,1.3524093674252577
458692,1.4839797997022932,1.279638655368894
482540,1.6466099832617687,1.4422688389283693
979681,1.747699641859024,1.5433584975256252
2835124,1.4345508130205924,1.2302096686871933
3801576,1.641970805528805,1.4376296611954058
248391,1.6317086619166026,1.4273675175832035
1100936,1.3324861712334841,1.1281450269000848
1714737,1.4374667598251838,1.232925915646152
1591731,1.6162639469962556,1.4119228026628565
3803037,1.5377972393971475,1.3334560950637484
3733291,1.2793242946778176,1.0749831503444187
2563947,1.655931304075202,1.4515901597418028
2043640,1.6967627634116624,1.4924216190782635
2984616,1.4255734385184695,1.2212322941850704
3186671,1.4366201998769792,1.23227905554358
1007858,1.5341410585997097,1.3297999142663106
2622013,1.5929897041193588,1.3871100301896326
3342470,1.6302305210975097,1.4258893767641105
3075375,1.500556046577551,1.2962149022441518
1554139,1.4908599507176428,1.2865188063842437
412876,1.5586533207020163,1.3543121763686172
2465536,1.5816091742927922,1.3772680299593931
2996319,1.5342841768961495,1.3299430325627504
2904068,1.55210155737953,1.347760413046131
3786101,1.4284021088974272,1.2240609645640284
1901907,1.4408154798019557,1.2364743354685566
2737870,1.7142550684274598,1.5099139240940604
910078,1.4491307716306512,1.243251097700925
2611661,1.5904735716304985,1.3861324272970994
1484132,1.5504354916807412,1.3460943473473421
1264782,1.5018283282242262,1.297487183890827
2716409,1.492823565951147,1.288482421617748
2784729,1.7643220136559674,1.5599808693225683
560781,1.5280583067571982,1.323717162423799
1286925,1.6717498475231227,1.4674087031897236
3798831,1.4937579122773672,1.289416767943968
1226806,1.629454086582213,1.4251129422488138
248068,1.7017420516113784,1.4974009072779793
3843083,1.4835019185746958,1.2791607742412967
1010564,1.512961360998922,1.308620216665523
2483928,1.3734366202126833,1.1690954758792842
2256670,1.6612872104622887,1.4569460661288895
2447434,1.4035302770137505,1.1991891326803514
2680858,1.7520504599609743,1.5477093156275752
3430993,1.6761705974012064,1.4718294530678073
1535032,1.501305129815425,1.296963985482026
2225038,1.3590585823752215,1.1547174380418221
2560890,1.5433611250527128,1.3390199807193137
3088898,1.461416467582626,1.2570753232492269
2603686,1.3245549153995395,1.1202137710661404
1581634,1.7255396926297673,1.5211985482963681
2467684,1.4662869249126893,1.2619457805792902
710630,1.590092656721708,1.3857515123883088
1892201,1.368404524124973,1.1640633797915738
3665386,1.4338160527512054,1.2279363788214792
3341462,1.5426526798267877,1.3383115354933885
3800795,1.66040776997912,1.4560666256457209
3914663,1.2219791072789816,1.0176379629455825
2397099,1.5670991008984165,1.3627579565650174
1041184,1.3773355609335522,1.1729944166001531
3410702,1.8293248585181592,1.62498371418476
1231944,1.6443782613512445,1.4400371170178454
1665846,1.4722542247853247,1.267713380606293
936958,1.3983568296950555,1.1940156853616561
1912128,1.7899103795665492,1.58556923523315
3712300,1.4553995206844335,1.2510583763510343
1479275,1.666184009393695,1.461842865060296
3399265,1.5878285436302881,1.383487399296889
3727234,1.4706617813232012,1.2663206369898021
3443494,1.566537806846675,1.362196662513276
350526,1.4818572934819318,1.2775161491485327
2061636,1.3515715666019734,1.1472304222685743
3241460,1.5346464905099009,1.3303053461765018
342018,1.5744837578761974,1.3701426135427983
2665541,1.3913828118959406,1.1870416675625415
1606990,1.5215607667249453,1.3172196223915462
1681994,1.6390156556101816,1.4346745112767825
2824438,1.7142494317378414,1.5099082874044423
1831356,1.8803111761283051,1.674431502198579
2607861,1.6907282639642454,1.4863871196308462
3189985,1.657821021331737,1.453479876998338
3128897,1.4303782476421545,1.2260371033087556
2745088,1.44380066864734,1.2394595243139408
1082696,1.6450414675788567,1.4407003232454576
1298001,1.7818799527561733,1.5775388084227742
664665,1.6340443053481104,1.4297031610147113
3197100,1.6648809027382627,1.4605397584048636
2697938,1.5823325528714223,1.3779914085380232
640005,1.7370129149587046,1.5326717706253055
3883035,1.267687231873905,1.0633460875405059
1354340,1.6418144505154768,1.4409405176911227
1400061,1.5834535012214859,1.3791123568880868
1901403,1.534708965009953,1.3303678206765541
431910,1.5197442147698366,1.3154030704364374
1088034,1.5556306582410355,1.3512895139076364
1304184,1.7545862934183176,1.5502451490849185
2825768,1.3885122072185947,1.1841710628851956
3259128,1.5417360921504577,1.3358564182207315
446421,1.471528442062417,1.267187297729018
1211971,1.5386219194559008,1.3342807751225016
1985158,1.5982080344474887,1.393667190268457
3961164,1.598502761656761,1.392623087727035
3469017,1.621206058831812,1.416864914498413
3783520,1.7684666451118163,1.5641255007784172
342496,1.6422350553611758,1.4378939110277766
2868414,1.452282543869011,1.2479413995356117
1030840,1.5174391832301113,1.3130980388967122
3857056,1.6713744244392115,1.4670332801058124
2879891,1.2990830743777302,1.094741930044331
834119,1.4798156790548354,1.2754745347214362
633008,1.6313688205894443,1.4270276762560452
1415279,1.525985402018572,1.3216442576851728
2651894,1.339933924262281,1.1355927799288819
1648763,1.5970963037731414,1.392755159439742
974814,1.5600581268457774,1.3557169825123783
1224687,1.5277449704349877,1.3234038261015886
3898720,1.3458352895975612,1.1414941452641623
3041420,1.7400273639376833,1.5356862196042842
3895895,1.5156939086344619,1.3113527643010627
2146697,1.6677476625522467,1.4634065182188476
379753,1.6389989166451582,1.434657772311759
1432366,1.602629458365513,1.3982883140321138
1788816,1.3403155218943934,1.1359743775609943
3067568,1.4343983017520165,1.2300571574186172
3325503,1.3857298139819767,1.1813886696485776
1833851,1.5203746915595089,1.3160335472261098
3064769,1.2713668269553642,1.067025682621965
3904431,1.5481019668148588,1.3437608224814597
462058,1.4291323801981934,1.2247912358647943
1386314,1.5368014194388777,1.3324602751054786
3721082,1.5736256237044324,1.3692844793710333
305002,1.6870904017136128,1.4827492573802137
3132090,1.5273733010362929,1.3230321567028938
2828371,1.4129077908379253,1.2085666465045262
2393791,1.5153157209033696,1.3109745765699705
1681840,1.589477336123714,1.3849364919446823
3916968,1.4731802997085366,1.2688391553751375
2431089,1.7782645059313638,1.5739233615979646
3496836,1.4843980360238451,1.280056891690446
1732822,1.674155055384425,1.469813911051026
3311043,1.5467852014541201,1.342444057120721
2035310,1.6633427274794976,1.4590015831460985
2791560,1.4719675138702664,1.2660878399405402
1768984,1.6126868975309274,1.4083457531975285
3744464,1.7650736485990888,1.5607325042656899
1790076,1.4118833679965486,1.2075422236631494
2820822,1.4896847431904305,1.2853435988570314
1417188,1.6307778679477842,1.4264367236143851
930258,1.4075192072931046,1.2031780629597055
305017,1.5085111556691024,1.3041700113357033
1021736,1.4827599734589108,1.2784188291255116
305962,1.3925634280722665,1.1882222837388674
1210405,1.4727406965550704,1.2683995522216713
549770,1.6324704514137964,1.4281293070803973
3886040,1.6480251655912808,1.4436840212578816
419657,1.5649043936617886,1.3605632493283895
963812,1.559069557921477,1.354728413588078
424670,1.4163789629396297,1.2120378186062304
1108857,1.6497909507952553,1.4439112768655291
2780087,1.4855160017075983,1.2811748573741992
853470,1.5884690306758467,1.3841278863424475
2763552,1.372213566173921,1.1678724218405219
3046787,1.5875770252998151,1.383235880966416
1532322,1.5547796955182664,1.3504385511848673
1086258,1.722140902018409,1.51779975768501
998787,1.7582875371014701,1.553946392768071
2211652,1.5058668857080229,1.3015257413746237
375047,1.5240478618039892,1.31970671747059
2632512,1.5593404372012813,1.3549992928678822
2715564,1.717329140868868,1.512987996535469
1900817,1.5759646425280744,1.3716234981946753
3262044,1.5564871277260162,1.352145983392617
839741,1.6988294165096869,1.4929497425799607
2403486,1.626070036821821,1.421728892488422
2904508,1.6954225125086517,1.4910813681752526
563719,1.317807199528953,1.1134660551955537
1593688,1.4928460066319995,1.2885048622986004
3760575,1.5534233215898372,1.349082177256438
3721599,1.5203583083869183,1.3160171640535192
3839204,1.4566248454983055,1.2522837011649064
2417358,1.560312257681132,1.3559711133477328
528228,1.6778745130541184,1.4735333687207195
2054599,1.386693975402815,1.1808143014730887
1441277,1.5707108802358134,1.3663697359024143
469451,1.2591719237048662,1.054830779371467
2234105,1.5986219950961842,1.394280850762785
3951044,1.4161506120197735,1.2118094676863744
223299,1.5035801210579538,1.2992389767245547
2145613,1.462362063528261,1.258020919194862
3958588,1.5522732256116618,1.3479320812782627
1371067,1.5794697167418148,1.3751285724084157
3735600,1.617025190945864,1.4126840466124648
982985,1.4616708694708815,1.2573297251374824
2817087,1.5456597851529794,1.3413186408195803
716068,1.5213929756519833,1.3170518313185842
196857,1.3118143702226641,1.107473225889265
951657,1.529571046433917,1.3252299021005178
2985744,1.5834503043412358,1.3791091600078367
982807,1.7382553302001613,1.5339141858667622
2846218,1.820979684483904,1.6166385401505048
3415869,1.601366767057085,1.397025622723686
706380,1.3702066785753146,1.1658655342419155
1411232,1.59703124549056,1.3926901011571609
1076900,1.6437694786056223,1.4394283342722232
2921510,1.457657018182131,1.2533158738487318
3114234,1.678506820847317,1.474165676513918
1316894,1.4580446864966703,1.2537035421632712
3932811,1.5026259090213434,1.2982847646879443
1436781,1.5096574216911247,1.3037777477613985
2117767,1.7691930178948208,1.5648518735614216
2648110,1.5881703005224184,1.3838291561890192
2892716,1.5951194189560356,1.3907782746226365
231841,1.7406525713602543,1.5363114270268552
681516,1.5705033656692728,1.3661622213358737
1692723,1.7421559250369318,1.5376150808579
3906897,1.6469088438226738,1.4425676994892747
2995495,1.572596377522528,1.368255233189129
2233551,1.5653809947460902,1.361039850412691
1335401,1.4418857732766241,1.237544628943225
449411,1.431366300162195,1.227025155828796
1727791,1.4784370043214632,1.274095859988064
470774,1.5407585496836167,1.3364174053502176
1509498,1.6102145838663788,1.40587343953298
1464402,1.4397090063696933,1.235367862036294
3074208,1.6110269569815756,1.4049460796219828
994169,1.8042710558581465,1.5999299115247474
2538121,1.6285684789247803,1.424227334591381
3756566,1.7187186780242831,1.514377533690884
2501776,1.4044166941535938,1.2000755498201947
839087,1.5231424604478376,1.3188013161144385
1985898,1.2817313627352656,1.0771905185562338
282576,1.5337269936023914,1.3293858492689923
1097142,1.4501216292736003,1.2457804849402012
735264,1.5566621881553118,1.3523210438219126
3835282,1.5981766887414521,1.393835544408053
225918,1.3530793421860596,1.1487381978526605
508893,1.5355227441385835,1.3311815998051844
3678583,1.4229352364835708,1.2185940921501717
1476857,1.5419850033772562,1.337643859043857
3252770,1.4896862020422912,1.285345057708892
1235560,1.3957934202531879,1.1914522759197888
308395,1.6454680606767667,1.4411269163433675
2900297,1.364731585334806,1.160390441001407
2262093,1.5282228876650918,1.3238817433316927
3442645,1.500026236010872,1.295685091677473
1814170,1.6447083522494887,1.4403672079160896
2511185,1.6703112367696966,1.4644315628399704
3082478,1.5994932156950286,1.3951520713616294
1679409,1.4818202081687257,1.277279363989694
3304469,1.5488449052618207,1.3445037609284216
1474829,1.5578615182794038,1.3535203739460047
3292974,1.5486815269593353,1.3443403826259361
3942209,1.3786686598540574,1.1743275155206583
1614343,1.5318186671186003,1.3309447342942462
2516492,1.6839474387103055,1.4796062943769064
3702095,1.7793195762953422,1.574978431961943
2612746,1.3510269467646385,1.1466858024312394
856316,1.8820141929671093,1.6776730486337101
3514624,1.558946571752232,1.3546054274188328
3388578,1.5063903275507662,1.302049183217367
1998325,1.6118437783671593,1.4075026340337602
3187367,1.5915034741935585,1.3871623298601594
3929483,1.6630073886637842,1.458666244330385
2198596,1.270780212963576,1.0649005390338497
1607826,1.6186497305775671,1.412770056647841
2185377,1.4953030192998875,1.2909618749664884
1496148,1.1953740321841198,0.9910328878507206
1533992,1.686846990598482,1.4825058462650829
1957365,1.5065479744910508,1.302007130312019
3019991,1.6890811961859185,1.4847400518525193
3400434,1.4293286489725936,1.2249875046391945
873586,1.6508458560693464,1.4465047117359475
3200888,1.5659839936973359,1.3616428493639368
2843085,1.3609849288247138,1.1566437844913147
3079504,1.745100280083616,1.5407591357502168
3252000,1.631863674879805,1.4275225305464059
3240429,1.5543849296598418,1.3500437853264426
1764016,1.2615422443428248,1.0572011000094257
3497582,1.5972119991734686,1.3928708548400695
479260,1.6699236301556741,1.465582485822275
2155025,1.514292948103575,1.3099518037701758
2399058,1.3960886784156838,1.1917475340822847
1990852,1.5891738800264323,1.3848327356930332
1152062,1.3207164606726798,1.1163753163392807
632140,1.4981361562085207,1.2937950118751216
909430,1.5414853493972542,1.3371442050638551
1599601,1.7352811709906675,1.5309400266572684
2402235,1.3330936274667549,1.1287524831333557
1171901,1.523079401960298,1.318738257626899
2620791,1.627366464645365,1.4214867907156388
2797873,1.4897532940034393,1.2854121496700401
1307308,1.820487842336711,1.6161466980033117
3070725,1.3840877098983548,1.179746565564956
2803072,1.5563419869642652,1.352000842630866
3333068,1.698455562038721,1.4941144177053218
3331580,1.3427473471718294,1.1384062028384303
1166597,1.7923136310406633,1.5879724867072644
3099139,1.6104359110878714,1.4060947667544723
1250095,1.4432275007716566,1.2388863564382575
288848,1.5907590771452187,1.3864179328118196
1137783,1.4506337169085912,1.246292572575192
3364238,1.5481237612062095,1.3437826168728104
2048836,1.6466106805828622,1.442269536249463
3881667,1.5172849767795558,1.3129438324461566
1882394,1.29573164464042,1.0913905003070208
1540335,1.5579736914887319,1.3536325471553328
3176267,1.5389813017889709,1.3346401574555717
464384,1.5282179612230038,1.3223382872932776
2122570,1.8344829209958768,1.6301417766624777
323787,1.8247356212128767,1.6203944768794776
3927754,1.4335699085765958,1.2292287642431967
3271525,1.561878397897946,1.357537253564547
3681628,1.477327719491443,1.2729865751580438
948511,1.5513636844955039,1.3470225401621048
1470467,1.44910631311768,1.244765168784281
2452086,1.4679488472070499,1.2636077028736508
2524978,1.570237128544873,1.365895984211474
3934407,1.4871912814148465,1.2828501370814474
265855,1.4637661080947104,1.2594249637613113
1624840,1.2804267702289682,1.076085625895569
1520927,1.4902869138914514,1.2859457695580523
1080578,1.5410134087189649,1.3366722643855657
1710486,1.5764287411158782,1.3718878969368464
3138140,1.544678423838334,1.3403372795049349
1771150,1.5567913062217695,1.3524501618883704
3497007,1.479731453342146,1.2753903090087468
3196167,1.2794119844515652,1.0750708401181663
1364058,1.6908068268338308,1.4864656825004317
3054016,1.4094332904699571,1.205092146136558
1547246,1.6521281331931021,1.447786988859703
2425466,1.6455775301488995,1.4412363858155004
993771,1.7353479453759502,1.531006801042551
3063505,1.666636917614089,1.4622957732806898
1984345,1.49595632367764,1.2914154794986084
659898,1.504940646735768,1.3005995024023689
1681066,1.7329439006543357,1.528403056475304
1495557,1.5067742180568813,1.3024330737234822
2129697,1.7176886929932103,1.511809019063484
877983,1.5768884832429377,1.3725473389095386
231025,1.4457276738169975,1.2413865294835984
1319776,1.5908960850464338,1.3865549407130346
1510875,1.4763661719791907,1.2720250276457916
3695244,1.5617248868990463,1.3558452129693201
519591,1.3237016731421654,1.1193605288087662
2646986,1.5589050861863396,1.3545639418529405
3901000,1.5344385126220783,1.3300973682886792
2695004,1.3733953481808627,1.1690542038474636
3498209,1.4761079780454052,1.271766833712006
2835284,1.7106246191985022,1.506283474865103
2780175,1.7466425381927069,1.5423013938593078
2831983,1.5348572479673752,1.330516103633976
2869911,1.4912478104130573,1.2869066660796582
2458616,1.5164798358367821,1.312138691503383
3789345,1.4268417989767768,1.2225006546433776
994482,1.4518679083501875,1.2475267640167884
3245355,1.3884890991382468,1.1876151663138927
1623427,1.5212469180740862,1.316905773740687
990981,1.4337854661094627,1.2294443217760636
1965225,1.4829377200083431,1.2783968758293114
2455258,1.6066929020871685,1.4023517577537694
640160,1.5735041968262555,1.3691630524928564
1355995,1.5729340775712812,1.3685929332378821
305353,1.5563689262879097,1.3520277819545106
1621328,1.6045835920444749,1.4002424477110758
2736175,1.582697867801281,1.378356723467882
1582729,1.486020265760143,1.2816791214267438
3247736,1.5550228922883405,1.3506817479549413
3212175,1.7089509153632454,1.5046097710298463
1105423,1.3845681599218191,1.18022701558842
730474,1.4995418526197917,1.2936621786900655
701719,1.5828679409179285,1.3785267965845294
3105019,1.6559665471170073,1.4516254027836082
700215,1.4003287163015905,1.1959875719681914
700251,1.6634162662837941,1.459075121950395
829478,1.6504950596347725,1.4461539153013734
2005753,1.5979281929784583,1.3935870486450592
2844341,1.427809333779701,1.223468189446302
1236934,1.458372246296323,1.2540311019629238
2890554,1.4444791749221275,1.2401380305887284
933423,1.4543039275873606,1.2499627832539615
2587945,1.3165176475416371,1.112176503208238
2853952,1.4060557443014385,1.2017145999680392
737560,1.596414788598624,1.3920736442652248
3028448,1.8214284228451074,1.6170872785117083
3749301,1.4224389728408835,1.2180978285074844
2247083,1.4858694758287896,1.2815283314953905
2186931,1.51994470239536,1.315603558061961
3277483,1.5884750691289722,1.384133924795573
980314,1.41298585575502,1.2071061818252937
2653543,1.5713893332351148,1.3670481889017156
3343751,1.6564361216025123,1.4520949772691132
1527380,1.42679579897533,1.2224546546419308
2887967,1.5451941611196256,1.3408530167862265
1485679,1.4974624377250323,1.2931212933916332
1058050,1.5785403699895064,1.3741992256561073
2514810,1.5679262653529908,1.3635851210195917
3852248,1.58150271553138,1.377161571197981
1455339,1.504990075231703,1.3006489308983038
3157483,1.3745100380568727,1.1701688937234735
1900735,1.5505431397275526,1.3462019953941535
2988176,1.4735308875866107,1.2691897432532115
3268939,1.4585810191830728,1.2542398748496737
1018470,1.71496691845604,1.509087244526314
2474578,1.455777844597273,1.251436700263874
1690003,1.6770718938452576,1.4725310496662258
2745812,1.4169586633408744,1.2126175190074753
329236,1.689070299106235,1.484729154772836
1629704,1.8491566225563352,1.644815478222936
289133,1.3590690624449024,1.1547279181115033
733717,1.5214705297416324,1.3171293854082333
262626,1.6550318629122338,1.4491521889825076
2821157,1.5263326451222672,1.321991500788868
1901509,1.5757247535853212,1.371383609251922
442769,1.7444291577585243,1.5400880134251251
1154943,1.6904750803802056,1.4861339360468064
3354699,1.7964024652747093,1.5920613209413101
1397627,1.6652202213959644,1.4608790770625653
2164332,1.1744885951135013,0.9701474507801022
3741284,1.476926222561972,1.2725850782285728
204148,1.6121319226409845,1.4077907783075854
1500370,1.5026346574438332,1.298293513110434
363773,1.487151011539696,1.2828098672062969
3207314,1.4314634745915018,1.2271223302581027
225942,1.756917659211259,1.5525765148778599
669206,1.2435705170777713,1.0392293727443722
3721769,1.478599642341941,1.2742584980085419
3938997,1.7452187708785027,1.5408776265451034
443056,1.6140524476543954,1.4097113033209963
3894619,1.7321358621988356,1.5277947178654365
3402158,1.4032725065161824,1.1989313621827833
475040,1.7251636624481197,1.5208225181147206
3293456,1.7104986597686678,1.5061575154352687
750564,1.8362414622349488,1.6319003179015499
3490847,1.6385421866944383,1.4342010423610392
2402604,1.3285837977082533,1.1227041237785271
526961,1.7094043700262418,1.5050632256928427
217582,1.82363333441457,1.617753660484844
552170,1.5428001348638418,1.3384589905304427
2853139,1.43152938568179,1.2271882413483906
2146908,1.6436806535000488,1.4378009795703226
2695201,1.5260802580559438,1.3217391137225447
2684029,1.4356716218299521,1.231330477496553
700546,1.6146785392146237,1.4103373948812246
1489130,1.5416110979040005,1.3372699535706014
3788311,1.7798185027119757,1.5754773583785766
3127833,1.5302781094630777,1.3259369651296786
2843538,1.4418202875082065,1.2374791431748073
1133780,1.6459117397164047,1.4415705953830056
987897,1.6714932877647977,1.4671521434313985
3053180,1.4708926361863197,1.2665514918529206
2121368,1.510172231822867,1.3058310874894679
3687640,1.5838238917145475,1.3794827473811484
1636535,1.4618224804029116,1.2574813360695125
1664720,1.486419631519523,1.2818787873404913
1106070,1.389467366389841,1.1851262220564418
1210597,1.7918366196352171,1.587495475301818
2135633,1.1813909734752566,0.9770498291418575
2592897,1.6028580023297112,1.398516857996312
1977035,1.677277475285952,1.4727366311069203
3344250,1.8501620017834237,1.6458208574500246
2208212,1.581870072460278,1.377528928126879
3652934,1.563191665670307,1.358850521336908
1435535,1.4041753588629085,1.1998342145295093
3014519,1.3679464537969914,1.1636053094635923
831754,1.5074481292412891,1.306574196416935
545557,1.50241411252419,1.298072968190791
862178,1.573858704582688,1.3679790306529618
3328162,1.5035911491254532,1.299250004792054
2256434,1.3832898317180755,1.1789486873846764
2977081,1.2566563511150153,1.0523152067816162
2731283,1.5161560434012653,1.3118148990678662
827858,1.4456690704943926,1.2413279261609935
2045780,1.726830358325383,1.522489213991984
1942130,1.4703864213489664,1.2658455771699346
3509953,1.703594973622862,1.4992538292894628
1579856,1.4799765739590358,1.2756354296256367
1506237,1.5062191127659006,1.3018779684325015
1249000,1.5149454642786149,1.3106043199452158
2244093,1.5588914713884763,1.3545503270550772
2793792,1.6002367602673082,1.395895615933909
3519149,1.6231055610101122,1.418764416676713
1336452,1.574148499308302,1.3698073549749028
3480099,1.385157719204474,1.1808165748710748
653514,1.6453566418201042,1.439476967890378
680860,1.757033535745703,1.5526923914123039
2490480,1.4011729314934567,1.1952932575637305
895605,1.747439882428397,1.5430987380949979
2118443,1.3528646120415293,1.1485234677081302
3123501,1.603116851116118,1.398775706782719
3398344,1.4145854531720192,1.21024430883862
3426063,1.387235518206364,1.182894373872965
2562287,1.7316167136233145,1.5272755692899154
1578741,1.5473646448016665,1.3430235004682674
972660,1.551814398788516,1.347473254455117
2595424,1.6596030347854274,1.4552618904520283
1035709,1.4198963533098625,1.2155552089764634
1593403,1.6039206475189682,1.3995795031855691
3227294,1.3852354058572678,1.1808942615238687
3154375,1.6889317836598334,1.4845906393264343
3495472,1.6344552268929018,1.4301140825595027
500938,1.7560550727414626,1.5517139284080634
2432761,1.347513155235254,1.1431720109018548
862874,1.4182620582470156,1.2139209139136165
2225743,1.725134873945095,1.5207937296116958
875573,1.5673417686979374,1.3630006243645383
370629,1.4646891890927503,1.2603480447593511
2708106,1.5404873585140857,1.3361462141806866
1898089,1.4864932353563856,1.2821520910229864
3035933,1.4892726998782413,1.2849315555448422
3414579,1.501416345202977,1.2970752008695778
1873431,1.3503493657941708,1.1460082214607716
619836,1.503668324567628,1.2993271802342288
340506,1.7283174487758106,1.5239763044424115
969523,1.5936183900029413,1.387738716073215
2223434,1.6228694355174063,1.4185282911840071
1311518,1.4092766566781825,1.2049355123447834
287976,1.5774847680785737,1.3731436237451746
1511029,1.4814729259204305,1.2771317815870313
243262,1.6379815721076665,1.4336404277742674
701943,1.6401493263888969,1.4358081820554978
993643,1.4918212006404181,1.287480056307019
3282549,1.44785157126862,1.2435104269352208
1673764,1.6141173045492885,1.4095764603702567
1257594,1.4944740296354282,1.290132885302029
571571,1.5971280170830788,1.3927868727496797
1234541,1.7826500793470306,1.5783089350136315
2933925,1.5349191497900287,1.3290394758603026
3707553,1.5884215850788972,1.384080440745498
1014377,1.656546802357788,1.452205658024389
2579991,1.5428097081582506,1.3384685638248515
3068057,1.4148503561174073,1.2105092117840082
1244364,1.555840081441798,1.351498937108399
2017154,1.7151968931238049,1.510855748790406
1848331,1.5866823280147504,1.3823411836813513
1092478,1.6614945234249816,1.4571533790915825
1196052,1.6419313362953774,1.4375901919619782
2993406,1.443462578686254,1.239121434352855
2277902,1.4851292662720907,1.2807881219386914
1479451,1.4670036931394035,1.2626625488060044
2590396,1.6017882355936834,1.3974470912602843
538654,1.4816463307331418,1.2773051863997427
3284769,1.6813982080963377,1.4770570637629388
869153,1.3703302396207542,1.165989095287355
3196905,1.4022760985523313,1.197934954218932
2585980,1.644059606117215,1.439718461783816
1471409,1.553355606773549,1.3490144624401499
2753837,1.52084289883199,1.3165017544985909
1445711,1.3502445388359812,1.1459033945025823
3125624,1.507665242006636,1.303324097673237
1690561,1.5721680650233123,1.3676272208442806
402293,1.5916736880449915,1.3873325437115924
1049257,1.6385745634451796,1.4342334191117805
1787318,1.6107724706019566,1.4064313262685575
1669549,1.541793695012912,1.3372528508338803
