sample_id,y0,y1
3101050,-5021.038062553927,-5015.869545731613
1353019,-3846.4430061251787,-3841.2744893028635
237774,-14220.064052949105,-14214.895536126789
2590469,218.44355377470677,223.6120705970222
227726,-940.538361171933,-935.3698443496177
2527742,-8049.988888431158,-8044.820371608842
2918972,-870.8560144930684,-865.687497670753
388738,-8305.695984327871,-8300.527467505555
2145431,-336.6664007579084,-331.49788393559294
1011560,-6964.498529294482,-6959.330012472166
1579134,-2881.1437727489956,-2875.9752559266803
345528,-3671.475153768667,-3666.3066369463513
949382,-10126.05077561973,-10120.882258797414
2593152,-5701.350432498827,-5696.181915676512
2802535,21976.84762876555,21982.016145587862
1665388,-3032.200897719726,-3027.032380897411
3780370,-1551.507277049237,-1546.3387602269215
3668256,311.34730610347697,316.5158229257924
2704644,22924.452358480135,22929.620875302448
1912329,3707.9347716224866,3713.1032884448023
2729427,-5198.784773310565,-5193.616256488249
3690765,-6881.155891045025,-6875.987374222709
2541657,-2461.5236406569015,-2456.355123834586
1543509,-2687.6633979511125,-2682.4948811287973
2905679,535.9055635403201,541.0740803626354
3237188,-1670.2391236264968,-1665.0706068041814
527806,10646.610621705291,10651.779138527607
3354139,-4452.53329915527,-4447.364782332955
300942,9595.254646930729,9600.423163753045
3744958,1184.638687763951,1189.8072045862666
3883623,-37233.69566466114,-37228.527147838824
1045609,22874.212125143735,22879.38064196605
1982067,-951.8178982977938,-946.6493814754785
3076207,-46625.96050429548,-46620.79198747316
2249118,-7037.2669566792465,-7032.098439856932
3115040,-7751.5527428600035,-7746.384226037689
2992968,-449.7787773184597,-444.61026049614424
2210096,-4387.346908122322,-4382.178391300007
2121620,412.8919722087923,418.06048903110775
1348102,762.6037928391772,767.7723096614925
1972871,-34488.999528679116,-34483.831011856804
3778699,-2021.6502699511043,-2016.4817531287888
1849091,-38543.82819352042,-38538.6596766981
1300881,-1855.9931785369795,-1850.824661714664
1574134,-51678.15271764063,-51672.98420081832
1617542,1081.9505752772704,1087.119092099586
3303342,821.7377396581,826.9062564804154
1469646,-2177.4877913869013,-2172.3192745645856
1352089,-3858.6254827257135,-3853.4569659033978
1679817,-3491.2986502804956,-3486.1301334581804
3412286,-2604.8153100802233,-2599.646793257908
418725,641.1495410239595,646.3180578462748
3265343,-3172.280164601702,-3167.1116477793867
266581,-4918.065014002814,-4912.896497180499
260118,-5419.4984088358615,-5414.329892013547
2181795,4680.563845612552,4685.732362434866
1646765,-7605.672811170157,-7600.504294347842
619546,-2259.739851354501,-2254.5713345321856
1963489,-4652.6248003615965,-4647.456283539282
989464,-2789.2396680309625,-2784.0711512086473
3725155,3274.563858158073,3279.7323749803886
1986453,393.36277269224,398.53128951455545
262000,-4466.3080262248195,-4461.139509402505
1478812,1479.468237285895,1484.6367541082104
993821,-7085.101908944255,-7079.93339212194
3774394,1349.6160039893948,1354.7845208117103
1271105,4296.8179057519355,4301.98642257425
2743025,-1678.3705133871065,-1673.2019965647912
714961,-6412.183347406175,-6407.01483058386
3474294,-41879.17640098088,-41874.007884158564
3883681,-3656.397951624042,-3651.2294348017267
2252044,8690.042755009943,8695.211271832259
1116580,13455.169800425147,13460.338317247462
1974336,-1685.5138991269903,-1680.3453823046748
713977,-1986.5372298532438,-1981.3687130309283
3317918,-2658.2511085860065,-2653.082591763691
2489036,-1285.3524057091856,-1280.1838888868704
3086126,1881.2765500595137,1886.4450668818292
1865813,3090.4670962158075,3095.635613038123
1397092,-2094.775307523377,-2089.6067907010615
1721144,-1854.5933998830221,-1849.4248830607066
2802273,-43474.910639184134,-43469.742122361815
2993699,-1456.9953229079638,-1451.8268060856483
1130582,3099.165749341696,3104.3342661640113
491195,384.49856507983236,389.6670819021478
3765191,-4838.366556418807,-4833.198039596492
3316282,2777.748062166344,2782.9165789886592
554331,-1692.3120070858552,-1687.1434902635397
3908555,-3481.4753909956303,-3476.3068741733146
3030467,-6802.205284335283,-6797.036767512968
3680653,-3038.1775800124688,-3033.009063190153
745217,-6020.619271586184,-6015.45075476387
2737046,-3736.519446736828,-3731.350929914512
663086,-2822.4586038604716,-2817.2900870381563
3730195,-6747.091853485127,-6741.923336662812
1260331,-4430.0761427829775,-4424.907625960663
1526494,-2772.7016949090316,-2767.5331780867164
2609740,-6345.564077697653,-6340.395560875339
509038,-688.9855513390861,-683.8170345167707
3433359,259.5794866408939,264.74800346320933
450693,-2255.623830387438,-2250.4553135651227
3493570,-812.3063198041142,-807.1378029817989
1311518,-2550.2652939442924,-2545.0967771219766
431369,-292.1199186050744,-286.951401782759
554453,-7239.207557979515,-7234.0390411572
1066132,24599.950284496776,24605.118801319088
695542,-3889.8510267422516,-3884.682509919936
1038486,-46853.75629006758,-46848.58777324526
620746,4032.519265777138,4037.6877825994534
3840912,-1581.360767163354,-1576.1922503410387
916109,-43791.42218358375,-43786.25366676143
1521865,2321.183440529038,2326.3519573513536
3531394,-2077.2304765336426,-2072.0619597113273
924269,-5596.878295642151,-5591.709778819835
1509498,1526.4677279397467,1531.6362447620622
673222,-3101.177014850362,-3096.0084980280462
1858422,21502.914474421486,21508.082991243802
1142148,36395.99379861966,36401.16231544197
1463843,-45977.67474705283,-45972.506230230516
2970687,-4619.313753793465,-4614.145236971151
718021,-1422.5783970408713,-1417.4098802185558
3110091,10859.890350309977,10865.058867132293
3041881,-5232.12545358565,-5226.956936763335
3957074,-44616.711734542805,-44611.543217720486
3423350,-7177.22109413302,-7172.052577310706
2736834,-4152.109415389866,-4146.94089856755
2975698,-2192.3127659638926,-2187.1442491415773
1673086,-1054.9282291453962,-1049.759712323081
2777889,-570.7230706693141,-565.5545538469988
445356,-2806.278137896387,-2801.1096210740716
3769595,-46704.78092510149,-46699.61240827917
993088,-1152.925287952854,-1147.7567711305385
3072859,-8193.497174330842,-8188.328657508525
567992,-39965.57901796342,-39960.4105011411
1875544,2186.7499123956386,2191.9184292179543
2892201,-1222.606014510328,-1217.4374976880124
1557667,-4666.2807174151485,-4661.112200592833
696507,-3113.119647195038,-3107.951130372722
672708,-44779.16524116146,-44773.996724339144
645445,-42184.793608033346,-42179.625091211026
2913177,1377.9008773682715,1383.0693941905868
1432189,-2430.4868509149283,-2425.3183340926125
337869,21854.978622801915,21860.147139624227
2697061,-40804.72256383792,-40799.5540470156
2646143,21684.57375539069,21689.742272213007
578846,-2033.489182965578,-2028.3206661432625
2400593,-4473.665040577914,-4468.496523755599
3070297,-3706.9589136205864,-3701.7903967982706
2904359,-6118.157114664901,-6112.988597842586
3187137,-791.1412176677044,-785.972700845389
1698058,5087.873575902444,5093.042092724759
522647,1675.5591593981192,1680.7276762204347
3048818,-45990.0024458093,-45984.83392898699
1378680,-8080.115568339767,-8074.947051517452
2258165,-2677.335277466865,-2672.16676064455
1385379,-7323.624697457037,-7318.456180634722
1848811,-2123.658129884762,-2118.4896130624466
1501604,-20759.37848891187,-20754.209972089553
2650547,2115.77950347134,2120.9480202936556
2452252,20.481919133415,25.650435955730416
892273,-5154.6409936714645,-5149.47247684915
3474639,1946.4244365701009,1951.5929533924161
3096085,-3827.27149424474,-3822.102977422425
3761982,10805.310168001743,10810.478684824058
1307644,-2771.059049602543,-2765.890532780227
1814568,695.414985246802,700.5835020691173
3329870,-1815.1957513251373,-1810.0272345028218
3520074,-4207.962161920301,-4202.793645097985
822826,-1954.0466080382769,-1948.8780912159614
1711013,-137.92547165218474,-132.75695482986933
991643,-46499.04125052613,-46493.87273370381
3805609,-43732.93431149817,-43727.76579467585
3740263,272.3296339846866,277.49815080700205
1157983,24376.90068610472,24382.069202927032
575361,23611.69471807882,23616.86323490113
2736141,-2728.1159891402494,-2722.947472317934
921027,-41474.0458457546,-41468.877328932285
1821389,2620.051231740801,2625.2197485631164
3292397,-12386.353522398862,-12381.185005576546
3842590,-2927.4940944531822,-2922.325577630867
2592873,-2402.3251108471295,-2397.156594024814
1087928,1732.5576961550128,1737.7262129773283
474087,-2700.9677345866844,-2695.7992177643687
407935,-1694.5811477051539,-1689.4126308828386
1811365,1550.012829224823,1555.1813460471385
3845117,-8073.850398977003,-8068.681882154687
997662,-2520.617796680631,-2515.449279858315
2551712,-4241.772609653553,-4236.604092831239
553440,1153.4525487509195,1158.6210655732348
1461425,-719.9120946055154,-714.7435777832002
1316713,-1149.8442172401897,-1144.6757004178744
2892400,-3575.7997567744405,-3570.6312399521253
2637717,22964.338409713822,22969.506926536138
3312474,-9917.460734267554,-9912.292217445238
499450,-5257.532669515844,-5252.364152693529
1791442,877.5257319926671,882.6942488149824
2417140,-109.14482657801238,-103.97630975569697
3311328,-45047.99752898327,-45042.82901216096
3473673,20160.599886544227,20165.76840336654
3072483,1957.7103746536234,1962.8788914759389
3428163,-4702.592496753632,-4697.423979931317
2638514,-3773.3400189968506,-3768.171502174535
3246551,-43619.76191174392,-43614.5933949216
1370305,-3221.72120263224,-3216.5526858099247
1762561,-3576.232421857315,-3571.0639050349996
1399410,-4372.580735360608,-4367.412218538293
307555,20336.53932274852,20341.707839570834
2993985,-3947.931441833231,-3942.7629250109158
252918,-1590.5776077733485,-1585.4090909510332
3938709,-13194.869457009143,-13189.700940186827
1963295,-2655.690981390809,-2650.522464568494
3253488,-5017.4596978806685,-5012.291181058354
1845530,5117.3897519038255,5122.55826872614
804286,1.470194886835019,6.638711709150434
3095233,379.66347402918063,384.8319908514961
435741,-5567.173995816825,-5562.00547899451
1123536,1017.1132960434543,1022.2818128657697
2423552,-4418.417773791196,-4413.249256968881
3043256,-44892.3342028749,-44887.16568605258
257524,18427.89939295944,18433.067909781756
1707794,376.1746324614436,381.34314928375903
1890186,3254.2018868562536,3259.370403678569
808347,-44461.80302352678,-44456.63450670446
296958,-614.3977251222199,-609.2292082999045
3759784,-5054.470896835959,-5049.302380013644
2804824,-1067.6585593500536,-1062.490042527738
1755357,-1602.4957207354316,-1597.3272039131161
3009882,-44600.33995710744,-44595.17144028512
1612620,-6910.83511029017,-6905.666593467855
3004895,-1454.924215579222,-1449.7556987569064
2017374,-4683.654424337707,-4678.485907515392
2944133,178.29201827808137,183.46053510039678
341793,-2747.5233497779636,-2742.3548329556484
3273626,-6389.741217076187,-6384.572700253872
392986,-3936.9490816562534,-3931.7805648339377
913405,865.9725059935191,871.1410228158345
453130,-1498.0554465989617,-1492.8869297766462
1038303,-2543.0970922570327,-2537.9285754347175
3328089,-3902.745060576214,-3897.576543753899
3702317,-4834.274213682337,-4829.105696860022
1578951,1801.297441511243,1806.4659583335585
2693341,19930.386753606712,19935.555270429024
3394933,-8230.644208779362,-8225.475691957046
3038985,-46464.487600101646,-46459.31908327933
1943400,-2784.6303374333434,-2779.4618206110276
1402834,9862.127706078389,9867.296222900704
642691,20440.41547072408,20445.583987546393
3727800,-5233.370489590339,-5228.2019727680245
2769395,-4060.2891979267865,-4055.1206811044717
2228810,-2858.703572140943,-2853.5350553186277
2558879,-3497.096099700352,-3491.9275828780364
3041105,-2925.0999507804113,-2919.9314339580956
1793091,-43595.86445581822,-43590.6959389959
1195107,-38.78536856415253,-33.61685174183712
1910400,1555.4374167256763,1560.6059335479918
1906732,3046.335493974453,3051.504010796769
2715141,-1574.5772517202834,-1569.4087348979679
387383,-4152.196840954288,-4147.028324131972
510021,-7318.285535929873,-7313.117019107557
3098373,-216.89883576941958,-211.73031894710414
1082335,26527.4269165771,26532.595433399416
3684444,-2316.825112803817,-2311.656595981501
3783573,-46108.9465749764,-46103.77805815408
1215943,4663.944256259608,4669.112773081923
1792203,-2841.644366692711,-2836.475849870396
2679491,-6999.194239223413,-6994.025722401098
3701017,-1276.580137890793,-1271.4116210684774
1024591,-45353.92558306055,-45348.75706623823
3112306,-45119.28476466234,-45114.11624784002
1349526,18888.751076685552,18893.919593507868
3280841,-46178.09964842028,-46172.931131597965
1765235,-856.7339222023028,-851.5654053799875
2215084,1163.0413635246748,1168.20988034699
641046,-7795.969176729788,-7790.800659907473
1117803,-620.5991109707982,-615.4305941484828
3514174,20031.797172337978,20036.965689160294
2449949,-2000.4855035758314,-1995.316986753516
655674,-3887.347283365419,-3882.178766543104
2542189,24335.24899601505,24340.41751283736
2684203,-4990.812825500695,-4985.64430867838
2886799,-3984.2624769436634,-3979.0939601213486
3750340,-3501.180599222441,-3496.0120824001256
2503977,-42761.4049807264,-42756.23646390409
1969208,-6055.761133078917,-6050.592616256601
1946391,8120.260635951375,8125.4291527736905
1985948,-42681.07987140031,-42675.91135457799
681828,-898.3865750228,-893.2180582004846
651238,-1591.3246246211402,-1586.1561077988247
249799,-1020.1655087463164,-1014.9969919240009
3474500,-41492.36953927177,-41487.20102244945
3431745,-4455.066028692252,-4449.897511869937
2782388,3864.472240684356,3869.640757506672
949356,1171.8183944653451,1176.9869112876606
3508208,-3577.0223642649676,-3571.8538474426523
880485,949.9509970080455,955.1195138303608
1907920,-1367.470428386243,-1362.3019115639274
870494,17781.15463770692,17786.323154529236
2812416,-2584.788146445117,-2579.6196296228013
1724413,2028.631712127426,2033.8002289497415
1456423,1142.719179952105,1147.8876967744202
839741,-5680.071413761961,-5674.902896939646
3504958,-45544.60637496406,-45539.43785814174
951733,-2673.3169610195146,-2668.1484441971993
2509243,-45922.517185260105,-45917.348668437786
1822408,5201.979910200351,5207.148427022666
1298697,-671.2914214913353,-666.1229046690199
209375,-3914.97539110198,-3909.8068742796645
3267614,-1913.1825636196156,-1908.0140467973001
2672613,-1584.0183930536134,-1578.849876231298
213479,3506.377718796834,3511.5462356191497
2971129,-46825.29462778124,-46820.126110958925
2436581,-33132.569622941905,-33127.40110611959
1660438,-4538.771443512517,-4533.6029266902015
1845792,3349.627841088988,3354.796357911304
2104535,-1841.2820220580254,-1836.11350523571
1906527,13659.908691294022,13665.077208116338
3264693,-4843.927907872875,-4838.75939105056
1413559,-758.7143816316451,-753.5458648093297
560363,-6016.32321465979,-6011.154697837475
3473111,-40018.06794351334,-40012.89942669102
3262715,-1849.8331634867948,-1844.6646466644793
3044993,-3275.7656617952157,-3270.5971449729004
2679308,-1273.5426797919763,-1268.3741629696608
1746593,-86.10823937846054,-80.93972255614511
1539745,-45226.911442860874,-45221.742926038554
3179071,-1788.2326702177484,-1783.064153395433
2475764,-1296.759822934742,-1291.5913061124265
1889846,-962.4447316707679,-957.2762148484525
2811306,-786.8804940245388,-781.7119772022235
2810820,-44641.38537936227,-44636.21686253995
3213083,-9567.030035210053,-9561.861518387737
2413213,-2772.821074301613,-2767.6525574792977
1809620,2813.3066114764065,2818.475128298722
238411,-43946.40640752179,-43941.23789069947
729778,-2527.061112601346,-2521.89259577903
3226872,-44510.554180119354,-44505.38566329704
3454161,-4028.8174763864963,-4023.648959564181
943301,3178.4887290500897,3183.657245872405
2844881,97.23036791595993,102.39888473827536
839262,-2813.0987083185996,-2807.9301914962844
1158074,-1302.9448454122223,-1297.776328589907
3954379,-5602.8952565022055,-5597.72673967989
2135177,-44576.6180437098,-44571.44952688748
1163930,4015.867832260375,4021.03634908269
3204202,2170.4724872364172,2175.641004058733
265031,-1472.65967539428,-1467.4911585719647
2481552,-1347.1838960628604,-1342.015379240545
746804,-4054.5116006599574,-4049.343083837642
1117269,-44500.73808194721,-44495.56956512489
3314388,-4387.385608980251,-4382.217092157935
3183037,-4156.394666940021,-4151.226150117705
3103520,-2064.7698163832965,-2059.6012995609813
2947072,-5449.373264486558,-5444.204747664242
985342,785.8657318510249,791.0342486733402
2421259,-776.5247239226583,-771.356207100343
1995815,761.1063562379953,766.2748730603107
2043081,-46615.622788056105,-46610.45427123379
2706266,9060.854326093948,9066.022842916263
563601,-892.7619866445208,-887.5934698222054
848276,-1130.4799871154626,-1125.3114702931473
1218870,-372.0564158159997,-366.88789899368425
1707177,666.1218638088487,671.290380631164
3070725,12191.883413100753,12197.05192992307
1012596,-4920.746794692828,-4915.578277870513
2008349,3135.031402525428,3140.199919347743
3417079,-3449.6581473799156,-3444.4896305576
2889236,-3345.2453403088825,-3340.0768234865673
1563353,-45518.33112962071,-45513.16261279839
3197396,-1861.7515205949435,-1856.583003772628
3303438,-4736.084013074104,-4730.91549625179
2622763,13109.69066615733,13114.859182979648
1407168,-8153.6853468021,-8148.516829979784
747376,-46188.70856531985,-46183.54004849753
2998915,-42513.07025010145,-42507.90173327913
2997633,-2203.867125470175,-2198.6986086478596
3296428,8446.915181386159,8452.083698208475
813639,-4682.418388179891,-4677.249871357576
1474968,-5587.158799476926,-5581.990282654611
2826338,4225.657779007057,4230.826295829372
2643406,7941.931432363624,7947.099949185938
538198,-1903.2973852853067,-1898.1288684629912
2641516,-20645.66000067278,-20640.491483850466
3724302,2112.2093890404403,2117.3779058627556
3955323,-1285.1941631492596,-1280.025646326944
2266092,-2488.807567176207,-2483.639050353892
2019213,2494.964348538562,2500.1328653608775
927505,-43073.18911511683,-43068.02059829452
2789362,-1113.7506132515534,-1108.582096429238
3277967,-903.4713042625108,-898.3027874401955
3090574,-1326.1321322296144,-1320.963615407299
2750169,597.1452068239544,602.3137236462696
2570983,4114.839159228537,4120.007676050853
2539068,-3215.161370977417,-3209.9928541551017
2873150,23849.16031121571,23854.328828038026
915266,-39823.856944875566,-39818.68842805325
1611707,-1820.7714836066523,-1815.6029667843368
2517807,-526.8867434915828,-521.7182266692676
2979361,-3066.5872942508445,-3061.4187774285288
2205718,-1018.275511438016,-1013.1069946157005
2617999,-4786.101984275759,-4780.933467453444
1202236,2351.127810734931,2356.2963275572465
456659,-42899.3814055153,-42894.21288869298
3238185,-2116.8582386057938,-2111.689721783478
1507151,-6937.8461952327625,-6932.677678410448
2762953,-6015.458711949705,-6010.29019512739
560871,-16913.090166776004,-16907.92164995369
194798,3638.118943868069,3643.2874606903847
447148,-2164.7624083656337,-2159.5938915433185
1300200,23084.81654979225,23089.985066614565
3473254,-2923.389530834487,-2918.221014012171
2249126,1763.120605453325,1768.2891222756405
3725452,-3394.7572816051384,-3389.588764782823
464138,-1857.0957787688333,-1851.9272619465178
3198730,-6171.997153424796,-6166.828636602481
568515,6667.794984050369,6672.963500872684
1324734,-1303.4150217909587,-1298.2465049686432
1869064,-1482.8663083875667,-1477.6977915652512
3164688,2439.8198123443335,2444.988329166649
3446570,-7817.340657236499,-7812.1721404141845
2710046,816.1923472870801,821.3608641093955
682043,-845.7156539183668,-840.5471370960514
848410,-1931.5492811893644,-1926.3807643670489
1388784,2452.070426303607,2457.238943125922
1321884,-1417.551854871679,-1412.3833380493638
1599863,-2157.4123340439774,-2152.2438172216616
1332234,-46506.77658652224,-46501.60806969992
3189857,-253.3260800456801,-248.15756322336466
466862,2151.7953829375756,2156.963899759891
944243,1863.8135615500023,1868.9820783723176
3097499,3406.837618959459,3412.006135781775
730760,6153.164028309539,6158.332545131854
2402721,-5708.4916278403125,-5703.323111017997
576082,3518.4148350954756,3523.583351917791
585797,-46149.38919933635,-46144.22068251403
555764,-10120.823747213253,-10115.655230390938
1586401,-4298.443957195885,-4293.275440373569
2256146,1810.73844583906,1815.9069626613752
2126412,4324.402925109357,4329.571441931672
1298953,-4406.968828162624,-4401.800311340309
3367468,-1061.7798627645825,-1056.611345942267
347796,-6469.422392746186,-6464.253875923871
2920528,-574.0447752030329,-568.8762583807177
2711824,-44134.898718182194,-44129.73020135988
901134,-44927.77188649201,-44922.60336966969
1695167,-2981.317628532066,-2976.1491117097507
2402559,1776.299335601767,1781.4678524240826
3344085,-1385.2994150972445,-1380.130898274929
2151965,-1767.9418551991785,-1762.773338376863
1096179,-28183.52738899898,-28178.35887217667
2002442,5955.149357366182,5960.317874188497
807960,-1874.1887725621725,-1869.020255739857
2199495,-1023.6542528172072,-1018.4857359948918
891601,-430.0979875344672,-424.9294707121518
517424,-46108.055179080126,-46102.886662257806
849284,-2179.372536853754,-2174.2040200314386
3144968,-5298.088298647129,-5292.919781824814
2220568,-1678.234409555032,-1673.0658927327165
1678993,1188.1721230275482,1193.3406398498635
1570260,-4253.159171637174,-4247.990654814858
488596,961.4581595595376,966.626676381853
3755924,-365.51641592993053,-360.3478991076151
1813447,4343.080037953118,4348.248554775433
1642273,5237.2689023714065,5242.437419193722
2571013,-1285.1950806496977,-1280.0265638273822
2999469,-2519.6228191026603,-2514.4543022803446
3898589,-5998.904576781171,-5993.7360599588565
1662684,-1011.517062556038,-1006.3485457337225
813788,14109.332140412193,14114.500657234508
3384046,-2328.716145073621,-2323.547628251306
591123,-1584.7111519947985,-1579.542635172483
2111698,-935.6184467071562,-930.4499298848409
270404,-1477.2081742068476,-1472.0396573845323
3303288,3950.593292380575,3955.76180920289
3663895,-2051.1120104245733,-2045.9434936022576
649747,-37939.50862674227,-37934.34010991995
1743595,7043.948921279962,7049.1174381022765
3548056,-333.18875052241174,-328.0202337000963
223220,7109.628189630013,7114.796706452329
3386340,-2592.095721144412,-2586.9272043220963
2785153,1718.9561839601931,1724.1247007825086
751595,-4080.315330431452,-4075.1468136091366
2574759,-654.9185561426311,-649.7500393203158
492182,1597.6662397158746,1602.83475653819
3270517,920.1057468996744,925.2742637219897
2620874,-1442.8614139522565,-1437.692897129941
3299705,-5015.074175664269,-5009.905658841954
2194007,-2501.236299321971,-2496.067782499655
740068,-84.8819874026517,-79.71347058033628
1528167,-44944.94707193817,-44939.77855511585
1234943,-5288.658957604669,-5283.490440782353
832029,-1270.8414221033893,-1265.6729052810738
1297641,7700.380855177896,7705.5493720002105
3187754,-1242.292524763026,-1237.1240079407105
2937401,-2298.8561606139965,-2293.6876437916812
3776207,-43424.03166828308,-43418.86315146077
3143696,-896.6750198231919,-891.5065030008766
372099,3683.6177634702285,3688.786280292544
1679258,-9343.814610348758,-9338.646093526442
3464883,8086.770103797139,8091.938620619456
3007895,508.9466374148311,514.1151542371465
3664748,-2753.546895237503,-2748.3783784151874
3123842,-46957.768752866235,-46952.60023604392
408767,-2113.7069386141175,-2108.5384217918017
1338328,3765.8211902144913,3770.9897070368065
3406686,-45883.48039001323,-45878.31187319091
1477758,-1477.0688126183434,-1471.9002957960279
2545146,-5953.903635512548,-5948.735118690233
3855458,322.83496631918104,328.0034831414965
2780229,-587.3445502984025,-582.1760334760872
3096529,-5845.514900717268,-5840.346383894953
802841,577.604386690899,582.7729035132143
500524,6485.228489751765,6490.39700657408
3483847,-846.9315957752235,-841.7630789529081
242633,-4044.0494280672497,-4038.880911244935
599565,22498.743642206337,22503.912159028652
2246705,-45163.15176113964,-45157.98324431732
1335067,-3427.3148556386864,-3422.146338816371
1272824,-4592.505523286902,-4587.337006464587
3314500,8126.092177143397,8131.260693965713
823411,-4899.765664687465,-4894.59714786515
1966233,-2121.2209295694347,-2116.0524127471194
2595677,1149.676312451069,1154.8448292733844
2525300,34190.31916359269,34195.48768041501
3468606,-5049.765487676717,-5044.596970854403
3431234,-9718.117838064009,-9712.949321241691
2787463,-42223.90196111553,-42218.73344429321
1435759,-2967.747629441812,-2962.5791126194968
3665592,-5845.678772777818,-5840.510255955503
2987324,8889.671012491352,8894.839529313667
2886734,-3609.616355495284,-3604.447838672969
3273242,-8688.050149579014,-8682.881632756698
2605664,-1998.7452761933744,-1993.5767593710589
3476216,3157.289274107935,3162.45779093025
1544827,-7662.724303169515,-7657.5557863472
3342495,-5854.725230003054,-5849.556713180739
1468761,-2465.047548779427,-2459.8790319571117
527618,-44526.5610238901,-44521.39250706778
1544741,1977.8202189826002,1982.9887358049157
2746400,-43997.06147171061,-43991.89295488829
3017000,-7313.181325174874,-7308.012808352558
1154417,1943.5748554946845,1948.7433723169997
693312,-439.83557480897,-434.6670579866546
3239617,-5120.644964039786,-5115.47644721747
1343680,-46673.73641564334,-46668.56789882102
3435968,-6291.926564860968,-6286.758048038653
2684910,-1217.5306471946924,-1212.3621303723771
1218521,-831.2803935965255,-826.1118767742103
1021804,-3012.2064749005376,-3007.037958078222
3721111,-2189.1466684163474,-2183.978151594032
3686994,-8023.425253700875,-8018.256736878559
2613656,-1428.973428675208,-1423.8049118528927
2834733,-619.9826412952535,-614.8141244729383
2406794,9985.461217087688,9990.629733910004
547464,-371.40660041244786,-366.2380835901324
3914220,-4119.267216959496,-4114.098700137181
3930913,-44331.176261896915,-44326.007745074596
2789945,-1638.3727152130311,-1633.2041983907156
1402220,-3294.780328639371,-3289.6118118170557
2574379,-20877.883546982597,-20872.71503016028
1491335,-2536.5530193409113,-2531.3845025185956
979608,-2046.204090725892,-2041.0355739035765
2244739,4833.722079806434,4838.890596628748
1980385,-4292.929817960935,-4287.761301138619
3124774,-31499.61557378749,-31494.44705696518
1046196,-4209.623620241121,-4204.455103418806
3884916,-5521.430558394531,-5516.262041572215
870619,-3688.9049392282577,-3683.7364224059424
225025,-514.6050241223268,-509.43650730001144
3483600,-1963.1231642033015,-1957.954647380986
2127366,-4526.219504798904,-4521.05098797659
2825150,-1299.584749651427,-1294.4162328291116
1644449,-44828.81233341491,-44823.643816592594
3302265,589.9288661998555,595.0973830221708
3019223,-799.2128382170998,-794.0443213947844
3168480,-2232.2972425378725,-2227.128725715557
3930704,-4954.714554553952,-4949.546037731637
1422868,-7086.016792204699,-7080.848275382385
2844133,-1837.9241640939363,-1832.7556472716208
1663801,-6744.744378213087,-6739.575861390771
477997,271.8382857666279,277.00680258894334
3228516,-3697.4823981184572,-3692.313881296142
2012783,10394.15738599964,10399.325902821956
3177327,-9095.24355456103,-9090.075037738714
862219,-5510.523663187583,-5505.355146365268
3545333,2874.171155134019,2879.3396719563348
2011082,4659.529261965343,4664.6977787876585
1326416,3389.3983017919277,3394.5668186142434
3682908,9399.861218721622,9405.029735543938
2256323,3179.5362029779994,3184.7047198003147
2208249,-1359.3932587294344,-1354.2247419071189
662391,-1022.1379944817352,-1016.9694776594197
558775,2771.5586629840745,2776.7271798063903
446839,-3122.228440038783,-3117.0599232164673
1778588,9333.754886225153,9338.923403047469
3785742,-3215.6653187184347,-3210.4968018961195
1979819,-3449.9457291592053,-3444.77721233689
3538376,-3002.945867486533,-2997.777350664218
1479102,-4095.3509253523985,-4090.1824085300836
2845110,-5097.216763235311,-5092.048246412996
1472640,-9639.771660357464,-9634.603143535149
1135288,1858.2497532326834,1863.4182700549989
1984999,-2237.6027081072198,-2232.434191284904
1081281,19273.726844423003,19278.895361245315
3500432,-963.7175845994971,-958.5490677771817
3450308,-905.1736383300026,-900.0051215076872
418456,-2082.0249646338307,-2076.8564478115154
1417631,-3032.3123934026444,-3027.143876580329
1147521,580.6087993006233,585.7773161229386
1723495,-42476.08527809559,-42470.91676127328
1610819,-1405.4336205527698,-1400.2651037304543
861302,-836.9186466774376,-831.7501298551223
1610986,-3650.512389553334,-3645.343872731018
599394,3671.8003965978473,3676.968913420163
3405845,-1099.6052828743318,-1094.4367660520163
3191938,20.86991529507825,26.038432117393665
2721069,3228.269068188586,3233.437585010902
2685571,-2788.582636376192,-2783.414119553877
860480,-2184.4548558298643,-2179.2863390075486
3666186,3456.391930399047,3461.560447221362
3306270,-3205.7631804343937,-3200.5946636120784
1147789,3095.8486405776503,3101.0171573999655
3522026,-1977.6035754679995,-1972.435058645684
2709098,-32119.40576362072,-32114.237246798406
1320854,214.70848538558826,219.8770022079037
1848965,-2373.910832491141,-2368.7423156688255
1337311,-2568.138909348297,-2562.970392525982
1298744,-41552.584345125775,-41547.415828303456
1747516,1456.9250844680807,1462.0936012903962
2042771,-2424.80552673874,-2419.6370099164246
948970,1902.942468698595,1908.1109855209104
649360,-5143.00111571105,-5137.832598888735
1285135,-3615.008341204448,-3609.8398243821325
600573,18145.163284767907,18150.33180159022
1622347,-6847.83447950503,-6842.665962682714
3394397,-1511.3159855754634,-1506.147468753148
2806241,20980.33380419699,20985.502321019303
2597301,2548.973353951146,2554.141870773461
3938899,-4269.345993435271,-4264.1774766129565
981895,-1176.5545262814935,-1171.386009459178
510561,2829.305191030506,2834.4737078528215
3432120,3367.007133350636,3372.1756501729515
1698599,-5464.570017896444,-5459.401501074129
1392693,-8059.2883733116705,-8054.119856489354
1949434,1424.0930217492855,1429.2615385716008
2676385,-1720.1201040019157,-1714.9515871796002
3548579,-2603.6234214364513,-2598.4549046141356
3796596,-5620.525812550583,-5615.357295728269
3243490,-42638.282706514954,-42633.11418969264
1709027,21185.471361905922,21190.639878728234
540496,-4800.29056038942,-4795.122043567105
3198915,2014.2362220905597,2019.4047389128752
981963,-834.8679455263988,-829.6994287040834
2937480,-5477.40442704087,-5472.235910218556
440351,-1570.0746310127583,-1564.9061141904428
1744724,-47086.10523773853,-47080.93672091621
1246563,11747.504870411565,11752.673387233883
233602,1571.917951424471,1577.0864682467866
2420756,-28778.682698371013,-28773.5141815487
2887960,-4855.535430186836,-4850.366913364521
2991149,-9352.690377710927,-9347.52186088861
2531479,-4514.563968414386,-4509.395451592071
699579,-3622.045209796578,-3616.8766929742624
1960213,5623.067201021431,5628.235717843746
1473131,-31362.77967012821,-31357.611153305894
1893789,-3300.599690637573,-3295.431173815258
499881,-4518.282740513623,-4513.114223691308
724966,22112.64729837212,22117.815815194437
3533176,-2014.1556039519255,-2008.98708712961
2006261,-45614.82997515067,-45609.66145832836
2758286,-44031.110032869394,-44025.94151604708
1817550,-1358.5321821108423,-1353.3636652885268
805474,-1952.977050129388,-1947.8085333070726
3052914,-1917.9073519338644,-1912.738835111549
402922,-3026.7030482200676,-3021.5345313977523
2455024,-45699.794308467266,-45694.625791644954
619688,-6391.558187884836,-6386.38967106252
1422052,-44455.455626027855,-44450.287109205536
556334,-701.270457159546,-696.1019403372308
256276,-1442.0832621018699,-1436.9147452795544
3000656,-3382.413800422256,-3377.2452835999406
1763705,-5718.555234903845,-5713.3867180815305
642685,-344.0902691334498,-338.92175231113436
1046121,1802.7339811726315,1807.902497994947
1061553,2018.0537618081878,2023.2222786305033
2063526,-46416.271713734786,-46411.10319691247
736877,1159.2725568350006,1164.4410736573159
654049,-41938.51498090426,-41933.34646408195
1391076,-46455.02644847699,-46449.85793165467
3300525,-120.68867618356033,-115.52015936124492
3706966,-6450.037077470241,-6444.868560647925
3686085,97.45848244366972,102.62699926598513
1354652,17785.783926891,17790.95244371331
2631519,-918.9076853891626,-913.7391685668473
727453,-41972.861886961946,-41967.69337013963
1502081,-4479.969384745947,-4474.800867923632
1892320,1537.4114902766194,1542.5800070989349
3674411,19294.050930559282,19299.219447381598
1439084,4439.387070535492,4444.555587357807
2888753,-1161.5897711109394,-1156.421254288624
2239052,56.3450404756366,61.51355729795201
3526129,477.8682108640215,483.0367276863369
3349385,-43979.16123116319,-43973.99271434087
2908519,-20358.804808636112,-20353.636291813797
341716,17100.10735972966,17105.275876551972
3118931,192.990203477102,198.1587202994174
2466109,-46145.99643580476,-46140.82791898244
2484382,1844.4024032944646,1849.5709201167801
379590,-5074.88705843306,-5069.718541610745
3320963,-7190.911029999562,-7185.742513177247
2627023,-20879.802229233264,-20874.63371241095
2195128,-1283.8261619708853,-1278.65764514857
2212422,-297.4140617386279,-292.24554491631244
1210115,-1495.541673961858,-1490.3731571395424
3144140,-1318.2747537565394,-1313.1062369342242
2528061,-3710.8931896371478,-3705.724672814832
3454334,-4386.380358228184,-4381.21184140587
2511540,-5105.089491726714,-5099.9209749043985
382249,-1856.7827961994906,-1851.614279377175
3153153,-8004.199417105473,-7999.030900283157
1892637,-44124.4028304449,-44119.23431362258
1971304,-6803.628646706168,-6798.460129883853
3260239,-1630.2844949330547,-1625.1159781107392
2543277,-4377.614862425975,-4372.446345603659
1433643,-46256.83660757134,-46251.66809074902
1727641,23226.108838470707,23231.277355293023
461274,-2509.257049680291,-2504.0885328579757
2186989,-45683.994737302215,-45678.826220479896
3879577,-2021.4745130854321,-2016.3059962631166
1845492,5080.03608176681,5085.2045985891245
2596412,-4052.1149178205033,-4046.946400998188
1445263,-45786.82834765588,-45781.65983083356
3491195,1062.4604615821893,1067.6289784045048
478299,-523.1458547618236,-517.9773379395083
3949352,-7037.05188026631,-7031.883363443995
294459,1994.5244385986584,1999.692955420974
2047300,-1655.1931407107556,-1650.0246238884401
654576,976.6237813438954,981.7922981662108
3532577,-5169.675488971813,-5164.506972149497
2212037,-2792.5131831309805,-2787.3446663086647
1274979,-1503.745536943619,-1498.5770201213036
3233772,-1616.1703980525788,-1611.0018812302633
2416394,3374.127356639158,3379.2958734614735
2682901,-705.4972071035369,-700.3286902812216
1316513,-3239.1527958432684,-3233.984279020953
3758816,-2632.0322153229417,-2626.8636985006265
3140606,-4462.080193002491,-4456.911676180176
1268366,-43443.25225508422,-43438.0837382619
1745936,-3057.425390805686,-3052.2568739833705
844465,-3275.1423051021197,-3269.9737882798045
1584597,-46460.98254145077,-46455.81402462845
959870,-45298.03902631194,-45292.87050948962
2225253,-44718.224310072605,-44713.055793250285
2196925,-31220.99047329109,-31215.821956468775
657762,-45860.553330944604,-45855.38481412229
984902,-45851.5423493466,-45846.37383252428
2561948,18461.050028277492,18466.218545099804
2922481,-9075.406498644312,-9070.237981821994
1551368,-42838.99008278684,-42833.82156596452
2017336,-225.68372122013022,-220.51520439781478
3663532,2915.5419231781307,2920.7104400004464
3941415,-881.1526900061003,-875.9841731837851
2395747,-11758.974102028025,-11753.80558520571
279179,4226.9259360295355,4232.09445285185
3075535,-1743.017913994123,-1737.8493971718076
1232690,-208.6225771002296,-203.45406027791418
285712,1578.3428868581589,1583.5114036804744
3281047,-9152.262323652045,-9147.09380682973
1163368,-848.7419574803597,-843.5734406580444
3702330,8077.272145785157,8082.440662607472
3131870,3984.3413649595764,3989.509881781891
2869911,-42537.56497878311,-42532.396461960794
3900229,-2423.5614928696696,-2418.3929760473543
912790,-1862.6901336520716,-1857.521616829756
1062962,8572.10943074316,8577.277947565475
3007953,3021.2289814538426,3026.397498276158
511166,-1272.9050833330787,-1267.7365665107632
309759,1069.7703047141547,1074.9388215364702
1965137,-4887.162692956358,-4881.994176134043
3194654,-1380.0270091606492,-1374.858492338334
2624043,990.2964945015377,995.4650113238531
1417986,-1407.1969706065245,-1402.028453784209
1606708,-750.3488315230591,-745.1803147007437
392965,5273.023621548247,5278.192138370562
1165041,1224.9922044495122,1230.1607212718277
233825,-2108.4715740493525,-2103.3030572270372
3943987,-4920.566256679199,-4915.397739856884
367651,-2298.1907150563165,-2293.022198234001
2525857,-388.61784751971084,-383.4493306973954
2912083,3338.340910427046,3343.509427249361
593694,-3912.5474453095694,-3907.378928487254
489734,-4225.67986772816,-4220.511350905846
2732436,-7250.41373438167,-7245.245217559355
3202569,-4255.72039543528,-4250.551878612965
565281,-2421.3549685108765,-2416.1864516885607
2266816,-1460.0076293416055,-1454.8391125192902
2616801,11278.787397016,11283.955913838316
3351723,9811.874936539827,9817.043453362143
1862234,4295.889134002576,4301.057650824891
987742,-1768.8653261358847,-1763.6968093135692
2281759,3820.0281584773443,3825.19667529966
1066174,-43360.72049648261,-43355.55197966029
841866,16152.777834071463,16157.946350893777
751189,-654.9312690605676,-649.7627522382522
1298820,-5428.673927756609,-5423.505410934294
3272188,-2193.7101370025093,-2188.541620180194
656842,21765.642321114534,21770.81083793685
3714868,-4531.862320101612,-4526.693803279297
2906151,20211.27151914556,20216.440035967873
2773099,-5754.501529965829,-5749.333013143514
964989,-8629.124086119382,-8623.955569297066
3501787,-4895.642547204186,-4890.474030381871
2058767,-3045.2826703076685,-3040.114153485353
366987,-1112.9143279806628,-1107.7458111583476
2276229,-98.49236610730377,-93.32384928498836
255358,-1605.8481575834285,-1600.6796407611132
3072967,-46181.828645137204,-46176.660128314885
3255951,-4371.0640966100955,-4365.89557978778
2195004,-44347.91759068748,-44342.74907386516
450427,33630.424897469566,33635.59341429188
334842,-1638.8237589335315,-1633.655242111216
2752162,-6697.331845231335,-6692.163328409019
3313405,-1683.320111614954,-1678.1515947926384
2548830,-3892.5226007369674,-3887.354083914652
1459009,-41601.44955883893,-41596.28104201662
380644,-4622.025670948184,-4616.857154125869
2652227,5155.17806458651,5160.346581408825
3169642,-46480.90881479314,-46475.74029797082
2402300,-1058.6339678611946,-1053.465451038879
653205,-5570.364383137075,-5565.19586631476
3160483,-2372.027150092999,-2366.8586332706836
507402,-232.90342646127877,-227.73490963896336
1284012,-4473.9097425995315,-4468.741225777216
3872125,-3922.3870509808507,-3917.2185341585355
2763507,-46651.11648941293,-46645.94797259061
3454320,-5425.554807000258,-5420.386290177943
1505609,-3099.628509245014,-3094.459992422698
1299940,232.05614939919766,237.22466622151308
3187065,1292.1975551245966,1297.3660719469121
2251339,-45174.76607225554,-45169.59755543322
1421545,4168.529873617899,4173.698390440214
2134006,-47305.93884507983,-47300.77032825751
891680,-4787.976786013489,-4782.808269191174
3737580,-2542.246610301247,-2537.078093478932
3085914,8402.163625402474,8407.33214222479
3737248,-4416.091536709447,-4410.923019887132
3154885,-126.39134334619962,-121.22282652388422
1670231,-43405.5815918698,-43400.41307504748
2060723,-2325.8001541175163,-2320.631637295201
2269513,-45491.508691874296,-45486.34017505198
1150052,22563.972530291983,22569.141047114295
688434,-5716.196205675337,-5711.0276888530225
2999424,-161.16393636207974,-155.99541953976433
1444649,-6130.486592665352,-6125.318075843037
1623477,-39710.135511036635,-39704.966994214315
2629743,-2787.546739174855,-2782.3782223525395
3347850,492.27784080684984,497.4463576291653
2184276,-5595.239370997592,-5590.070854175277
1788210,-5719.3012554220695,-5714.132738599755
3445056,-4225.318007454289,-4220.149490631974
3518487,-1894.6766907887402,-1889.5081739664247
2985439,-3765.4312857556374,-3760.262768933322
1912608,3222.462410665523,3227.630927487838
3279250,23832.169944198835,23837.338461021147
935984,-8053.1517384771205,-8047.983221654805
2989349,-308.2094521828886,-303.04093536057314
2879807,-1133.933338610548,-1128.7648217882324
3357522,-44675.46681576724,-44670.29829894492
2279121,-2793.8625666088146,-2788.6940497864994
924697,-768.3068187886083,-763.1383019662929
1566819,-46623.72355953326,-46618.55504271095
632708,-364.52268114022445,-359.354164317909
1079362,-6162.254563944642,-6157.086047122327
2449331,-4403.369822089358,-4398.201305267043
1712780,-46636.5933355457,-46631.42481872338
1756855,11392.29334083956,11397.461857661876
687030,-2648.175839219802,-2643.007322397487
2422721,-4436.241907583686,-4431.073390761371
506484,-481.1650541575663,-475.9965373352509
1716148,15292.038822091468,15297.207338913784
1914618,-3275.6324306828496,-3270.4639138605344
886275,2319.948165966839,2325.1166827891548
921675,-31813.94680647012,-31808.77828964781
222528,1552.6724534699547,1557.8409702922702
2279842,-3029.632335199103,-3024.463818376788
2417064,-580.9353001360718,-575.7667833137564
336540,-6776.027731798282,-6770.859214975966
1442256,611.3353998066016,616.5039166289168
3162370,2346.2740663200157,2351.4425831423314
3214499,-45651.56895031014,-45646.40043348782
2264456,-2996.2345878127344,-2991.066070990419
2982223,-252.7304527017445,-247.56193587942903
3019901,694.1953121409049,699.3638289632202
1063118,-2633.3234961015705,-2628.1549792792553
3543853,-3206.797627515863,-3201.629110693548
3899497,-5722.828567234823,-5717.660050412508
3195722,-123.53086301903683,-118.36234619672142
2887630,-5313.635966542204,-5308.467449719889
3781543,-2962.790399739641,-2957.6218829173254
2563936,-1725.1588815462833,-1719.990364723968
3449911,-5846.582962559986,-5841.4144457376715
1606021,-45794.55648750065,-45789.387970678334
985864,-46103.03770518692,-46097.8691883646
248506,-2695.8672873100268,-2690.6987704877115
3169433,-894.7419257066756,-889.5734088843603
1621914,5851.7400450654995,5856.908561887814
896364,1290.7090568493336,1295.877573671649
1472132,-5597.242396350306,-5592.073879527991
1123991,-3591.9927875377416,-3586.8242707154263
3364195,-1228.7022438996507,-1223.5337270773352
3500903,-5760.183381171818,-5755.014864349502
414927,-11069.894506720257,-11064.725989897941
3861890,-3016.218418591467,-3011.049901769152
2972800,-20370.41206417346,-20365.243547351147
2945553,-41751.41644130736,-41746.24792448504
623535,879.3041788962323,884.4726957185477
2193944,3801.8591714686536,3807.027688290969
3261743,-5642.666139497242,-5637.497622674926
2858719,313.1526926909923,318.32120951330774
1733927,-46870.82112168461,-46865.6526048623
3200378,-44471.56233080568,-44466.39381398336
3227068,22651.611877955107,22656.780394777423
3837419,-4680.885355665579,-4675.716838843264
3432314,3797.764334973432,3802.9328517957474
3412504,-47033.30179072818,-47028.13327390586
572590,18004.60584806851,18009.774364890825
1347236,-1290.1326747672788,-1284.9641579449633
381280,1548.4525992616225,1553.621116083938
3730508,-16747.715707163352,-16742.547190341036
3849409,36199.2685597533,36204.43707657562
2435297,2501.2418467413904,2506.4103635637057
882955,-45813.135543429504,-45807.967026607184
3077559,343.005138444565,348.1736552668804
1465092,4884.0424732414585,4889.210990063773
3334298,4916.208366074414,4921.376882896729
690726,-5811.398131993647,-5806.229615171333
940618,-3263.4342175837787,-3258.2657007614634
866252,-4562.644799969227,-4557.476283146912
435535,-1240.567953877219,-1235.3994370549035
803893,-7374.110098210094,-7368.9415813877795
1330299,-4108.993372636215,-4103.8248558139
3912369,9785.34580504765,9790.514321869965
1965690,-716.0297543459466,-710.8612375236312
1949064,-3749.2895447382684,-3744.121027915953
256350,-5585.998608704819,-5580.830091882504
1587575,-1550.1324789297707,-1544.9639621074552
2606932,-3605.84682991399,-3600.678313091674
2582095,-1815.3573573741849,-1810.1888405518694
1163392,262.6456125749542,267.8141293972697
1405631,2252.6415487830413,2257.8100656053566
3433655,-2293.7364939077456,-2288.5679770854304
2897761,-567.2408663940666,-562.0723495717513
3413587,-1071.3796554255612,-1066.211138603246
3904273,-1984.6965933279043,-1979.5280765055888
3660163,-1670.4694677827072,-1665.3009509603917
3158218,-4677.925781790351,-4672.757264968036
3175865,-4633.554861955415,-4628.3863451331
3462102,2410.6806846686018,2415.8492014909175
928292,-45483.32214879391,-45478.15363197159
3897008,-6212.530945207056,-6207.362428384741
288530,-2064.1982674472497,-2059.029750624934
3477952,-46723.77802428464,-46718.60950746232
2564552,21501.422296987967,21506.59081381028
3107693,-9128.013756898083,-9122.845240075767
3335315,-2395.7004032149325,-2390.531886392617
2941963,-43866.86607118791,-43861.6975543656
2463004,587.0301331935725,592.1986500158879
1811324,1872.9673988148563,1878.1359156371718
820777,-44493.84415482728,-44488.67563800496
2252607,9960.57398962991,9965.742506452225
1970286,-44128.90871711667,-44123.74020029435
2164630,-46500.5530172041,-46495.384500381784
1728838,-44077.10238442867,-44071.93386760635
3362752,6328.986694670695,6334.15521149301
2471082,-4306.546835563036,-4301.378318740722
2002318,-4195.7887012045,-4190.6201843821855
1350027,-1981.9569667949334,-1976.7884499726179
1734930,-5457.769890771426,-5452.601373949111
1264821,-40295.451839342495,-40290.283322520176
710969,5324.4407062417,5329.609223064015
2134477,-5229.717415790699,-5224.548898968384
899573,-6996.176025648427,-6991.007508826112
1957563,91.90182375235003,97.07034057466544
614787,-1128.367021169341,-1123.1985043470254
3915317,-2217.416107558432,-2212.2475907361163
2995218,547.4023924772285,552.5709092995439
563113,-6740.037632379623,-6734.869115557308
1607376,-5270.372319903594,-5265.203803081279
3916151,-4446.3890296196,-4441.220512797285
1619386,-3413.2435858553254,-3408.07506903301
1156254,1295.1133054133181,1300.2818222356334
3729159,-46207.72785085427,-46202.559334031954
1436357,-45025.289854609066,-45020.121337786746
1635576,-5170.516723924771,-5165.3482071024555
3039357,-45786.191770740246,-45781.02325391793
1762559,-2510.1484845464956,-2504.97996772418
1131399,-168.81128034955566,-163.64276352724022
3765766,3798.6982892080114,3803.866806030327
1377140,23218.467595568884,23223.636112391196
1466778,-1247.6095392166003,-1242.441022394285
2869231,-1171.862375388208,-1166.6938585658925
