sample_id,y0,y1
927516,3828.114156450125,3827.8430446810166
2472178,3652.285651286725,3652.0145395176164
3852113,834.7749910678159,834.5038792987071
1854922,2686.0985026033113,2685.827390834203
3422436,474.49043579202606,474.21932402291736
3546017,1744.7704265804432,1744.4993148113347
1421111,1992.6649472906995,1992.393835521591
3721570,2836.2485895522555,2835.9774777831467
1163349,835.1952725298606,834.9241607607519
3314138,2122.8977720134126,2122.626660244304
2473072,2122.714375823129,2122.4432640540203
1458204,2991.0152025260168,2990.744090756908
321541,1866.5650585512442,1866.2939467821357
3547296,1514.155024097842,1513.8839123287332
639227,1867.0209518059355,1866.749840036827
2455258,19875.994101699172,19875.722989930066
1783342,1404.1479478055262,1403.8768360364177
3696131,1993.038974373675,1992.7678626045665
907048,537.6976287557769,537.4265169866682
1705506,3470.6448828507155,3470.3737710816067
1437421,919.1949028518736,918.9237910827649
2041118,678.1984966769036,677.9273849077948
1342560,1299.1459336071196,1298.8748218380108
3896612,2991.491408963122,2991.2202971940133
1274979,1866.815596900233,1866.5444851311245
1012796,6489.280376690321,6489.009264921212
1252962,1626.7437443703707,1626.4726326012621
1020206,1404.176946953924,1403.9058351848155
404796,1404.7592172579934,1404.488105488885
2968799,19875.70189139107,19875.430779621962
2500451,1298.73461384577,1298.4635020766611
397313,19876.178442805896,19875.90733103679
2492355,4007.841417318627,4007.5703055495187
3873532,2395.6044191847086,2395.3333074156
1887653,1992.4759206826548,1992.2048089135462
545776,1299.4733578814207,1299.202246112312
708998,19875.887100184482,19875.615988415375
1054300,19875.223447918877,19874.95233614977
929961,1198.2697731908981,1197.9986614217896
2643572,19875.896757380404,19875.625645611297
2276775,2991.1665059701077,2990.895394200999
3262382,1866.7802541606493,1866.5091423915408
1016670,4007.588668537513,4007.3175567684048
2002917,1743.9002539251348,1743.6291421560263
627734,1745.6579089463028,1745.3867971771942
698641,2395.6845603619113,2395.4134485928025
1641029,1866.6165392886642,1866.3454275195556
685049,1404.6335275757226,1404.362415806614
1162804,1626.5697347618943,1626.2986229927858
2600103,2684.895531701889,2684.6244199327807
2872835,3149.466180942368,3149.195069173259
2244739,1744.198801956375,1743.9276901872665
1008860,2122.689566535254,2122.4184547661453
829687,1635.7365127848109,1635.4654010157021
1994550,19875.35700827061,19875.085896501503
1453198,19875.736917243867,19875.46580547476
2699203,19875.484052777138,19875.21294100803
3052428,1992.9116628454417,1992.6405510763332
1532049,754.6914529760295,754.4203412069207
3097114,2123.126160852515,2122.8550490834064
3098671,2131.642662289058,2131.3715505199493
285536,2395.749903031594,2395.478791262485
1203654,1744.8099750447361,1744.5388632756276
1540978,537.673504542564,537.4023927734553
256472,1627.159055355304,1626.8879435861954
549697,19875.89356112892,19875.622449359813
1414888,1992.4927782566137,1992.2216664875052
3418784,3480.6557358096607,3480.384624040552
2006959,2122.7687756274986,2122.49766385839
823858,2385.352112181595,2385.0810004124864
622816,3480.572335159218,3480.301223390109
536854,1744.0910238929573,1743.8199121238488
288422,2123.343731361947,2123.0726195928382
3775503,1866.681844715207,1866.4107329460985
924227,2538.144716757988,2537.8736049888794
1007821,1627.256370012804,1626.9852582436954
460337,1008.1677678247313,1007.8966560556227
437303,1008.3764325530542,1008.1053207839456
2684279,1009.7772152561963,1009.5061034870877
1322203,1404.2207986718622,1403.9496869027537
3498909,1299.1205452192287,1298.84943345012
3520791,19875.72227531482,19875.451163545713
2197072,835.0149032952824,834.7437915261736
1621402,2835.689732478329,2835.4186207092202
1030711,2122.422445699628,2122.1513339305193
3443894,19876.340816386884,19876.069704617777
3190089,1514.082264263017,1513.8111524939081
1132961,835.2103549560318,834.939243186923
3439762,19876.131389789178,19875.86027802007
2004015,1993.0374242553864,1992.766312486278
2708172,19875.550688554333,19875.279576785226
1848979,1514.1433603861726,1513.8722486170639
589246,1745.5947271504149,1745.3236153813064
384668,2684.7380028756174,2684.466891106509
268955,1197.6446198257745,1197.373508056666
748510,1745.1344269788624,1744.8633152097539
1769922,1404.1688936219027,1403.8977818527942
3268309,919.0324175352179,918.7613057661091
2997043,1100.9404616655575,1100.6693498964487
3762547,1513.0982448694322,1512.8271331003234
337217,19876.319423693436,19876.04831192433
987152,754.8433571598624,754.5722453907537
3103066,3480.8119005739586,3480.54078880485
2008540,1403.5807850477358,1403.3096732786273
1892439,1100.484115317896,1100.2130035487874
1741345,1513.7900055678476,1513.5188937987389
1000606,19875.64913557085,19875.378023801743
1892124,1198.1960539778413,1197.9249422087328
2484454,2257.1597821465302,2256.888670377422
800416,3828.217893942953,3827.946782173845
298042,4969.962899332106,4969.691787562997
1384163,2685.079867444327,2684.808755675219
3308162,1299.5588897677453,1299.2877779986366
1739674,1513.0811762497915,1512.8100644806827
513065,835.4740887854224,835.2029770163136
1694987,1982.7061243212752,1982.4350125521667
2119792,19875.77866940448,19875.507557635374
977224,1008.1002751859094,1007.8291634168007
441678,1866.6119941521351,1866.3408823830266
3695185,1101.507243971148,1101.2361322020392
2602704,1867.3919672837903,1867.1208555146818
1011633,1866.2353988436112,1865.9642870745026
2671694,1404.5015707823093,1404.2304590132007
590864,1627.3145780617867,1627.0434662926782
326511,1513.8500502698412,1513.5789385007324
1048661,3481.476765082734,3481.205653313625
2435142,1522.5720477509806,1522.3009359818718
2548487,1866.9539267007037,1866.6828149315952
3938897,1992.0357516078348,1991.7646398387262
3091669,1007.7379086415334,1007.4667968724248
2247824,3158.1099712883383,3157.8388595192296
1978057,2247.3002437370997,2247.0291319679914
3709609,1513.8680242609346,1513.5969124918258
1323588,19876.277773492893,19876.006661723786
533680,2396.064122487727,2395.7930107186185
844679,2122.9254886624344,2122.6543768933257
2715145,19875.46156182506,19875.190450055954
3401838,2123.501857158374,2123.2307453892654
1094789,1198.0490656974582,1197.7779539283497
261946,1745.0188623286328,1744.7477505595243
3772646,1866.287701744199,1866.0165899750905
3007038,2403.915920656939,2403.64480888783
1035264,19882.558431143378,19882.28731937427
3735887,1100.8799172661893,1100.6088054970805
1094433,1305.8874236066922,1305.6163118375837
3713200,1404.19797384195,1403.9268620728415
249614,1866.4512098234397,1866.1800980543312
2710986,19876.066632202455,19875.79552043335
3434941,19875.488727577806,19875.2176158087
3008813,19875.843213897566,19875.57210212846
888160,2256.5089704995407,2256.2378587304324
1826224,2684.897926808027,2684.6268150389187
2111879,1744.8772041362197,1744.6060923671112
1684302,2385.594001815141,2385.322890046032
3430822,678.371564481344,678.1004527122352
2709994,1514.0365248995422,1513.7654131304334
3506858,1992.502382299965,1992.2312705308564
3936759,19875.38204369119,19875.11093192208
215214,3312.9148408691844,3312.6437291000757
1449358,19875.999178337275,19875.72806656817
2613711,2395.7040048436347,2395.432893074526
3660128,2835.486263029777,2835.2151512606683
2965872,3480.732894157915,3480.461782388806
3706077,19875.205246505684,19874.934134736577
3385777,1514.112921976819,1513.8418102077103
3773642,1866.8856375478,1866.6145257786914
949581,19876.021266564618,19875.75015479551
1390745,1993.0199015492392,1992.7487897801307
3742521,19875.86415745585,19875.593045686743
2662859,1744.298438563096,1744.0273267939874
831875,1744.8252670147322,1744.5541552456236
371196,5174.287349465041,5174.016237695933
485012,2395.74519249078,2395.4740807216713
2055738,1404.5986226647083,1404.3275108955997
411685,2546.2719101102407,2546.000798341132
1042117,1404.687413833843,1404.4163020647345
1751913,19875.656048906494,19875.384937137387
3411847,843.1032753903506,842.8321636212419
2481437,4192.14863694938,4191.877525180272
1897286,2396.243203312446,2395.9720915433372
1475688,2546.5310189253323,2546.2599071562236
2799797,2835.909994438614,2835.638882669505
3379844,1866.331290468037,1866.0601786989284
526935,2266.8841154426264,2266.613003673518
1628333,19876.085827926072,19875.814716156965
2895372,19875.202879649765,19874.93176788066
978335,1008.1439947322876,1007.872882963179
1121661,1745.2235870266259,1744.9524752575173
423060,1404.5610222118821,1404.2899104427736
948227,2257.037570299253,2256.7664585301445
1613166,1627.5017864304843,1627.2306746613758
1628308,19875.44907255623,19875.17796078712
1466593,2395.7630812776442,2395.4919695085355
2587232,1627.055555005972,1626.7844432368636
2401516,606.0331780626735,605.7620662935648
571770,2844.1145616076315,2843.843449838523
1736607,3828.033622797873,3827.7625110287645
245606,1745.1177070862702,1744.8465953171617
1748314,2537.845365321678,2537.574253552569
3742626,1745.1477773145018,1744.8766655453933
464325,1744.3741702677091,1744.1030584986006
3485437,1745.2343043307199,1744.9631925616113
3943733,2395.18867282068,2394.9175610515713
1391333,19875.67861098442,19875.407499215315
890519,1866.7917424347793,1866.5206306656708
1583816,1866.8588554137027,1866.5877436445942
640631,1992.4270954892845,1992.155983720176
2064387,19875.81383724266,19875.54272547355
2837291,1744.666556956962,1744.3954451878535
2154528,1866.934982441578,1866.6638706724696
1357874,2684.3643059526385,2684.09319418353
486623,1513.4671993119914,1513.1960875428827
3805832,2257.0389457890205,2256.7678340199122
3412940,1744.9540189972558,1744.6829072281473
212141,1866.901775070808,1866.6306633016995
3545283,1404.3734473326651,1404.1023355635566
1023167,1514.1330122979423,1513.8619005288335
474131,3157.991228413177,3157.720116644068
2533962,2990.643311640116,2990.372199871007
3724409,1522.213692762353,1521.9425809932443
1533160,835.0299879622784,834.7588761931696
1124261,19884.56682680865,19884.29571503954
724314,2123.252142481044,2122.981030711935
3491787,3480.4861681836273,3480.2150564145186
635882,19876.152407003312,19875.881295234205
3235847,2122.6341810977115,2122.3630693286027
1676394,1735.282584336004,1735.0114725668955
560185,2991.2972300649726,2991.026118295864
599830,2395.397582596656,2395.126470827547
577574,2257.187472393447,2256.9163606243387
1368937,19875.92592540384,19875.654813634734
3219070,1100.4497110099264,1100.1785992408177
3073590,2122.057216795865,2121.786105026756
2667418,919.5400166427696,919.2689048736609
927967,2256.7620771465918,2256.4909653774835
1358337,1404.3834788860004,1404.1123671168918
1414926,19875.924708024402,19875.653596255295
1134465,919.6857866388453,919.4146748697366
3120666,2537.910007325515,2537.638895556406
202153,3149.950465535017,3149.679353765908
2592278,4572.408880268872,4572.137768499764
818951,754.8067228930469,754.5356111239381
2738273,2395.3245308248893,2395.0534190557805
2757388,919.734875517049,919.4637637479402
893120,2256.6825933433415,2256.411481574233
1905038,2396.0583826353204,2395.7872708662117
1950752,3313.702925783657,3313.4318140145483
735449,2395.8280142734375,2395.5569025043287
2726218,19875.89652717197,19875.625415402865
1386205,1411.154291437694,1410.8831796685852
510217,2257.750297051785,2257.4791852826766
1647437,1007.7163051513286,1007.4451933822199
2492350,1404.0859041071496,1403.8147923380411
391676,754.5499148340502,754.2788030649415
3495224,2684.91385595638,2684.6427441872715
2048569,1298.8994171840855,1298.6283054149767
2223028,3835.6170911085183,3835.34597933941
3926001,1865.9736699745933,1865.7025582054848
2680824,19876.39133581671,19876.1202240476
425403,2123.004864708602,2122.733752939493
3048166,3651.8067831998574,3651.5356714307486
641640,2395.3039832328564,2395.0328714637476
3381935,1299.4500424367932,1299.1789306676844
1745789,4182.073516530978,4181.802404761869
2870555,4192.121419744664,4191.8503079755565
1003331,1627.2517750598483,1626.9806632907398
1965199,1187.9393262472443,1187.6682144781357
236383,1627.246598442113,1626.9754866730045
3075311,1626.697443526679,1626.4263317575706
3204582,1100.9569779803066,1100.685866211198
2124778,1866.5301097920412,1866.2589980229327
460527,1198.6512128830066,1198.380101113898
1569657,1867.4122641670888,1867.1411523979802
2930878,834.6299606330159,834.3588488639072
1206867,1100.911854164978,1100.6407423958692
1615182,1100.8693904748352,1100.5982787057264
1020807,5174.319957991965,5174.048846222857
626852,2835.359824347835,2835.0887125787262
1172637,19875.284355313324,19875.013243544217
435005,1866.8142399641308,1866.5431281950223
339961,3150.170601082927,3149.8994893138183
1976084,2527.7364557851306,2527.465344016022
2179437,2835.739089974847,2835.4679782057383
272697,2538.349664108816,2538.078552339707
2611493,1513.676832505142,1513.4057207360333
1519870,1008.2783710039561,1008.0072592348474
1647939,3827.7593227407697,3827.4882109716614
3481634,2990.262412045265,2989.9913002761564
3756147,1874.5911150236934,1874.320003254585
1112232,3150.6966768975103,3150.4255651284016
1046830,2257.2357400015744,2256.964628232466
3706257,2538.480290051922,2538.2091782828134
1718542,3303.5719903651448,3303.300878596036
712943,1513.457311992384,1513.1862002232751
1288201,2122.6647511940296,2122.393639424921
761149,1008.6990683308909,1008.4279565617823
1903423,1007.6819819909863,1007.4108702218776
2042687,754.4779136549804,754.2068018858716
3099595,1992.664665876837,1992.3935541077285
1468918,1008.7273318358718,1008.4562200667632
1967816,1188.061959916383,1187.7908481472746
2747584,3149.6492635493164,3149.3781517802076
1946391,1856.935701406224,1856.6645896371156
3467256,19875.317854512094,19875.046742742987
2040961,19875.677007969512,19875.405896200406
279151,1992.884778931486,1992.6136671623774
2948636,1628.0901022474477,1627.8189904783392
2032221,1514.0497863071694,1513.7786745380606
3182797,1514.0295953758246,1513.7584836067158
3403597,1008.2720979041793,1008.0009861350707
2608909,1404.5429782430974,1404.271866473989
2720880,19876.95843132593,19876.687319556822
364871,1992.6782969446576,1992.407185175549
3320411,19876.106490221988,19875.83537845288
3011132,1007.8938023761946,1007.6226906070859
1744349,1197.7630883411293,1197.4919765720208
1878711,1627.1096315013465,1626.838519732238
2194007,1008.3143575220711,1008.0432457529624
2817079,919.4001848182711,919.1290730491623
1050363,2684.505081272071,2684.2339695029627
2724462,538.2807098868645,538.0095981177558
3118040,3480.4610635554395,3480.1899517863308
636539,1008.3416846684369,1008.0705728993282
3447972,2257.335412612933,2257.0643008438246
3734451,2123.3588495438607,2123.087737774752
1010402,754.4501538470944,754.1790420779856
2537953,2257.6146354529783,2257.34352368387
3337434,538.7629213252592,538.4918095561504
3223980,19876.002077090037,19875.73096532093
1227383,2257.2086093173543,2256.937497548246
2992487,1627.4665874917166,1627.195475722608
213821,1993.2908225276412,1993.0197107585327
2478515,2538.2355110384046,2537.964399269296
1352667,606.1173527706153,605.8462410015065
2012132,1197.945346954407,1197.6742351852984
1231105,2123.0670897353552,2122.7959779662465
2621947,1866.0860302391716,1865.814918470063
504630,678.0224879720413,677.7513762029325
3679615,2537.713791911044,2537.4426801419354
1409885,19875.792455545674,19875.521343776567
2998010,919.241824110378,918.9707123412693
3438205,1101.322934987025,1101.0518232179163
805799,3480.3459197848165,3480.0748080157077
3190540,1867.0140799480669,1866.7429681789583
403115,2538.01911655077,2537.748004781661
589675,2122.465123728415,2122.1940119593064
504436,2122.8048239493774,2122.5337121802686
3864450,1744.6994721072238,1744.4283603381152
2777252,2990.5201496562227,2990.249037887114
1195892,677.8972181362905,677.6261063671817
655617,1745.392205295817,1745.1210935267084
2675692,19875.693913352978,19875.42280158387
3136167,678.015120930678,677.7440091615692
1102757,19875.4769086907,19875.205796921593
2399440,19876.03077518487,19875.759663415763
3809751,1993.281284647014,1993.0101728779055
2721667,1197.882357912902,1197.6112461437936
1727027,19875.62668486922,19875.355573100114
295607,1745.375204470604,1745.1040927014956
2978454,1745.0156674398318,1744.7445556707232
2489131,1404.0189148965585,1403.74780312745
2703984,1513.957786730071,1513.6866749609621
3282252,2990.590860011765,2990.3197482426563
634976,2257.3587647306213,2257.087652961513
1816154,919.31428484683,919.0431730777212
3887911,2835.286413777966,2835.0153020088574
1575344,2257.42985242035,2257.1587406512417
834811,19875.419881207825,19875.148769438718
3348842,754.0397556366327,753.7686438675239
2875173,1101.0058829614713,1100.7347711923626
3088386,1627.3577448596407,1627.0866330905321
2768760,1100.7908474935498,1100.519735724441
617452,1299.031858718348,1298.7607469492393
3422883,19876.269587441526,19875.99847567242
1781140,3312.553697315432,3312.2825855463234
1577204,19876.336394698144,19876.065282929037
1566497,1744.8051657354786,1744.53405396637
272630,1404.8758695861436,1404.604757817035
3735899,19876.167685840268,19875.89657407116
570242,1867.3682203084265,1867.097108539318
3084297,19875.177837767507,19874.9067259984
2605755,3150.1920005146426,3149.920888745534
2048646,1866.8121275556823,1866.5410157865738
3265680,19876.13654996051,19875.865438191402
3495423,3652.064556054719,3651.7934442856103
3444793,1513.2154251717898,1512.944313402681
2614499,834.5807526770682,834.3096409079594
1738306,2123.1002359654403,2122.8291241963316
2137757,754.3700310160357,754.0989192469269
3133085,4200.412886226678,4200.14177445757
1846151,1627.3070423798904,1627.0359306107819
1621624,3313.2130591503364,3312.9419473812277
855525,1627.4943980052828,1627.2232862361743
1238708,754.2438326782568,753.972720909148
1133929,1867.1474570718945,1866.876345302786
683905,1513.2123997224733,1512.9412879533645
3139881,19875.887798596716,19875.61668682761
1517297,606.1499041992537,605.8787924301449
3367885,1513.4571320600735,1513.1860202909647
669681,2123.0416765785562,2122.7705648094475
1263756,19875.427232625323,19875.156120856216
3120156,1735.377580078048,1735.1064683089394
3542218,2131.113528742341,2130.842416973232
3056635,19875.40446296017,19875.133351191063
2972314,19875.93549736316,19875.664385594053
3079822,19875.42152244404,19875.150410674934
930879,4380.301244910809,4380.030133141701
2271614,19876.018244797353,19875.747133028246
3934461,919.2192515707775,918.9481398016687
2000774,1867.2655007174415,1866.994388948333
3289747,2537.5002477790777,2537.229136009969
1354721,1627.1996756951282,1626.9285639260197
1758196,1744.956846159643,1744.6857343905344
1970740,1091.7633087251186,1091.4921969560098
412065,1992.8861709408982,1992.6150591717897
1476914,2395.7677575082757,2395.496645739167
2985345,19875.579755550876,19875.30864378177
1006705,2538.0809660936543,2537.8098543245455
1701372,2683.050840839821,2682.7797290707126
1477541,1745.826863057025,1745.5557512879166
2398185,1298.0129058963237,1297.741794127215
3479557,5596.147160394867,5595.876048625758
3845265,1513.7008955265628,1513.429783757454
491289,1992.6523751886539,1992.3812634195453
3910324,2684.632937699336,2684.3618259302275
1081834,19876.323073965275,19876.05196219617
925355,3480.2326110056415,3479.9614992365327
296828,1744.8617371144476,1744.590625345339
2553439,2685.0977978862043,2684.826686117096
3469212,19876.11314528306,19875.842033513953
2624932,2257.0460771388607,2256.7749653697524
3918580,2122.8650677989294,2122.5939560298207
3739030,1513.6954726352312,1513.4243608661225
222017,19875.571640641458,19875.30052887235
459550,19875.884093157725,19875.61298138862
1357458,1734.7835563222075,1734.512444553099
3193650,2685.036949697132,2684.7658379280238
2565852,1513.562110078519,1513.2909983094103
393658,2395.5175880714783,2395.2464763023695
1580524,1744.8965887622603,1744.6254769931518
3725022,4572.0642274567435,4571.793115687636
452642,1745.4581863989124,1745.1870746298039
2627026,19875.91884566896,19875.647733899852
609445,4007.9760796722353,4007.704967903127
1959181,2675.6900627800696,2675.4189510109613
2665261,1513.595787317716,1513.3246755486073
1242541,754.4444712306966,754.1733594615879
2573940,19875.616815316665,19875.34570354756
3668594,4192.583627636035,4192.312515866927
1896355,926.6877251813877,926.4166134122789
2060662,19875.884532552023,19875.613420782916
860415,19876.154030729664,19875.882918960557
2633143,19875.844926347356,19875.57381457825
2599100,1626.8541188584854,1626.583007089377
3082507,19876.084888616857,19875.81377684775
3324413,1514.051814897104,1513.7807031279951
3655362,1626.9279255900371,1626.6568138209286
2061127,2693.124863028262,2692.8537512591533
1435072,2546.5858967458844,2546.3147849767756
3326763,1744.1536412489593,1743.8825294798507
1075113,19876.010556227677,19875.73944445857
2677375,605.8523808061362,605.5812690370275
1298165,1866.7829932459106,1866.511881476802
1504753,1008.3644878806994,1008.0933761115907
1319580,2122.695113651376,2122.424001882267
1512156,1627.3200986746358,1627.0489869055273
1105423,4007.9680913923034,4007.696979623195
2855737,3652.1711027693755,3651.8999910002667
1521148,1626.632859873563,1626.3617481044544
803922,2991.041478004055,2990.7703662349463
1427921,19876.611012655947,19876.33990088684
2459688,678.3076965047742,678.0365847356654
1284711,19876.26069942281,19875.989587653705
1214129,1627.3661712364762,1627.0950594673677
1543931,1627.393821885806,1627.1227101166974
3729361,4191.584357084982,4191.313245315874
748759,1745.6502076062252,1745.3790958371167
1850722,3149.8759502198054,3149.6048384506967
2792512,1299.041406172636,1298.7702944035273
687544,1866.260712656234,1865.9896008871256
2883849,19875.43661900954,19875.165507240432
3668110,1866.4628794130522,1866.1917676439436
3403779,1745.168432620866,1744.8973208517575
999492,2395.4102269414443,2395.1391151723356
377007,1299.0252466880422,1298.7541349189335
3522717,1992.641089294769,1992.3699775256605
3283316,19875.445193196967,19875.17408142786
495204,678.185334639804,677.9142228706952
1311702,1404.5144069907735,1404.243295221665
712118,1745.5804077166388,1745.3092959475302
1408351,1412.7629169332054,1412.4918051640968
3240194,2684.791377745907,2684.520265976799
3845522,2256.985079774594,2256.7139680054856
3495527,835.2749049382442,835.0037931691354
1983944,1857.055072741877,1856.7839609727685
458888,1514.3310408469465,1514.0599290778378
3722733,2537.9612413493496,2537.690129580241
2767636,19875.839434955906,19875.5683231868
1349014,918.9074281105957,918.6363163414869
3778434,835.0587685373728,834.787656768264
2592030,1521.7885253949883,1521.5174136258795
2010024,19876.62144186503,19876.350330095924
2504631,1866.9877589567357,1866.7166471876271
2123532,1197.8875778276933,1197.6164660585848
1835843,1514.2007409454113,1513.9296291763026
1643933,1513.953111008548,1513.6819992394392
1996965,2395.588604316997,2395.3174925478884
909905,1627.1408341651995,1626.869722396091
259313,2122.260269761947,2121.989157992838
3319000,4572.638258550668,4572.36714678156
1377261,1745.4418096910038,1745.1706979218952
1030709,1627.3146798075604,1627.043568038452
3391605,1404.1266870629538,1403.8555752938453
989755,19875.915487603805,19875.644375834698
1008042,2538.8496950105364,2538.5785832414276
1987908,1100.979164920974,1100.7080531518652
2566390,1866.9606671186546,1866.689555349546
3497302,1299.659527248352,1299.3884154792433
2585573,19875.745687181443,19875.474575412336
393341,2395.4172611939744,2395.1461494248656
213581,2685.4565635672534,2685.185451798145
3193422,19875.905323346982,19875.634211577875
2773937,1745.1083338335927,1744.8372220644842
2931749,2685.109570853142,2684.8384590840337
3205050,2257.2725454882543,2257.001433719146
3049132,3313.06681674048,3312.7957049713714
1738284,2395.7825983742623,2395.5114866051536
1983621,19866.023944274293,19865.752832505186
3061275,4192.150307379235,4191.879195610127
1679330,1100.3628974925257,1100.091785723417
3006361,1626.8284385546187,1626.5573267855102
1963403,1982.793785685739,1982.5226739166305
3449438,2991.2820135389993,2991.0109017698906
253982,19876.216720468987,19875.94560869988
2727443,1198.1297225827732,1197.8586108136647
264896,3313.688736082729,3313.4176243136203
1021239,1197.512843856083,1197.2417320869745
3923582,2538.5022074375916,2538.231095668483
567436,1007.5997377559275,1007.3286259868189
1749527,19876.17678128842,19875.905669519314
1003142,1866.306102398809,1866.0349906297004
895647,1744.9886588618465,1744.717547092738
2238041,1101.2129108289053,1100.9417990597965
1153676,1627.6151477822496,1627.344036013141
1544729,1627.7429946328098,1627.4718828637012
603643,3652.0691759033157,3651.798064134207
3209875,927.7150712677328,927.443959498624
1604984,1101.2384639112158,1100.967352142107
522079,2538.2504021625487,2537.97929039344
1406466,1992.2063352017005,1991.935223432592
2501632,1992.8649739915284,1992.5938622224198
2701912,2990.6913885761846,2990.420276807076
2034917,19876.020368267542,19875.749256498435
584657,1007.8086871238197,1007.5375753547111
2803357,678.3109220848625,678.0398103157537
1115043,19876.312514115187,19876.04140234608
1149545,1100.5196150435897,1100.248503274481
651351,2257.571964066978,2257.30085229787
3379166,1744.698549117283,1744.4274373481744
3854152,1514.0080729748054,1513.7369612056966
401165,1626.9631084490159,1626.6919966799073
1891681,1522.2633854257328,1521.992273656624
1524501,1197.3022234685163,1197.0311116994078
3541314,2256.9990051863306,2256.7278934172223
3833159,1992.9658220798808,1992.6947103107723
281227,2538.6775461945613,2538.4064344254525
945851,19875.557328435618,19875.28621666651
1788134,834.8127388865594,834.5416271174506
1809141,1627.5403846412423,1627.2692728721338
3324959,3312.8914287260172,3312.6203169569085
2727395,834.7326121467911,834.4615003776823
3056775,1101.0935306066244,1100.8224188375157
1585106,1299.166872655033,1298.8957608859243
876348,3312.877210796885,3312.606099027776
3125624,1513.4570800016254,1513.1859682325166
534090,3313.4833071714697,3313.212195402361
3870251,1404.032926403817,1403.7618146347086
2397874,754.7700154760304,754.4989037069216
1862610,1197.6866756438137,1197.4155638747052
674557,1866.4142138610848,1866.1431020919763
1330658,1198.1420524625626,1197.870940693454
1905971,2123.3336290529314,2123.0625172838227
2661388,2835.6031722064386,2835.33206043733
2283398,1198.109656132325,1197.8385443632164
390239,2836.125824250348,2835.8547124812394
458437,1299.049990249355,1298.7788784802462
283891,2683.9863620946494,2683.715250325541
248642,1100.6422791887157,1100.371167419607
2559507,19875.854978589843,19875.583866820736
548838,2123.2342583777872,2122.9631466086785
3421488,1197.6519773485913,1197.3808655794828
1907460,2693.3405567591926,2693.069444990084
1425115,1744.781517773782,1744.5104060046735
1363263,2538.1087231036927,2537.837611334584
939476,2684.291260682211,2684.0201489131027
2839450,2538.686206591832,2538.4150948227234
2181880,19875.988412731203,19875.717300962096
1999513,1745.2729420368296,1745.001830267721
1948143,3642.27296701608,3642.0018552469714
592788,1404.469928264438,1404.1988164953295
1390269,19874.97706245792,19874.705950688814
2021370,2396.0089088748696,2395.737797105761
1007205,19875.974680779203,19875.703569010097
654690,2403.061951359607,2402.7908395904983
1083551,3480.7770822987977,3480.505970529689
3095482,19875.200712335827,19874.92960056672
2610201,19875.87233263189,19875.601220862784
2747987,19876.46168464361,19876.190572874504
2460367,1867.4783238551595,1867.207212086051
2730469,1197.8878238022153,1197.6167120331068
1747588,1993.3052718083854,1993.034160039277
3108841,19876.541352129,19876.270240359892
2134275,919.1371023356045,918.8659905664957
1964252,2527.6458696606064,2527.3747578914977
1016266,1197.412654079629,1197.1415423105204
1463412,1522.1087840574992,1521.8376722883904
3704513,1514.345528062054,1514.0744162929452
3355967,1299.6461701803062,1299.3750584111974
644579,1626.7990455011716,1626.527933732063
3145471,2538.471460111245,2538.2003483421363
2261387,1513.8539229556807,1513.582811186572
2142873,2538.1079535585386,2537.83684178943
1280737,1866.3914612014303,1866.1203494323217
3096008,1744.897530686258,1744.6264189171495
759009,19876.29360182437,19876.022490055264
476143,1744.6048713913347,1744.3337596222261
2770582,1992.4636727937032,1992.1925610245946
3481151,1627.5696615163001,1627.2985497471916
3781285,1100.8337009652782,1100.5625891961695
349754,19876.52874763931,19876.257635870203
586819,1197.9443265275231,1197.6732147584146
356553,1866.9309521853852,1866.6598404162767
1157095,19876.20220381164,19875.931092042534
3081410,1206.2860349488583,1206.0149231797498
856826,19875.5264444355,19875.255332666395
2062367,1866.7989717104776,1866.5278599413691
1304062,1298.5563170283622,1298.2852052592534
1971404,2528.9126931937785,2528.6415814246698
343382,1008.2492805508286,1007.97816878172
2269117,1298.4463697256085,1298.1752579564998
1896482,19875.906792285412,19875.635680516305
2165768,1992.5883266140584,1992.3172148449498
3283858,1298.79165485511,1298.5205430860012
1077161,2990.68628914403,2990.4151773749213
3890334,1627.3067556646838,1627.0356438955753
3919828,2538.352731858821,2538.081620089712
1233131,1197.9968137177284,1197.7257019486199
1733766,19876.14046160863,19875.869349839522
1316413,1008.1307313673524,1007.8596195982437
1008311,2395.7887149320445,2395.5176031629358
595758,2395.637683256297,2395.366571487188
3201503,3313.0902730507596,3312.819161281651
353462,4580.303913124528,4580.03280135542
1158140,2546.310043845414,2546.038932076305
2457358,19875.30822452306,19875.037112753955
1131259,1305.1946196504514,1304.9235078813429
2477529,2684.1138228322156,2683.8427110631073
1767737,4571.693983436022,4571.422871666914
2946227,1744.6273155775325,1744.356203808424
2588136,4007.9015917565143,4007.630479987406
3802277,19875.552985871996,19875.28187410289
3142674,2122.6771414295895,2122.4060296604807
1965860,1298.7274287130958,1298.456316943987
3884956,4007.732383143473,4007.4612713743645
3090117,2123.6819524497605,2123.4108406806517
3265068,2836.1839539458633,2835.9128421767546
2909962,2836.1765986533137,2835.905486884205
1904304,1866.899220054507,1866.6281082853984
830901,1298.9711047004018,1298.699992931293
3376381,1522.2761095223154,1522.0049977532067
1528173,2257.5138479268417,2257.2427361577334
1251570,1744.8462915880075,1744.575179818899
1226872,606.2821793976011,606.0110676284924
3131927,2991.218341401917,2990.947229632808
3885339,678.3401637479831,678.0690519788743
2125394,1404.2585443151916,1403.987432546083
828038,1100.5392805169076,1100.2681687477989
2752660,1404.390234011029,1404.1191222419204
2988102,2122.6532461267716,2122.382134357663
1420226,3480.714095064301,3480.4429832951923
3712967,19875.482021878983,19875.210910109876
2518352,19875.628300781744,19875.357189012637
3077875,6259.877377338381,6259.606265569272
3481095,19876.20656256449,19875.935450795383
556666,1404.9880481066625,1404.716936337554
593103,2257.8268112352994,2257.555699466191
1119832,19876.21437961338,19875.94326784427
1898050,1987.7893736678182,1987.5182618987094
3502411,1101.3570472138026,1101.0859354446939
3335125,2123.1507385903365,2122.8796268212277
2287257,19876.26640940474,19875.995297635633
3708158,19875.857469438866,19875.58635766976
2609325,19875.75923363853,19875.488121869425
3746957,2991.135683927842,2990.864572158733
2398379,1626.7276491499197,1626.4565373808111
1604979,2257.6287001047913,2257.357588335683
1361747,1744.7201418524596,1744.449030083351
1616866,678.6292851836664,678.3581734145577
584583,2122.8078592157717,2122.536747446663
3319326,2990.937389540885,2990.666277771776
3753639,2122.6552760387003,2122.3841642695916
229285,1993.392200245338,1993.1210884762295
1119641,2396.3732235974953,2396.1021118283866
2495731,1867.8695562304185,1867.59844446131
1580182,2257.6400414269924,2257.368929657884
1409388,1866.566775867928,1866.2956640988195
366553,1299.4485614114326,1299.1774496423238
2631235,1513.5014312826347,1513.230319513526
3096442,2385.7186380607027,2385.447526291594
2039767,1007.7323628088861,1007.4612510397775
2276975,2122.892667980475,2122.621556211366
3256022,1405.0251391842667,1404.7540274151581
3837437,1197.637443140575,1197.3663313714665
299708,1744.7738892661707,1744.5027774970622
2934133,3150.204985406519,3149.93387363741
1884216,1992.8177163522325,1992.546604583124
2394913,3150.002708728418,3149.731596959309
641622,2257.668592178432,2257.3974804093236
638634,1101.146303591541,1100.8751918224323
1539250,19876.184355343757,19875.91324357465
542794,678.4378028700872,678.1666911009785
1352328,1404.4324497709672,1404.1613380018587
3489716,19876.38659205417,19876.11548028506
1150283,1868.5293946483976,1868.258282879289
3697490,1513.6166819207526,1513.3455701516439
1244500,2395.1413020766154,2394.8701903075066
3484567,4007.973293711842,4007.7021819427337
541183,1993.1400022418525,1992.868890472744
2401560,4969.098170830043,4968.8270590609345
3318371,1627.0099039968297,1626.7387922277212
1396893,1745.082289426354,1744.8111776572455
2566745,1866.4146902692223,1866.1435785001138
374566,678.237585006881,677.9664732377722
2919467,1627.8448968170803,1627.5737850479718
2115062,918.9207559013483,918.6496441322396
3180166,1513.2417413334035,1512.9706295642948
1680802,2385.932070966232,2385.6609591971232
3660181,1404.5499664873275,1404.278854718219
1147317,1992.2082231080938,1991.9371113389852
1712313,1857.0992699428293,1856.8281581737208
689328,3652.6317111791304,3652.3605994100217
3728957,2257.2803506937653,2257.009238924657
2946417,1992.6471789700267,1992.3760672009182
3765225,19875.55501507119,19875.283903302083
3157952,677.8682154529372,677.5971036838284
2865534,920.103632258421,919.8325204893123
3027450,1404.3091599626132,1404.0380481935047
2221864,919.0706480820581,918.7995363129494
3351116,1008.1352909224688,1007.8641791533602
943301,1521.903537966342,1521.6324261972331
3225326,1298.7855113387197,1298.514399569611
2729332,1008.5753238347796,1008.304212065671
1259780,1866.907881498144,1866.6367697290354
1644336,4969.981812242685,4969.710700473576
3153129,1514.091745677217,1513.8206339081082
1702850,2394.1092828568735,2393.8381710877647
711436,4007.7176959085327,4007.4465841394244
3122385,1404.6695208778506,1404.398409108742
1628613,19876.004885180926,19875.73377341182
1485134,834.7654480075125,834.4943362384038
723138,1874.642743373379,1874.3716316042705
3924510,2395.925187710777,2395.6540759416685
3037448,4008.0923182808747,4007.8212065117664
1721321,1856.8829714704232,1856.6118597013146
886275,1404.9363155297092,1404.6652037606007
3368501,1514.1423537765163,1513.8712420074075
3500388,6489.432723212027,6489.161611442918
1750040,2684.7109466693782,2684.43983490027
2755329,1513.6436525201666,1513.3725407510578
2649493,19876.30963700787,19876.038525238764
3384552,1992.162888507955,1991.8917767388464
3044073,754.7235942536245,754.4524824845157
2792966,2835.4128755390598,2835.141763769951
1759393,19876.086273169396,19875.81516140029
2706621,2123.2393469596013,2122.9682351904926
3328637,754.5533394660113,754.2822276969025
992597,919.5541248780618,919.283013108953
1387179,2538.4869049827253,2538.2157932136165
3431778,2537.7738725666113,2537.5027607975026
1634078,2835.8999403294206,2835.628828560312
3121080,3827.8525821934863,3827.581470424378
2284075,2122.392905050655,2122.121793281546
751668,1008.4176990506176,1008.1465872815089
561214,1299.4096718304263,1299.1385600613175
2045073,19875.87792633325,19875.606814564144
440714,3150.1144390663144,3149.8433272972056
1436737,19876.42657520133,19876.155463432224
1978178,668.7930744983156,668.5219627292068
1840395,2538.1148063874375,2537.8436946183288
3401960,1513.8647472028522,1513.5936354337434
2421892,1992.4773981935696,1992.206286424461
2536423,2537.9487458195904,2537.6776340504816
688786,1866.8820124105368,1866.6109006414283
1427468,1513.336104988628,1513.0649932195192
2639968,2539.0283184558343,2538.7572066867256
921595,2121.920090424261,2121.6489786551524
3239549,1745.4091857949727,1745.1380740258642
472848,1205.940110289165,1205.6689985200564
526354,1867.2696361058113,1866.9985243367028
1129588,2265.7171063243313,2265.445994555223
3352798,19875.53602464923,19875.264912880124
2715996,1404.2546674181365,1403.983555649028
1533295,606.2695851092265,605.9984733401177
268282,1404.4190354785774,1404.1479237094688
3232110,2836.2145478443936,2835.943436075285
299892,919.7042572291319,919.4331454600232
3802096,19876.18023372862,19875.909121959514
1383867,1745.4045517611441,1745.1334399920356
1541698,1513.953704212277,1513.6825924431682
476570,19875.791019797205,19875.519908028098
2219347,1866.8643690377362,1866.5932572686277
439771,1993.5338633650952,1993.2627515959866
3885156,3150.0930418927364,3149.8219301236277
1043269,1513.840062815355,1513.5689510462462
3755213,3157.8725263348324,3157.6014145657236
535033,1198.4941613693743,1198.2230496002658
2616888,19876.056743223373,19875.785631454266
3790885,2122.8792266049636,2122.608114835855
1400509,2123.657889765067,2123.3867779959583
2493496,1993.8356701759312,1993.5645584068227
350059,2835.675761660074,2835.404649890965
1738006,1992.83842093681,1992.5673091677015
2265235,2122.4013577419482,2122.1302459728395
2863429,3150.1125941139812,3149.8414823448725
1087774,19876.119303325202,19875.848191556095
939899,2123.0667778821453,2122.7956661130365
1889161,2396.1080871956387,2395.83697542653
545284,19876.00165164268,19875.730539873573
2794896,3150.233924116544,3149.9628123474354
841907,2684.853205899986,2684.5820941308775
1432799,2122.961975748482,2122.6908639793733
1773208,1100.8698025157464,1100.5986907466377
2245081,19865.646757226863,19865.375645457756
2891553,2685.42793584236,2685.1568240732518
885196,1197.885511754207,1197.6143999850985
805474,1627.6611963991108,1627.3900846300023
2597088,537.880883736859,537.6097719677502
2235263,1008.0717238298557,1007.8006120607471
1810301,2122.8421944155775,2122.5710826464688
3955486,1992.5105814966114,1992.2394697275029
402798,1299.2875112691427,1299.016399500034
2615394,2396.059388314115,2395.7882765450063
2203158,19876.22809339476,19875.95698162565
2276836,1744.941173030786,1744.6700612616776
1423519,1299.6854963683677,1299.414384599259
2930062,2395.9311061052153,2395.6599943361066
404566,1404.0888350297391,1403.8177232606306
2980475,919.945401410547,919.6742896414382
3140121,1745.2370761882314,1744.9659644191229
907419,2122.7887760992444,2122.5176643301356
3672460,2537.479907525393,2537.2087957562844
3356108,3150.505332969241,3150.234221200132
1381851,19876.43071473144,19876.159602962332
3543635,2546.390321292325,2546.1192095232163
296998,835.0785661971029,834.8074544279941
3766125,19875.742970964802,19875.471859195695
1381460,3828.284721167721,3828.0136093986125
259518,1299.3334598718147,1299.062348102706
216837,3149.2574950711805,3148.9863833020718
549270,2684.710402997891,2684.4392912287826
1203890,3150.4177808492045,3150.1466690800958
3064116,1298.6290777012516,1298.3579659321429
2889236,2257.0773912773548,2256.8062795082465
3044745,2395.4810306332856,2395.209918864177
2891584,19876.105999653693,19875.834887884586
865850,2122.71818021674,2122.4470684476314
1042967,19876.229088675238,19875.95797690613
2007671,1992.4865208890621,1992.2154091199536
1581876,2122.868898460056,2122.597786690947
2443433,2257.3811597813033,2257.110048012195
2218683,2990.576392295907,2990.3052805267985
894450,1635.90008184884,1635.6289700797313
3146374,754.5052742705722,754.2341625014634
1125414,19875.782810610744,19875.511698841638
197995,2538.394975691193,2538.123863922084
1748716,1992.8188074081825,1992.547695639074
3889065,1867.1255044832565,1866.854392714148
2159885,2395.4263358870403,2395.1552241179315
3666359,3312.904197713015,3312.6330859439063
493208,3828.0676682429134,3827.796556473805
1233739,1101.0928269994847,1100.821715230376
3499708,4191.63316856485,4191.362056795742
1360161,1513.7450379572792,1513.4739261881705
1256338,2395.431449710857,2395.1603379417484
1287185,4007.640892272149,4007.3697805030406
3143418,1866.1562667718283,1865.8851550027198
1873264,677.9878127399056,677.7167009707969
1360508,1299.0382401584811,1298.7671283893724
3201545,1298.9959670682267,1298.724855299118
936779,2835.882254333784,2835.6111425646754
3660869,2835.9191502287367,2835.648038459628
3183841,2537.8526135028765,2537.5815017337677
1746549,1007.6729966004899,1007.4018848313813
3329660,1992.9359691962497,1992.6648574271412
1040630,834.6319141681512,834.3608023990424
1673992,3998.644926636496,3998.373814867388
1396386,2836.284343781197,2836.0132320120883
708377,1299.33807325822,1299.0669614891112
3384887,754.5496501034804,754.2785383343717
1237178,1008.015864643018,1007.7447528739093
3360863,2395.471767883348,2395.2006561142393
1639430,1197.567670749316,1197.2965589802075
3377026,1628.0348651942934,1627.7637534251849
2578451,1016.4726748051867,1016.201563036078
2106757,19875.414632785174,19875.143521016067
2429212,2684.4354571785702,2684.164345409462
1284589,919.7116150281618,919.440503259053
2771942,1404.2714370259064,1404.0003252567979
1248444,1627.5843886782407,1627.3132769091321
1015943,1513.5444462020798,1513.273334432971
2593735,1866.7935677193022,1866.5224559501937
697348,918.8611172981285,918.5900055290198
909763,1513.7922934406342,1513.5211816715255
2929561,1007.3729930400732,1007.1018812709646
1858259,2537.992665234042,2537.721553464933
1961378,19866.650746273717,19866.37963450461
1559269,2122.616156733013,2122.3450449639045
3330774,1514.2836862450263,1514.0125744759175
3454425,3312.9854086356345,3312.7142968665257
2488248,2991.081426122964,2990.810314353855
3142386,1299.3243726128446,1299.0532608437359
2811041,1744.9879522900264,1744.716840520918
2520188,1744.8846937609294,1744.6135819918209
1253546,1007.9963961422727,1007.7252843731641
1399875,1992.468166240294,1992.1970544711855
2976427,1626.5812369997855,1626.310125230677
2781968,1298.1811741918882,1297.9100624227794
3942937,1626.7294020052102,1626.4582902361017
3845566,19876.349806087394,19876.078694318287
3396294,1198.1839464698917,1197.9128347007832
2933293,1299.07322795211,1298.8021161830013
266343,2685.62858144986,2685.357469680752
3345808,1403.5917120854535,1403.320600316345
1613082,1100.560439144805,1100.2893273756963
1522064,3828.369374937241,3828.0982631681327
1543514,3652.3518325486743,3652.0807207795656
2208275,1403.852737543479,1403.5816257743704
3490809,19875.570754328637,19875.29964255953
1660002,19866.138226706866,19865.86711493776
3182210,19875.856611393334,19875.585499624227
2853257,2122.8238484692993,2122.5527367001905
1477103,1198.2817433481396,1198.010631579031
3128334,918.7763015435207,918.505189774412
1103031,1404.0680133712933,1403.7969016021848
3907626,1745.1484614898009,1744.8773497206923
3334978,1404.2768723889114,1404.005760619803
2969044,1307.4945134479058,1307.223401678797
1155639,19875.952625098365,19875.68151332926
699440,2395.7958599537033,2395.5247481845945
1118045,19876.140896778004,19875.869785008897
983798,1992.0816152607692,1991.8105034916607
662631,2685.081735578542,2684.8106238094338
239197,1627.596434831433,1627.3253230623245
2276773,1513.5248750979856,1513.2537633288769
1541771,2123.3214287128076,2123.050316943699
1761656,678.8526180408849,678.5815062717761
2813088,1867.1061911933305,1866.835079424222
2862053,2835.879892608546,2835.6087808394373
1990199,2123.149936110691,2122.8788243415825
1171383,1298.6780235754447,1298.406911806336
3530351,1635.6980767492214,1635.4269649801126
367413,2538.222955361237,2537.951843592128
1958094,2981.692338499071,2981.421226729962
3347164,4380.583771700816,4380.312659931708
353431,1627.572615131107,1627.3015033619986
318544,3149.7832374744903,3149.5121257053815
1000395,2684.8042158608896,2684.5331040917813
3357595,1513.8687319930889,1513.5976202239801
931119,5174.24625932066,5173.975147551552
638852,1298.350437278072,1298.0793255089632
280454,2538.7839452531903,2538.5128334840815
3509616,1514.127948361042,1513.8568365919332
1204570,835.0228203087713,834.7517085396626
2396705,1745.4677052353738,1745.1965934662653
2119374,919.4183857560245,919.1472739869157
2704917,19881.887302363462,19881.616190594355
658560,1101.246468846428,1100.9753570773191
380040,1298.8404691441426,1298.5693573750339
3075228,1404.6510181866638,1404.3799064175553
1462412,1198.1326306995327,1197.8615189304242
872944,1404.2251048174362,1403.9539930483277
1700737,1735.273919481424,1735.0028077123154
707986,1298.916366957461,1298.6452551883522
3005406,2395.6583928957193,2395.3872811266106
1277429,1100.7294372606177,1100.458325491509
1167549,1513.555928311884,1513.2848165427752
470201,3313.6469580816433,3313.3758463125346
524009,2257.252229947057,2256.9811181779487
3877559,2123.850644663323,2123.579532894214
1148377,1866.873650785092,1866.6025390159834
895250,3313.781475479174,3313.510363710065
1746212,2685.5345087304145,2685.263396961306
1244061,19875.992206964882,19875.721095195775
258615,1626.8999857604695,1626.628873991361
2730006,1403.6035112064362,1403.3323994373277
1122415,19875.80868937984,19875.537577610732
3532671,2257.6129592534903,2257.341847484382
1422949,1404.6626130198015,1404.391501250693
1401704,19876.119703251337,19875.84859148223
3806010,2546.626767055053,2546.355655285944
