sample_id,y0,y1
927049,0.9438632158357206,1.1735924366391282
3212808,1.6327780965811982,1.8937784079514564
1154852,1.3578295329961962,1.6090260363104056
3017901,1.0800465068310208,1.3071511320776847
1817867,1.1368221010000663,1.3366398704615252
644666,0.8598452962724427,1.0781415713699083
633659,1.0547124857856873,1.2621447991621728
2131742,1.1843307597670114,1.4230259540449988
1097591,1.0722769972724713,1.294963823628949
897869,1.3940687967695997,1.6420798924941749
904655,0.5541812422320469,0.6500843244707426
1788987,1.5990085100721412,1.8566990923587277
1517633,0.9863666531992458,1.2281276033912614
2588761,0.9848343001451475,1.2003623734471662
1307844,1.330190054060933,1.5402865888241046
3484064,0.3348639863555094,0.4307670685942051
2207608,1.5337783480950131,1.775539298287029
2057219,1.5277145918334198,1.7711778907164444
1327256,0.7501421716338873,0.9798713924372949
3006661,1.4022707629375855,1.6398410106511645
1278108,0.9732386419189706,1.1860336168242462
2527792,0.9619631494651277,1.1616037993976553
2140079,1.1113360302458268,1.359347125970402
354862,1.2469562820697369,1.4655303038743202
1516364,1.3136834970827245,1.5554444472747402
1217018,1.1925139006762115,1.425504760887498
749214,1.0860265432816916,1.324721737559679
1112625,0.8836740672216086,1.1193423822499622
3726781,0.9197531119281833,1.1617285504302024
3379719,1.0883690784558788,1.1860635918322493
3754030,0.39167773597243816,0.48893197013668227
3503287,1.1326865586082497,1.371381752886237
2024239,0.9545294749702369,1.1962904251622526
2223734,1.4644580055215894,1.7188808291978332
3845628,0.8139664530326911,1.0559418915347103
911216,1.2844131496355111,1.538835973311755
2999182,1.332795788332549,1.568673186335517
3677215,1.3363009179243965,1.5721783159273646
1054300,0.47833741266961316,0.5760319260459836
1862088,1.4039190806951878,1.661838283929262
1915151,0.6537974532715513,0.8474637371834847
1363799,0.9611194579542329,1.1739144328595086
3364219,0.9653978029020175,1.1676025995701442
1515393,1.2166413520604853,1.4405811501813799
3188900,1.1638054154200066,1.4055663656120223
2034009,1.0593680151511313,1.3042340972460926
2193020,0.5912332307458429,0.6889277441222135
3286130,1.4435990562132721,1.6916101519378473
3882895,0.7599458180110312,0.962330009097808
3278111,1.1325208684121484,1.3652006878626448
2946019,1.3396330703899673,1.5847163956422043
3858318,1.3990492016362637,1.609332132302674
746171,1.4639532283754262,1.6936824491788338
2622003,0.5515842486857592,0.6492787620621296
1911417,1.295841173896518,1.5260667611611636
2242258,1.4579552107482716,1.7045786527247746
3955860,1.1551291068542566,1.405415399656913
3072859,0.8794691548419957,1.0810663585850415
476202,1.3220049714620858,1.5607001657400732
3240606,1.2769241769411401,1.5346147592277268
3140606,1.0921529654831896,1.3278212805115432
605767,1.506895290514123,1.7308350886350174
358770,1.0268947164094937,1.2749058121340688
552457,1.1522289484311663,1.3849087678816627
2708542,1.0558098680886967,1.3135004503752832
2139473,1.3507556069798867,1.5581879203563722
1864223,0.9188727790395728,1.129155709705983
571847,1.432714704894401,1.6598193301410649
3955252,0.5495367167964438,0.7359284228949146
1560608,1.8738654506213466,2.1158408891233655
2940476,1.052228446598144,1.2851146976547632
3903521,0.40094853670731184,0.49872972384573555
3922552,0.6662518634153736,0.8919685999092029
392434,1.1046494476717084,1.2919489321789146
1570546,0.23556629528933093,0.33334748242775464
3882353,1.2954994363242596,1.5405827615764967
1414126,1.1134986882036548,1.3812465323281142
217455,1.1222448740997473,1.3609400683777346
2016901,0.40675148451462506,0.4985293489000214
1904940,1.0835946872031752,1.3481817685812358
1749355,1.405377637469069,1.5999871289663354
632521,0.6189008259237878,0.7162154462602608
3547443,1.172363900069664,1.4050437195201604
432563,1.6138553044979813,1.8715458867845678
269045,1.079000769057872,1.3116805885083684
816605,1.2145367383125574,1.438476536433452
3910273,0.9953107402863481,1.2055936709527584
2650056,1.1759608643253021,1.4336514466118886
3248836,1.036629976994101,1.2577300081471283
1980811,0.9446970864916928,1.1790468072059672
907424,0.7469245705132653,0.9393107000677295
2850054,1.4706912279561086,1.683674992798338
1949251,1.0792397737902224,1.3151171717931904
815077,1.3883403519747848,1.6395368552889942
3005869,1.136264871756588,1.372142269759556
711732,1.3969650851658455,1.6387260353578612
292849,1.142741429680239,1.3876075117752003
1353162,1.0260210400214695,1.2972077867978062
2855096,1.3994205340125132,1.6640076153905738
2268862,1.452115374564791,1.682048409227672
2277106,0.5236984508845541,0.7311307642610396
1373577,0.9763711955427534,1.2243822912673286
2572160,0.9599892899990022,1.1868053285174138
3019319,1.2132355250075506,1.458101607102512
480718,1.3255137998477098,1.5466138310007371
1934136,0.9755672949869929,1.1885510598292224
1118450,0.8634560900608097,1.1278086400488878
3006832,1.1811020667632912,1.4261853920155283
1682682,1.1050513973274183,1.3222896628646212
3940007,1.3253127184321727,1.5523299862588942
594856,1.6654274711842678,1.91201776661474
312394,1.299760934858004,1.5415218850500196
1638039,1.3765483462897048,1.6345834031205473
253275,0.4201775030337213,0.5178720164100918
3885551,1.2838324030117447,1.4836501724732036
473432,0.24282726646748162,0.3405217798438521
3899046,1.2579550498253793,1.5126035953207724
3904211,1.2972243055963195,1.5213627812488972
915009,1.0974564222328524,1.306735979578309
412961,1.0785304041514103,1.3172255984293977
1746667,1.4747953351132095,1.698735133234104
3914648,1.220097766995055,1.455975164998023
2748529,0.5272187784239248,0.621363279123251
828038,0.9925291861419471,1.246952009818191
808493,0.25846060274282456,0.35315059059715803
982576,1.0958318951272459,1.3226479336456574
1847921,0.9946949670115504,1.2246280016744313
3886188,1.0303136478397847,1.2381941516683899
982945,1.2796559597499515,1.537346542036538
805143,-0.41858104017689013,-0.38237907751386224
3390722,0.9390091995242239,1.1303055020296329
572784,1.0294545982467658,1.2621344176972622
3313490,0.7071570820349873,0.8048515954113579
2660811,1.0309070675581957,1.2635868870086922
1535911,0.9507669932222204,1.1560245856589506
1153845,1.0926278115692039,1.300244157173809
2815502,1.7484664209138963,1.9890556360568965
3357349,1.0341378186790502,1.2807281141095221
1458457,1.494211375664554,1.7619592197890137
2107754,0.5161605845196187,0.7183653811877455
3516492,0.3304226792963123,0.4245671799956384
1004078,1.049583552877137,1.2822633723276333
3752820,1.2304280298576933,1.4752941119526546
429708,1.3244614307954614,1.5484012289163558
2647016,1.0039414795808907,1.214318866315524
2227526,0.9759913475116851,1.1915194208137037
1607727,1.1093821656515357,1.3194787004147073
3279797,1.4274600513696747,1.666155245647662
613860,1.0613484353174096,1.2881644738358211
1735660,1.0906717945209294,1.2903124444534568
2995987,1.5338224449963314,1.7820535741081918
3221626,1.0528150167254227,1.27391504787845
1245460,1.3525494764877686,1.6137813451697087
3194534,0.9282652910288858,1.1700262412209015
446039,1.2556927623979435,1.4783496593240268
3748296,1.3302036977909073,1.5750697798858686
921682,0.6921460692828805,0.7898405826592511
1133725,1.287602471303322,1.5031305446053407
3800855,1.0168423654542242,1.219047162122351
615035,0.20354844358763502,0.30124295696400555
296800,0.7797486912055841,0.9670481757127903
1259358,-0.02749309289492946,0.06428477149046685
3364331,0.8283255066121749,0.9260200199885454
3957577,-0.202563367368716,-0.10478218023029229
3139848,0.5516832602534488,0.7727832914064762
2038106,1.0364329357498592,1.2830232311803313
2502379,1.520612125107021,1.7654782072019826
2855728,0.7331011472380842,0.9092133655405952
3076296,0.951191551355038,1.1614744820214482
2988811,1.066750604587525,1.2758288712091157
3095184,1.1266369886856895,1.353654256512411
1522351,0.6961402328589377,0.7938347462353083
1936304,0.8756553743035185,1.1303039197989115
2881752,1.3761294174632632,1.6120068154662313
2669116,0.8166215715949896,1.0162622215275172
3932574,1.4142826930312633,1.6180919631579092
1710886,1.1722356027302276,1.3963740783828054
2758638,1.0920808015335297,1.30097374007247
3010295,0.49216068190861406,0.5899418690470377
2766349,0.8983008306830683,1.0778639184691479
3168889,1.039787987060742,1.2368970060465636
2180212,1.0511271520142584,1.3055499756905022
2704529,1.1522163353315815,1.419964179456041
2276426,0.7167767213091283,0.9494565407596247
1107127,1.2563261319754544,1.491994447003808
2153821,0.6615080125757162,0.7592025259520867
223653,0.9256280994220341,1.1643232937000214
753814,1.132901050035216,1.3300100690210377
1152973,0.6476426441958936,0.860626409038123
1420746,0.785691881589494,1.0012199548915126
647838,0.6365554449587442,0.8439877583352297
3892508,1.0098823114914959,1.2283722572338216
1824493,0.9360078514299742,1.1436241970345793
353883,1.3087932204659223,1.5599897237801317
1708473,1.1942429658444438,1.4016752792209293
2457334,1.1738691996168036,1.370339567820276
476944,0.9961844191603509,1.2348796134383382
1298346,1.2209322969789027,1.44203232813193
375389,1.5093401298568156,1.7911108727384404
379857,1.224530350963443,1.4693964330584044
3212729,1.381391739738281,1.6423920511085393
3058252,1.1826358174744591,1.4372843629698522
1719617,0.9003673383604794,1.1188572841028053
2740339,0.3169835586781986,0.4146780720545691
199357,1.5624300183680204,1.8072961004629815
1285730,0.9187284672131222,1.1111269779071626
1874791,1.0637213410071802,1.3154767951053963
2843538,1.1966512849233202,1.415141230665646
2241204,0.9801702582880725,1.2012702894410998
569571,1.2001747788535462,1.4299039996569538
3834609,1.1486846509737194,1.3904456011657351
1048766,1.1224215841724225,1.373618087486632
1764894,1.2515738936945597,1.4872422087229134
1761920,1.1694713544891489,1.3745338085760364
1267625,1.3360660629211016,1.6072528096974383
1791074,0.9001307339764805,1.1269467724948918
1111627,1.4320485286285518,1.678638824059024
3060629,1.0839409364583044,1.2969247013005338
2835051,0.42694409929307425,0.524725286431498
3492479,1.1397398157009517,1.384605897795913
2977990,1.3607914441384226,1.6027668826404418
1398513,1.3285517475722688,1.5468480226697345
3231496,1.3867085622628281,1.6065419606131148
1813339,0.6446538890059568,0.8321195440624787
323315,1.099813635074713,1.3354819501030666
2137833,1.3030310414058424,1.5607216236924288
2792426,1.1974523907885866,1.430132210239083
655009,0.6065602843024605,0.8113621611217208
3667233,1.5732787251250135,1.8311979283590878
2715103,1.2740494803662175,1.484146015129389
2889900,0.9349435378163358,1.167829788872955
3419370,1.0790663524375086,1.311746171888005
1790268,1.5773067332269806,1.8253178289515557
2963735,1.1523880945241005,1.3882654925270685
3206292,1.5852686865832755,1.798063661488551
1457423,0.44498744143054425,0.5426819548069147
3049362,0.954791762510508,1.1597753378563898
3321322,1.1255402213591932,1.3410682946612118
3000289,1.0464804351129264,1.2793666861695456
505567,1.360979135482177,1.5877951740005884
414748,1.5465172382049999,1.7821855532333535
1729495,1.0399521784381391,1.2323506891321796
1475679,1.1948303558581097,1.4428414515826848
596575,1.1517470228273472,1.3645419977326227
942596,1.2217262681054262,1.4428262992584535
3152964,0.8714449320563231,1.0818223187909564
379564,1.8406063146694196,2.079301508947407
2480757,1.0403638197202918,1.2821247699123075
1008775,1.38309851971944,1.6177299744336138
1942240,0.8831461884401848,1.0949098167605262
1757138,0.5765656660477637,0.6742601794241342
2910740,0.8169079038846754,1.0369363366028246
1444785,1.4113966393778183,1.6500918336558057
1403644,1.4155830468240092,1.6256795815871807
3283428,0.32238364365290006,0.42007815702927065
1949158,1.2980567221157908,1.5660421099070323
759513,1.191649031875885,1.3964509086951453
3396294,1.2088047011704546,1.4553949966009267
2749700,0.9033414003220392,1.145102350514055
999081,1.1984456625456636,1.443311744640625
3438869,1.089341119769545,1.3611471439955931
437451,1.5786167510862066,1.7984501494364933
3134701,1.2278325337326839,1.4433606070347025
2815043,1.2750080543428777,1.4799916296887594
3536299,0.7910410437618138,1.0283688064688854
3390406,0.9740551482835147,1.241802992407974
2149131,1.2309602045148031,1.4696553987927905
320252,1.0127408987437942,1.2639374020580036
369833,0.9971353808896384,1.221075179010533
841533,1.3755334585447345,1.6299562822209783
1530005,0.9958527153854083,1.2271995640067521
953423,0.35112630402909356,0.4488208174054641
1969576,0.27710105960445514,0.37488224674287884
2970858,0.903303539223636,1.1217934849659619
1857728,0.8621249949537986,1.0878417314476279
960323,1.3240332271201054,1.561800235773032
2464974,0.8531913577674903,1.1209392018919497
2468757,0.9218325092338912,1.147349169217271
1588177,0.8654123545549435,1.0865123857079708
2926310,0.6382694270327121,0.7360506141711357
2775051,1.412805629815136,1.6454854492656323
311449,1.053401729558025,1.2982678116529862
2732537,1.2767660980690692,1.5064953188724768
1744212,0.5504041914458236,0.6480987048221942
2025712,0.9903354631960339,1.2200646839994416
2134135,1.5212644857235642,1.7994621109420452
1997929,0.9521775267428226,1.0498720401191932
1506156,1.0322328732852055,1.2866556969614493
231482,1.0167748169291475,1.226871351692319
3156512,0.8207314915448973,0.9184260049212679
3110038,0.6529872454108319,0.7491166466607878
2517028,0.9280861358143496,1.1463824109118153
2835806,1.3333070631814912,1.551797008923817
905466,1.579783119270535,1.7953111925725536
2195522,1.0858689906965615,1.337065494010771
2744956,0.41611431595021586,0.5138088293265863
1770595,1.1925669851101222,1.426885208884192
1233952,0.5967614567695528,0.6945426439079765
410916,1.4158936796792079,1.680246229667286
2486526,1.409525598071553,1.639254818874961
2819928,1.3335651057824964,1.5508033713196994
2634289,0.9373473215635979,1.185358417288173
2285266,1.4950410728794685,1.7430521686040437
2933422,1.4522831797053763,1.7059415036754209
3738757,1.156085805166148,1.386018839829029
572971,1.2128195924262424,1.4576856745212037
2866810,1.553617149620159,1.7865034006767782
3112288,1.2511807498557048,1.5191661376469463
438431,0.6455469082966154,0.8628687682430534
1890675,1.58862194381789,1.8600492852269217
3513360,0.756952065873395,0.988298914494739
2680327,1.4000908537759742,1.642174984164943
2770920,1.0391934300151808,1.2602934611682082
2500521,1.1804213653991706,1.3919972853180322
3472848,1.4913397087310534,1.7556922587191315
2763606,1.4518551515990121,1.6905503458769995
3854342,0.8795433664864432,1.0784606185384096
1573204,0.8210697189027284,1.0467864553965578
3206196,1.1752093649461792,1.4429572090706386
3779507,1.2096070226185114,1.451367972810527
1878711,1.0014444016100104,1.246872541654405
3160426,0.5809024321811884,0.6785969455575589
877983,1.1314323371085162,1.349728612205982
2978907,0.9669522306283316,1.1642361231011045
400910,1.3608850197245157,1.6355548377677485
3202861,0.6080844563453076,0.7057789697216781
3445612,1.6808780280058166,1.945230577993895
2731357,1.3156837782561395,1.5500020020302092
2779143,1.038550180548818,1.2682794013522256
3093019,1.2663536887215197,1.5052606513962885
533902,1.0250360033780928,1.2196454948753592
3155572,0.8367136110316755,1.0389184076998024
424319,0.4771859240178476,0.5748804373942181
2947696,0.8413906719778127,0.9391718591162364
2285409,0.8855612009972228,1.106956793329827
1525841,1.807297642745326,2.06172046642157
3777062,0.3398355209140234,0.4316133852994197
3294146,0.7399124409124214,0.9667284794308328
682371,1.1127287710717086,1.3483970861000623
959295,0.9689234274898507,1.1817184023951262
2119399,1.0050581445650577,1.2407264595934113
1210756,1.0065922226624315,1.245287416940419
3436789,1.5136903755922826,1.771380957878869
581390,0.7971938638782443,0.9858122091527678
3077396,0.3949803216787437,0.4927615088171674
3933028,1.1071725483823736,1.3256624941246993
976293,1.1750873452097519,1.4077671646602483
3082367,1.334079314498186,1.5826422729858514
2468659,1.2496243631205786,1.47644040163899
2643464,1.2760985790291133,1.4931442834174178
3880376,0.5151811694231082,0.612962356561532
310667,0.3567770541858249,0.45268013642452065
3876213,0.8927865770557473,0.990567764194171
503140,0.6017082710170094,0.8627085823872676
1410082,0.8921835582649944,1.1248633777154908
667627,1.5470900471934521,1.7598850220987277
2786310,1.0926549319809986,1.3069482929850038
3880187,0.46569836685593935,0.563479553994363
1035438,0.30680113500499406,0.40449564838136454
1549467,1.1221549136328979,1.3537070112596994
3901915,1.2665067391907665,1.4964397738536475
1875151,0.710847307874255,0.8086284950126787
3162389,0.7209933342581447,0.9596885285361321
847886,1.2704076162786921,1.5030874357291886
615391,1.048775476063811,1.2967865717883862
3182357,0.7959082434335523,1.0227242819519637
2433872,1.404792861335376,1.6316088998537874
2148290,0.7273909697624484,0.825085483138819
698711,1.2411960822912198,1.4654352377235613
3339091,0.9813582336938295,1.2200534279718167
327116,0.7029273340128989,0.8006218473892693
3332723,0.826233048850523,1.0649282431285103
1397223,1.2818927825283761,1.556562600571609
1994451,1.33024952653784,1.5785761762732908
1014199,0.33930858830188454,0.43700310167825507
3757013,0.9839425855383065,1.2050426166913337
501536,1.2943366436287704,1.5227497969250858
1769377,0.7338811153702196,0.9509268197585241
1435412,1.3773509888052253,1.652020806848458
3413083,0.9948130399984968,1.2274928594489931
3758865,0.6302323445676313,0.7279268579440019
3162945,1.5262022545818832,1.7773987578960926
3511554,0.8293910532373847,1.0409669731562463
2721574,0.3615163376944225,0.45921085107079296
2560585,1.194739474144333,1.445935977458542
3255030,1.5173306450143706,1.7753657018452131
1597199,0.6385751006626951,0.7362696140390657
2670736,0.9757588211434016,1.2119515343529108
1743891,0.32481246603546776,0.42250697941183835
2804490,0.9275571030352208,1.1022716470057257
3508206,1.355527336488887,1.5942225307668743
3955177,0.6924145863976023,0.8822880148590526
697343,1.2184492556421227,1.4664603513666978
833277,0.8343069495615534,1.064036170364961
2178948,1.1630569896655358,1.3944038382868797
1952153,1.2813356210911864,1.5295667502030468
1967698,1.3956878611870818,1.6227051290138033
238860,1.0479506224868054,1.2527524993060657
3144448,0.9749992169273877,1.182431530303873
3764280,1.1044264599612073,1.3371062794117037
1672479,1.2680581611817505,1.5131414864339876
2467038,1.2233080683301738,1.5002519421657625
3401838,1.0845337428664006,1.311349781384812
3532856,0.6518418601592375,0.8489508791450591
388900,0.2441449851602633,0.25978175008965787
2906151,1.3813073934298552,1.6083246612565767
1022914,0.9530613839672013,1.1441023075817234
1153642,0.5638251885775252,0.6615197019538958
3705469,0.899117856018276,1.134995254021244
2507569,1.563712529516684,1.8247128408869422
348541,1.2626494975583449,1.4597585165441664
2807849,0.9420752059738388,1.1633713952408464
3241535,1.1757904678365707,1.4117586326834421
3098671,0.9870099181147167,1.2140271859414382
319504,1.1276280323808296,1.3573572531842373
3874356,1.1634999983778616,1.370932311754347
2525272,1.2823145368861684,1.5149943563366648
3338037,0.3994479825498044,0.49714249592617493
725920,-0.05500189532601535,0.04269261805035518
1828829,1.2708710395780858,1.4950095152306635
3781928,0.46630520714275614,0.5639997205191267
1834459,0.7115510710750066,0.9130589571727554
1439182,1.195232195428068,1.4220482339464795
804762,1.0085028087043675,1.2267990838018332
1632889,1.0480110485912026,1.280690868041699
3374587,1.4015949176225075,1.652791420936717
3027898,0.7713629433016278,1.0131238934936435
2498117,1.3590891143461659,1.6135119380224097
1170302,1.0368206015311288,1.2912434252073726
1549437,1.0325561510947194,1.2734410805012362
3795640,0.8494365241101969,0.9471310374865674
1328338,1.360158044778195,1.6113545480924043
1907691,0.46091000396765763,0.5551380288872313
394308,1.0916349716319118,1.3127350027849392
3757094,1.2211481946676837,1.425950071486944
634159,1.5349246713705407,1.7588644694914355
396598,1.28135504639156,1.5560248644347927
1749417,1.1178374118791259,1.3361336869765916
2016823,1.3990214603461233,1.62905777762134
533080,1.2064600262436231,1.4742078703680825
1958951,1.116156638539559,1.3402951141921366
465594,1.0457942849802544,1.2784741044307508
1045772,1.0147491366057542,1.2474289560562506
1901764,1.0879535869198733,1.3079820196380225
3802459,0.4351474743468145,0.532841987723185
2994091,1.2055927802340904,1.411836760116904
2857208,0.6128324842195775,0.8369709598721552
1811757,1.0189573048200165,1.2609327433220356
2201975,1.203056204540989,1.4298722430594004
2209147,1.1822590261600725,1.3977870994620911
1213730,0.41332375295921386,0.5110182663355843
483821,0.7071507066269717,0.9310905047478663
2148736,1.053828479299424,1.2752098244857255
1010453,0.9345659346612313,1.1857624379754408
2168998,1.040549845264684,1.2673658837830954
2692009,0.8708692474500225,1.099282400746338
2948112,1.5831094619692876,1.810126729796009
3896395,1.05004969276602,1.2473335852387928
635400,1.1792431617153847,1.4031829598362793
3066491,1.2929151637221252,1.523448510989272
232440,1.1125475664042437,1.3605586621288188
2685102,1.5116799961391603,1.7794278402636197
2225579,0.904523682358409,1.1722715264828683
1308956,1.4692136384384455,1.7236364621146893
711078,1.0499599411922351,1.2796891619956428
2430425,0.4085320341097524,0.5044351163484482
1683648,0.8833057872564893,1.0756179141089288
1844669,1.302604517413973,1.574031858823005
1531572,1.028349283937851,1.2656770466449225
2132683,1.5498396852310123,1.8108399966012705
3381602,1.1664154435678522,1.4307679935559303
2538057,1.2010872247852562,1.4490983205098313
1877413,1.3064139663360441,1.536347000998925
2631246,0.8879875127222336,1.1523400627103118
3795411,0.8305257995315667,1.069220993809554
2720880,0.419883247267586,0.5175777606439566
2210994,1.3237695452820426,1.5717806410066177
3538772,1.038860065310293,1.2868711610348682
2803920,1.474757866835835,1.6890512278398404
2269117,1.5674309100740729,1.8156620391859333
3046854,1.603472562336827,1.8517036914486873
2564385,1.1945321443963488,1.4428587941317996
2002050,0.8299257720776457,1.0828910640993095
3909721,0.20024321491081687,0.2980244020492406
3250714,1.0739134601651161,1.3316040424517026
2051230,0.3316831863461901,0.4293776997225606
2273506,0.4352945914765564,0.5330757786149801
2976852,0.9379364132345712,1.1539301691635893
1097029,0.920847912463412,1.1154574039606786
2420356,0.5499744995600568,0.6417523639454532
2569961,1.1226376304658996,1.343737661618927
1630573,0.7411304364111989,0.8370335186498947
1386073,1.3139085138097566,1.565105017123966
2469957,1.1439718710990376,1.369518844920753
2886193,0.38405457967011625,0.4845047910077648
2452272,1.2702350627934709,1.4903481635916307
942386,1.2501842801564187,1.491005123282819
376596,1.5173366615794863,1.7750272438660728
1402652,1.0309961944684907,1.29874403859295
1169979,1.2283386929265727,1.4580679137299803
442113,0.5500979971901986,0.7575303105666841
1387794,0.9648060432927413,1.1751698919195201
1111835,1.1929920157175715,1.419808054235983
3296858,0.6197924485277386,0.7174869619041092
1344030,0.29559877663783596,0.39329329001420654
2993699,1.2623329607052203,1.5074162859574574
3014612,1.3509046019618722,1.6188899897531135
344439,1.3338162968959935,1.557756095016888
742601,0.6782797832244932,0.9022195813453878
2118467,0.5651470530206227,0.7924677920459383
2770439,1.1877806079318953,1.4088806390849227
2003844,0.35533739792849295,0.44711526231388926
3680224,1.2371085929107932,1.481238891772494
2410653,1.4274840301806895,1.6918365801687676
3116215,1.202348063073936,1.4600386453605225
1241476,1.022285119528368,1.2509009190799787
1462762,0.8605959969998699,1.0848351524322113
1714438,1.0238538871741316,1.2451500764411392
1576390,1.495349315470476,1.7404326407227133
631924,1.1246144002665317,1.3145608930062407
1167657,0.8674489171942092,0.9651434305705797
560781,1.1169119099607219,1.3380119411137492
1862234,1.314727660680924,1.5536346233556928
1057296,0.4289022295489865,0.655718268067398
3759153,0.50984150315531,0.6997879958950189
945463,0.741727529411039,0.9572556027130577
532593,1.0839000565614436,1.3319111522860188
618623,1.1979992032434814,1.433667518271835
949218,0.5601677214473902,0.6578622348237607
1014753,0.9957527274982547,1.2501755511744985
1291290,1.3632845311815271,1.6162498232031908
1377951,1.0242524157565072,1.253981636559915
679804,1.0906053384485639,1.3174213769669754
3138055,0.7384999663995222,0.9682291872029298
3302085,1.3425859995529958,1.5970088232292396
1993299,0.8380122491041884,1.0767074433821757
2450936,1.1002928505936147,1.3271088891120262
2875219,0.5390575526713962,0.6413841336957707
340489,0.5821238058515246,0.679818319227895
532765,1.1603638260070097,1.4147866496832535
864661,1.1807609647563748,1.4075770032747863
3737958,0.7063734220587123,0.9333906898854338
3446941,1.2346603691898814,1.4826714649144566
3127920,0.6028872546643547,0.8025279045968823
3407586,1.0999500818866506,1.3356183969150042
295106,1.3170310202010727,1.568227523515282
1559245,1.45065444461046,1.7020738073791504
2255046,1.133519897750905,1.369397295753873
761599,0.9916721658646411,1.2147411559153378
1469163,1.0420613283795344,1.261894726729821
2199657,0.2860906405048679,0.38378515388123835
1195706,0.9338988751060309,1.180489170536503
3742367,0.8382996764900588,1.0929482219854518
2603867,0.35678898789682817,0.4544835012731987
2906522,0.9998270610243469,1.2183170067666726
3666987,1.3267051311173312,1.5343214767219364
923853,1.0139117372811435,1.2161165339492703
1547385,0.8743739443726747,1.1356058130546147
2986044,0.9419901490038317,1.1604800947461573
2896939,1.008397080864172,1.222880561160851
3916255,0.3600759394180778,0.45785712655650157
842715,0.3927742970994476,0.49046881047581814
991675,0.6075717164906766,0.8343877550090881
2446505,1.057006565335251,1.3213591153233288
2788820,1.353619439792262,1.6146197511625202
3075375,0.06614436262082019,0.1639255497592439
420637,1.2715084319855283,1.524473724007192
3081970,0.502383825992105,0.6001650131305287
2206416,1.1674292109619244,1.4122952930568857
2865701,1.3690848167878056,1.620504179556496
2673763,1.4338715539572786,1.6695398689856322
3113341,0.7263798075276371,0.9681407577196528
2889595,1.2060072863242812,1.4510906115765183
3906448,1.2089009858369228,1.4330394614895006
328800,1.6050042268821159,1.8292433823144574
294625,0.2499318240884196,0.3476263374647901
2902299,0.6894561128644728,0.8867400053372457
1401107,1.5672412787916894,1.8315938287797675
2533439,1.1369269058015583,1.3817929878965196
1242541,0.8770082198705247,1.1449936076617662
3165386,0.6832266774849806,0.7791297597236764
1366694,0.5367847097932599,0.6344792231696303
3676163,0.8857503023646343,1.1342972654442716
2131729,1.2366450399517477,1.475340234229735
2863971,1.746561920481174,2.0234484281312315
3887504,0.4774164999879309,0.5751976871263547
3116842,1.2491400343616292,1.4733647596600168
3881603,1.022236019294917,1.2492532871216384
1041264,1.158748951793796,1.423101501781874
835785,0.9923780454624049,1.1858726625547713
234333,1.1965427859465285,1.4322111009748821
454615,1.195767932849998,1.4140642079474637
1081411,0.6911082345691113,0.7888027479454818
3086233,1.396222871887954,1.6608099532660145
1558113,0.8997847729046751,1.1239232485572528
3694103,1.571796297064627,1.7991024076513529
3533491,1.0161678776404575,1.240107675761352
1731979,1.2825674847329909,1.5198952474400624
1210596,1.2609402920556427,1.483597188981726
385508,1.3058776656667765,1.538557485117273
3145261,0.34198503669168856,0.43967955006805914
1332783,1.2671036334770334,1.5183001367912428
2810231,1.0706803674261574,1.3006134020890383
3256648,0.9745953747611694,1.169204866258436
1782159,1.1977409280693694,1.407837462832541
1686492,0.9475839702695785,1.1717224459221562
3319734,1.2362357239007007,1.4842468196252758
1813318,1.214493989291329,1.447380240347948
951961,0.9942810041286169,1.2125772792260825
2222458,0.9159587725410909,1.1456879933444986
2186198,0.9990629548683542,1.2230027529892487
1940777,1.3454157769109019,1.5626540424481048
1594202,0.6653350352128807,0.7630295485892512
744212,1.3622477765137606,1.5935946251351045
1208940,1.5588493676571296,1.800610317849145
718820,1.4181279180670243,1.6478571388704322
1524004,1.2038934149203064,1.43956172994866
2250076,1.1997729546054943,1.402157145692271
1552286,1.4657593272844816,1.6956923619473625
2131142,1.2835721742797135,1.5164584253363327
1977855,1.1651303293218305,1.386426518588838
3372393,1.0729421867502487,1.305622006200745
637307,1.0043758052413594,1.228315603362254
1244761,1.2750652317109188,1.5264845944796093
1213212,1.0908426442763342,1.3205718650797418
565941,1.1544425589277538,1.3545915529296677
3507214,1.040868859555703,1.3086167036801624
465472,1.1433376637267898,1.3776558875008595
3007535,1.181634272634229,1.4462213540122897
1418951,1.115079565925891,1.371768097480307
2845257,1.3050548394097683,1.5501381646620054
2227201,1.4577331955197703,1.728919942296107
1350286,1.2421007772822028,1.4807959715601902
3750282,1.3434004039101202,1.5790687189384738
3475103,0.8952945784207779,1.1110968763408045
2163268,0.605002083903414,0.7026965972797846
2056117,1.4933021637775572,1.7714997889960382
3191564,0.5888851869320757,0.6865797003084462
2582466,1.05854107237662,1.2942093874049736
560523,1.2360942491169291,1.4687740685674255
1869693,1.268777158564943,1.524063096328613
2869527,0.7651796011247711,0.938826424214339
1753006,1.0416729557205604,1.2820489113092828
1627301,1.094688752961313,1.3320165156683847
1210173,0.27783040405011666,0.3755249174264872
1372403,0.6414171794182948,0.7391116927946653
3777500,1.134949062701704,1.3649853799769207
563924,1.2144538377581826,1.4383936358790772
3377749,0.793236156117528,0.8909306694938985
2120889,1.281542462335265,1.5359652860115087
271702,1.2359746659630908,1.480840748058052
2506706,1.4709381809952657,1.6892344560927315
3679873,1.1457056819196147,1.3632495862321317
1934468,1.2930788472097785,1.4954630382965552
1169485,0.8899755188466281,1.1030412409441992
1810304,0.6781089060241148,0.7758900931625384
3498402,1.2392585245702765,1.4567059368946034
2548847,0.6121383277411717,0.7098328411175422
320620,1.20483159891055,1.396973259275411
3676613,1.3118984233910844,1.5276177114122882
2856804,0.555157947674136,0.6511461143320366
1900980,1.1832349869246452,1.407373462577223
1822264,1.0078134933062937,1.2436908913092615
709768,0.981866207508538,1.2330627108227474
432121,1.2848819127479134,1.492314226124399
3103426,1.3787051909135375,1.6115914419701567
2820886,1.1999240866814807,1.4129078515237101
3015065,1.2965420718002663,1.5447732009121267
2018376,1.290298835622186,1.5383099313467614
1907287,1.0552281031635835,1.2685115210015097
879587,0.8221804759517765,1.0377085492537952
2118045,0.7627738154430304,0.8604683288194008
1144458,1.0992651724049065,1.3263844131234346
3746881,1.3589695394327772,1.577265814530243
3663022,0.8859843547613679,1.0897936248880138
2826782,1.3177661903342177,1.5334854783554215
3017803,1.1039125827594098,1.3307286212778213
2257678,1.1594650956049561,1.4173842988390304
2970464,1.1132392943029348,1.3277516053633716
1507006,1.3597591286359751,1.6046252107309362
3311026,1.0863982235329939,1.3281591737250096
1260665,1.1675943150594186,1.3973235358628262
1378835,1.2335084627626673,1.4783745448576286
1139271,1.0892954034769882,1.3502957148472463
3154143,0.9893201574767934,1.2219999769272898
1473519,1.3551466068645714,1.6063431101787806
3662768,1.2560631912918043,1.4859962259546853
3335449,0.9019235211448328,1.1531200244590423
1115590,1.4047553867076703,1.6710051474566578
807505,1.1105962690455087,1.35546235114047
2585000,-0.06063125568018096,-0.04463517866838622
3907893,1.4467433001365022,1.6597270649787317
2866115,1.2271637336345593,1.4803874880029044
432737,0.9629154056998104,1.1703477190762959
2916187,1.4624309190821168,1.7075142443343538
3465293,1.2209822105604908,1.4392784856579566
3053688,1.6271352987932723,1.8917223801713332
1686008,1.1523126118072313,1.3973959370594684
2714774,1.0176272151887529,1.2226896692756404
1136760,1.4078908145567477,1.675638658681207
900954,0.7600040443886062,0.8576985577649767
1030840,1.1357549336995396,1.3488206557971107
1127330,1.4566971855513842,1.6752852738350736
3326009,0.9269783874931413,1.1718444695881027
3302258,1.2488924447272431,1.5065830270138296
2181110,0.9940768386683486,1.2330757339791911
540050,1.3996375846525366,1.6413985348445523
2402328,0.9779705023522158,1.1854028157287013
3760902,1.2944423829852378,1.5365265133742065
717962,0.28208181489478046,0.37977632827115104
2620516,1.1324615480370392,1.3681298630653929
2925091,1.254409277055747,1.4814265448824684
2539270,1.0692187891486258,1.274020665967886
2462840,0.7259625396168895,0.9448440795107681
3412943,1.147620728773362,1.4153685728978214
2749202,1.0336200196347947,1.2491480929368133
441112,1.26554509187015,1.5012134068985037
1024226,0.5422982541969741,0.7202763958221863
1442291,1.5502689907315024,1.806483321102703
2522799,0.7140959893135461,0.8117905026899166
1006670,0.8263031343367853,1.0619714493651389
2498663,1.0769851519507905,1.2952814270482562
193799,1.3582722314793214,1.6126950551555652
2978205,1.016903948453802,1.2651350775656625
904641,1.2385821576637421,1.4712619771142386
3196063,1.2082802817471376,1.4398323793739392
1513903,1.2616126198470252,1.5003078141250126
1820797,1.5352340796610744,1.7684316474312665
1415250,1.3440773717597079,1.605077683129966
629002,1.0819875434236614,1.3299986391482364
2444235,1.3701761813073832,1.6028560007578796
458437,1.5362352855684678,1.784246381293043
705960,1.3700918722324715,1.627782454519058
1538471,1.4240250102577796,1.6585511192167002
2601714,1.1958862866626445,1.4157196850129312
2968219,0.4324987230771495,0.5302799102155732
1451360,1.4591119427942663,1.6947802578226199
3879428,1.182269319582347,1.4468564009604077
3516384,0.5622374882336504,0.6599320016100209
898671,0.6401210367746051,0.8556491100766237
3314811,0.20781564773372457,0.3055101611100951
2276229,1.2577877835743938,1.4995487337664095
2277631,1.400412400320901,1.6473057860938076
1899622,0.8078150580225796,1.0291112472895871
961129,1.5747587043980986,1.8375968375425566
898689,1.4051162449544352,1.6424440076615068
1718397,1.0572662793499614,1.2636932371812746
1361936,1.0587516787045006,1.3067627744290757
3944940,1.366341927628964,1.6052488903037327
3409373,1.660585194050888,1.8992803883288754
745183,0.8420445777910388,1.0807397720690262
1400649,1.0779602548580995,1.304776293376511
1233768,1.3200197859005909,1.574668331395984
269271,1.0235156256619782,1.2747121289761876
807141,1.2940991249037361,1.5297674399320897
2283022,1.2667548516253153,1.5379415984016522
3341695,1.5276144620735854,1.7756255577981603
3929933,0.9126360337891395,1.1001016888456614
2754134,1.0057685767983016,1.226868607951329
3107699,1.093196330366465,1.30081267597107
876449,1.239217306432642,1.4676304597289573
1904851,1.1702410591528505,1.4184721882647109
3751935,1.4391083545331143,1.6747766695614679
508695,1.5201806861279314,1.746114732082049
1668755,1.4741049573661855,1.7040379920290665
3364824,1.2896336031402058,1.5313945533322215
2650690,1.0825352810435058,1.2926318158066774
3396300,1.5182646483788418,1.7694611516930512
1693620,1.2424639126745178,1.4723969473373988
2505948,0.6155125336647853,0.7132070470411558
479874,1.3509122417809882,1.5957783238759495
953788,0.603809816876276,0.7015043302526465
3085958,0.8214598463182579,1.079379049552332
1141869,1.7969727792725767,2.064720623397036
1832979,0.7883401885998367,0.8861213757382604
2604728,1.0610182600344893,1.3090293557590642
3106653,1.4951047521550278,1.753023955389102
3744292,1.0766090585423027,1.3379582688226888
393805,1.093297867353899,1.3103435717422036
1280926,1.3907396620421602,1.6294348563201475
2476982,1.322043560553435,1.5638045107454508
1438259,0.7483584803324665,0.8442615625711622
1760108,0.9077408243684658,1.0903201610414661
2624214,1.585747820515812,1.8604176385590447
2544213,0.4809003010470423,0.5750448017463684
2183265,1.1904405861450722,1.3818350880777521
2133022,0.5262515844225419,0.6239460977989125
3139216,0.9899763594654448,1.2000728942286165
2486294,1.0708390844456153,1.3035189038961117
3160595,0.9723793324789896,1.2051596660445565
1400524,1.2241852202777197,1.4757175170083205
1733224,1.2157657635862398,1.463776859310815
1792331,0.9934603862700311,1.2145604174230584
1095251,0.8641014253919164,0.961795938768287
560938,1.28250083525341,1.5242617854454257
1520918,0.780944695683484,1.0258107777784453
2228484,1.4255806092809238,1.6836156661117663
540382,1.1418769278454903,1.3589226322337948
1153811,1.3977100049000981,1.6248292456186262
1850725,1.4474668821555148,1.6833442801584828
2575905,1.060209462471842,1.2958777775001955
2625844,1.607277057671306,1.8459722519492934
1844270,1.4937415652137511,1.7549734338956913
3714507,0.954031786723448,1.1697510747446518
3933625,1.4232162680015414,1.6502335358282632
1083142,1.4282241966744682,1.682647020350712
1468371,1.1451478228893683,1.3719638614077798
2916932,1.0726820006129016,1.2844740940958383
365288,1.3793934976193467,1.6120733170698431
966896,0.8428208629417802,1.0583489362437988
2892784,1.1480684717859981,1.3809547228426173
3756488,1.5283548850424573,1.781320177064121
722732,0.9847811070151954,1.200583404935222
230707,1.2518345097853305,1.4661278707893357
3397708,1.2049191009620457,1.454676555491991
1412742,1.5816470227429011,1.8194140313958278
1947693,1.055727054176716,1.3103755996721091
1289997,0.40891393306939083,0.5066084464457614
395388,1.6480738272414241,1.8929399093363855
1473778,1.3735747526908715,1.6184408347858328
3377430,1.2298716645093184,1.4373039778858039
2049967,1.023624164057102,1.2592924790854556
2941809,1.140770418950849,1.3513209006395093
2223931,1.4023170469876398,1.6440779971796555
363619,1.2911269979237772,1.5423235012379866
490758,1.1472081721390446,1.3828764871673982
2685086,1.323864486267083,1.5750609895812924
1574428,0.8548049692602732,1.0571891603470498
950343,0.49922636602591397,0.5970075531643376
3831867,0.9429466704873317,1.1786149855156853
3052554,1.0719796243583875,1.2825301060470478
637057,1.2303328111926468,1.4751988932876081
1968120,0.8824322669471374,1.0876898593838678
817348,1.0581961319619821,1.2850121704803936
3466241,0.8320372676237896,1.042133802386961
470644,0.7917504489473701,1.0018469837105417
1909969,0.2573738162714407,0.3551550034098644
1978269,0.8065355611245277,1.0516188863767648
3057778,1.1235333457850523,1.3686166710372893
1835392,1.0883996016720214,1.2960159472766266
299612,0.9571557270531793,1.14929738741804
2487421,0.9524015562865332,1.2100921385731196
2016750,0.9854670866640562,1.2184579468753427
3887785,0.3134432195834076,0.4112244067218313
3414936,1.2981339886652705,1.4977746385977981
2738101,1.4750856321413932,1.74627237891773
729203,1.4133044982244745,1.6613155939490496
2217839,0.5018754418787456,0.5995699552551161
2058023,0.36808473551417836,0.4581796627690534
3222368,1.213342273494125,1.4810901176185842
324252,1.122091951036382,1.3898397951608414
1511896,1.2327898753476823,1.4808009710722574
2681261,0.8903658353401447,0.9880603487165153
747859,0.9459863160673393,1.1728023545857509
3666379,1.422823064688213,1.6388168206172309
651816,0.6008307121138479,0.7929723724787086
2751309,0.7489000357587913,0.8406779001441875
3325923,1.5838208705778531,1.8415114528644394
3915137,0.9279270192008664,1.1520654948534441
839354,1.0874087776245351,1.3113485757454297
2516383,0.8483663087821589,1.0587584344138357
1867260,0.36648843944167175,0.46071646436124536
3729929,1.2761630463931743,1.5120404443961424
3069139,0.9875401015305956,1.2103945378090615
2210842,0.9724511175469369,1.2301416998335233
2456258,0.9581848011549273,1.170979776060203
2825150,1.1266869084175377,1.3625643064205057
2274215,1.190136509692217,1.4158532461860462
2255372,0.9863852130894506,1.2163182477523315
2644044,1.040916515561799,1.284412540661519
1143495,1.3975549831884262,1.6161290049930095
2139061,1.564642507426552,1.8289950574146303
2673243,1.1827278316597722,1.3901601450362577
2453337,1.171831828494545,1.387908699939058
3856561,0.6714245950043902,0.7692057821428139
3392684,0.918012521543504,1.1254448349199895
3508465,1.3483735074904968,1.5639015807925154
1551229,0.7885499299837804,1.0042692180049841
1767423,1.151482356732977,1.4026788600471864
3397804,1.4507510816344646,1.7219378284108013
883740,0.05525363089288515,0.1511567131315809
3549266,0.8354988665765327,1.0443918051154728
2575655,0.9672544826102046,1.172330133630113
3732952,1.0514420655999581,1.2564256409458399
466687,1.438165874081809,1.6991661854520672
371633,1.269313941411178,1.5019937608616745
1667639,1.2528818827756476,1.504301245544338
1309333,0.8508257056033255,1.058258018979811
2817868,0.548437003986775,0.6462181911251986
2623829,1.119633129130888,1.3725984211525517
2741596,1.1839795935559418,1.4257405437479576
206507,1.3526569158622657,1.5548617125303923
1474884,1.0455273519683934,1.2903934340633547
2190165,1.2830573682539224,1.5217525625319097
1682399,0.9338245265755788,1.169701924578547
1336016,1.1439914919245737,1.388857574019535
1347787,1.1533915220984945,1.380207560616906
714006,1.3636288569929635,1.6246291683632217
991548,1.6013373101592767,1.8281533486776882
2628877,1.6578988479484265,1.9256466920728859
3513191,1.1188483064685468,1.3637143885635081
3394656,0.9403239942058452,1.1730038136563417
1635003,1.2571197010888793,1.491437924862949
3126479,0.3334853151993179,0.4311798285756884
3422629,0.6457086134828871,0.8712252734662671
542257,0.5019921592233892,0.5996866725997597
2975885,0.5439892354411102,0.6399774020990109
822995,1.2851150423542783,1.5224428050613499
3025030,1.0995067312786573,1.3475178270032324
2901680,0.8236395971411763,1.0339225278075865
3926755,1.542958978723916,1.7818659413986848
1438671,0.9504282406812529,1.1566722205640663
1713478,1.3327442007850907,1.5597614686118122
898605,1.3403774839375673,1.5531724588428428
391697,1.3344279105975823,1.5555279417506096
1878647,1.2164972779297722,1.4464303125926532
3169905,0.6308328669238512,0.8356347437431115
1671708,0.27865095635726084,0.37643214349568455
1051642,1.2377257531670136,1.4560220282644794
3045858,0.6350935958922668,0.7328747830306904
1892622,1.0126884195205514,1.2284077075417552
732879,1.2729061902568424,1.514667140448858
1595972,1.0509442359420547,1.251990646394695
1152478,1.4516425180033776,1.672742549156405
2802911,1.2334244788260178,1.4560813757521012
284423,1.049910192668642,1.3076007749552285
491195,1.0029049361684759,1.2103372495449614
1953752,1.2374939425878484,1.4951845248744349
1443806,0.882385964265785,1.1241469144578007
2517954,1.41106848896161,1.6350082870825047
1858447,1.248955202614356,1.5003745653830465
1566072,1.1585584681751777,1.391444719231797
2723873,0.5112379520315912,0.6089324654079618
1410681,1.1002918345896202,1.3680396787140796
541109,1.013723627052803,1.2351049722391045
858303,1.0594982957771952,1.3075093915017704
2401648,0.192960920522936,0.29065543389930654
2647950,1.1554101408342676,1.3799104663895685
1409885,0.26616670497881884,0.36386121835518936
959635,1.484124819262905,1.7109408577813165
3807136,1.4710232199406712,1.7320235313109293
595399,1.017060600494675,1.2353568755921407
3873720,1.005966848058553,1.2510501733107904
1663666,1.251299163206763,1.4697891089490887
2906296,0.6108196461716588,0.7086008333100826
1741017,0.9423778746476112,1.1420185245801389
2048680,1.1521543184653134,1.3789703569837248
890862,0.5119936187323979,0.6096881321087684
2159885,0.7874234956070637,1.008523526760091
3118599,1.10740994703697,1.3304789370876668
553450,0.6244453026704473,0.8372402775757228
2000548,0.7452513164951386,0.9610536144151651
3397121,0.21751063304569684,0.3152051464220674
2548810,1.10060008929598,1.3582906715825664
3138580,1.3009604609467504,1.5475507563772226
3247422,1.2595127307094733,1.5097324360443731
1157899,1.3574735495900412,1.575769824687507
317167,1.0318170805242823,1.247345153826301
2580978,1.2331820931320265,1.4876049168082703
391709,1.0067173873421615,1.2779041341184982
3091799,1.3977529080496573,1.6495083621478734
249261,0.9293440204147909,1.1711049706068066
760518,1.5326377530823057,1.777503835177267
3155040,1.2901208564288962,1.5381319521534713
2849438,0.7090215703899914,0.8068027575284151
303724,0.9332185769477733,1.1749795271397891
672139,1.4115395488855143,1.65330049907753
1055548,0.8798286549501708,1.1157060529531388
230947,1.1650793989833832,1.362451908543371
570601,0.9188518540173878,1.1173488071596154
1707326,1.123942974179861,1.3851748428618011
2204983,0.8279523017138024,1.05768152251721
852953,1.2806769030479006,1.5553467210911334
2497615,1.2378740808888082,1.5022266308768863
3492381,1.1694053679645842,1.38770164306205
2859112,0.8857725766133682,1.1070687658803757
3658475,1.2752433817733022,1.4847086102064082
1596402,1.4559639581909072,1.697724908382923
646066,1.0290918526142179,1.2559078911326294
1016556,1.4820364365074494,1.7147162559579459
2454744,0.8552195081479399,1.0969804583399556
3127730,1.0491232468586376,1.3035460705348814
2400177,1.2727022585805376,1.4801345719570231
1245054,1.153662895946821,1.3806801637735424
2485417,0.9885287798748222,1.222847003648892
638137,1.0471642953463118,1.2889252455383275
2521020,1.012018303419205,1.2417475242226126
2552592,1.1957745972458904,1.4423980392223934
3857453,1.1542439860686278,1.415475854750568
588209,1.1197366809600677,1.3695277077640096
474451,0.9814277428858553,1.223188693077871
3901008,0.31044841295200293,0.4064365796099036
611355,1.0498591642220056,1.288554358499993
269261,1.2661333723230883,1.4945465256194037
2576235,1.1429186651588952,1.4211162903773762
3491218,1.4779722433125209,1.7136405583408745
2173155,1.004896639811876,1.252907735536451
1462127,0.5749832158559847,0.6726777292323551
1437483,1.5913559722262804,1.8557085222143586
2174138,1.1833474404403286,1.404447471593356
