sample_id,y0,y1
1623521,5.74431008508719,5.117183526730976
1032487,1.53445121288428,1.3617724821045831
1325558,0.3038408392149599,0.30383629915443283
1615493,1.9990531809631906,1.8415221769004013
2978487,0.7019110050901534,0.7019099854865073
2891263,2.3233012291016735,2.107054110707665
3090976,0.988366899380528,0.9552095518115487
3119915,0.08126171607204916,0.08125510362708262
2055700,0.13721763319393498,0.06694554263327634
1586560,1.8980607332845567,1.7185181802425014
2967735,0.40144275192978185,0.29685184426614375
1220817,1.183219572297013,1.0084634104509385
1643464,-0.48689630393569927,-0.48690155818666736
3479195,0.6922807942172547,0.5315653902199652
484631,77.36642191060047,69.12858920065885
3152570,1.772311111516868,1.6502363579008446
623683,1.98345056147345,1.77245335334289
3455121,-0.3392406923888752,-0.3392473364979903
3929165,-0.15595596487494107,-0.1559600726994197
912351,5.894940898603058,5.219796816287056
3470222,3.6122827663616963,3.3208577860345683
3662168,1.0009492091275192,0.9252780640917734
1772773,1.2785787358788696,1.1587266193645318
1965408,2.3107250677722675,2.0904141737025226
1912822,-0.46474942845893175,-0.4650948700758991
529708,1.9895221019849918,1.778439004206375
874158,1.295467764213405,1.1832901412037427
3347093,2.872933275418678,2.6302782370042457
3419263,1.582665981686326,1.4454294122486935
975681,0.18235307861314107,0.1823420974072456
2932787,2.301071378553434,2.0489398224205724
3439685,0.27507254108245865,0.27507085240616774
2155637,1.8742347243425925,1.6872434988911706
3224432,2.6120985246399635,2.3768620804846674
2757755,56.3701027940013,50.36854196211254
712928,1.702966529670735,1.4747551562522192
3243949,6.101622108468916,5.498621722812521
1550372,1.2108189818092623,1.1017275400259963
848315,2.982911995104719,2.6448430488927324
3117482,0.12199737772519811,0.1219953670079866
3257812,1.4419221929703443,1.3012396504533046
1281584,2.566304924602557,2.3427236537255736
2500643,6.4312630502369545,5.679252966023349
802117,1.8477605140753894,1.591769789799713
1258446,1.8328210267206668,1.6547690477900152
511610,1.7248418085554509,1.4797465542336223
1246563,1.2748027413358527,1.1826708924946763
722686,2.2002375792408104,1.9944789108988417
3883113,0.12004707104715807,0.12004379594294379
2112356,1.8059062700848965,1.6847957092707428
2285417,1.6555672096224752,1.4787313362968044
1093826,27.020519052455302,24.146627559363996
501517,1.8438331351816641,1.7440092439871
372445,1.1709077860545147,1.0360068272162473
831907,1.1565426864834467,1.0473835829091964
1815440,250.0224262571764,223.34513763777775
3929920,2.3274188169084766,2.1547112444103167
2436247,-0.47029888819949056,-0.47030550064445714
3165684,1.6385520250569743,1.4836664577764576
2135283,2.2239889434388065,1.9252051009611686
2551417,1.5353743100180508,1.3663113081489169
2605113,1.4209078221749556,1.2823461283248674
481657,3.537528784213249,3.2675793667306645
1840394,134.99621393666695,120.63265313920417
719642,5.7276216172724554,5.100652515535099
858240,0.34117293382442104,0.24311904613806212
1946532,2.0411798239548427,1.867874051230809
973679,0.7520005789655796,0.6465772274883184
2596076,3.6672406767757217,3.259064986556389
2672442,4.926838974056615,4.412599037711596
2671622,0.3042476135904252,0.2664173962253846
1910014,78.53881837953605,70.16588952481109
3789632,1.268432274976717,1.0744626009456621
1229401,2.503196568846404,2.2020340301733623
963744,1.388002866183236,1.2630728712061363
3260859,5.064516507146241,4.632167749432861
2739966,-0.20132500735474101,-0.20132621561720462
3934759,1.9304172546549618,1.7738692694241618
2128056,17.80809577857091,15.872937651589462
2154967,1.7090902611978667,1.5105837749293696
3332713,0.2835683744387213,0.2835553343157715
1142763,217.46526747900097,194.23885645451722
1690435,4.627738994788585,4.136167678007305
2528818,-0.18840862822211016,-0.1884109493048946
3909278,0.9272485414835403,0.8159804700505896
260693,15.896018099737683,14.226772411467751
1209527,1.2503097570745398,1.1190542269694708
1594633,2.0917119695736552,1.9186288204591406
2055959,1.2978666442009945,1.1269821959594042
1896955,292.8380116800205,261.4994730048653
2606144,0.13994500382952824,0.13994032727686478
1299940,2.395233127963928,2.136389650389835
2018760,2.459459111789913,2.1948371504085573
656176,2.1145427534144283,1.88536781866333
678410,1.3943255684774742,1.3025574934063586
3856515,0.9091243284140514,0.8663200669335235
658543,4.169103498116073,3.776982950512341
3431114,3.7988173546302275,3.4357333615876247
1133915,47.06794857475471,42.03656196913755
892790,2.749450208985851,2.5007045775922436
1113928,58.59124342340162,52.346719620828566
1500826,1.901213109536596,1.6943029818995132
3422651,0.0015634697872862625,0.0015625754288141583
1703996,3.270554921356972,2.9801589559270942
2611739,2.27915388166796,2.0939491390019653
3095200,0.8150335523510109,0.6354909993089556
3886034,1.3951141396323599,1.2656921744581608
2917592,63.409454003028685,56.5807751968085
337217,0.14076814444714933,0.14076589611074045
1487790,0.08206283996637823,0.08206163746218881
2896510,0.14775027817092728,0.14572105040087724
1142484,217.92318839504378,194.66231700527598
1935124,2.4815812474796957,2.2424370368437465
2412612,0.981013125052082,0.8772907659756677
3071551,1.8311759589148295,1.6401304595342856
1761435,9.78738107749408,8.814582705988217
1645878,2.3994572031121866,2.2725300892329265
1748292,1.5003170282573959,1.345511382002605
2886363,1.0741336471060663,1.0453998367810438
3524193,0.30777704799088285,0.3077513854559174
236978,1.5284737238060702,1.3768179206492326
3885738,2.126013828256574,1.8679850949746406
1741757,0.27634630894011736,0.18920089310586508
3485438,2.0202690125554272,1.8592268850545652
2657505,1.5281186336265653,1.3741879582001
2992767,4.329309735008799,3.8745808824051986
1098301,75.72934630259734,67.66303293731912
3741735,4.891853626676029,4.403650684731814
2123461,2.241041412916259,1.9927108463387007
1568931,3.7464663664484155,3.314340700897813
1294218,1.1475440491871332,0.9769314973965042
2678098,147.5933097510151,131.74089870003078
1514143,0.4141194280306799,0.3740792787988695
888249,35.29199568333303,31.447089694232258
3442067,1.0389223074021081,0.9842722451271008
2009017,2.0321808017489777,1.8992467820772279
2041136,3.1585563994092953,2.8707713515856357
1273496,0.4544787908129638,0.3648080503620679
1779307,1.6681650440234563,1.3957734859922064
3386648,1.6597330535859776,1.4843652833382717
2795802,1.421339059468962,1.2538274936817706
3508975,2.053822161010475,1.8054915944329168
3143056,1.6406244688154232,1.4596525306222403
3508431,0.8887787917548962,0.7222615114679565
3928223,2.426240932410359,2.178718783499711
805970,3.486601194156597,3.1416983758660404
3651587,1.6669755699121966,1.5128361422056882
2399738,1.249362741955504,1.023793731739397
1033257,-0.6999107624732079,-0.6999161867288571
1275348,1.0576250274489951,0.9251034080329855
1817831,122.88398579416705,109.78045433540088
1764615,0.5982295961862849,0.5220087026598095
3457907,1.8841241131556026,1.7204409790527464
3719029,2.88520788369794,2.577001368188126
644433,3.6336811874667347,3.281300315054117
1793571,0.5962739587880078,0.5460341719245688
2705158,1.2666161523153727,1.0938218152095185
311449,2.0567603417087077,1.8423028898001825
2555881,2.1657568469599555,1.894663438403685
3700910,4.550670451015862,4.124839533185446
3385777,0.09573609018186202,-0.037054936688055484
2474955,5.625840836906236,5.048270323314149
1773859,2.4142032971913037,2.1658727306137453
1091654,130.1938761239933,116.22026697143781
2676123,3.715499717540606,3.4082493488932055
733882,2.119918061910763,1.9133586151462019
2673380,2.540023134830222,2.3284456746334516
1449893,1.2660182143357142,1.13191814970129
1572524,0.14246256435306262,0.14209952207325224
1061543,11.467667584236569,10.134399197838201
1120446,121.75062043894393,108.71826211332328
3657624,2.253873930078249,2.08326137828762
2742747,0.37034791833182557,0.29722508331180786
265673,-0.32894499195414567,-0.3542196498520989
3734856,1.3461420356896978,1.22219878529595
261056,1.4683330370193808,1.2314788647818067
3234469,3.5990198241454063,3.243522103292674
3660730,67.11181837662855,59.87879242505663
1826992,114.16661332869214,102.01742682766374
1707767,0.3908087319049325,0.34509010674995433
3403396,0.37317179640898546,0.2975022985472915
2634992,-0.8398268781917798,-0.8398280864542434
2038214,1.5104302689859685,1.331743370475399
2730467,1.2011043162317872,1.0640697318645014
2551783,2.2403200378890187,1.9728031836287911
731059,1.0394668397414781,0.9580896662277123
2232243,1.2983340948377085,1.1762593412216849
2269108,0.8259357805725636,0.6980837621767677
331969,1.852461230975646,1.6770934607279402
1644326,0.33137466021806083,0.2838998246044738
1506282,1.2086638130694642,1.0722823009744475
1993023,3.0058962201166786,2.676604136577178
3437316,9.667847924613351,8.644841721878185
1511073,1.8799261681730088,1.7124146023858173
3234063,0.9038226276549162,0.7663566781927711
2025462,1.2318837740447042,1.0732048581394482
1829539,-0.45859615855429864,-0.45874083890572803
3303803,1.4067688919782149,1.2651525269736457
2814260,0.11597024517971777,0.02904097197660027
3726947,4.468830825601476,4.021620715169474
3948196,-0.4310463363681968,-0.4310661276206994
1559931,0.9171185050088063,0.8230828779863925
3756899,5.664738159356087,4.995807219934379
3536593,1.2836594924600795,1.1487810617334575
3350617,1.2108931053295122,1.023749736543205
2966420,1.963823030518471,1.7368651782642774
1912556,19.249556474896224,17.17235426124835
1282964,1.7285123219346745,1.599019448410016
2718381,-0.1287030857866039,-0.14080360827369198
3175433,0.5209609449329392,0.45563083107660846
846375,2.0268657858797483,1.8486220759870036
1349014,1.6618521105126038,1.536196864245424
3326763,3.013493123135019,2.7405353970767696
3028463,2.943952279216667,2.6696874762705622
2634143,1.109158784934461,1.0302068962357298
3845522,1.4249696104284797,1.2512983817958496
2156918,2.428458765975889,2.240419248267225
3244934,0.6879197563825176,0.5620090615318069
1103697,237.59334581770995,212.11650511450406
1686137,2.8041078522858927,2.4682777053586444
1866529,274.50823571367175,245.19696537297253
1988300,1.595067784851713,1.4863197228991827
2009163,1.0343296183381256,0.8656660704885742
3239613,1.3101037507577562,1.1687475401877758
2830327,0.8289709422121387,0.7108922033997129
2429998,1.4358423632935,1.2612393056844153
3122223,2.6787736561202125,2.370051997901919
289228,0.12392405340008039,0.12391307219418495
3384459,1.1487238024513073,1.006395480981315
3859824,-0.11409193210740493,-0.1141012509843676
1319621,2.6698630795677003,2.487572417912797
3808599,3.79089796469593,3.4186032175592582
723909,0.9673704874425056,0.8050462615095139
3392248,0.14148154238029487,0.07568421588015328
2934168,2.021001068597871,1.7802626119044433
634152,0.3302138826095048,0.2729135651991379
2658534,1.7261067259288385,1.59326164443581
3853639,46.735666724221545,41.717189371896154
1825920,267.54080739641205,239.00120824098212
924334,2.689342084085952,2.452232861168281
1680170,3.8998924240362434,3.4820128062503675
2038758,2.679465494228703,2.3891378827201257
1918066,0.3510724935129477,0.35098555347142724
2899504,25.502808670469342,22.683328992421654
278580,1.15623857394777,0.9546937139044898
375490,2.333470043608604,2.037424074192874
3752530,0.11688162102267846,0.09548606471453677
524649,2.104009957862758,1.9035072275076814
284296,-0.11451533306101536,-0.17467425311871332
3089753,1.7191116023727617,1.4847909469756182
1455247,2.1734444804028397,1.9975823681341573
497900,0.6989888387345603,0.6206141878651045
1753991,1.148889498889495,1.0051297843083522
724341,1.1765298987389496,1.0529561397214589
918952,-0.7794560026808447,-0.7794593328479111
396167,22.723196040468487,20.304036127507494
3234116,2.240586010612696,2.0137205074393094
444656,1.1636418369552244,1.067634163337426
3164823,3.1415809543770923,2.764198495785783
3314273,1.4546034100958862,1.3027798257709828
557414,2.4451165103165793,2.17215878425833
2556789,0.7097148377239932,0.6297681759678744
3005876,2.807926465992754,2.526474923021966
1225228,2.4632272803845887,2.226118057466918
1830290,611.1715783323984,545.8398507773562
1348462,0.12978632164646287,0.05530743609665345
1352877,3.9733131595221627,3.564748026763813
2984614,1.1297063111608694,1.039381950936216
1108204,164.91425982868694,147.31510896852242
3167983,-0.3854383438464163,-0.46265593476224
2014897,1.9263413621933547,1.6742098060604933
721507,2.2238235912921,1.9332597579452113
1274639,5.960334410187836,5.360207772307288
2802763,1.0784449436633783,0.9404679683491021
3512681,1.4198977411960851,1.2599555410033494
3252698,-0.6262191648189519,-0.6262220078868828
1665220,0.5971189177954196,0.552190453738537
3008824,1.7342396057010039,1.5861936232286626
1351544,1.390535260829863,1.1588451052906166
1022613,1.1516595523704725,0.962123002956043
3244959,2.1305841408994883,1.955749023781311
2689150,-0.10520913331645172,-0.10520991388925786
202761,-0.030593208056475363,-0.09818317776676622
645743,83.2140542097701,74.40316205423605
3939595,1.176782709047241,0.9568530730639015
1110432,-1.0379657967660378,-1.03807955873921
3375436,4.1085373901630815,3.7017830378347467
1406642,0.9735811159160996,0.8406470962443497
1890262,154.06063198641812,137.54873324582726
2575550,1.9430214582784984,1.752886433570923
3848684,0.20739630517764185,0.2073886514211041
2804094,2.83136240435082,2.5996722488115735
2662339,0.856009326158746,0.7720736898992046
3672661,6.071958651915223,5.459977756810495
621067,2.1063340556708234,1.8978502241859352
1530863,1.4334901991049045,1.2150626956147113
2902084,0.002119723927072159,-0.04196076804768706
2657614,1.7086043511564648,1.520705445094508
2012623,1.786786597286296,1.5935720581474475
577087,3.7271562843901536,3.3200088772383007
1251440,1.7338505378277373,1.4924905110767521
3477359,1.3175764326756143,1.1252171076654984
2587945,2.392993609584737,2.190635070406225
1358038,1.7988833287031563,1.552514171325173
3925966,-0.09287947665175816,-0.1409292494949027
222885,3.6806102182285785,3.261028153281575
1428648,1.6402316991262698,1.5372177699307934
1091706,402.94133681728965,359.83151964388645
3144448,0.2802169146617409,0.2483467982376063
351435,1.2669692253608371,1.0833020646777751
2882875,1.1263942298206076,0.9607539568086569
253829,6.955364555690364,6.2167226400651545
2804601,-0.5273733620679737,-0.5273811817704028
438666,0.9215757365850565,0.7976829186620624
404988,7.214093970314864,6.475452054689654
1787047,0.9373098648969648,0.9373084330678548
2516871,0.4497000050096248,0.41074186076686847
1376315,-0.03598361083768901,-0.0359858746359748
1493344,2.1458958877923133,1.9634831847395398
488060,5.963592772945354,5.314721791058761
3917638,2.303709715146523,1.987767277680315
2558226,1.2840955036282784,1.1388596222303027
2594948,0.43364043279223075,0.3334605773256395
387020,0.8395705958344438,0.7067795689645263
3528409,0.5621576886428383,0.4509275382756496
514208,1.4825594776156437,1.2882655986823082
1363248,1.622235643426495,1.413678250230071
2537752,5.781915740586578,5.137857058263472
3441066,3.5805366771218816,3.2842333578013285
1398017,-0.26247485023752914,-0.26247928408663523
3880684,0.8220348713305741,0.7179371218311399
803747,0.7928949774893225,0.6803480249491284
3374159,0.338834199864825,0.29088412320383783
361294,3.0436527870972334,2.76533372770618
3148205,2.7936919017410924,2.4549202765266798
3320225,-0.4246669455619555,-0.4246693447115737
3445198,0.28543962185718985,0.28543300941222327
402922,0.5274631929386188,0.47091164146938175
3757335,4.166871536053956,3.7153716150915446
562348,2.3992227449393955,2.172520781141737
3251854,-0.10568062851304826,-0.10569336543111577
350663,1.7134708615101935,1.5034792128651635
3705291,1.332565333701359,1.1764466819723722
1023084,2.3489145400919704,2.1812710825727013
924967,1.8200393513393063,1.6193428712066464
1349641,2.455732370343824,2.2161412124265496
2966528,-0.07324310879046914,-0.07324647791559506
3008233,0.46820048763164385,0.4681994680279978
823631,-0.4329790320552138,-0.43299699079242554
1321599,1.8289127988621834,1.6389049820946855
1542535,1.335969796999458,1.1374633107309609
3454107,9.875536040226377,8.835722294811191
1976560,1.808973437294445,1.646374264577748
2274950,2.8335861687526456,2.567420046358701
700417,3.7393668076588913,3.3714094977403826
1125437,206.11356313088643,184.1202231554819
2285255,8.423950365562789,7.560724924858867
2210027,1.208464120322275,1.0988502866496979
1832723,187.19775991280412,167.17297838243434
3693837,95.83663330716011,85.59843181545334
2423470,-0.3177960062704639,-0.31780154813279865
992823,0.836585476676872,0.680641937123002
343382,4.409156472976505,3.8946951387455684
2813642,1.0125874691457186,0.8611798293838698
2232230,2.046992228505206,1.8669801400435602
1346461,1.2486216177213296,1.1010910962805973
422447,0.2704488765152165,0.19921661707099453
2390866,0.215474896601158,0.21547391981338837
2854249,-0.15306728258021576,-0.15306868402375026
281902,-0.06063057464726082,-0.06063374334259419
2016536,2.0861660932108745,1.9995752405762182
2753310,-0.4198254090182122,-0.4198344357359344
1830575,238.11860326286725,212.68427402062943
618623,19.38722342932739,17.28378926239204
3102914,-0.5391251286500673,-0.5391338919096239
2181314,0.24914265483671497,0.24914163523306893
3936637,1.0217445763009616,0.8928746945990009
1424254,0.3022928258473269,0.30211263944800115
1608501,1.2272427552860028,1.046988485545566
919121,0.7155880432880154,0.6803516900050084
205425,1.913240610005594,1.7004770245625953
3402826,1.009416953588453,1.009415092714914
1755775,0.20806362163613995,0.20600252219057436
2985804,1.415411947663643,1.308195829116011
3327225,6.7007161243502615,5.983856903490733
2870203,1.899623337689937,1.7100867882755075
2279056,1.2961245999075537,1.240358116603397
2925984,0.40720146940445295,0.35990173097625694
1622724,0.8201334676900794,0.7531453209362902
1615139,2.0915143718796787,1.9028811058632007
662312,1.873403461465555,1.7409544088957143
1484261,1.10596571900332,0.9541368208873293
514114,2.2080141220829095,2.015654797072793
3289583,7.051938418816953,6.23136784255437
400512,1.0211887531538513,0.8631390997364605
3771086,1.286135897227656,1.1241631408657762
1820244,0.6331554269249634,0.6330076096681768
3095980,1.7220810334499639,1.463029459871803
2602949,5.959797926208689,5.386286829789427
582618,0.699615608391486,0.699612262277685
1296330,2.39007627870122,2.1714731714404354
697753,0.5415089078085945,0.420015931683989
1128524,158.52418963342677,141.5443993842442
1346271,1.0897919962727929,1.0147201648654491
2251039,0.8592279371699687,0.7886900272913053
2520736,0.41319302811686504,0.3400923516872663
3719191,0.5539830317658552,0.48263014588016373
1445873,0.3882171260301683,0.32680383097646687
2441356,-0.6438722965067611,-0.6438756426205621
3668594,1.0476072385350748,0.9058995571411241
814995,2.025428747696789,1.8289073978049384
3023475,0.30520772483793823,0.2504988139666873
1915446,206.49330639945276,184.42211944859687
2049905,2.0125333015257816,1.7784179349423572
508608,17.78686777714959,15.920169607503986
1781837,2.498682487641456,2.2312296463063537
732065,0.31136149756188414,0.23893164222130792
2438387,1.5020171789258576,1.302145557597171
211537,2.4887589298108774,2.2246950886152312
2894137,0.8598834160007425,0.728087305771761
1211590,0.7089012755534936,0.6724633066453682
1513906,0.6651439085964865,0.6452892200231559
389192,6.574180468768462,5.94788577730427
3160429,2.175780559615212,1.9496291458039796
1743939,5.005232559401937,4.432223917247489
2602477,0.9332109093019478,0.8107506958673207
2604407,0.010910757066571948,0.010907993339071836
2747760,5.060615115887724,4.541896593110745
1733396,-0.10445399822545742,-0.20026689073857784
3738230,1.8372763681033837,1.6514868281357524
3699480,1.96881413513401,1.8162635331094497
2275145,0.9106948408019457,0.7718979074774179
2765353,1.1534274523857968,1.004202837185756
444056,1.0995302211661733,0.9689778405068344
2535803,2.3583015672937697,2.181170126852684
337425,0.6049590205474806,0.5319902462862591
3959290,0.5388134622268846,0.5388122105202587
2449313,-0.5819262346729976,-0.581930965934453
3311535,1.4164396775412431,1.1842679521648662
3168335,5.341588166641928,4.816693218004639
1955138,5.074932228456189,4.518132131969082
902784,9.281035517253311,8.301743258894751
1728986,11.212364204242187,10.076946992610308
3891160,1.4484272226703858,1.3059456383938104
2759567,1.0921741404028618,0.9938151142150535
1106103,188.52043308933162,168.3024927501161
537899,0.45875119734246483,0.44858037531819733
1843210,34.53603119341315,30.795558489037465
1809141,153.64793673485627,137.13603799426542
1303131,3.373069647250848,3.0643449374798033
2769918,2.957765938981701,2.6869781804534125
894845,0.4449072181101914,0.44490254155752795
2420956,0.49595027649617485,0.40902100329305735
3235497,0.5945427018472114,0.49696055263224165
3686851,2.5328264584236755,2.3183690065151508
1863530,185.64677956996482,165.78016137508155
369222,0.9201353108867225,0.7683117265618191
3793013,8.24291444770476,7.4214166626156866
2457546,0.8814500864635364,0.8340479962448971
1356471,2.561998543299909,2.318937926263921
3228791,2.047653658134724,1.8824347232992276
1166167,179.19807845525423,160.04620174878528
850289,0.18832289767583152,0.14623427627891836
2285826,-0.5904373056728235,-0.5904443537097712
3912369,1.310773126174471,1.1932418879421145
3737373,1.3114907167336807,1.1500425205105658
3918495,1.8816369561098285,1.687667282078774
340802,2.3288593130189215,2.121042976797468
3698594,130.8697027050773,116.90351104345876
711148,0.9333783185247426,0.8377253024298861
2121583,1.5357686600537945,1.3530510686577095
253119,0.76106996907331,0.7284895168431123
3211992,1.711075979502494,1.5396464377462613
1456449,1.7163123670529605,1.5273784858998767
833835,3.526142975568079,3.1845353009188018
1723029,0.5544404629437705,0.4974165933306491
1225602,-0.31517632876731705,-0.31518843730227425
2041563,1.1270936457924878,0.9774751737703394
2752660,71.95214638512493,64.24756318314338
654239,2.342829058293614,2.062149397352201
1594025,0.9144325201430757,0.7363080624249482
3960007,0.6896125536432824,0.6895946671928656
2227818,1.9811857229648553,1.7858821136674474
318491,0.22938478394200443,0.22937399275164097
2019644,1.5402509284598822,1.3174181720197067
2442819,1.3161247217814005,1.1909350588128242
888394,2.2507582650438795,1.9909550604236994
201240,-0.20004741831644424,-0.243779745811604
3429375,2.6174935192975224,2.3488300221556098
1702686,2.7582549265775174,2.50779306520324
2481175,2.547454777789908,2.2262005424171636
3233836,9.803387967134517,8.714036106471255
1167430,173.29344958248168,154.74835667774812
1363847,-0.22916252165642992,-0.28598487412831763
1896339,79.7794757579421,71.23126335038924
473080,0.8631300372660244,0.6996946520253704
2896282,40.108768793215305,35.82073134471914
737782,1.43738977868149,1.2698782128942985
509417,1.4787513578154128,1.3427081062999129
3914863,0.6068656259157356,0.5357196626810967
824397,2.2765641396187646,1.9725057348108916
242246,1.3901176134361901,1.2361869380097248
2518292,1.0631925597659668,0.905434218550145
2473255,1.220030899428013,1.1138391056830195
1528543,1.8257273097837194,1.6414052062170903
2732722,1.234749412558186,1.0855247973581452
2398463,2.9464438654150302,2.683413239528863
1934210,1.7128536642309058,1.5997132778066394
3057016,2.389947454563975,2.2004109051495457
2110896,1.6559254086764543,1.5017561875202072
3275217,1.5784187714769637,1.423044141872749
3348665,0.5518344779054933,0.487002693821849
2870066,1.5355520188532839,1.3370455325847868
1378667,2.5016325180097163,2.2326803082306017
687030,2.5645801594388535,2.3288547744572394
3157671,0.45978978817576516,0.38283366880023834
1569949,2.2824039262861016,1.971911668617158
2399911,1.508630762312449,1.3358364252065948
3540709,2.5933808484878975,2.299101298459684
554009,2.391579814492847,2.1863039416856305
3237860,7.969999283089115,7.112596706819758
2196127,1.131356015900495,1.0120712478738534
823055,0.5585903974661138,0.5585728977940118
3538734,1.5555206958179302,1.4266508141159695
476588,2.277122516355364,2.063458594519149
2985172,-0.016037192515014037,-0.016047940683141436
1308991,5.471908667751002,4.921508561284717
3795530,0.6176126109500639,0.617609355994985
3432322,1.6114742889713,1.4963418099776051
1465938,2.32380755560382,2.1246742708211155
624485,0.8718041343499153,0.7204584349611257
1574011,0.4149814807606348,0.3447189856458267
627707,2.1971955503715406,1.9673353717408506
1702153,2.045980344130892,1.8804661553799265
878518,2.588721821337697,2.364115035132189
2058023,0.1302682326679221,0.13026657191315313
2219270,0.14967398463911052,0.06831367253181364
3953673,2.509678248808474,2.1961201192160376
3270032,10.445135282603722,9.3773110675615
1939542,4.5805393884570655,4.094685196929532
3920551,3.0045985162236466,2.7206754409681753
1571526,2.285832530913012,2.0559723522823217
712436,3.2546716555289126,2.9035428811567683
1337531,1.8428507546840196,1.6263246486982492
2885180,1.9668760362285815,1.7327606696451572
2433033,1.3289571119241606,1.1269928953742174
562690,3.0830008025047717,2.7723282517329957
859228,1.503947932564543,1.3309192613225627
2864273,0.49965043190032166,0.498820995276263
3103463,11.731305274321139,10.507582157256053
558800,1.2326380640553305,1.0559924073277416
2184238,0.7851938836552761,0.6301415316020915
3862995,231.53336621579624,206.76479279417129
3667461,0.8112798458877902,0.7159279103904498
270206,2.6821802413130693,2.33907642043456
718709,0.24808740306470145,0.23835984351466546
2815614,0.8100880994686819,0.725145571373361
1250316,2.46494443888918,2.280152653901431
1789645,1.9113833806731815,1.7180154573706
1022664,1.6751606155448158,1.5023662784389615
3880171,1.223512621575953,1.0331197462494952
2277056,0.35659449157774953,0.32512678273926454
2893330,0.5229874180599108,0.454759181975552
981895,4.112072820844937,3.65624602438237
1849536,110.57082675836797,98.68964750951673
1241410,1.3980183988520751,1.2310394686141752
3388062,2.3815447979673934,2.160012557879824
1539587,-0.6805241172119786,-0.6805283102206451
500938,2.9879813102459,2.624897317203297
1729258,1.0734529303139362,0.9836323123433168
731404,0.8549662666958139,0.6920632051331433
3179302,-0.19336796813049897,-0.19336898773414501
3078723,0.9991165207638975,0.8834785976619157
1144553,100.31394942949073,89.59565207647506
1240001,3.2894566845920994,2.9513877383801126
843314,1.4715858030118059,1.318476631318962
2438794,3.316380755398043,2.986038283827288
2865036,0.5312407706540416,0.4721357316062519
453942,-0.5400796534325925,-0.5446311784336587
1887976,-1.0936278079406223,-1.0957779938270016
2182001,0.8795726506951071,0.8311403410624754
2968267,-1.2008276402410107,-1.2008304638906184
3319757,0.36549749497250844,0.2852737400443656
3760873,0.8496858302997158,0.731573647133475
3739236,62.85265031360512,56.15312177571302
1957564,1.3639371001058518,1.1738376825609027
382747,1.9432076387661896,1.7378503292212846
2158576,-0.4066484044629708,-0.4066503604018866
1407870,1.0574832216311063,0.9297687294936415
2876540,2.217061743856301,2.0075056592054352
369539,-0.20122866929970873,-0.2420305323127434
283603,3.643089912526188,3.2567237890236003
2144028,1.6265321338253318,1.379186355360586
1269774,1.9874701565697053,1.8603308941019732
1293956,2.155594396194047,1.9480242590016814
3679020,2.9297941032824264,2.658247583627892
2496100,0.6912887886321081,0.691287127877339
1133680,189.0898814193979,168.90567737392453
1065959,0.08170363446931957,0.0786307387292285
3454149,2.330425588989354,2.118797489240392
3928542,0.356842985661518,0.29318499160180217
3184493,0.28420668503722707,0.2842049766059058
1210364,1.2557942111928886,1.1208254809847742
3072501,1.3542573096277222,1.2424475319539734
357016,2.728387265383805,2.4886034892748734
2592624,1.576153225388763,1.425366605173861
309199,0.39021218448427575,0.3510949339938829
2925097,0.6895257333430918,0.6895240725883227
2992914,0.3013555051191652,0.23324111682421667
977726,2.2883881900076033,2.0883013417632563
1455817,0.8502292543535168,0.7519234097550469
3423174,4.46252519814699,3.95519459276223
1954388,1.2179303304651148,1.048447628852079
1748749,2.3004369046139916,2.0339273924627785
1469062,1.2184629876007151,1.1094341456678878
1080633,13.120494802466121,11.629717055397453
3435466,0.3081461439880292,0.3081441194430551
1663466,1.7106235654399864,1.5865208963280133
1016955,0.7046896468520578,0.5549938441918554
1977957,1.5120555867328098,1.3071626474781928
681174,2.2327636099027863,2.048844131208336
650768,8.253369537849366,7.3553898433861225
1001565,1.3582662687078002,1.2367732925831947
2572264,0.602587128698535,0.6025824521458716
1303501,0.7688090255075309,0.6416697630397986
1378871,-0.6744785706240995,-0.6744797459696725
1267536,3.74216926108704,3.3704760022351885
827472,3.752550839359928,3.3070144329074727
405441,1.7612706629884143,1.579727292878295
1521148,1.3803505242367087,1.237402892482677
3723467,1.8646685117968365,1.7065585074165637
3105324,2.654814740183502,2.4634499234263254
2197261,0.8940508592957148,0.8271744910791163
1593348,-0.6872372913523659,-0.6872409360377292
3134000,2.242852526267451,1.99597128862988
3337770,2.643503501554254,2.3447196590766164
3941705,2.6485790155413995,2.405320634932463
1807783,141.41350135915985,126.20256702514442
2813318,0.8490333149605425,0.724598746606443
2895369,-0.23662070168630653,-0.23662692813934422
2165314,1.7336196339041958,1.583641068800565
574324,201.79356091046103,180.16207848539614
1755808,1.0539266701136625,0.9409316205746727
2117816,0.30229564004879333,0.23747240825360988
2901332,-0.05031646862817331,-0.05062717549782905
3361661,3.0109927362329025,2.644999156435592
3038977,1.9803992289750836,1.803267788533998
2456809,0.41679290628784355,0.32367500669461463
2717601,0.9325639000485124,0.7905243353688702
850208,2.258612754500143,2.0439864475955094
1080005,134.3465773630042,119.97343192643523
2447434,0.0856927104811796,0.02427941542747819
2055452,0.7507759746025078,0.7405969757934082
300477,1.5736238108964518,1.360860225453453
639847,1.3214965850147213,1.1480983411685597
2686097,2.5802867066186947,2.3450502624633986
1128596,179.8819442565088,160.66959412123882
2917175,1.4356617823481967,1.2004253381929006
719030,1.9801356193089543,1.781554831356935
1676015,1.7019222486807248,1.5161693381543613
1315835,2.471031200497048,2.1995057643150724
1960101,0.6226314548663291,0.5877620648563522
524156,0.9144519740738841,0.8510151406141815
2926590,2.656348470511224,2.367620221513562
433752,2.2982414695176794,2.111687159389381
801302,2.5385004737534045,2.3046369374561806
1228291,0.4862094504368015,0.4247961553831001
2013503,4.252400645617964,3.8329893084851174
2275077,-0.13755189735672876,-0.15729705111874234
3205428,1.30396345850032,1.1856690004814883
2492700,1.122178419456922,1.0238193932691138
1209663,2.3833848830938846,2.1996429578775363
1475186,1.7335922506339618,1.5019020950947155
1872860,-0.4357651989812081,-0.4359358326675376
2111252,-0.04753659396221602,-0.04753731656043425
2423911,1.6761277032991218,1.4613678066772495
2579620,2.8366961919147107,2.5391938861722805
2816524,1.6710898378250856,1.4679404265188822
1946412,98.11324883796912,87.64435191069293
1726073,1.4395454045679605,1.308437861301314
1598582,0.8756762036015783,0.7591176567956969
1366046,3.3498031629804723,2.9782268944773698
2727650,1.1086015845698767,0.9462112820723654
3392405,0.07468643797706477,0.058796985077412836
2049441,3.3632134349680833,3.0404208515432605
3905759,0.9780236705042352,0.8803156273166169
1539250,0.24430464070293784,0.24430274342310912
3671188,6.361599438910759,5.723605666536946
310068,-0.1357461636509481,-0.13576895316940893
1466931,7.605753392285514,6.863574438928282
1741017,0.3692673495227479,0.3287877551316414
2548987,3.1901084510684257,2.883700717837319
2526852,68.98760086458822,61.67259918632392
1544596,-0.14568087113508968,-0.14568287226973003
3076911,1.444069909763039,1.2918406239063343
2218384,1.0145782370639376,0.8344687654914141
446582,7.691578792243408,6.8509113772525945
2430802,11.688293100242856,10.373469290501568
3370401,0.5020774037422515,0.5020756543480875
1371436,1.5521530090735884,1.3868238255409735
1945188,1.7725454761390278,1.6030627745259918
3498383,1.5078897548724335,1.4148468613468783
923240,0.009372233601212643,-0.03336060333683
715985,1.1308891999033568,0.9786295908796273
250221,1.2245448908768926,1.0616598116980354
2795825,0.5883916589788886,0.5189035374993458
543516,1.2797078213277366,1.088654743901194
1451378,-0.07758845062666044,-0.0775923193876856
2275084,0.4437644850545379,0.3651398318335466
913801,2.086280476773729,1.9088862314535575
257524,0.16178703934375172,0.13220950563438005
2708993,-0.9205703719175414,-0.9205756261685094
3924870,-0.13870588714027643,-0.20353767122392075
1323433,-0.705420957556127,-0.7054217898217496
3669316,0.9385367011706736,0.7817239584392868
3220310,0.4279942590358575,0.30075155111853247
374934,1.9797483190530685,1.7719319828316151
1347700,-0.36618330135051647,-0.3661847331796264
3368514,0.33751834574104556,0.23259741537169187
540484,70.42864313469502,62.89554101773022
711546,0.3804933764261781,0.3622076505013697
1692107,3.074813682041995,2.8270708264834834
2702972,4.906045062783679,4.405139586657785
922923,0.34394963611827617,0.2709850410366515
2035930,1.6534666832163056,1.4863267050476432
2275709,3.8387568531090306,3.3958193130173058
879934,2.88987326080053,2.5518043145885434
3150271,0.9613247164214297,0.8415434856893492
986060,1.055456152323569,0.9711845325998492
1561762,12.706508772773294,11.360932172525386
3113037,0.5421446679531329,0.5421438116514644
298042,2.2004811843671703,2.005087704118451
212366,1.1607722554147935,0.9946513816896927
2428639,2.156441831442937,1.9708521392414138
3362871,0.8778571557346528,0.8081496205114225
852002,2.4381295668291543,2.1512626481174744
2566888,4.12729949933537,3.7106237793932437
1369739,2.4520739245009313,2.235547818515161
631432,0.8149673121999981,0.7645038689150858
3154522,2.109627305281654,1.9566571820567396
2007268,-0.4749184096241926,-0.4837938386662165
2678528,1.45953013856582,1.2763724564780314
2943832,0.8516461827399495,0.6886002763194319
2645283,-0.44220441124565724,-0.44220482018780066
640643,0.5909732480639498,0.4996425164969221
3274913,-0.11933049939353103,-0.11933711183849757
2639377,2.073178287553598,1.884229736016941
1685955,2.099535805936118,1.8528497627643974
501052,1.0932657642636896,0.9530415194166806
3693473,2.1708062695689283,1.9492157725010517
3359088,0.3068144706108197,0.30679647744361577
2484851,-0.5564625887632841,-0.586943748952957
661939,0.8750036095846009,0.7516021052201222
1233641,1.815999637997154,1.588047773722612
1746577,0.8293459474701615,0.6866711375385993
351325,2.421580408028494,2.2628127863239396
672061,-0.1097135235810544,-0.13256426393200174
1345814,1.8907784584515668,1.6830063986649575
2514880,1.4554213714319046,1.3211729480468515
2508458,1.57532420200138,1.3657681173505136
2457002,1.3172205524929261,1.21420662329745
2104628,-0.20601928266634434,-0.2419651277219746
2874227,-0.49594991435783586,-0.49595753163850004
308174,1.3209537384954124,1.1329907340091083
2258558,0.21432423396343583,0.21432304087147314
2639968,3.7507365104484394,3.3955722085314535
2170723,1.770871140213255,1.6420012585112944
2499159,12.747735425537991,11.340350175324494
2818959,0.38987438226384674,0.30661111052404877
1331848,1.911033114229669,1.7118998294469647
1611607,0.8738686663172182,0.7860294630700557
1343950,1.1153113107462687,0.9542691832454064
2057512,2.3248173609825695,2.0895809168272734
354347,0.575976361525172,0.5534609442067973
3236395,-0.106375015936968,-0.1063807371675228
3219401,2.7614929088885036,2.489394353597821
2217512,0.3748638727452696,0.3748531587530297
490635,3.3394105084994905,2.9846063022577707
2833334,1.2626512713129099,1.2022646424579535
3392509,2.0842175530914053,1.854357374460715
1548546,1.8116698073274862,1.5911524774716588
1964662,1.6697639968698301,1.4814826183192602
599830,2.317817827280553,2.0925632471820865
441673,1.35932933302527,1.3239634696191023
690726,-0.4029124538711612,-0.4252409467106667
952982,0.4504190464443894,0.35805138917868645
3787246,2.424511971133672,2.2752873559336315
2125491,0.004360341269844723,0.004344993857672555
3127657,0.4348884837965115,0.3727779313926404
3230397,4.516982187582148,3.978092787058107
3046685,0.4874564012691382,0.4014879538294683
2945179,1.7939309370811294,1.617900958576531
1023210,1.569204597142141,1.4362705774703912
547667,-0.054023275980670804,-0.12850216153048022
3031028,2.4739617473005056,2.2251150236586863
1473519,3.475429844931381,3.0716180268102447
3431778,8.552478226741947,7.654498532278702
3414384,-0.873147895494311,-0.8731495922569448
733910,2.1748750145093454,1.9763685282408483
3475487,-0.23673449487312576,-0.23674009264622048
3471760,0.648376165399041,0.648372191906896
876699,1.6294814000465123,1.451977129483732
3259055,1.3898042207346057,1.2451417892867698
3882870,3.6956112647058603,3.3329273589764865
212513,1.5340337834969653,1.3670215920507327
1457793,1.4855027088703276,1.3101349386226215
2121009,-0.7732961938473573,-0.773299284177119
2063641,4.508393662668181,4.072925177758983
3208910,0.07198815674657433,0.04405533005718604
533665,-0.2966322612500224,-0.29663347782174326
1115308,-0.6578899394539127,-0.6580321708313532
700157,0.681869221255937,0.6204559262022356
923462,1.499343280083151,1.3535291532409135
2999647,1.914446178532719,1.6928556814648426
1828434,0.11363321445185068,0.11323445196771198
1226653,2.1155340247480616,1.9294321128201923
1269983,1.1915096152437457,1.1176490583116694
3196196,1.7700193494790204,1.6253569180311844
549192,1.3396988189764087,1.228526930225858
1981749,4.577947382946778,4.141744862370381
447078,3.329749025397376,3.087355003116415
813983,1.9707912591649523,1.7501869105669237
3769163,1.234059906355586,1.0572240330299152
2504455,2.013295779453526,1.7911715630300886
2622314,2.408894194097226,2.168155737403798
2223165,2.272405018052178,2.0702237656108657
3859713,269.0756080517094,240.30007546470304
1704114,1.6011409167365018,1.3897863189223447
1889657,98.66762654553267,88.0328124333322
2003083,1.8061851351215983,1.5877576316314048
1617568,0.05694078482040965,0.056937509716195364
2548143,0.33949292632967,0.18081401042441403
1280212,0.6248868543846956,0.5533088239526316
1352375,3.83254948615993,3.449254907671965
539968,2.3479401767932626,2.1461352970301677
3317055,4.500308665703993,4.018488067703663
727261,0.40649339068609835,0.28441863707007475
1313854,-0.5068778905628063,-0.5068793155681798
2756994,3.7761241367629887,3.3644762800401313
2731171,3.5296409736072833,3.0763434405818755
498892,2.774958036211947,2.491928646619892
3865300,0.9616080328266693,0.8173943866023031
2034164,0.4793517605239169,0.4183827403020345
843419,1.571966711413662,1.391977344677776
3804294,2.7550439685704156,2.5355705099222323
3097091,0.017264849448761277,-0.03958063343275986
3940161,6.896848544951968,6.268831514163963
3419578,2.6190288618577586,2.377790028361048
1638271,2.0290985357437465,1.8146410838352216
2450452,1.7541438620100775,1.5012161823462442
503177,1.1299394477704492,1.0285294432352388
2185544,0.12845562594437787,0.01697800936584537
3032511,1.039167123586327,0.9177729185091417
477064,0.91979715210047,0.7885416219954009
2436567,0.49523486067047273,0.3761398881776784
837388,1.6511253027240973,1.445216029306844
2813004,2.381900300293758,2.100219757399295
545852,1.7418759614339012,1.5731234428928795
2261926,1.6898988001568154,1.4476110415479915
2941234,-0.018238666179907104,-0.0887903845722322
1233666,2.7864240918060554,2.5554842810955942
1752223,1.127248288543565,0.9857097096300877
434308,4.780561931369962,4.275938869399465
2750342,0.982601443174449,0.8678000656249101
1569630,0.9921289453780737,0.7756028393923033
2648692,1.03803942988348,0.9112488473728408
1529446,-0.48841429185173446,-0.48841603518381477
272175,2.9572627985226667,2.7103815608850956
1697516,1.029198477306833,0.9336951204231234
3011707,3.0536796272335405,2.795650893951607
2829578,2.310465203932167,2.0984479782960315
3743365,2.32851151143797,2.0704827781560367
1391053,1.4562276857904923,1.2887161200033008
1970658,1.9159950039763745,1.7046404061622173
2852667,0.26888232045444493,0.2688767520545204
3672951,2.302189162292742,2.055820004914759
1753010,1.598719294835324,1.4446164734467288
539021,-0.027840738754766062,-0.02784471224691108
1064287,17.037366041768163,15.168181819194327
3692942,0.9434643567243609,0.8224030757604358
3376228,2.391589990694986,2.207775171656477
2876362,1.2339568235718614,1.078414882560058
225377,-0.3643626471462296,-0.36436467169120373
523443,0.9502975154849888,0.8185553226161099
441994,3.280811434662763,3.0134427740342966
2399497,0.4610325741771424,0.36155879287819737
1036854,-0.41961526983386116,-0.41962161631112893
3673803,0.6134966864016159,0.5403681735220678
3360500,0.7233311190257652,0.683651778849767
380847,1.1548427515935138,1.0146600896023616
1987540,1.1289323207625772,1.0183254087779487
2982467,0.4089791133385299,0.4089774192756371
715076,1.4783380934156278,1.302344975268474
3863366,0.7802913845480666,0.7361832341910692
1165831,26.396253138797967,23.63714235705163
757184,1.8321128959047697,1.6511409577115868
225025,2.219277083945422,1.9136293192453802
803391,1.672027043337502,1.4127259002243941
3724839,1.3196157089148535,1.16407376790305
3056702,1.0272915749683322,0.9133969423320468
1717356,2.274763036936956,2.104468755723779
2869445,2.5374638752057987,2.33954916327414
525534,5.194489776019841,4.564338950262635
2007580,0.2581038633570375,0.25810072106593607
572363,1.6168295879514647,1.4336354219443397
1565949,-0.5898259509808784,-0.5898292811479449
2420520,0.6039489969863712,0.505589970798563
905464,1.5541886635601956,1.387757968991193
2895232,9.39925235389678,8.305013902032078
1916689,145.75189094326566,130.19783909300693
2858085,1.1820461075745508,1.0191430460118802
438431,0.4768895571142222,0.4385379903387769
2745101,2.527045816783367,2.3054531294088725
3832279,0.8323152796803713,0.6765254594750799
3755670,1.3590333722217585,1.2011106800147016
1331482,2.4885700258569834,2.223672384081675
3753839,2.0870694950080746,1.8736340932343352
3027636,2.129759851363361,1.926610440057158
2186095,0.20784943779164705,0.2078460916778461
715811,2.757778753959231,2.485387195927981
3140606,7.0750429734561004,6.315504984080568
1467810,10.097555581619691,8.999685036808517
3466754,-0.8277227970778837,-0.8277244938405174
3381940,2.604603620316418,2.3997556487416496
1361753,2.604625592039951,2.3289227355348605
3079607,0.3320127684057712,0.32388258060680364
1577737,2.0522794918095792,1.9347929919740763
3674120,5.6358684506889185,5.03650702326009
2859439,2.867268366662695,2.57314793018803
2430511,2.1280991953981756,1.8538343924520708
286677,7.864167658752289,7.055595628488504
3075157,1.9473238862587177,1.7603326608072958
1661439,0.10923797639165467,0.023483643712601587
3912480,5.975637717786411,5.421525193016462
816041,1.6567989030878234,1.4541437131514743
2575719,-0.2271321653924634,-0.24913299891692134
3048087,1.0660499898190268,0.9648671345770391
3835148,0.14677107265067446,0.14676906193346292
684693,3.726434392133692,3.3444027481666425
3767960,2.3316765046923567,2.0766848872183847
2796146,1.1829960251785483,1.1095166050752794
1738737,1.1388455087391285,1.0456728160260413
2257479,0.2339180899961436,0.12315687619686777
1935653,1.9446144878888771,1.7603867283425105
3133935,0.47831114351101334,0.4061386496989525
2285214,1.0849171180660344,0.9134875763098018
824339,2.1881573800929046,2.0104103172632835
1968076,1.6279236141100375,1.4568060843360109
3271556,1.6907022777775407,1.5468841380788672
864738,2.0377832789651107,1.8598093566504363
1873482,184.28438621590573,164.60860371379962
1153903,147.15633248959088,131.40751766517081
731097,1.2042129697970962,1.0874596046389853
2405149,0.597773804148244,0.5038593392970305
824900,2.503742258637855,2.2663367626152917
2636778,-0.1660280086488908,-0.16604966422042872
1530363,1.6916196100023309,1.46808324309945
3661033,0.945737166927839,0.847145192311791
2905625,1.1547610592764217,0.9793219028895316
2537507,0.36304815181534766,0.2676962163180072
3930489,0.08997485233211458,0.07382212325737647
3176267,11.818383464688678,10.544343493532795
1012800,0.9268019149036901,0.8382634008208454
828038,11.788751533638594,10.484912676852758
1356195,1.3316752816305713,1.1763006520263566
2837332,1.3903070305271128,1.162262374951824
453031,5.296021182337721,4.735341658904827
2256993,3.565650502739373,3.247724153660403
2925316,-0.8771943401916291,-0.8771997264961013
1945990,1.445099367896526,1.239559464442852
3705867,1.3448038732149232,1.2055786671419386
2621699,1.552713962180046,1.4103273908267446
370662,0.9944660682907819,0.9176383603263558
3795269,1.8686012711757383,1.7123145068569539
3683501,2.062745867449853,1.862161519384773
3660026,3.4943785537909826,3.149502514518305
623920,1.516150124846737,1.306699263849488
1127146,145.6756235915078,130.12157174124906
1095969,40.600436046586836,36.253062679269135
2165096,-0.016478580380017677,-0.016480548426774273
2159498,-0.5838428159021737,-0.5838447745697157
719176,1.8277710797940654,1.5997264242187765
1858590,21.76158611655171,19.400511007993046
1693203,1.1128080659667559,1.005208567104589
394770,1.9319964285320157,1.7572529996107886
3376715,1.6235040926338646,1.4266456203005835
516933,2.8727339075573193,2.6051323748715003
1623973,2.7783019140693557,2.4688359935732556
833013,1.5263918303817592,1.3930104252583204
3011232,1.1773118215102572,1.0269998222489352
1736494,1.2113314814969205,1.1194100233778639
1739107,1.3870193236703405,1.2463367811533008
1677946,0.05494066118405172,-0.02041462951955275
815296,0.6547110012426238,0.6192869399305928
3898202,1.8624333573592637,1.633484720044829
2831128,2.9943589064436362,2.677693336871747
2005645,-0.8940858915094002,-0.8940887017022061
1024326,2.2682107236968805,2.0408911803836287
2015517,1.353206135240103,1.2060190405636542
1945497,2.41620451212351,2.2483426456717366
