sample_id,y0,y1
2110540,-1.211519150872733,-0.38007208502899414
1304226,-2.204026447419189,-1.4561365117922986
2561363,-1.8112461580837196,-0.9797990922399806
1020761,-2.000666301799317,-1.252776366172426
3925970,-2.698650799549578,-1.8672037337058387
390777,-1.8080154957215846,-1.0163834288955644
1296141,-2.239661714291905,-1.448029647465885
1299592,-1.643119879695285,-0.8116728138515462
3791062,-1.2226728753758107,-0.39122580953207176
1006999,-1.4544446995320837,-0.6229976336883447
2557278,-2.557782827693293,-1.7747158926749957
696280,-2.103181185243823,-1.3201142502255259
482993,-2.185068996934249,-1.3536219310905104
2200009,-2.869055989151002,-2.037608923307263
3484891,-2.2517545505898378,-1.4601224837638174
2620104,-2.402174649989778,-1.5707275841460389
250995,-2.290456467476795,-1.5073895324584978
2797496,-2.2776641859757847,-1.446217120132046
346109,-1.8616732053045957,-1.0302261394608567
1784493,-2.2874435632014305,-1.4958114963754106
713738,-2.2559401516290314,-1.4643080848030112
1875310,-1.3923341082702505,-0.6092671732519533
1293306,-1.7689811225109913,-0.9375340566672523
1099929,-2.4486267216926496,-1.6569946548666294
2284791,-2.3571266595921747,-1.5256795937484355
1322824,-1.7229946536228649,-0.9751047179959742
1962088,-1.3272108034558403,-0.6475040863149228
1962846,-1.3667699828911501,-0.6870632657502327
2260375,-2.0650793999116503,-1.2336323340679112
1562917,-1.601696702605047,-0.81862976758675
844388,-1.5735651913814142,-0.7421181255376753
2049364,-2.1738717519123756,-1.3424246860686369
3313163,-1.8807704990825964,-1.0493234332388575
1323126,-1.9822310944596362,-1.1991641594413391
739617,-2.320827516195201,-1.5291954493691806
3885382,-3.1161886509010173,-2.2847415850572785
3687128,-1.97427103370844,-1.142823967864701
3862078,-1.7410799961568344,-0.9096329303130956
247150,-2.4900546251907616,-1.6586075593470224
2937513,-2.661423522728291,-1.8437142634558952
424918,-2.666285615763197,-1.8348385499194582
715104,-2.7075328407123838,-1.8760857748686448
3361556,-1.5762669026604428,-0.8283769670335522
3151099,-2.3395661908981973,-1.508119125054458
1030007,-1.9283425194187152,-1.136710452592695
2986601,-1.871140012510521,-1.079507945684501
635904,-2.4860252355364567,-1.6943931687104365
260589,-1.9080185518212662,-1.1601286161943756
2695404,-1.598700537883997,-0.7672534720402578
2763001,-1.7681555019736164,-0.9367084361298774
3206743,-2.25800716575878,-1.4749402307404833
1035662,-2.6841124023818574,-1.8924803355558373
1138584,-2.0920663535899866,-1.344176417963096
1241826,-2.1991264162762993,-1.3676793504325602
2886077,-1.9654719714775883,-1.1340249056338494
618383,-2.068272691857822,-1.2368256260140833
2697591,-2.226581024528949,-1.39513395868521
2197616,-2.6360696353123974,-1.8046225694686586
3161613,-2.1002495034884006,-1.2688024376446618
3233486,-2.246203894156533,-1.4147568283127943
2609369,-2.106215940523303,-1.274768874679564
895250,-1.4297444444855103,-0.6466775094672133
2000467,-2.130324701224342,-1.298877635380603
2466479,-1.2977135947167624,-0.46626652887302356
1084857,-1.473899208780554,-0.6424521429368152
3533176,-2.461922783918056,-1.6304757180743175
3365790,-2.2254508573238643,-1.3940037914801255
1086628,-2.1619110200254275,-1.3554247540753228
547144,-2.336558007984113,-1.5051109421403739
1501306,-1.7551910588458184,-0.9237439930020794
1147789,-1.9224285583852518,-1.1745386227583612
1981267,-1.8027405644988561,-1.1230338473579387
3928578,-1.7031928341722866,-0.9115607673462665
382868,-2.0141205042809487,-1.18267343843721
1427145,-1.549869590338352,-0.8019796547114613
2873999,-1.883450357065684,-1.052003291221945
1079882,-1.4238138883119582,-0.6759239526850674
1903854,-0.875755257029661,-0.08412319020364079
527522,-1.6203950887396945,-0.8287630219136745
3445198,-1.9085801496855956,-1.1169480828595755
2464656,-1.027649646971327,-0.23601758014530683
2026818,-2.0697344118056153,-1.4557806166734542
1556544,-2.2509347906016037,-1.4678678555833067
1748932,-2.0912597945616884,-1.2598127287179495
2207779,-2.3931014057353117,-1.561654339891573
1388232,-1.3743639824561091,-0.582731915630089
1781729,-1.8204565753730106,-1.0373896403547136
884542,-2.0552451460292906,-1.2636130792032703
2817966,-2.2626913426151813,-1.4710592757891614
1234885,-2.741143628370505,-1.909696562526766
229356,-2.219405712178925,-1.4277736453529046
1242209,-1.9071909267407354,-1.1241239917224384
555038,-2.6246767718605417,-1.8330447050345215
1440961,-2.588250806467856,-1.805183871449559
821827,-2.4486772735930638,-1.6656103385747665
2602061,-1.473442534007094,-0.6419954681633552
822556,-1.8995954844545713,-1.107963417628551
1888734,-1.9131988231294395,-1.1215667563034193
3408431,-2.2065990407672027,-1.458709105140312
1964195,-1.8325187575627089,-1.170591333471794
3959343,-1.1600410572083368,-0.3769741221900398
549823,-2.8164390512053847,-1.984991985361646
1126007,-2.145767344490619,-1.3143202786468797
3839282,-1.4161725552051065,-0.6245404883790864
2810031,-2.4283224277800497,-1.6804324921531588
3065204,-2.218788828575733,-1.3873417627319942
1914905,-1.7900418397279172,-0.998409772901897
1220975,-1.6894418007397112,-0.8579947348959722
2726639,-1.4383449550915366,-0.6467128882655164
1970075,-1.5028542719051474,-0.8494578692982585
3357125,-1.7622974826286903,-0.9792305476103933
1467058,-2.4691058119514757,-1.6774737451254556
959782,-2.0072312922893465,-1.2155992254633263
844592,-2.6784203426518323,-1.846973276808093
1301420,-1.945637949225655,-1.114190883381916
2910852,-2.4547784676127766,-1.6233314017690375
2846554,-2.3776019997738165,-1.5859699329477963
3200378,-1.5408689629252033,-0.7492368960991831
2856092,-1.7811533985977817,-0.9895213317717616
2857998,-1.955874854372969,-1.12442778852923
677205,-2.0774324051840547,-1.2858003383580345
3237451,-1.3816021060079866,-0.5899700391819664
2607560,-2.3211072922804936,-1.4896602264367547
2866404,-1.3823736539627247,-0.5993067189444277
282672,-1.7629471271092814,-0.9713150602832613
1617874,-1.8746233868577282,-1.0431763210139893
1918899,-1.761842662877975,-0.978775727859678
3653421,-1.9802106730060394,-1.1625014137336436
3754092,-1.6985166492829542,-0.8670695834392153
2772462,-2.5659604704411647,-1.7743284036151443
2422137,-1.8876405010966586,-1.1045735660783615
3272140,-0.9688290200044509,-0.25713749247513396
238876,-2.0872891052552816,-1.2558420394115428
1287142,-2.397242434094097,-1.5657953682503583
3359224,-2.2951856588548463,-1.4637385930111073
1945954,-1.8236578833333204,-1.1702614807264313
909285,-2.1778067008997306,-1.3463596350559917
3727838,-1.6247208637435069,-0.7932737978997679
892659,-1.5115647020253298,-0.6801176361815908
2250963,-2.466718995456797,-1.6352719296130582
914482,-2.288041112519143,-1.4565940466754042
1030184,-1.5967548756805254,-0.7653078098367865
310316,-2.203683816376443,-1.372236750532704
3443978,-2.355145443539343,-1.5236983776956041
459836,-2.0127830084510814,-1.1813359426073424
3478671,-2.5794547337164895,-1.7480076678727503
3188713,-1.6161084232392502,-0.82447635641323
2714353,-2.4308084250905457,-1.5993613592468066
3007152,-1.8740403800449246,-1.0824083132189044
673701,-2.110860067209352,-1.3192280003833319
828666,-1.4137960819540143,-0.5823490161102752
209092,-1.868768815511098,-1.0373217496673588
2145999,-1.7953284235358695,-1.0122614885175727
3466449,-1.2895482497770374,-0.49791618295101725
1468998,-1.807166517187384,-0.9757194513436451
3712574,-2.2516494769630526,-1.4202024111193134
2883604,-1.7171204294447833,-0.9340534944264862
3129001,-1.3354667964958056,-0.5875768608689148
2532688,-2.152617310165858,-1.3211702443221194
3110364,-1.9854544570536194,-1.1540073912098805
3078121,-1.9783625149905226,-1.1867304481645025
2016121,-1.812188813112157,-1.0077427232685052
1819371,-2.6030255358162075,-1.8199586007979103
1959221,-2.0618886709966286,-1.3821819538557112
194107,-2.202643298195886,-1.371196232352147
2612924,-1.789478261442146,-0.9580311955984071
1616231,-1.7091875876255882,-0.917555520799568
3181265,-1.723617120209842,-0.9319850533838219
750918,-2.115509603671839,-1.3324426686535418
1414191,-2.1391033727354234,-1.3560364377171261
1314009,-2.384647778188192,-1.5930157113621717
2030709,-2.5273257719404745,-1.7680866736280803
3683754,-1.5607406031958972,-0.7691085363698771
2573664,-2.027575030748568,-1.1961279649048286
3956979,-1.4628101478385092,-0.6313630819947703
1777560,-2.2871730285051006,-1.4557259626613615
2857794,-2.335443322644054,-1.5438112558180337
1844176,-2.0690167073600376,-1.321126771733147
3886551,-1.903938613354065,-1.1123065465280448
3455508,-2.3783524283430872,-1.5469053624993483
1447042,-1.8280235752859304,-1.0363915084599102
1695265,-3.09456170382376,-2.2631146379800207
1047663,-1.704565166356575,-0.9710363670584155
3759975,-2.00449043851124,-1.2214235034929428
346433,-2.6280592625840278,-1.8364271957580074
3303055,-1.4954942982619688,-0.6640472324182298
1338325,-1.8064973734789291,-1.0586074378520385
1367959,-1.9490064026700509,-1.1175593368263121
1955994,-1.6173637712902662,-0.9639673686833772
1384187,-2.2689861911779756,-1.4859192561596788
205621,-2.3723258869626758,-1.5806938201366554
464500,-2.2853656663350543,-1.4539186004913154
508846,-1.9402360957240894,-1.1486040288980692
569518,-2.311868631323899,-1.5288016963056017
1613891,-1.9129740733897418,-1.1213420065637216
3295211,-1.5385817525007115,-0.7469496856746913
340003,-1.5174449993781547,-0.6859979335344157
841193,-2.3276315913067793,-1.535999524480759
1885462,-2.1151031336398782,-1.2836560677961395
194795,-2.6214373544328615,-1.8298052876068414
212922,-1.9944057018144103,-1.1629586359706714
2647266,-2.5757267707233686,-1.7442797048796297
811587,-1.6516316705797272,-0.8201846047359882
1504589,-2.830455533955857,-1.9990084681121179
1290831,-2.7370909763419733,-1.954024041323676
1266986,-1.8120745468521147,-1.0204424800260945
397769,-2.338914693960926,-1.507467628117187
279075,-1.9771549118533018,-1.1457078460095629
259437,-2.605160819271893,-1.8220938842535963
3771573,-1.6308051546445967,-0.9347030987878737
1097515,-1.4292917351133714,-0.5978446692696324
299584,-2.0877380840717046,-1.3046711490534075
3426098,-1.4925478629753293,-0.7009157961493091
1452979,-2.273532671063006,-1.4420856052192672
419729,-1.6388362460811434,-0.8073891802374046
1296102,-2.1480019447103746,-1.3649350096920774
2966542,-1.66229959551096,-0.8706675286849398
1113319,-2.228706466494109,-1.39725940065037
425923,-1.6584775427846181,-0.8270304769408792
1848515,-1.7548368813655855,-0.9632048145395652
3225156,-1.7879306496924605,-0.9564835838487217
2525083,-1.3967241564891335,-0.6050920896631132
1211734,-1.409021221614986,-0.5775741557712472
1578027,-1.6249855293655067,-0.7935384635217676
2483480,-1.5010685576023501,-0.70943649077633
3195011,-1.9454190901294774,-1.1537870233034573
353740,-1.8777472779623952,-1.094680342944098
2008469,-2.3192606994664717,-1.571370763839581
3706445,-2.1604674313000563,-1.3688353644740363
2192527,-1.9168750733366928,-1.1338081383183958
3400251,-1.773301534907393,-0.9816694680813729
569968,-1.5391536985335443,-0.7560867635152473
1765734,-2.5224944509732983,-1.739427515955001
359078,-1.6800774567235708,-0.8486303908798318
2522864,-2.0649850680264388,-1.2335380021826998
3101035,-2.617218477224431,-1.785771411380692
3535142,-1.990646241523437,-1.159199175679698
2850464,-2.529433378223239,-1.6979863123795
2577671,-2.2446121980499396,-1.4529801312239194
948086,-1.0991050927075603,-0.35121515708066964
2252268,-2.505756824846814,-1.6743097590030749
1578193,-1.9440942270365902,-1.1126471611928512
737537,-1.889361941087992,-1.0977298742619719
927013,-2.6596703560918655,-1.8282232902481264
1259002,-1.7793095412135185,-0.9478624753697795
2497054,-1.3580855045278504,-0.5266384386841114
2117927,-2.2445783580149707,-1.4529462911889506
932187,-1.5660130327739386,-0.7345659669301996
1153434,-1.972784962964541,-1.1413378971208021
2577880,-1.6802169857288936,-0.8971500507105965
3671639,-1.8932710097675942,-1.101638942941574
2457606,-1.7444788642942886,-0.9130317984505497
428609,-1.9859736541891995,-1.1943415873631793
435741,-1.8614030312204304,-1.1135130955935397
3106543,-2.0917049249407227,-1.3086379899224259
2756442,-1.9625523131765652,-1.1311052473328262
1881764,-2.214571187745838,-1.383124121902099
2419064,-1.869570517351771,-1.0779384505257508
2990267,-1.4643229635532244,-0.6726908967272044
926060,-2.5264919219924558,-1.7348598551664356
1220884,-1.857147288261063,-1.025700222417324
3779214,-2.067848973962978,-1.2364019081192392
2057834,-1.454800777065088,-0.7069108414381973
341716,-1.6252229118083368,-0.8335908449823166
2041948,-2.787666816267742,-1.9960347494417217
1362606,-1.438445938881426,-0.6468138720554057
594359,-2.4771348621295655,-1.6855027953035455
299079,-1.5793642150260105,-0.92892006778311
1320711,-2.3243672973235414,-1.4929202314798027
2507648,-2.1035944274053566,-1.272147361561618
244874,-2.0954568087765475,-1.347566873149657
2899774,-2.3828156011943156,-1.5513685353505764
1674835,-1.2466207540118934,-0.5669140368709761
1165160,-1.6591200476054904,-0.8900162608053819
280264,-1.8795122201315986,-1.0878801533055784
3847415,-2.7878227961245523,-1.9563757302808131
1353185,-1.736230997484125,-0.9883410618572342
3662227,-2.0495564685473213,-1.2664895335290243
710923,-2.1671297490727497,-1.335682683229011
403021,-1.9730729064113237,-1.1416258405675848
3961041,-2.0478663613674795,-1.2434202715238274
3438988,-1.2106995374120904,-0.4276326023937933
1942233,-2.074660176877081,-1.3949534597361637
1347806,-2.4263106975346242,-1.5948636316908855
3700903,-1.5843598014323856,-0.7927277346063655
3031341,-1.6140199700075777,-0.7825729041638387
2251851,-2.3417492249610885,-1.5103021591173498
817204,-1.9886066399878186,-1.240716704360928
3133537,-1.9518653229597869,-1.1602332561337667
2712196,-1.2545633337656947,-0.506673398138804
3659741,-1.8166251528219657,-1.0335582178036686
3664651,-1.6810281529787208,-0.8495810871349818
2871580,-2.5846529924392434,-1.7532059265955047
2113702,-2.7939169712371528,-1.9624699053934136
1884837,-2.520626601304469,-1.7289945344784488
3436844,-2.326824914947905,-1.4953778491041665
3296808,-2.012586857970468,-1.2209547911444478
3137560,-2.4514238014057392,-1.7686375491716497
1453097,-2.3482372355453958,-1.516790169701657
3774505,-1.7820877761034035,-1.0341978404765129
1131278,-2.5155402660407638,-1.6840932001970248
466132,-2.378589530005476,-1.5869574631794556
2551592,-2.092139696961251,-1.3090727619429539
1713818,-2.4784222189976384,-1.8250258163907493
2504644,-2.0678775867658983,-1.284810651747601
699403,-2.1466269648839345,-1.3549948980579143
2456477,-1.8318557227241534,-1.0402236558981333
1461998,-2.3907069615897445,-1.5990748947637243
2497200,-2.232579241632347,-1.4409471748063265
817348,-1.8003034060018233,-1.008671339175803
709465,-1.5491746851711459,-0.7575426183451257
282560,-2.20555453479245,-1.3741074689487112
2527271,-1.9789176511573858,-1.1474705853136469
3928692,-2.4287317206626233,-1.5972846548188846
992664,-1.6234947980309453,-0.7920477321872064
3928773,-2.0497368355777743,-1.2182897697340351
3028866,-2.2600923107836506,-1.4286452449399114
3435415,-1.7918399209106375,-0.9603928550668985
3115909,-2.594541441948861,-1.8114745069305642
2285598,-2.39999738731764,-1.5955512974739883
551980,-2.6698955502480564,-1.8384484844043174
1934468,-1.5741873783318259,-0.9265269131919512
1642346,-1.5171607727478564,-0.7255287059218363
2396504,-2.5474268976526373,-1.76435996263434
3233584,-1.9911129990265963,-1.1596659331828574
2433033,-2.1836700045622335,-1.435780068935343
3448970,-2.308222850610657,-1.5251559155923597
493558,-1.8656608451581513,-1.0342137793144124
1589767,-1.7315297079132914,-0.9836397722864008
728451,-1.91656986008903,-1.085122794245291
3091152,-2.3354132627809494,-1.5875233271540587
1307020,-2.5209679383671864,-1.6895208725234474
1956979,-2.0746699841734197,-1.2830379173473998
898465,-1.7342151094555796,-0.9511481744372826
3524329,-2.021876430272818,-1.190429364429079
2978127,-1.9295148070377752,-1.1250687171941234
2915075,-2.0947491207230278,-1.2633020548792886
1227040,-2.5577049592227916,-1.7262578933790527
555670,-1.7954790727590761,-0.9640320069153372
3183941,-1.1585953613603341,-0.375528426342037
1363619,-1.8010143906581353,-0.9695673248143963
1305060,-1.7770868305558658,-1.0291968949289751
2474616,-2.1162906950321414,-1.3684007594052507
3194895,-1.5263413364003355,-0.7347092695743154
3684548,-2.013796542405801,-1.1823494765620621
3060154,-1.6885199483419937,-0.8968878815159735
3956463,-1.7626703168271327,-1.014780381200242
287452,-1.7146985950348486,-0.9316316600165515
503981,-1.4653209412579211,-0.6736888744319008
3799536,-1.96509953043775,-1.1336524645940111
349633,-2.126373236111223,-1.294926170267484
2572353,-1.6847287822862744,-0.9016618472679774
839087,-2.415787763291055,-1.624155696465035
3905864,-2.209197606004822,-1.3777505401610828
2109823,-2.0900496630640304,-1.2586025972202912
268262,-2.197578941594818,-1.3661318757510792
1003142,-2.359540936125687,-1.5764740011073903
303593,-1.79138125821769,-0.9997491913916698
3875963,-2.8696930385159183,-2.0382459726721796
1402883,-2.6651019313075843,-1.8336548654638456
3243836,-1.6421820560505653,-0.8107349902068264
3235615,-1.5149247482841997,-0.6834776824404607
1260079,-2.130156885700224,-1.298709819856485
2787108,-1.5642985250286068,-0.7328514591848679
372924,-1.7846401168537578,-0.9930080500277375
438710,-2.2533242039750863,-1.4218771381313473
2601237,-2.4528804258357457,-1.7049904902088553
2672712,-1.8557895105080058,-1.0243424446642668
1520678,-2.0395864633011502,-1.2081393974574115
2117080,-1.6821871602799348,-0.8507400944361958
2848164,-1.9606744210374434,-1.2127844854105527
703387,-1.4604227503166438,-0.6687906834906235
1096155,-2.001160364203602,-1.169713298359863
2610710,-1.786951254029061,-0.9555041881853221
2241737,-1.9903867377966014,-1.1987546709705812
1365668,-2.021139467426971,-1.2380725324086739
1850527,-1.8554978738065528,-1.024050807962814
930670,-1.9343536454422874,-1.1029065795985482
1827122,-1.8397499445337628,-1.0566830095154658
1581133,-1.7654721222185084,-1.0175821865916177
2712975,-1.2538580292334365,-0.4622259624074163
2891239,-1.9588585146030295,-1.1672264477770093
1358459,-1.5173034161965484,-0.7256713493705284
1587248,-2.5205273371379846,-1.7726374015110937
1093181,-2.1198796187512396,-1.2884325529075007
3891426,-2.381492552036816,-1.5898604852107958
2272735,-1.8755872214156732,-1.0441401555719343
3461704,-2.112111613101491,-1.2806645472577518
2228550,-2.436884616681489,-1.6054375508377503
2425889,-2.7735032173198135,-1.9420561514760746
1160463,-2.21870702497776,-1.4270749581517401
1009617,-2.2609985070223755,-1.4295514411786365
2653195,-1.9787590877303158,-1.2308691521034252
3443973,-2.6020261451772315,-1.7705790793334928
711027,-1.6944032939946818,-0.8629562281509428
476944,-2.486861034996289,-1.6554139691525502
2190214,-2.286445163786756,-1.4549980979430173
2720347,-1.3423580905389503,-0.5109110246952113
3701118,-1.6079736427391231,-0.816341575913103
3133730,-1.7272847983756296,-0.9442178633573327
1355511,-2.0984008237698157,-1.2669537579260766
971176,-1.9524705654116343,-1.1694036303933373
2281008,-2.2587002992256,-1.4756333642073032
3756021,-2.2487463929444145,-1.4571143261183943
708196,-2.5810791277500975,-1.7496320619063588
3702354,-1.8205307887532076,-0.9890837229094687
1279234,-1.8708537035160973,-1.079221636690077
2702757,-1.5019538624672664,-0.6705067966235273
1060592,-1.584706807509312,-0.7532597416655732
2135406,-1.7504106304230187,-0.9189635645792797
926566,-2.2320650512757676,-1.4404329844497477
3386340,-1.9562314829637653,-1.164599416137745
1474990,-1.8744243875377713,-1.0429773216940323
2738857,-1.7893454766085628,-1.0062785415902658
1288498,-1.744217963071944,-0.9127708972282051
473611,-1.7831272806502703,-0.99149521382425
2056572,-2.0923135183117387,-1.2608664524679996
3294648,-2.513145245277449,-1.6816981794337102
833476,-1.9312154196220854,-1.0997683537783465
3911762,-1.6029260797071836,-0.7714790138634446
3447921,-2.464419584490414,-1.672787517664394
837103,-2.4406181524786894,-1.6091710866349502
1772939,-2.572795487556829,-1.7413484217130901
2478038,-2.5814081163443863,-1.7499610505006473
2863048,-2.3901911309949155,-1.5587440651511764
2457041,-1.2783430785831422,-0.5304531429562516
1252108,-1.620427131326458,-0.788980065482719
3835908,-2.6996787267457543,-1.8682316609020155
1614401,-1.7278300245235152,-0.936197957697495
3328179,-1.370590025946197,-0.539142960102458
1270105,-2.0807619215559106,-1.2976949865376135
3419832,-0.8843818990823489,-0.09274983225632871
2904119,-1.8652735033666217,-1.0736414365406015
3168929,-2.7306424268260763,-1.8991953609823375
854292,-2.644862709607513,-1.8134156437637738
2569001,-2.2854294757145075,-1.4937974088884876
2794704,-1.8455160464488478,-1.0624491114305508
2945407,-2.18967640082561,-1.3582293349818713
3722428,-1.6279762076238227,-0.8449092726055256
3187578,-1.8209443964417582,-0.9894973305980193
2480807,-2.026411175530062,-1.194964109686323
1648897,-2.699459455419891,-1.928501156408827
937636,-1.702631341871677,-0.8711842760279379
337425,-1.5821157823092509,-0.7506687164655119
748382,-2.054067308652689,-1.2624352418266687
3431942,-2.5268313955286867,-1.7437644605103895
875422,-2.7561254208199935,-2.0082354851931026
820891,-1.5210463413204462,-0.7294142744944261
1784806,-2.0771856992410247,-1.2457386333972857
946859,-2.9805612119633595,-2.1491141461196204
3699052,-2.536740033042006,-1.7052929671982668
270553,-1.8899927504284868,-1.0585456845847478
1359998,-1.0856819028401286,-0.2542348369963896
3800994,-1.360831273080282,-0.5293842072365431
473319,-1.5605972710280311,-0.768965204202011
2800496,-2.0517505550140274,-1.2686836199957305
2113382,-1.5849179214420102,-0.79328585461599
1077481,-1.6854134547610982,-0.8539663889173592
1574405,-1.6502029019193818,-0.9023129662924911
2008685,-1.9664984316218241,-1.1350513657780852
2872591,-1.847865436004406,-1.0562333691783858
2824409,-2.6038890368499326,-1.7724419710061934
2750509,-1.9414600946279017,-1.1100130287841627
2940145,-1.7563854988304466,-0.9733185638121495
2015532,-2.250529730878528,-1.4190826650347894
433472,-2.144719747979786,-1.353087681153766
2452252,-1.5290484575050691,-0.737416390679049
2855640,-2.2849012368991017,-1.453454171055363
3304966,-1.8947458287090313,-1.1116788936907342
2623645,-2.2074475153433615,-1.3760004494996225
1577003,-1.821430892424475,-1.029798825598455
520638,-1.6622128378012901,-0.8307657719575512
2643854,-1.4700628089027752,-0.6386157430590362
659072,-1.7679798393677053,-0.9365327735239664
2695201,-2.319897647906314,-1.515451558062662
1391053,-2.0050512793350888,-1.1736042134913496
3363187,-2.717699041229698,-1.886251975385959
3265163,-2.4854167125781768,-1.7023497775598797
1974469,-1.8620495829545285,-1.182342865813611
377392,-2.1640649815902644,-1.372432914764244
2211267,-1.6780534391598696,-0.8864213723338494
1406519,-1.6289566353410552,-0.7975095694973162
979883,-1.6382275882385984,-0.8067805223948595
893930,-0.9223429999921142,-0.09089593414837527
2817070,-2.212097043803694,-1.3806499779599553
415722,-1.9590514476910283,-1.1276043818472894
2581827,-2.14925604495517,-1.3178089791114311
3941572,-2.0874765079484776,-1.2958444411224577
2997338,-1.8951860388407695,-1.1121191038224725
2718713,-2.841025931930756,-2.0095788660870166
2975596,-2.299394159400236,-1.4679470935564973
2679779,-1.9130875644330945,-1.0816404985893555
2126395,-2.478908286162894,-1.6872762193368738
1692818,-2.4953685723814827,-1.847708107241608
2021975,-1.8451841990169902,-1.0137371331732512
3104577,-2.281753388179799,-1.4503063223360604
449813,-1.6869233219014723,-0.8554762560577335
3080082,-1.789194086464974,-0.9975620196389537
3942335,-2.6357249181892874,-1.8042778523455483
3016115,-2.0660525553498896,-1.2346054895061507
3265661,-1.7898855771317512,-0.9982535103057312
1996447,-1.7504767656941824,-0.9588446988681623
3205096,-1.387478496162704,-0.5560314303189651
2828423,-2.0499551396461433,-1.266888204627846
2639425,-1.4992333933926494,-0.6677863275489104
3135198,-2.2329325798128328,-1.4014855139690936
3778434,-2.0384149518522294,-1.2069678860084903
2584557,-2.4930804918201894,-1.701448424994169
2392636,-2.462165169374194,-1.630718103530455
2214324,-1.9007147841759242,-1.1176478491576272
1696234,-1.596746374469588,-0.9170396573286704
3328043,-1.8537106551390234,-1.0620785883130033
3009872,-2.03763702368883,-1.2061899578450912
1059999,-2.4047524185136715,-1.5733053526699325
3005822,-2.583862449770108,-1.792230382944088
3512738,-1.996094336211743,-1.164647270368004
528358,-2.3919229994392515,-1.5604759335955127
508425,-1.7311518426050194,-0.8997047767612805
2701015,-2.3890496628640636,-1.6059827278457663
948821,-2.1472946092106056,-1.3158475433668664
3365205,-1.703369990369753,-0.871922924526014
2970937,-2.190158569909723,-1.358711504065984
2191715,-1.7762063999142537,-0.9447593340705147
337992,-2.6388131458229136,-1.8557462108046163
1114988,-2.183109900702371,-1.3914778338763505
3533264,-2.1046689044278715,-1.2732218385841325
269713,-2.541433057362856,-1.7099859915191167
2476352,-1.9416359844218152,-1.150003917595795
583448,-1.8354689881134203,-1.0040219222696813
734315,-2.1852987809527336,-1.437408845325843
3876553,-2.7603705628739377,-1.928923497030199
1246019,-2.3418181538466047,-1.5103710880028658
3277858,-2.200575371055335,-1.3691283052115961
3727684,-2.4678852458362193,-1.684818310817922
1524990,-2.8037120542229657,-2.0120799873969455
1786159,-2.3757384193722118,-1.5926714843539145
2283653,-2.7852241028265845,-2.0021571678082877
1867369,-1.8314869343439442,-1.0835969987170535
2178764,-1.7948409509998207,-0.9633938851560817
2113660,-2.131736812457908,-1.3002897466141694
2493093,-1.7693690508703093,-0.9379219850265703
2220357,-2.3949948798088454,-1.5635478139651064
1726889,-1.4782263228827657,-0.6467792570390266
3697457,-2.124425597303472,-1.332793530477452
3490767,-2.740938393775077,-1.9094913279313377
3037448,-1.9877528656771768,-1.2398629300502861
2281794,-2.0681159312978634,-1.2366688654541245
1316872,-2.4476088327343577,-1.6559767659083375
209075,-2.0474025840769126,-1.2159555182331734
450552,-1.8651153358116477,-1.0336682699679087
2002319,-1.5954345992322185,-0.7639875333884797
2501113,-2.2519616043315063,-1.4603295375054863
2227836,-2.6738709075746825,-1.8822388407486623
1918500,-2.1777354510698212,-1.394668516051524
1865486,-1.5873104579001005,-0.7558633920563617
430083,-2.293967815278194,-1.502335748452174
2968691,-1.9859405874812726,-1.238050651854382
3238185,-2.9784169465641943,-2.146969880720455
3255019,-1.910831866501851,-1.0793848006581122
1099816,-1.3772659070215032,-0.5458188411777642
1367097,-2.210247216488578,-1.3788001506448393
983652,-1.0899017956431263,-0.2982697288171061
1456141,-2.6758227968645576,-1.8841907300385372
914405,-1.484735683644446,-0.6931036168184259
3340913,-2.0400177014636123,-1.2085706356198733
3153717,-2.272147709977077,-1.4407006441333383
2857312,-2.090057966298397,-1.258610900454658
1262738,-2.6661246402239076,-1.8346775743801689
1116067,-1.569953573336911,-0.7783215065108908
305758,-1.8034214379114528,-1.0117893710854327
436574,-1.88505386147299,-1.053606795629251
1108802,-1.8849665776426183,-1.0535195117988794
3035677,-1.9290983466680853,-1.0976512808243464
1898388,-1.7204942964204202,-0.8890472305766812
740278,-2.397496666569713,-1.566049600725974
433809,-1.8098291518417,-0.9783820859979611
1474973,-1.848612091663739,-1.01716502582
929147,-2.235725908290397,-1.4042788424466581
826895,-2.616129536300772,-1.7846824704570334
3234580,-2.154446624597553,-1.322999558753814
1115590,-2.3976081312242497,-1.5661610653805105
2932012,-1.9240988957145913,-1.0926518298708523
1666837,-2.455999201116233,-1.7762924839753156
3372392,-2.1388726274450667,-1.3074255616013277
1319325,-2.222810002263995,-1.431177935437975
992824,-2.211799114812962,-1.4201670479869417
2238757,-1.847161906707632,-1.0879228083952375
1077074,-2.159828744764361,-1.41193880913747
1478917,-2.3034746225272844,-1.4720275566835455
3709211,-1.7387957670074246,-0.9557288319891275
967157,-1.8481319710188693,-1.0564999041928491
1377951,-1.051236457240858,-0.24679036739720595
3656900,-1.792206930034147,-1.00913999501585
2479721,-1.7443996673527158,-0.9965097317258251
3358422,-1.849448109847411,-1.0578160430213908
1379913,-2.42110614095569,-1.5896590751119515
3256328,-2.3218984577600885,-1.4904513919163496
2913342,-1.7417689893732196,-0.9501369225471994
1031143,-1.6893514988149674,-0.8977194319889472
2872270,-1.4558822439225325,-0.6244351780787936
887671,-1.5778376756192176,-0.829947739992327
1710222,-2.029275362521117,-1.3758789599142278
2797175,-1.40564311798755,-0.6464040196751554
3231502,-1.6061360583061892,-0.814503991480169
2222429,-2.063693804027228,-1.232246738183489
3517141,-2.4546234887736396,-1.6231764229299006
374934,-1.7253902156089231,-0.8939431497651841
2496475,-2.3255552685949845,-1.4941082027512458
2279019,-2.079143211185943,-1.247696145342204
406747,-2.0151179558593024,-1.2106718660156506
1632311,-2.1361211106660565,-1.3444890438400363
1451378,-2.137714407064606,-1.333268317220954
641153,-2.2201982730709418,-1.4285662062449216
2397977,-2.020464408574761,-1.189017342731022
1476546,-2.024165565604241,-1.1927184997605023
255226,-1.9152094832206916,-1.1321425482023946
472124,-2.527329283063146,-1.7794393474362558
3528743,-2.682419775869058,-1.850972710025319
988037,-1.6803807858690942,-0.888748719043074
2986172,-2.029731354240598,-1.1982842883968592
1561822,-2.0358339218428556,-1.2043868559991167
1705399,-1.6187270763394148,-0.994908052308708
711078,-1.855527974397059,-1.0962888760846643
464558,-2.7108328976395395,-1.8793858317958003
3091599,-1.667785442135187,-0.8847185071168898
2038705,-2.2744420084828465,-1.4429949426391078
3408409,-2.4770622064997103,-1.6456151406559716
912213,-1.697876538479606,-0.866429472635867
3953197,-2.3147291039408557,-1.5230970371148354
3871027,-1.9909694602218122,-1.199337393395792
3303051,-1.9417857676065757,-1.2589995153724864
2748319,-1.5378456780025034,-0.7063986121587645
2919078,-1.9864420826179972,-1.1549950167742582
2658313,-2.3710375727229582,-1.539590506879219
967024,-2.6084322467513203,-1.8253653117330233
2686340,-1.7995477176742063,-0.9681006518304675
1589479,-1.8519083964040877,-1.0204613305603487
3849692,-2.124308664522769,-1.3065994052503729
240096,-1.8303456297239942,-0.9988985638802553
2410088,-1.7013511401492747,-0.9097190733232545
1993826,-2.1728598957591068,-1.38979296074081
1862009,-2.14276281307965,-1.3113157472359114
3071709,-2.1518065929899164,-1.3203595271461777
991586,-1.8443021289806614,-1.0612351939623643
2274391,-2.1309663557799428,-1.2995192899362038
201368,-2.313664726380999,-1.4822176605372601
558635,-1.8628341678551439,-1.0712021010291237
626313,-2.045657345247907,-1.2142102794041683
1428099,-2.4931030625590416,-1.6616559967153026
370247,-1.1180029488347323,-0.3701130132078415
1477334,-1.4969262891455215,-0.6654792233017827
3277644,-1.2149670367821597,-0.4233349699561395
1074507,-2.5941076677467336,-1.7626606019029947
471512,-1.7839828496449561,-0.992350782818936
377822,-1.4444210490181,-0.6527889821920799
1068171,-2.4858983068005056,-1.6544512409567664
2666952,-1.125857543931301,-0.33422547710528083
2768134,-2.2849492564346874,-1.4535021905909484
2176814,-2.0715021072375928,-1.288435172219296
254095,-1.8485063519037095,-1.1006164162768188
2204589,-1.8038590799527126,-0.9724120141089736
2391884,-1.9250065415271702,-1.13337447470115
2051434,-0.9969954655805894,-0.24910552995369872
2545146,-2.1897595273879453,-1.4066925923696485
1945972,-1.5999630675947762,-0.9202563504538587
1224249,-1.7489439360417849,-0.9174968701980459
2416359,-2.723367867471172,-1.931735800645152
3457373,-1.6665700440312006,-0.8351229781874616
3260067,-1.954020067524514,-1.2061301318976234
437284,-1.709150262146182,-0.9175181953201619
2212037,-2.0566627835819515,-1.2252157177382126
406397,-2.4481533643564624,-1.6565212975304422
2592901,-2.5553291126887725,-1.7238820468450333
2054874,-2.0639419721794816,-1.2324949063357424
922736,-1.8530820751074266,-1.0614500082814065
834410,-1.1118788113511673,-0.3202467445251471
3224667,-2.181391719587463,-1.389759652761443
2921642,-2.4127134977849596,-1.5812664319412209
1267308,-1.3518401058205858,-0.5203930399768469
2904970,-2.0558105656782755,-1.2243634998345365
3693957,-1.6731367149152787,-0.8416896490715398
372409,-2.81653921409469,-1.985092148250951
291863,-1.4531492259364418,-0.6217021600927027
248948,-2.2323028777297633,-1.440670810903743
2045380,-1.860310413040474,-1.028863347196735
2519344,-1.7005980043012825,-0.9089659374752623
2616917,-1.9335806989953168,-1.1505137639770198
863403,-1.727689093817974,-0.8962420279742352
2704646,-2.4676068428088884,-1.6845399077905912
2208444,-1.7872014988982396,-0.9557544330545007
293104,-2.0017783137370606,-1.1703312478933217
1918402,-0.8424348117697322,-0.03798872192608038
3361578,-2.1467187042980393,-1.3152716384543004
3190395,-3.1103893066522175,-2.2789422408084787
2275670,-1.965632560068623,-1.1341854942248841
3211303,-1.781693734102974,-0.9900616672769539
3676923,-2.1277459354010184,-1.3232998455573666
851659,-2.2617272191606688,-1.5138372835337783
1933953,-1.6446943038487336,-0.9827668797578186
2621831,-1.6210733803780815,-0.7896263145343424
2733748,-1.6291826597591688,-0.8461157247408716
3512045,-1.9952045465724078,-1.1637574807286688
1429358,-1.772469391607501,-1.0245794559806103
2972403,-1.817378148660504,-0.9859310828167651
1918733,-1.7572769869808949,-0.9258299211371559
581761,-2.0745147556915535,-1.2828826888655334
1559225,-2.4782411112714398,-1.6866090444454198
884351,-1.910053694243721,-1.1621637586168303
1644412,-2.3308733202306344,-1.582983384603744
3707927,-2.7721169276974766,-1.9890499926791794
3276811,-2.400998979179216,-1.5695519133354767
478408,-2.4605279875748955,-1.6290809217311566
2564658,-2.1154728572835255,-1.2840257914397866
570220,-1.9503751654041273,-1.1189280995603883
3129319,-1.8324774905658516,-1.1207859630365347
3006055,-1.4620891534137856,-0.6704570865877655
2473176,-2.3338369751638273,-1.5023899093200883
1518993,-2.0902989174478592,-1.25885185160412
2973893,-2.589822103594077,-1.7721128443216814
466880,-2.4676715727813963,-1.7197816371545054
3023642,-2.1255075122214837,-1.3338754453954635
1846969,-1.728359839610597,-0.8969127737668581
3212175,-1.9324759769705349,-1.1010289111267961
283583,-1.794574373186446,-1.011507438168149
3143870,-1.8012392611217787,-0.9697921952780396
2827030,-2.6379372554544247,-1.8064901896106857
545414,-1.8234635558317878,-0.9920164899880488
609111,-1.9286366323524793,-1.0971895665087406
2110176,-1.844540475199874,-1.0130934093561348
601305,-1.289302479723292,-0.5062355447049948
3426443,-1.3480271060561435,-0.5563950392301235
3281226,-1.7711088927608165,-1.0232189571339259
818352,-2.377699925691814,-1.5462528598480751
3091669,-1.748482180858622,-0.9568501140326018
3204525,-1.6410448672541111,-0.8095978014103721
3420360,-1.3631388560599333,-0.5316917902161943
3132822,-1.8233921397850934,-1.0317600729590732
3009882,-1.7549266276596858,-1.0070366920327953
3161704,-1.4240145523790138,-0.5925674865352747
3951924,-1.737012911545557,-0.9055658457018181
2021929,-1.4409307188581408,-0.6492986520321207
2967535,-2.656910755246196,-1.825463689402457
1772813,-2.2925099757246077,-1.4610629098808685
3478919,-1.8966159777843563,-1.1049839109583361
3743668,-2.0874565125494042,-1.256009446705665
965756,-2.0817247713304448,-1.3338348357035543
3081535,-1.7743296707829297,-0.9428826049391907
1673273,-2.1322451586278683,-1.452538441486951
2723317,-2.2206191255712513,-1.4289870587452311
1087503,-2.411928324671276,-1.6640383890443855
1581141,-1.841575093646547,-1.010128027802808
1345360,-2.378811412376122,-1.595744477357825
1155051,-2.5916853582258446,-1.8086184232075477
360444,-2.569354123626251,-1.7777220568002308
895647,-1.4339878824529497,-0.6423558156269296
351066,-1.1682137382682454,-0.3765816714422251
1345711,-1.8768050625299508,-1.0937381275116538
563616,-2.418705119667487,-1.587258053823748
537805,-2.2858182570857815,-1.4543711912420425
1751391,-1.80595308500587,-1.0228861499875728
1502695,-1.8713254953422387,-1.0398784294984997
2153720,-2.005422110879404,-1.213790044053384
510115,-1.6639750454293014,-0.8325279795855623
1637789,-1.9075679481360852,-1.1245010131177882
2713576,-1.1105779845599653,-0.2791309187162263
2139061,-2.201078081406289,-1.3696310155625504
1344403,-1.675119890043566,-0.8436728241998269
815335,-2.3448299561466253,-1.553197889320605
2546042,-2.7970348656078334,-1.9655877997640943
2197742,-1.8675321353111634,-1.0360850694674244
831675,-2.008174693233289,-1.2251077582149918
3262299,-2.3369375604437765,-1.5054904946000376
3515955,-2.158637974742701,-1.3271909088989617
1151802,-2.38852583642875,-1.5968937696027297
1635045,-1.8999151105137397,-1.0684680446700008
3795293,-1.778255365953466,-0.9468083001097268
384135,-2.034577205537324,-1.203130139693585
1048663,-1.8470323190749627,-1.0155852532312237
3140496,-1.8079879294729497,-1.0163558626469296
868317,-1.8325993964475518,-1.0495324614292547
3157924,-1.6845270838151354,-0.8530800179713964
729134,-1.7389105035834258,-0.9472784367574055
2750189,-2.054372939492172,-1.2229258736484332
1460753,-2.2869041186570684,-1.4952720518310483
1606815,-2.4124817093282944,-1.6208496425022743
1673881,-1.5350925778821083,-0.8553858607411908
1563870,-1.7617826323447203,-0.9303355665009813
2239992,-1.9961403016990102,-1.1646932358552715
3855178,-1.9779960746095697,-1.1465490087658308
300738,-2.6561146627867993,-1.8246675969430601
2714322,-1.8685798056452454,-1.0371327398015064
1087656,-2.1185674536903885,-1.3269353868643683
219318,-1.7844904884487331,-0.9928584216227131
953948,-2.0291695241986827,-1.2812795885717918
1554434,-1.4405553026704585,-0.6091082368267196
824190,-2.110906657895404,-1.3630167222685132
1483599,-2.5874007718987198,-1.7957687050726996
2042791,-1.4853219478171504,-0.7022550127988535
1719507,-1.9966625055921485,-1.3432661029852595
313647,-2.1710206064637405,-1.3793885396377206
1202832,-2.235333644306676,-1.403886578462937
274624,-0.7254287397651762,0.10601832607856276
3806493,-1.9387648219310398,-1.134318732087388
3525754,-2.5243260567105357,-1.7412591216922388
2502337,-1.1454495221273704,-0.31400245628363155
915506,-1.8357251028458994,-1.0042780370021605
1031789,-2.2531882210352783,-1.421741155191539
3142022,-1.6289637317712204,-0.7975166659274815
2143406,-2.5775542601717634,-1.7461071943280242
2064427,-1.8636488108831193,-1.0322017450393803
3446570,-2.268046695585022,-1.436599629741283
3849466,-1.9438696978592265,-1.1124226320154875
1641432,-2.833794553592561,-2.0023474877488217
2703099,-1.723271247854009,-0.940204312835712
1244596,-1.6608052346812232,-0.8691731678552032
2981482,-1.8792464704335703,-1.0876144036075501
3792560,-2.1370858695134847,-1.3056388036697457
3798572,-1.5993423298053775,-0.8077102629793573
2966695,-1.8526706171565201,-1.0349613578841244
3775601,-2.3180560320410235,-1.5349890970227267
3399630,-1.4802959730338434,-0.6972290380155464
325290,-1.2807002202277622,-0.4629909609553665
1056049,-2.322265127246343,-1.490818061402604
356397,-1.9377888153402412,-1.1547218803219441
1071391,-2.4165151509973706,-1.7022140069968534
2685142,-2.2560186114644973,-1.5081286758376067
1104258,-1.779848414168021,-0.9484013483242822
886061,-1.3821898502455634,-0.5991229152272664
232763,-1.5354045964225629,-0.7875146607956722
2719539,-1.8419882702186632,-1.010541204374924
1061677,-2.275800000914593,-1.4443529350708544
3072819,-1.648622835939312,-0.8655559009210149
1956464,-1.7797784861090404,-1.1321180209691657
1823749,-1.680265524272129,-0.8758194344284771
531148,-2.317506348726699,-1.5258742819006788
1083367,-2.0312712686709555,-1.2396392018449354
2642808,-1.7422129263497947,-0.9107658605060558
2836333,-2.3239718086592713,-1.4925247428155326
1542690,-2.1263424284355907,-1.3347103616095706
2837903,-2.5251543455367,-1.7772644099098094
3538491,-1.8979941153534508,-1.0665470495097118
2536769,-1.737603044738214,-0.9545361097199171
3952973,-2.112223821210174,-1.2807767553664349
3488184,-3.068056110423996,-2.236609044580257
3350578,-2.571396565099234,-1.7797644982732141
3042189,-1.876515349949346,-1.0450682841056071
2565103,-2.463433747840502,-1.671801681014482
2757530,-2.664425857838798,-1.8727937910127777
1758374,-1.776288635642873,-0.9448415697991343
2404629,-2.0427684710758167,-1.2113214052320775
2224056,-2.210529078499304,-1.3790820126555652
1938778,-1.214467967791506,-0.5610715651846169
551207,-1.7489766208306978,-0.9175295549869589
584920,-1.7667302643078928,-0.935283198464154
416017,-2.5309766348604823,-1.6995295690167436
284530,-1.7508048529848002,-1.0029149173579093
2792536,-1.9490652570981553,-1.1659983220798582
1848384,-1.7161475777044841,-0.8847005118607452
3699298,-2.2828111185443474,-1.491179051718327
253073,-1.49706724925488,-0.665620183411141
3375134,-2.0444504549837923,-1.2130033891400536
2600731,-1.8611995768144098,-1.0781326417961128
2666349,-2.2308945810020906,-1.3994475151583516
3075381,-2.9205699058656,-2.089122840021861
943079,-2.1753456117279852,-1.3438985458842465
1027889,-2.07072472238535,-1.239277656541611
665149,-2.2230181029961753,-1.4751281673692844
2126473,-2.0709184625933825,-1.2394713967496434
2912720,-2.2347993543882048,-1.4517324193699075
950216,-2.07412283632461,-1.3262329006977192
1714142,-1.4133448508605848,-0.7599484482536958
2105654,-2.356299235312927,-1.524852169469188
1425633,-1.7425070614070477,-0.9110599955633089
728489,-1.6181106514166708,-0.7866635855729318
336991,-2.2292264833898363,-1.4813365477629454
476319,-1.7248493484955048,-0.9332172816694846
2899194,-1.9481683009474053,-1.1565362341213852
401110,-2.380350929676183,-1.548903863832444
1215295,-1.0026312060854448,-0.1711841402417058
3245781,-2.3081080682304522,-1.476661002386713
553785,-1.874087277046024,-1.0824552102200038
2751442,-2.164458954367337,-1.333011888523598
2630230,-2.029047211852814,-1.211337952580418
3780159,-1.9566223128523412,-1.164990246026321
3523263,-2.5309197331342603,-1.6994726672905214
1543509,-2.25651376314088,-1.4734468281225828
533389,-1.8115370586672506,-0.9800899928235116
3299888,-2.099010218442123,-1.3159432834238256
1284941,-1.4180839728513328,-0.6264519060253126
875264,-1.7783750645061256,-1.0955888122720363
2857062,-2.764633293374246,-1.9331862275305074
1580170,-1.758894889381462,-1.0110049537545713
689916,-2.7246708574160903,-1.941603922397793
1565299,-2.5982633053870967,-1.8151963703687999
2866007,-1.8966741860658667,-1.0652271202221277
3914719,-1.9841002096468923,-1.1526531438031533
537748,-1.849434782900011,-1.0179877170562723
1000809,-2.214646418797229,-1.4230143519712088
1398132,-1.3730969999312528,-0.5900300649129558
2157434,-2.0645092892688055,-1.2330622234250666
3340313,-1.4388273326184549,-0.6471952657924346
2928746,-1.5205432439710596,-0.6890961781273206
3018499,-2.406810310500165,-1.5753632446564256
3342550,-1.4532696422874527,-0.6616375754614324
2648747,-2.3493806639030885,-1.544934574059437
3338852,-1.9209738092265298,-1.0895267433827909
3041420,-1.964603017318395,-1.2053639190060006
1551229,-1.91971143131576,-1.088264365472021
3455027,-1.8350897543072302,-1.0036426884634913
3849930,-1.8817885928708171,-1.0503415270270782
3888785,-2.592123423073354,-1.8090564880550573
2788487,-2.46883413590546,-1.6373870700617212
2840146,-2.4370626614662827,-1.605615595622544
2474297,-1.7040050882270024,-0.9123730214009822
1901951,-2.130326747487593,-1.298879681643854
3216156,-2.210366517139001,-1.3789194512952618
3160770,-1.5253412395130974,-0.6938941736693583
2432119,-2.412217033418678,-1.607770943575026
1642717,-1.7531287866220273,-0.9614967197960071
1150507,-1.9868298488552514,-1.227590750542857
2645704,-2.1238153820187855,-1.2923683161750463
1056671,-3.057235388292631,-2.30934545266574
270561,-1.830035739258178,-0.9985886734144391
3715294,-1.6370344912265726,-0.8454024244005525
847388,-1.855103098366871,-1.023656032523132
465195,-1.7522764473026093,-0.9606443804765893
540631,-2.5998689147921223,-1.8082368479661022
2755992,-2.124846903856147,-1.3071376445837513
695727,-2.2471471802167726,-1.4157001143730337
1952168,-1.7562601648320417,-1.108599699692167
3710015,-1.8713713445331894,-1.0399242786894507
2569293,-1.894910451048724,-1.1032783842227039
2620336,-1.8320608234077063,-1.0489938883894092
1905367,-2.1982400615423208,-1.366792995698582
3519223,-2.074841227931515,-1.2433941620877762
3502465,-2.0708444309495335,-1.2393973651057943
2039042,-1.4708024674488125,-0.7229125318219217
3699568,-0.6644672399821911,0.08342269564469951
3015542,-2.0307416379721674,-1.2476747029538704
2720180,-2.4270893165916236,-1.6354572497656035
3311779,-2.6671751703091418,-1.835728104465403
3144954,-2.2321562533057957,-1.4007091874620565
2816710,-1.750417403347866,-0.9189703375041272
2408180,-1.968590749552558,-1.176958682726538
3412041,-2.516027201574421,-1.6845801357306822
1762216,-2.5968396130362184,-1.7653925471924796
2945209,-1.728622395169821,-0.8971753293260819
2184278,-2.152611223175361,-1.360979156349341
2627864,-1.5238925920701152,-0.7322605252440951
1291337,-2.3792062059278813,-1.5477591400841426
2724841,-1.8923193878237425,-1.1444294521968519
2408626,-2.447636670589391,-1.616189604745652
3666956,-1.7734163254323576,-0.9817842586063373
526756,-1.918751278073976,-1.087304212230237
2875875,-1.4250486434156822,-0.5936015775719432
480729,-1.934053081342534,-1.1026060154987951
861648,-1.875356494018523,-1.043909428174784
983893,-2.5805584090887836,-1.7491113432450445
1133315,-1.7366187759208842,-0.9051717100771453
1138452,-1.6371655136190655,-0.8194562543466698
2754370,-2.2267842032315257,-1.4351521364055055
2161611,-1.9648625287963062,-1.1334154629525672
2695357,-2.0074532013745254,-1.215821134548505
1904940,-2.620080970936441,-1.7886339050927025
591100,-2.297307382001802,-1.465860316158063
1992200,-2.4495942724600397,-1.6181472066163005
475520,-1.6772342340473356,-0.8457871682035967
1325502,-1.7322463509576222,-0.9843564153307315
2487219,-1.2681733132162332,-0.5202833775893425
403959,-1.6818510673738571,-0.8504040015301181
3522008,-1.5412880548261017,-0.7098409889823628
1197925,-1.881482933725047,-1.050035867881308
1504497,-2.2945748742863388,-1.4631278084425998
250529,-1.6576583517772026,-0.9097684161503118
2421154,-1.3869319399569175,-0.5952998731308974
355161,-1.4682309136823628,-0.6367838478386237
3868055,-2.5975672964738106,-1.7661202306300714
3318461,-1.6842749763987994,-0.8926429095727793
3180722,-1.3727365965274967,-0.5811045297014765
424535,-2.054173198840955,-1.2227261329972157
1530665,-2.6913214188503125,-1.8598743530065733
671534,-2.0721058777226466,-1.2406588118789075
2391664,-1.545683454267697,-0.7540513874416768
2713817,-2.2721558783793707,-1.4407088125356315
1832799,-2.042503928989098,-1.2508718621630779
2220363,-2.514019673411868,-1.7095735835682162
513939,-2.4762628986935216,-1.6448158328497824
1157924,-2.575160594375681,-1.743713528531942
2215862,-1.461632983355904,-0.6301859175121652
1021736,-2.0023546397708074,-1.1979085499271558
2977478,-2.3762760328410195,-1.5932090978227227
1253196,-2.147446709259945,-1.3159996434162058
278641,-2.2630768559072942,-1.471444789081274
1602645,-1.8620042626584883,-1.0703721958324681
1553901,-2.1852640950086797,-1.3538170291649407
2405149,-2.5929554328155664,-1.7615083669718274
2621622,-2.383188542116598,-1.551741476272859
1582955,-2.383848261982832,-1.5922161951568115
1562948,-1.855902377992317,-1.0244553121485778
1670231,-2.067912891915625,-1.3882061747747076
