sample_id,y0,y1
336470,1.5807201879506492,1.5301038474361088
2748603,2.1346513480815483,2.084035007567008
684515,1.1031772496854826,1.053255443955278
2641638,1.156764852452747,1.1061485119382066
2743985,1.8930967948162087,1.8424804543016684
430843,1.2664577884467747,1.2165359827165703
862048,1.5526498476500523,1.5047549869754475
405637,1.6660337855819605,1.6154174450674201
1372656,1.2303337079294097,1.1797173674148693
1661007,1.180063081060363,1.1309573979890408
1253769,1.4834694701087026,1.4328531295941622
3002802,1.8434130619123086,1.7927967213977682
327979,0.5865923904625905,0.5371944188241193
1959702,1.4566188178232269,1.4071292338192671
2548215,0.6075908666505568,0.564511119501747
3265076,1.7147950192299952,1.6637829676874254
277848,2.0811137157702273,2.0360664252023413
2608493,2.7622049916391536,2.7115886511246132
1233000,1.7388790435525454,1.688262703038005
1155199,0.3654585358315368,0.3633601416243426
652916,0.8503294615626543,0.803091792743314
1395962,1.380658630670049,1.3372420924601272
1592619,1.5084830427132392,1.4634357521453532
2199518,1.7986794564863708,1.7480631159718305
2239077,1.5660240053758359,1.5154076648612955
2197070,1.5881906934426873,1.5431434028748012
3286738,0.7822600027004964,0.7312479511579266
478743,1.6801407346209094,1.629524394106369
3378061,1.2335913230170448,1.1836695172868403
1843682,-0.18532680552180755,-0.18744160466307044
2602784,1.7474111264549024,1.696794785940362
1259921,1.2123774898951167,1.1744793684884258
2479680,1.1306676390066466,1.0800512984921062
3126737,1.3465643359382407,1.296642530208036
2814092,1.7780841320043355,1.7274677914897951
3834047,1.4534236512749295,1.414287207845356
3510940,1.0436448736763961,0.9930285331618559
2553394,1.8109046592919633,1.7598926077493935
1596492,-0.8773234855459452,-0.8794382846872081
1194404,1.131358764648581,1.0807424241340406
306846,1.0615476712209833,1.0124344193374326
2691533,2.091578851997464,2.0409625114829235
361647,1.9587121764801794,1.9060861019246889
2784684,1.6223991928181856,1.5717828523036452
3076304,1.2351374953710055,1.1920379810492028
2532262,1.968760840732062,1.9181445002175217
720017,1.2396615235783424,1.1805146658099082
3299923,1.4451210970888941,1.400423247665238
1536733,1.3993332832966212,1.3487169427820809
924570,1.7760412671776786,1.7254249266631383
525690,1.6062823169677067,1.5611439070819695
3528643,2.328693633814024,2.2780772932994835
2997699,1.4172267621867105,1.3725289127630544
1024226,1.9692036325663769,1.9226445782814001
2622665,0.2735604687610099,0.2411526430639529
2047427,2.017934597314852,1.9673182568003118
2162210,1.506541625292607,1.4559252847780666
2527772,2.2655879444685194,2.214971603953979
2445401,0.8861376137968398,0.8377706815970456
2114004,1.410017193116204,1.3594008526016637
2058623,0.5741591022209949,0.5370152763603426
3329229,1.375423692122134,1.3307258426984778
2977529,1.2570914853815145,1.2064751448669742
1484043,1.8227288885085078,1.7721125479939674
1987114,1.4441353508657362,1.395029667794414
3864618,1.3841002397043944,1.3394023902807384
594405,2.202871533905016,2.1436205845217144
691458,1.5972003273362239,1.5472785216060194
2993670,1.2441892138315436,1.2163784079205233
2009188,1.566050187395109,1.5154338468805686
1159558,-0.43922584176051527,-0.44121141197701663
3665072,1.5250980228157842,1.4744816823012439
573996,1.1551095876093131,1.1058727865677929
3521650,1.9276182867674652,1.8770019462529248
1284759,1.7851179305545235,1.7345015900399832
2879550,1.5407931246598507,1.4901767841453104
2543759,2.190473791423935,2.1398574509093953
1352177,1.5881129593517647,1.5381911536215602
3040789,2.128437610944206,2.0778212704296655
348683,1.0416718473982614,0.9910555068837211
999454,1.2741912710366776,1.231091756714875
3067612,1.2656796305019957,1.2150632899874554
1079882,0.7956518745319402,0.7937843556118339
1112369,0.009670007171308927,0.007555208030046036
901351,1.395183150217171,1.3441710986746012
1113744,0.584839432649545,0.5827246335082821
3855176,1.2264765355535867,1.1772397345120664
340489,2.143871266531418,2.099173417107762
873961,1.5223320284064403,1.4713199768638705
2845257,2.2331174681058865,2.182501127591346
1790673,1.535279379552392,1.4860747485642298
3402352,1.7129354235409973,1.665697754721657
1916452,0.5985447071164292,0.596446312909235
1719588,2.197132289668585,2.144461457873877
1475450,1.7002805194271875,1.6496641789126472
2044475,1.100060631480174,1.0494442909656336
2763642,1.8697365611532513,1.819120220638711
492222,2.615183221757077,2.564566881242537
568093,1.8487146497870808,1.7980983092725404
2473001,0.7465181472146059,0.7098191658996356
1469163,1.670190797911947,1.6195744573974067
3096348,1.5357312334706403,1.4851148929561
1849501,0.05710079779637155,0.055233278876265265
3425608,1.5628398576307085,1.511027079016666
1348390,2.1204471573318124,2.069830816817272
621774,1.760234055837998,1.7066878496140734
1993409,0.20063414849767525,0.19853575429048104
384158,1.1869379048745707,1.1370160991443663
2992442,1.7297121404916458,1.6846648499237598
3366419,2.0863751120955163,2.035758771580976
1026524,2.059876482368092,2.009260141853552
2749700,2.6088483468016905,2.5582320062871506
1554353,1.094860603544158,1.043848552001588
3104189,0.8824610083084681,0.8318446677939277
2719952,1.6735562227936427,1.6229398822791024
516293,1.7395540561371825,1.689632250406978
3367624,1.3195771422287983,1.268960801714258
3331725,1.693732324512816,1.6438105187826115
2787742,1.293013959142973,1.2423976186284327
2178771,2.037228344717569,1.9921810541496832
209428,1.6073305377766052,1.562632688352949
3289743,1.401740903567125,1.353211436516622
558781,1.314492845813167,1.2645710400829626
572960,1.7970246065738569,1.7475310162477942
2895372,1.9281898786325222,1.877615394320302
912213,1.6882933289582813,1.6432460383903953
3073443,2.2040810415517162,2.1530689900091464
2710581,1.8028553250284478,1.7522389845139075
1372591,1.6970952574104068,1.6464789168958665
2239115,0.84863745370067,0.816229628003613
1371945,2.377552063412867,2.3257392847988245
3288401,1.0953279946549843,1.0443159431124145
1477532,1.665968941592511,1.6153526010779706
2965856,2.173497498707327,2.1235756929771226
1374508,2.1786830255641245,2.12876121983392
1876689,0.23525377831073083,0.23315538410353664
485959,1.1467457346837135,1.0968239289535089
1589824,1.0059618769316494,0.9733006916694321
620217,1.3905396336894302,1.33992329317489
282353,1.217347542450888,1.1674257367206835
1957466,2.0500029319468136,2.0008972488754915
2052686,1.724565193045229,1.6739488525306887
3221512,1.651726069557436,1.6011097290428957
368187,1.4653487887939693,1.415426983063765
3742204,1.3178562526504323,1.2679344469202278
3692759,1.638075262453392,1.5873698430457093
3308356,1.0836565025732572,1.0370974482882804
3890462,1.9246567570190822,1.8658654294973445
3790574,1.9296366964570253,1.879020355942485
3137225,1.7947179608288217,1.7447961550986173
1885851,0.28929017442651084,0.28719178021931663
3743656,0.7913052679882506,0.7462579774203646
898465,2.017299769292017,1.966287717749447
1972430,1.815508450718865,1.766402767647543
593812,1.8716975783019132,1.8269997288782571
3290374,1.7680009129688936,1.7207632441495533
1977721,1.0374476132102344,0.9905242042954207
1559476,2.3305162657950196,2.2795042142524498
554500,2.1950706429906743,2.13592378522224
3538133,0.4544161717319102,0.40379983121736984
1686002,1.5840752589139766,1.5349695758426545
2168717,2.0836388544013174,2.032227998220708
2105654,1.8955042519992373,1.844887911484697
2730082,0.6116909067812931,0.5749919254663228
2048508,1.775756244746931,1.7251399042323907
2700026,1.2451961005208196,1.2084971192058493
2635697,1.7521943506967053,1.7074965012730492
1742586,1.359497116686308,1.306044980028085
1296159,2.326183325674513,2.2755669851599727
3035545,1.600058403525423,1.5494420630108827
1732047,0.8974328579713738,0.846420806428804
2510272,1.4878120011856892,1.4602169294446266
2413145,1.7264687174335211,1.6765469117033167
981963,1.3464512314633579,1.298556370788753
3026996,2.7641456147983385,2.7162507541237337
3003999,1.1373381578092903,1.0922908672414042
1470350,2.0769376756464992,2.026321335131959
595354,0.7451784645243749,0.6945621240098345
714915,1.7095009916809931,1.664803142257337
2997906,2.4282727238789277,2.3776563833643873
3746242,2.233268812855381,2.1882215222874946
3174587,2.1939458794618503,2.1433295389473095
876260,1.5761909418526376,1.5311436512847516
1076033,-0.08217458548123108,-0.08428938462249397
2860110,1.7697246683626777,1.7191083278481374
3922637,1.5324128906469399,1.484518029972335
371144,1.2211616599979989,1.1777104510702487
229216,2.279369247802094,2.2287529072875536
1025301,1.1592680273577232,1.1086516868431828
1305117,2.255577140614905,2.2049608001003653
2974618,1.5943472552259428,1.5437309147114024
3662437,1.615977424750546,1.5667406237090258
3727378,1.2674593234899438,1.2168429829754035
498542,1.6614825529502133,1.6088564783947228
986278,1.6349574195131427,1.5843410789986023
3535426,0.5033264311352692,0.45827914056738317
3094517,1.8384273111915197,1.7878109706769794
3703543,1.85151701307446,1.8009006725599197
1677378,2.001727373357945,1.9558995246733044
2430064,2.0430938206162517,1.9839469628478172
2859602,1.7975558693773088,1.7479665638964001
3134917,0.3384085250371116,0.29371067561345554
3249638,1.4196415316055293,1.3745942410376433
2862053,1.2395193351237694,1.188902994609229
1756297,1.1559644936772708,1.104952442134701
2122835,2.1045941909675934,2.0507241734485184
904199,1.9004610152006376,1.8494489636580678
1704337,1.7183495995715943,1.667690211049391
362921,1.952996825951534,1.900778982734203
578485,1.836803081352043,1.7861867408375027
3314948,1.6603673177606644,1.609750977246124
1060714,0.6764630941479537,0.6743646999407595
3043050,1.9113697922971686,1.8607534517826283
3751077,1.2921295913024289,1.2415132507878885
1897969,0.4191115878563631,0.41704266309826066
3901560,1.9148916420080107,1.8642753014934703
1215717,2.1037183993668602,2.059020549943204
472963,2.2746689541440515,2.224747148413847
3163526,1.4734844599649783,1.4278698844936257
2721918,1.2512201305230286,1.2006037900084883
465403,1.0413011382879098,0.9913793325577053
1907511,0.7006058427129573,0.6985074485057631
3858019,1.117148494859236,1.0665321543446957
1791405,1.5485868426881757,1.501102810845183
3727800,2.4288652985414436,2.3816276297221033
2999376,1.568853259218586,1.5182369187040456
2013866,2.2460007673922657,2.195384426877726
3478701,0.6740019531700968,0.6240801474398924
1262493,1.4843513451460828,1.4396534957224267
487620,1.8935907654592594,1.8488929160356034
3797606,0.894024526081524,0.8434081855669837
1029763,0.7356679154010081,0.6884302465816677
1889390,-0.49359492771546093,-0.49569332192265514
969949,0.15557140781026269,0.12432244246228852
1291639,1.154269586813484,1.109222296245598
1158341,0.19709898948475785,0.19500059527756364
1763194,1.9948131116775203,1.9497658211096343
444054,1.4562220389078329,1.4056056983932925
531714,1.198069140582633,1.1474528000680926
3322564,1.4591660188501423,1.4073532402360998
828742,1.1977698522507685,1.1586334088211951
1960150,1.6013163374921415,1.552900285293047
1612991,1.3278931221492865,1.2768810706067166
3756046,1.2140757070968815,1.1690284165289955
687860,1.4565327938879942,1.4039067193325037
302411,2.088940851487969,2.0390190457577644
1024537,1.3029055420702702,1.2518934905277004
3325129,1.4610725665514117,1.4100605150088419
2909025,1.967391281040966,1.9190243488411718
754806,1.3526057047784512,1.3095061904566485
1154310,0.43331851163612856,0.43122011742893435
1022534,1.2780675730293494,1.228830771987829
3519489,1.468923965508618,1.4183076249940776
1310723,1.7701904762676457,1.7195741357531054
1828381,0.05445349467872683,0.052355100471532634
2577512,1.0343238746367185,0.9947849207159194
1080995,-0.7917616839576112,-0.7939439412054589
1746463,1.5040431253996098,1.456148264725005
1692227,1.5086148386223017,1.4633888401455732
2894558,1.7970183129909503,1.74640197247641
3661033,1.9672323788172625,1.9166160383027222
2915132,1.0497876519382778,0.9991713114237374
1043422,0.553883706494315,0.5517853122871207
3260138,1.1082151337940562,1.0596856667435532
1498511,1.6143972970531184,1.564475491322914
3000923,2.457107281078434,2.4064909405638937
1000933,2.1614456102375947,2.1108292697230544
1266840,1.3923851843749968,1.3417688438604565
297018,1.6952830498318274,1.6505852004081714
3752941,1.5112803578141922,1.4665825083905362
2012317,1.9768090578073885,1.9257970062648186
1468575,1.3920245031052376,1.3414081625906973
920277,1.1265466388866057,1.0755345873440358
3353485,1.4198308406295732,1.3751329912059171
281516,0.9899116889802727,0.9420168283056679
427762,2.0704879647858565,2.019871624271316
271920,0.9369905378293419,0.8870687320991375
214657,2.0235104561036374,1.9700583194454144
3320701,0.9363359141497474,0.885719573635207
1097737,0.25373936022009047,0.2516409660128963
2030513,2.157340524510784,2.0993937909401863
1687030,1.7499508824736376,1.7008451994023155
3152925,0.8734938282291248,0.8287959788054687
3666386,1.2258646694472304,1.1811668200235743
1829300,0.5402941686183569,0.5381957744111626
3392708,1.1252501679004772,1.0746338273859368
2492955,1.6789491934607337,1.6310543327861289
671136,1.312637572999309,1.2620212324847686
2993314,1.3824583622010003,1.33184202168646
2129910,1.2297553840812863,1.1940658470317
1950516,1.2182501257542993,1.1691444426829771
3698214,2.0228611503620866,1.9722448098475462
3721050,1.361506470176558,1.3141968349143447
2454765,1.2682857284607976,1.2160678852434665
2986318,1.8043768705964138,1.7537605300818735
972682,1.7473754077047041,1.6967590671901638
2810658,1.990022881727676,1.9390108301851061
1097515,-0.3392036121488443,-0.3413020063560385
585447,1.5220520303000176,1.4721302245698131
293363,1.821599426478212,1.7737045658036072
282091,1.8131308110813524,1.762514470566812
2757272,1.9143941797135393,1.863777839198999
3218102,1.2664068721401112,1.2164850664099067
253578,2.0279403362714423,1.9807026674521022
2872537,1.6578247364419723,1.6068126848994024
1463345,2.3620968389260013,2.312892207937839
611019,1.6355435581790916,1.5856217524488871
2845491,1.7230243296228167,1.6724079891082764
1417792,1.9265156275922757,1.8758992870777353
3456343,1.7356685599070965,1.685746754176892
2427693,2.136507177636852,2.085495126094282
3280124,2.0887338493252594,2.0523496616938415
2284712,0.06078250352313944,0.059061205782887476
1165903,-0.05903335536604086,-0.061119136179416764
2603577,1.4034416083039842,1.361411172283279
1999219,1.8073466352542287,1.7567302947396883
1946167,0.8866094743695738,0.8375037912982517
753340,0.9498239103495847,0.8992075698350444
953948,1.2475930499179309,1.1937230323988564
3689914,1.6651066970144648,1.6144903564999245
604366,1.5719738209077236,1.5213574803931833
1010641,2.1735194164681753,2.1249582207873967
1896551,-0.09582808436058156,-0.0978332251770862
2250697,1.9208095393218083,1.870193198807268
2813272,1.6751763670394386,1.6245600265248983
1202112,1.706228824890228,1.661181534322342
1294634,1.183327717722749,1.138280427154863
2240439,1.3147904993170967,1.288182190303338
2884898,1.5075069735052538,1.456494921962684
1519460,0.815067050907114,0.7703692014834579
1200665,1.4155762606081004,1.3791920729766824
1951429,1.3238568624866018,1.2747511794152797
2162611,1.3106253176631126,1.2600089771485723
379219,1.7424772963798683,1.691860955865328
1881405,0.41598231822657,0.41394244905422184
2821030,1.4513138663907283,1.400697525876188
3338256,1.518355419560305,1.4677390790457647
3397186,1.4068212828790476,1.3558092313364778
2631775,0.34196557324468535,0.2901527946306428
2704198,1.6569401126614096,1.6063237721468693
1888534,0.684670298514426,0.6828027795943197
944839,1.2206390338257551,1.171698193933842
3449102,1.585472153926177,1.5332543107088459
1711472,1.9009741286944863,1.8518684456231642
403817,2.033706850642312,1.9830905101277718
1135989,0.1231442627153975,0.12127674379529121
958856,1.1226798141111258,1.0720634735965855
1147950,0.2058280994418764,0.2037297052346822
2507461,2.578835777772368,2.5282194372578273
1975008,1.9017179425795752,1.852612259508253
3333277,1.3063233312501308,1.2590856624307905
1952649,1.7382481401132235,1.6875887515910202
653252,1.416597988959623,1.3666761832294185
2898123,1.5456144838222132,1.5009166343985572
2631746,1.857465148616366,1.8068488081018257
1138453,-0.2653070009855532,-0.2674053951927474
306376,2.410639160198313,2.3607173544681084
3920588,2.8267935534101865,2.776177212895646
3472806,1.3833342558375255,1.3360965870181851
1009966,1.9731516304407726,1.9221395788982027
3673327,2.3371018907290653,2.2894949248349032
2510532,2.132258561252726,2.0816422207381855
2712213,1.2966589028031308,1.2444410595858
3347853,1.454653415322663,1.4074157465033226
1742801,1.635339548213838,1.5847232076992976
2398484,2.1761499204817545,2.1255335799672146
1952221,1.7159951770899817,1.6668894940186596
2134857,1.6993899125081384,1.6483778609655686
2009904,2.159698863541672,2.1090825230271317
3340057,1.6503166090780002,1.6098427643107558
2568994,1.2469624245933684,1.1990675639187636
1106909,-0.21924296170927435,-0.22131256268974908
1395475,1.8237470698537934,1.773130729339253
2241592,1.874382809735658,1.8168855809549826
1312827,1.7487577050454712,1.6977456535029014
3041223,1.5256189718018374,1.4760296663209287
1624737,1.754929481590275,1.7043131410757346
2673940,2.2519888025210264,2.201372462006486
2924114,1.2416934669938167,1.1906814154512468
759513,2.2255988146488113,2.174982474134271
2426607,1.9502005235979136,1.900278717867709
1233124,2.2848127602007366,2.2341964196861963
2577279,1.1917542991116605,1.1411379585971202
428125,1.507704847633551,1.4570885071190107
1871164,-0.14043845888301554,-0.14253685309020975
3857603,1.472946612137972,1.4270264203704743
282589,1.4517944780642276,1.4018726723340231
3857914,1.3876218399111506,1.3366097883685808
2795078,1.7680994926637876,1.7174831521492473
3070105,1.3259599440132308,1.2753436034986905
3834609,1.7936334409094357,1.733088505892022
2546388,1.8719411053649402,1.8209290538223704
482645,2.2784643344325297,2.2285425287023255
995762,1.4716617269897296,1.4206496754471598
194205,1.8898299872901745,1.83990818155997
512192,2.0530308694046093,2.002414528890069
461922,1.8699864931971266,1.8193701526825863
482393,1.8792790943850808,1.8286627538705404
2265988,1.644319446118453,1.5937031056039126
2856447,1.7224134964577116,1.6714014449151418
3073376,2.151649221129325,2.1010328806147847
2639044,1.7729204285944429,1.7223040880799025
635765,2.319055905790975,2.2691341000607705
2534393,1.4590547601413655,1.4084384196268251
3924475,1.953641241428718,1.9018284628146755
2559066,1.3025701015750215,1.2533333005335012
1197510,1.890129036286502,1.8395126957719616
1420967,1.4406916001413779,1.3900752596268375
1958100,1.6350328782479127,1.5847664650737943
568349,2.0274313031438975,1.9775094974136933
746556,2.0098924041193755,1.9592760636048352
2929011,1.2946363978616022,1.252900601677761
1200092,1.9470807105568186,1.8964643700422783
3912635,1.2485350446865158,1.1986132389563111
1282456,1.0615501780923258,1.0109338375777854
2671868,0.6257153828538874,0.5806680922860014
1082283,0.41535324089669434,0.4135002087068683
2530901,1.8244693648604675,1.7765745041858627
1391169,0.8056004790397655,0.7549841385252252
1711178,1.2569673613086931,1.2063079727864898
2031314,1.5630613416503045,1.5104221018121997
3322412,2.424804248915151,2.374187908400611
2248983,1.3054254179889584,1.255503612258754
2927982,1.183060489619277,1.1324441491047366
2645642,2.4202325627219894,2.3696162222074486
1408351,1.8140503356927693,1.763433995178229
2636185,1.8889678672459829,1.8383515267314425
3540156,0.7531545465163684,0.7125667375138992
713543,1.8620092108056785,1.8113928702911382
2161753,1.415442223705522,1.3648258831909816
2143178,2.5851348024452045,2.535212996715
305185,1.1144812364598233,1.064559430729619
3274062,1.4782084210122226,1.4335105715885665
595551,2.545645721087034,2.4957239153568294
3084839,1.7606285044009091,1.7100121638863688
1557024,1.687068469253969,1.6364521287394287
284805,1.6313439518520219,1.5862966612841358
3897270,1.6600735237535678,1.6078556805362367
2225211,2.3461586925092823,2.295542351994742
3411847,1.1833661335374863,1.1374459417699887
2498430,1.8733806347099062,1.827614238810508
3266768,1.4496632431925485,1.4049653937688924
2444641,1.4687568165744371,1.4373744117066032
3036780,2.2705634404160535,2.220974134935145
3701671,1.7210808588428061,1.6704645183282658
3891160,1.9413339401353087,1.8907175996207684
3704898,1.70783750931214,1.6572211687975997
2936443,0.6126811307386876,0.5864379290395737
437270,1.6463622761449308,1.595350224602361
2038393,1.6790714485818934,1.628455108067353
2273741,1.4333877645587862,1.384183133570624
2686481,1.457340774039753,1.4067244335252127
1199023,2.385558338350333,2.336353707362171
2477073,0.9101232725392985,0.8595069320247581
3467248,1.262595919830868,1.2153582510115277
3271326,1.4178558875290324,1.3699610268544276
279075,1.4843510640885405,1.4333390125459706
1971540,1.1459148091386266,1.0959378218369533
3533901,1.533435034952316,1.4828186944377757
2023876,2.015806689299658,1.9666020583114956
3806468,1.932762626012258,1.8821462854977176
3657145,2.131269988082763,2.0806536475682225
3750953,1.370825996241837,1.326128146818181
3954637,1.5684704282307456,1.5178540877162052
1618754,1.5176061988818634,1.4665941473392936
2962158,1.8018970567356585,1.7512807162211181
1240696,1.6945758733758773,1.6498780239522213
979698,1.1818464679505494,1.1371486185268933
332348,1.8831430001104605,1.8339383691222984
446680,1.9696905800245754,1.919768774294371
459450,1.346755124040101,1.3040436630657632
3493177,1.6677693640459335,1.6230715146222774
1364116,1.6125431854858105,1.5678453360621545
406450,1.7106539303958175,1.6515070726273833
2776049,2.0294328400652866,1.9751416747548913
3328095,1.8581829435853867,1.8134850941617306
415589,2.1051623031493176,2.0545459626347773
1688277,0.8700583741626596,0.8266945433235412
889858,1.222393771112324,1.1717774305977837
2575330,0.7189661941484377,0.6923578851346789
978142,1.8917321880614173,1.8407201365188475
1986098,1.2740288011644199,1.2217665478990274
3664206,1.638606236889316,1.5886844311591115
354639,1.281061206205401,1.2331663455307962
1081776,-0.6780746652036054,-0.6801730594107995
2590768,2.3518504591178777,2.301234118603338
318582,1.5600692356212795,1.5094528951067392
3808976,0.7815845488630683,0.7309682083485279
1345711,1.5365617213506657,1.4774148635822315
2726155,1.7170167020199687,1.6656058458393594
1990199,1.8789911186827162,1.8283747781681758
2915075,0.4004861795292012,0.3738778705154424
3473207,1.907559486579827,1.8591925543800327
2988424,2.07961634906178,2.02900000854724
1471619,1.7228840147984033,1.672267674283863
1828681,0.4858171986879941,0.4837023995467312
385356,2.193456135987818,2.148758286564162
299369,1.3895719921540568,1.3448741427304007
1240809,1.8780248303783074,1.8281030246481027
2589639,0.6679729986942342,0.6312740173792639
3524006,2.037522646977189,1.986906306462649
2133823,1.2511031956334153,1.2064053462097593
1588314,2.2661939447572186,2.2155776042426787
2988720,1.751559473439823,1.7009431329252827
1079062,0.21202865316763042,0.20991385402636753
3209340,1.721832803111486,1.6712164625969457
1876020,0.10578669248160852,0.10374845096773583
3049525,1.347097297529519,1.2960852459869492
2925307,1.6445539599289996,1.5998561105053435
3327923,1.3085437578844439,1.2718447765694734
1959362,1.3589955884972424,1.3098899054259203
3770225,2.061018702182423,2.0104023616678828
435733,1.6769670868915911,1.6270452811613867
362624,1.3635301391239345,1.3139408336430258
1397223,1.3009262348514032,1.251004429121199
2636967,0.9249944640265476,0.881558004106812
654806,0.8125462459489702,0.7626244402187657
641078,1.0114787781483199,0.9596659995342772
2863192,1.6873712447647131,1.6367549042501728
2790716,2.194160171919052,2.1435438314045117
588828,2.0062660410099107,1.9563442352797062
1781806,1.1358381409458325,1.0907908503779464
3794875,0.8305078808546327,0.7798915403400923
1477242,1.270033577333288,1.2201117716030836
231950,0.4745205494487965,0.4245987437185921
1843621,-1.035749924678168,-1.0378483188853622
3011376,1.9996938401847757,1.9490774996702354
328538,1.6009766906028635,1.5487588473855325
3681502,-0.548683713840357,-0.5508490428676596
2626180,1.8652054550159092,1.8145891145013688
3154896,2.038275735049348,1.9876593945348078
1229696,1.8584009271705488,1.8077845866560085
2710587,1.9493915460789002,1.8986861266712176
1713162,1.8414530013825152,1.7919634173785555
1892306,-0.19288780243551618,-0.19498619664271039
1596829,1.6570995831750992,1.6064832426605589
2197931,2.485256847131903,2.4353350414016983
431351,2.033895959665857,1.9832796191513167
3665553,1.4698797410979578,1.4192634005834175
908991,2.147632504088935,2.0970161635743945
2677011,1.5639023429307501,1.5208028286089474
998787,0.9861643515257502,0.9369275504842299
1688928,1.3918093540582337,1.3427036709869116
489682,1.201410780679978,1.1605056622184973
1818075,0.10961971039585713,0.10750491125459424
2575905,1.6365088232254583,1.585892482710918
1446560,2.1334881116133264,2.0828717710987865
1029625,2.1504510861712562,2.099834745656716
1549993,1.783145178165754,1.7325288376512136
1121290,0.7396812960045338,0.7375829017973397
1698593,1.6798547082030701,1.630749025131748
2744879,0.9793965826445115,0.9343492920766254
622816,1.1286197595705079,1.0813820907511675
3666953,2.1167601036334838,2.0668382979032796
3460778,2.277669728295865,2.22463223091028
2939558,1.3387156696169675,1.289093942582004
3739337,1.7112219461564275,1.6573519286373528
1368642,1.1728118907905767,1.1221955502760363
1079301,-0.22631525696148458,-0.22835512613383274
2822202,1.3162015351302525,1.2655851946157122
3439942,2.2651952074000947,2.21527340166989
1789577,1.8775701825351003,1.8265581309925305
1014282,1.791628576010298,1.7410122354957576
1544892,2.0757565535856237,2.0166096958171895
487904,1.5886863927389436,1.5380700522244033
1664515,1.82807714160596,1.7785875576020003
3777367,0.7821681963240986,0.7322463905938942
1580211,2.0484064150644,1.9977900745498598
1054286,1.0105567848018133,1.008689265881707
307469,2.786946045785605,2.7370242400554003
3408079,1.4031471093491321,1.3525307688345918
1669773,1.5735486810983008,1.5228892925760975
1452849,0.9172676423337305,0.8805686610187602
2857124,2.1623382407669336,2.1151005719475933
2851808,1.3269490653283014,1.276332724813761
702372,1.5890953558034566,1.5418576869841163
3810383,2.28825731061315,2.243559461189494
1725687,1.1844786055231267,1.1334665539805568
212308,1.3770280121014191,1.3271062063712147
1017051,1.3002799006802566,1.2555820512566005
1991018,1.4494170621939788,1.4127180808790083
2997309,2.6496095478842827,2.600372746842763
332374,1.160979556753822,1.1103632162392816
3882411,2.1912353912184384,2.1402233396758685
2485690,1.5742686840463804,1.52365234353184
946561,1.7118313522911879,1.6622420468102792
1966771,1.5929072264537654,1.5459838175389518
1395013,1.6592539761856808,1.6086376356711405
2444629,1.735113329009496,1.6844969884949557
2919453,1.5502278213559453,1.5071283070341426
3504958,2.0891099269116156,2.0444120774879595
657336,1.56315602887593,1.5132342231457256
1893849,0.636963783167052,0.6348653889598579
899233,1.8747437672308696,1.8275060984115292
3732073,1.4653328661622287,1.4147165256476883
3745345,1.3591222624382933,1.3144244130146372
3184016,1.1855349332415712,1.1404876426736852
310800,1.5203920998111282,1.4704702940809238
3749255,1.865886444360598,1.8173569773100948
2765206,1.460664748165959,1.4122978159661648
1985211,1.215802274131337,1.1666965910600149
2522864,0.8205336387632712,0.7695215872207014
1697949,2.1059272151606043,2.0597410911654404
3391517,1.3102024933252472,1.2602806875950425
997972,1.2523161054664693,1.201699764951929
845957,1.3048916093497382,1.2563304136689601
1889937,0.36196508647018766,0.35992684495631494
3673473,1.6902219468457533,1.6423270861711485
2267102,1.8924625519729952,1.8418462114584548
1940542,1.5213438418262066,1.4722381587548845
3393610,1.8132401140153545,1.7626237735008141
2416520,1.8678073031115516,1.8194403709117575
2049560,1.5028590420277945,1.4532697365468858
2918210,1.2830325092110386,1.2324161686964983
742601,1.3676082720903047,1.3169919315757643
193825,2.1402266765373272,2.0876006019818365
2114881,1.6295400026873257,1.5803353716991635
2254073,2.2187117569597667,2.168095416445227
842690,1.2942089744579957,1.2456477787772173
3838260,1.6349280711550784,1.5898807805871924
3375134,1.1358095880023102,1.0911117385786542
1134825,-0.5366784362389352,-0.5391304788491544
642964,1.3814667822690017,1.3308504417544613
2137481,1.9656881741260428,1.9134178655164038
1404405,0.9272430571626493,0.8762310056200795
3499181,0.4995214856349489,0.4760244453980428
3848423,1.9898166428741408,1.9398948371439364
1594733,2.0406593877967136,1.9900430472821735
3901679,1.5925720896776598,1.54156003813509
844592,2.6515933616935303,2.6009770211789895
3880588,1.826904093187862,1.774686249970531
200563,2.22752641531184,2.1769100747973
2435280,1.2216847535134914,1.169058678958001
1499679,1.9305836988415628,1.8806618931113583
3311857,1.1557710553015905,1.1110732058779345
898551,1.6078655328093818,1.5572491922948415
566227,1.691192501251794,1.6412706955215897
3019794,1.3711824395729186,1.3205660990583783
3516331,0.946534420117801,0.8966126143875965
1214794,1.4472704629001027,1.3989035307003086
3544337,1.1914089736818294,1.140792633167289
3804238,1.5402163872481514,1.4955185378244953
1708416,1.5569556463501786,1.5092195399785227
946749,1.820034389979575,1.7694180494650347
3698288,2.3716330443931946,2.321016703878654
1033748,0.8290440700061198,0.7784277294915795
2431167,1.350046330866268,1.2994299903517277
1343535,0.7323560551173487,0.6824342493871443
1947979,2.104586466945996,2.055480783874674
1108738,-0.3981646209081789,-0.400122946018296
3415981,1.6913286954010216,1.6407123548864813
640394,1.4884774733247341,1.4412398045053938
363482,1.4247507189208135,1.374828913190609
1040898,0.24024451736245503,0.23814612315526085
2501665,1.1908541983598744,1.154155217044904
294118,1.1547492027253605,1.1012029965014358
1529157,1.925967773171595,1.8753514326570546
1824797,0.04028099115561612,0.038322666045499026
3071024,1.4963132653757043,1.4478813885229849
3929723,2.2048160437809043,2.153003265166862
2946529,1.9605671499779982,1.9140080956930214
1675639,1.1529689712220297,1.1038632881507076
344238,1.770628576087456,1.7187501296228924
2575655,1.4760967551781983,1.425480414663658
2160849,1.8026063934470027,1.7519900529324623
2570085,1.9978007700773808,1.9471844295628404
288320,1.4740971812005612,1.4268595123812209
1203609,1.363776624436861,1.3280870873872748
2582964,1.7817131308056553,1.745014149490685
1033881,1.7094631408785188,1.6576503622644763
3775290,1.335478235632995,1.2848618951184547
3269085,2.2087649617641825,2.1577529102216126
1750077,1.9436368310560548,1.8937150253258506
882955,1.96923380820389,1.924186517636004
3328695,1.2647406298538906,1.2108706123348159
3184235,1.4278982170185088,1.3772818765039685
811316,2.0440934848790007,1.99347714436446
901309,1.5442320053139544,1.4991847147460684
1266630,2.131494846707854,2.0804827951652842
2983712,0.7439623236557835,0.6989150330878975
1246009,1.4710999442596564,1.420483603745116
1600792,1.3676745545222437,1.316662502979674
2695019,1.7124600425596272,1.6674127519917412
3952932,2.029178796162725,1.9812839354881204
326511,1.5010900954304331,1.4511682897002287
1758976,2.29510783979191,2.244795752803405
2004020,2.0706541751953957,2.0259563257717397
1545106,0.5820777873813436,0.5314614468668033
643571,2.1644151943254073,2.1137988538108674
1890800,-0.3622565996436153,-0.3643549938508095
1277734,2.0056672457636164,1.955745440033412
394376,1.7747663553407669,1.7248445496105624
3106739,1.4745410732782425,1.4311046133585068
538195,1.714678452323384,1.6647566465931796
3934382,1.231952505035958,1.1840095224455478
1326680,1.8732801315016678,1.8233583257714634
416261,1.6765704443882379,1.6259541038736975
1938244,1.6579990962828024,1.6088934132114803
2451457,2.561243672902603,2.5106273323880632
1070774,-0.1618495092470697,-0.16399750401312968
1348296,1.865239658799492,1.8146233182849516
1905954,-0.5261893712700136,-0.5282877654772078
1775805,2.0851689131748636,2.0484699318598936
2877941,1.6242275291652823,1.573611188650742
1909702,-0.44061293888785097,-0.4427113330950452
1099900,-0.387868771369828,-0.3899671655770222
3060494,1.18246648973577,1.1314544381932001
3463533,1.2936273840778953,1.2489295346542393
1137427,-0.1830653723959804,-0.18513497337645513
480409,2.1411660664017824,2.093928397582442
2441259,1.37011226812704,1.3215510724462616
2002181,0.46044195684305533,0.42919299149508117
953107,1.5951702926492268,1.5445539521346865
2634052,1.80157242050879,1.7509560799942496
3178320,-0.041619594265012605,-0.05560721370518723
825244,1.5016635973740993,1.4566163068062132
3956058,1.0947423725961292,1.0437303210535593
3406496,0.980319998249218,0.9303981925190136
670060,1.5462535446244965,1.4956372041099562
364139,1.1024668864100629,1.0577690369864068
3422436,1.076057498926859,1.0261356931966548
1088466,0.23768743517625068,0.2355726360349878
263491,1.6142536852732652,1.5546444261606345
3952486,1.7684977564835436,1.71887602944858
1642010,1.231502620174917,1.1829414244941385
1007147,1.3440750192906217,1.2934586787760813
1575915,1.4544357677514088,1.4097379183277527
826532,2.1257723659747056,2.0751560254601653
2009144,2.147757713782766,2.097141373268226
1873978,-0.19453680064223838,-0.1966351948494326
3087064,1.6786971489216,1.6280808084070597
3075115,1.454206841415031,1.4031947898724613
380811,1.2557391796459492,1.2058173739157447
1994024,1.1873006326884203,1.1380960017002582
1493204,1.4300383189868733,1.3790262674443035
2773867,1.93044617912626,1.8798298386117196
2809425,1.6649005436778703,1.61428420316333
3703714,1.1699732828779787,1.1409851803073752
3412113,0.8388176062010081,0.7909227455264033
1519144,1.4843389601718044,1.4344171544416
3341904,1.718692866025991,1.6680765255114507
2001943,1.7451117676580257,1.6944954271434853
388272,0.6393284145268983,0.5887120740123579
2393687,1.9710724023035875,1.921150596573383
2768180,1.9896496965075954,1.939727890777391
3376168,1.3373985885989075,1.2927007391752514
1863215,-0.27968369938548693,-0.28178209359268114
3271059,1.6227563570232524,1.572834551293048
2413769,0.4313543156282019,0.39710501376755636
1753293,0.6072143752175881,0.5796193034765255
1204195,1.4841005171398576,1.4330884655972878
1878428,0.31107451690040544,0.30897612269321123
839432,2.0861599435649083,2.0355436030503675
2630209,1.4722620634656824,1.4212500119231126
3800952,1.1093721867064619,1.0776219346707236
1323549,1.6473719959076978,1.596359944365128
1481529,1.6882770155591873,1.637660675044647
948560,1.9604002525604245,1.91047844683022
3433015,2.2803422321210096,2.2356443826973535
1524659,1.5703555378870493,1.519739197372509
2790763,1.7647891894797039,1.7141728489651635
2535329,1.6525009095896908,1.6032641085481705
1486340,2.6951470619665527,2.6445307214520124
1315825,1.3544642326106773,1.303847892096137
2064354,1.423648338892204,1.374443707904042
1779584,0.9445018626939555,0.8938855221794152
397952,1.393710739764754,1.3437889340345495
832174,1.4018199595213752,1.3508079079788053
3101401,1.3663161504877688,1.3156998099732284
405673,1.648286240594931,1.5972741890523612
966727,1.828684605762956,1.7776725542203862
2245421,2.3934299854492544,2.3424179339066846
2993800,1.864277701797129,1.8136613612825887
3959567,1.3542197476387732,1.3036034071242328
3225760,2.0682708430659176,2.023763051083397
3085883,1.9599786491972004,1.9107740182090382
2920554,2.238041651543546,2.187425311029006
695013,1.5928163515899552,1.5428945458597507
813416,1.1127951564721943,1.0697497836433252
377186,1.7245970793871528,1.6739807388726125
2552955,1.645831611565739,1.5948195600231692
2994763,2.2395846552422096,2.1903800242540474
2043375,1.7364861777762581,1.6858698372617178
1270828,1.6007028140922754,1.550781008362071
2508075,1.0614137718413086,1.0107974313267682
2018320,0.43609899375258787,0.41260195351568174
1892736,0.2166490505489686,0.2145342514077057
938483,1.0349363030139653,0.9987408887054962
709709,2.0842717081996596,2.034778117873597
1889103,-0.07501656478509716,-0.0772325221772272
681606,1.5616496363646613,1.513120169314158
2270483,1.2151391276064418,1.170458942981552
2246370,2.242131207121519,2.191514866606979
1626247,1.7548666642756507,1.700996646756576
3220053,1.7618135885911803,1.71119724807664
471937,1.2543808117607302,1.2044590060305258
2399225,1.6543037835720473,1.603687443057507
3797417,2.2098317285198323,2.159215388005292
353740,1.389862040924072,1.3392457004095317
900260,2.076441433603668,2.0258250930891277
2428026,2.214768836940694,2.164152496426154
843923,1.3851407924108428,1.3352189866806383
2440203,2.182128908566992,2.1303161299529494
620746,1.8404149989010608,1.7897986583865204
1014377,1.6647421565152327,1.6141258160006924
3733594,1.7891008007850229,1.7384844602704825
1117714,0.5752199342431333,0.5732147934266287
1626536,1.7601623292715252,1.7091502777289553
2664227,1.2224423687143378,1.1764802835648718
867702,1.457199625122935,1.4072778193927307
637687,2.3233942897374744,2.2734724840072698
265569,2.392533929795778,2.3426121240655737
3932679,1.183012552727111,1.1323962122125706
326369,1.8772034920239982,1.8249856488066671
2144670,1.8372516908306848,1.7925538414070288
1549658,1.750229232651764,1.7003074269215597
909592,2.1379709581433595,2.0932731087197034
2034020,1.2838674946359379,1.2388202040680518
1821115,-0.155765595999118,-0.157618628188944
217765,2.0572318944642958,2.0121846038964097
3432394,2.1887729207860693,2.141535251966729
1629704,2.234454963704058,2.1838386231895175
495254,1.824642488112115,1.7747206823819108
2743936,1.2982664170486637,1.2476500765341234
2681867,3.081967586325219,3.0313512458106784
1068853,0.04395836889553527,0.04184356975427238
677707,1.540103255752455,1.4882904771384124
1532944,1.148281179423351,1.1035833299996949
3438983,2.047388844027199,1.9974670382969943
461074,1.602313797513431,1.5480226322030355
3959839,2.047999204834282,1.9969871532917123
3521983,1.9368365601628943,1.8858245086203245
886958,1.1765639440100106,1.1259476034954703
475422,1.6493101113728514,1.599388305642647
1276097,2.131383049170875,2.0807667086563346
639767,1.8784212789367805,1.828499473206576
687592,1.743205235247426,1.6925888947328858
1082125,-0.1448800042690417,-0.1469783984762359
425104,1.045404930939914,0.9931870877225829
3704441,1.9249093580393948,1.8726784516652684
1076069,0.08517459640087335,0.08305979725961046
464138,1.5532407966065611,1.5033189908763567
1742605,1.991581940051528,1.9412011573887367
1029181,2.2141094280211746,2.1634930875066343
893684,0.9081584332334572,0.8558486926638323
3785121,0.9280899748011191,0.8861759581692816
1731836,1.2754396907155585,1.2275448300409537
1647807,1.9087664775300923,1.858150137015552
297184,0.7887781485262677,0.7381618080117274
2866916,0.9866045680710741,0.9359882275565338
3222779,1.1639696842028222,1.1156027520030278
1895511,0.11923058786999151,0.11713219366279731
3018035,1.798682493176097,1.7480661526615566
218717,1.5544256577270676,1.5045038519968632
3230217,1.2731361889340924,1.2192661714150177
2749835,1.709025027382619,1.6590480400809458
1628611,1.622935676706776,1.5723193361922356
3477161,1.063495599884921,1.0187977504612649
3363649,0.49369965485173894,0.4490018054280829
3175429,1.6657746403173912,1.6131485657619007
1520621,1.4268294580738128,1.3901304767588423
527780,1.912287704705236,1.8623658989750316
1918638,0.5025422360788367,0.5006892038890107
1312935,1.6289622389759273,1.5790404332457229
2845848,2.0459204744374193,1.995304133922879
199414,1.5709489196601998,1.5203325791456594
2806591,2.091533250919638,2.0409169104050977
1158893,0.31682304774334263,0.3150308708876277
1270673,1.556820120970113,1.5062037804555726
3339266,1.4126364322670557,1.3627146265368513
3890254,1.7733603522934713,1.725091056715786
3742367,1.7298082226918166,1.6791918821772762
1239451,1.1109047532577003,1.0578672558721154
3876972,1.4271420014017007,1.3765256608871603
3177117,1.596377749116967,1.5464559433867626
3070342,2.409155038497982,2.358538697983442
803313,1.6780500289645903,1.6290959770656537
2758984,2.41548905250767,2.3655672467774655
979128,1.5372911431738876,1.4922438526060016
3420784,1.9340718472665737,1.8834555067520333
3409311,0.8835846561113513,0.8309585815558608
2856077,1.047423095710748,1.0123550302793332
605988,2.40082728076782,2.3509054750376155
3843813,1.2097749119330183,1.159853106202814
1988696,0.9261693500850964,0.9026723098481902
3064049,1.7954345689100666,1.7455127631798621
3705347,1.3711203405538974,1.321198534823693
1754797,2.3614726728866526,2.3167748234629966
2427792,1.6463078371327067,1.5963860314025022
1616918,1.176204871534504,1.1269680704929836
2792512,1.7412136318543632,1.7045146505393927
3042353,1.1506995035133358,1.099687451970766
2802062,1.213045394798634,1.1624290542840936
1410989,1.4162729954869486,1.3656566549724083
3952160,1.8380512671309206,1.7889455840595985
3472563,1.9141527565161205,1.8694549070924644
2690611,0.8101557410963558,0.7651084505284698
222528,1.7803460180928996,1.7301638505092576
3159894,1.7913527819998913,1.7395400033858488
3268423,0.732510693706706,0.6852730248873656
3486691,1.1131208205316134,1.0684229711079574
535254,1.5427561995379395,1.4955185307185992
3115557,1.605020926104773,1.5550991203745685
3173040,1.5287989256246994,1.478877119894495
2529158,0.6561655475725837,0.6069287465310634
3914650,1.908283134899193,1.8576667943846528
3506858,1.9817013249994737,1.9391932029351944
2682915,1.385551778098527,1.3349354375839866
558341,1.2009576879412465,1.1503413474267061
3960383,2.3356976942681733,2.2846856427256035
2846768,0.8326994662594259,0.7820831257448856
3167483,1.36792505002886,1.3180032442986556
1946538,1.633324841049023,1.5899610102099047
3908578,1.8009785528456141,1.7513568258106507
1364213,1.4966411587789499,1.4460248182644095
1485278,1.6421172665670247,1.5915009260524844
3469904,1.6777585497337695,1.6343073408060196
1060282,-0.5712690786019562,-0.5731221107917822
3775740,1.2490258156123666,1.1980137640697968
1506156,1.0296578658695403,0.9790415253550001
3082171,1.6170569006943936,1.5660448491518237
1369153,2.105606427589737,2.0549900870751965
2999323,1.5485742724662157,1.4979579319516754
2201844,1.918305626855725,1.8676892863411847
1706370,1.5184831929027431,1.4689936088987834
3003104,1.2101130837008955,1.1650657931330095
427775,1.1548837014510278,1.1042673609364875
3031325,2.1400123170382055,2.089395976523665
2516670,1.6195559283529588,1.5723182595336185
2925553,1.7120324612921058,1.6621106555619014
3138824,1.1984801794585918,1.1478638389440514
2533669,0.9901992495673206,0.9535002682523503
2613953,1.5063494661747188,1.4628982572469686
1985677,2.177118490893478,2.1349640942503827
1979792,1.1080440690177096,1.0585544850137498
2233308,2.544032519443351,2.4934161789288107
3206929,1.2554526541291566,1.2120014452014063
2817340,1.4809955859336807,1.4361398386477606
3416146,1.2845841403674978,1.2339677998529575
2880253,2.143478889984719,2.095111957784925
570303,1.4485905396019252,1.3959644650464347
1524828,1.1624321720459871,1.1118158315314468
2264163,2.0777196349220617,2.0271032944075213
1032057,1.391945744341961,1.346898453774075
1679637,1.7913217466741316,1.7435856403024756
3717133,1.1912360760293532,1.1406197355148129
976024,1.3939038416398257,1.3453426459590474
2187614,2.1281393728670177,2.0775230323524774
3473667,1.9857768790193115,1.9351605385047712
3493493,1.4725242540971522,1.4246293934225474
634899,1.5682794034079448,1.52038454273334
3346287,2.2592580783426524,2.208641737828112
1667358,1.3576909718234125,1.3085852887520903
2146005,1.9139490275823217,1.8633326870677813
3692348,2.3768481908811863,2.3212737242103323
2177918,1.747267931241842,1.6966515907273017
3145346,1.6028822399340732,1.5525701529455682
3438297,1.4436748516448046,1.3937530459146001
3074116,0.318647694836438,0.3165493006292438
470704,2.6419936207047066,2.5897757774873758
3703978,1.4527305353288151,1.4054928665094748
2140840,2.354350725227734,2.303338673685164
249315,1.2559680466348173,1.2060462409046129
1711686,1.9751787209456697,1.9260730378743476
835738,2.4604859020858507,2.4094738505432813
2862600,0.6912156044935192,0.667718564256613
2122996,2.031246516096177,1.9806301755816367
800561,1.8870137592842307,1.8360017077416608
3669051,1.2647305236303108,1.2141141831157705
3496587,1.4082555202113605,1.3572434686687906
555032,1.2282113987531877,1.1775950582386474
896935,1.885186341502664,1.8366251458218856
3713184,0.8973578240099784,0.8467414834954381
1808907,0.04175663248352322,0.0399036002936972
2643422,1.346987560791089,1.2992514544194331
1306658,2.172228891998529,2.1223070862683246
1325401,1.1182524805147658,1.0676361400002254
3515603,1.9790868298595947,1.929593239533532
742114,2.198830829916119,2.1482144894015787
527864,1.7333175409928452,1.6806914664373547
3086977,1.3050340516413248,1.2544177111267845
1503396,1.9120825114772007,1.868291607455354
2776068,1.1766977984024194,1.126081457887879
3699172,1.1581413133181786,1.1082195075879744
3932654,1.9180268168246046,1.8670147652820348
336193,1.6430394657255605,1.5920274141829907
1911244,-0.23479996083319055,-0.23665299302301657
1256742,1.6793139298451831,1.6293921241149787
1165041,0.3253614548343533,0.3232630606271591
3651594,1.3144750615469263,1.263858721032386
619630,1.2597579046987177,1.2098360989685133
508389,1.8093408061306653,1.7571229629133343
1296837,1.501750498995361,1.4570526495717049
357348,1.3796542285026883,1.329732422772484
2606889,1.9302285103950736,1.8796121698805333
3771842,1.4852276866046443,1.434611346090104
1558147,2.337117764943265,2.292609972960744
2160218,1.245455540719447,1.200757691295791
672736,1.7620684155539748,1.7121466098237703
3865922,2.8418180217748157,2.7908059702322463
