sample_id,y0,y1
3947963,-4.597763390785017,-3.59927543209616
452439,-3.6142109671315454,-2.9356764954576096
3012597,-3.3832138024032106,-2.6068748632580063
1815541,-0.5574541753103339,-0.49652759677365493
337257,-3.4795789502140058,-3.3438205059630555
571830,-4.722445022884836,-2.8658492207999355
2673973,-5.951513005312115,-3.062724218058318
2906151,-3.766439885984978,-3.7150063447102046
1038552,-2.1132501233009093,-3.3379290415763
412829,-4.937470825126709,-3.1691025339666896
2483121,-4.667897695270067,-3.5343196987132237
2869579,-3.7686721075324563,-2.7075653281120418
3532109,-4.360303438383722,-3.3436528457040042
1033316,-5.664675828846217,-2.7411373857455734
3341245,-4.106005061041992,-1.997978905923917
2445158,-2.534032421634171,-3.138321739474146
1462127,-2.396599764424684,-3.704793108778026
2195857,-4.222546236288997,-2.5977225683291034
3689736,-4.301400559598222,-2.9886390321257648
2966542,-4.776272635477862,-3.1117543414305606
2178764,-2.41074121301758,-3.074701371263317
1106501,-0.027522085276066754,0.03952901772455075
3656094,-6.214356249834742,-2.5069883863214044
506064,-5.051102000429261,-2.6903971481276026
2436921,-6.703238168239211,-2.9062023388984675
1368509,-2.448528357454741,-3.759627201790474
1146209,-0.4722704082133235,-0.4033877796003912
3053518,-3.5776040850303907,-2.8286392513015617
3075381,-2.3673372396125587,-3.8413359331875836
3540391,-3.105103428765597,-4.00412736060939
3953295,-3.9286013384107084,-3.7152672213374762
2584028,-4.566318920346616,-3.141196055784598
1671540,-3.0620861036927036,-4.522953107817023
3294450,-3.4810382361692778,-3.134033148381574
2796059,-2.4066895425194397,-1.9572820682781362
1239441,-4.974782224356873,-3.44678531996739
2196452,-5.3420380733705635,-2.770030927623931
3297173,-4.171017737566694,-2.6122103451157828
2548364,-2.752285006284901,-1.972245721412186
2055043,-4.016778157289287,-4.347150900918578
824819,-2.6162369054720194,-3.8210310266241363
1084875,-0.875698703317757,-0.8103030157755897
2550682,-4.855421020771204,-3.232252611687689
3849623,-1.8382250383834537,-2.451770014507847
922465,-2.704135768311491,-1.902498888741657
3929051,-1.801533952367453,-2.343053243384389
862620,-6.9598573310149145,-4.105169034911016
205485,-4.7743113987370505,-3.753997309077363
2555277,-3.6739966931187586,-2.6770004684655104
596612,-5.779791463870863,-2.3394670557275017
1089775,0.026009866427819828,0.08656730398746365
3868671,-2.4001534729858025,-1.8296721717780027
2789873,-3.841943653152794,-3.4984646524748686
3192693,-3.398972879071241,-3.5238364079781164
1940642,-5.189282850414845,-2.9418790019072993
3299127,-4.963710768605534,-3.8315394971187087
518123,-3.1337564828555444,-3.584503172009162
3650815,-3.569636601942019,-2.333050279212609
527580,-5.1466287796348436,-2.909246175860576
999429,-2.4339950588996766,-1.9969756307651136
1899209,-0.8510595990723049,-0.791273440305041
1205871,-1.4411902482164258,-1.1878175688502863
810545,-4.328637635753909,-2.344711755380183
349384,-5.1358566238403425,-3.1763847593045247
515274,-4.119778869029764,-2.936817631113621
1640219,-4.589516786305839,-2.638311015515865
1889709,-0.5206495672155582,-0.4597393358286739
2211459,-2.7531589393107283,-5.015461112805705
1793274,-2.4742202901120347,-3.163505564897468
622966,-4.965168168572037,-2.7260539440566856
475001,-3.2850728866970824,-4.967004981618442
1002136,-6.936243047307364,-2.237822868033713
1518993,-2.488855456204839,-3.760205164070407
2692185,0.10885199462786406,0.14624729135023495
1677574,-4.441676871415569,-2.975465288297739
3284483,-4.115079620461377,-2.438539337769443
2398385,-4.159333181756571,-2.1662306136766096
2455012,-1.5281845927377973,-1.2747473745024147
3041197,-3.408802249637905,-3.4799295943152795
2602949,-2.700158497793178,-2.217550536804173
2990274,-5.289323554257571,-2.6208192375006387
456954,-5.138473805840582,-2.9548710321321763
3156427,-4.358182299668823,-2.7215065576369373
380362,-2.0695400921140803,-2.544516739366722
346599,-5.428608187534341,-2.5618667116606644
661641,-4.488630261243968,-2.9976769494840796
1710659,-3.623275764062582,-2.7209667964661706
525747,-3.1217043473061628,-3.1477124434456503
643938,-4.152007948100428,-3.0977776476067898
856845,-6.209422152622658,-3.4812470007121483
620245,-5.242678467399817,-3.0087634988330096
2522026,-3.2711518791215584,-2.9794447736403384
2749835,-4.056218469284885,-3.253227739982049
1234979,-3.466581576559043,-3.1079010869846333
2209994,-4.6769149158712136,-3.4271113054682467
1328338,-3.448217308614498,-2.467121512381484
691352,-4.394867147418673,-3.5192339976473317
3891382,-11.296838602228501,-2.7994776681564497
2585456,-5.555850636914194,-3.436102169065648
297637,-4.372828223596964,-2.418681806925117
3715470,-2.834305070240432,-3.7505667847254966
3066115,-3.4657088180254663,-2.612995418961984
1042120,-0.38347843438155915,-0.3189326193156819
2180267,-2.424051837859497,-3.102360691317953
228673,-4.137142907150409,-3.0944707257704334
928679,-3.144008977463992,-2.7729383405069887
1846151,-0.43561743843937445,-0.37522604207130494
1435088,-5.646399607688519,-3.334127166360203
824750,-4.347802009337908,-3.4409319476779197
926093,-6.058598700682675,-3.344383846445768
1361081,-5.302508712952117,-3.4973921481611914
3326790,-7.6102490262544595,-2.6037173525868855
989175,-2.0220361284887916,-2.6186635166447565
508813,-4.8144437652875185,-3.3763161879139703
2212673,-4.124383597389669,-2.8876097242725596
3279772,-6.393570061309816,-3.2740461207394786
588828,-3.365082616249906,-2.573335547591926
972062,-2.8459546027614624,-3.8368401163816577
339608,-6.9309292324880465,-3.8847721964261606
1119020,-0.5960632186158077,-0.5306419454997388
507360,-5.2117520584810935,-2.3986870090095618
1144494,-1.2575311667387095,-1.197838392359847
3288992,-5.4313790608191015,-2.8559588040160384
1976133,-4.2982383713795365,-2.839502145434908
1727035,-0.9968506985101284,-0.7727419826330577
225109,-5.002720748034837,-3.0497770871660212
950416,-2.6938977095966834,-3.745665171321418
1051007,-0.7881287725572744,-0.727272647615737
1684633,-2.7423313961807327,-2.101060794552101
1245008,-4.655241631256867,-3.5173603184737456
3701927,-6.340131874405852,-2.9905645639052607
2668412,-4.82581868801458,-3.4834373926908135
3917576,-5.507417713464723,-2.671246319853859
1041972,-1.1472221157733928,-1.0893117291211705
3739238,-5.18858206080422,-3.057534178333787
2284373,-2.310775669871997,-1.8482344389151024
2261036,-3.192229313003793,-3.5684804535468806
1385238,-5.961534577213817,-3.312933161781775
1573851,-2.760634511778714,-2.110622893187927
569146,-6.934672443908913,-3.3992422871134758
3358223,-5.043477567546937,-2.495958623333944
3931564,-3.170562769264495,-2.4310864442224793
1854018,-0.5895303231044111,-0.5292377232909703
3340694,-5.54052587630515,-3.0943652865004285
1759925,-4.291932230307944,-2.6613206974728842
391141,-3.3517851719220735,-2.6027003414978194
382830,-5.684592724609851,-2.600716139661636
837118,-2.2751556570775233,-1.789671966060772
2709078,-4.853604042742602,-2.632624349642547
1232690,-5.560243867124157,-3.706761142293963
2516925,-4.235963171130311,-3.255194532164991
3275744,-4.021351004652725,-2.1720852092649348
2024961,-2.8499416863786746,-4.412186154189368
1978309,-3.350314173293444,-2.4126989796131317
977931,-4.803872946939505,-3.170004153850753
3479401,-3.8009007354086575,-4.5352379885021845
1303760,-4.340630047870703,-3.3768633667074104
3846537,-2.2415972777669935,-2.8369741225621836
1126130,-0.7886840157817802,-0.726980185956908
2874768,-4.595194131632872,-3.653823475492264
3476342,-5.129117097330594,-2.985842277624598
1236985,-2.5857196571438426,-3.1634838171120907
3369477,-2.7677057260719544,-4.084388766798839
279443,-4.172132203507954,-2.241988607907734
1602146,-4.507081386480736,-3.3797198564176183
3405437,-4.436397666835115,-3.290004384392501
2200436,-4.892476223886265,-2.8166481295950545
1613307,-4.949395028885896,-2.3524919585759174
1429886,-5.372784078602487,-3.028185048519967
2442900,-5.1769369636652875,-3.26723066168996
2456609,-1.8646545142043554,-2.547493833691342
243611,-6.107431381352885,-2.931565373461557
3533392,-4.592666651653604,-3.429845036651809
1457493,-5.755101555800713,-2.7089445197388264
193744,-5.678096047721954,-3.145976254229928
1551229,-4.168495601413585,-3.5771431969048875
1418668,-3.9587162315624553,-3.5678113496265444
2394349,-2.3887452064417896,-1.9395170935683337
1049285,-0.5866972516278752,-0.5208772665158011
1967304,-2.0004871537668407,-2.7776625395845302
683726,-8.405662837078168,-3.0735869181534397
3194868,-4.935348493449394,-3.3121183524792106
1603755,-4.3482750176348155,-2.770169060579288
2594301,-3.754973710595371,-3.12421982683404
1093775,-0.5384507988584232,-0.47707564221728876
3481025,-3.928956962162978,-2.869460086782494
1737054,-4.580333475024264,-2.9957469153123815
3061096,-3.305548004379972,-3.025125593038305
1504547,-7.1926102184480865,-3.3235044504271505
1872078,-0.48313425736938176,-0.4208390631660667
3171987,-3.039832081743556,-3.2025754598604874
2048352,-2.0420208389436505,-2.5490614466739423
3374579,-3.441998616575467,-2.6170464380624803
2826673,-3.2460769961293137,-2.5224996952050054
3307442,-5.107745646587283,-2.6238709147002877
287604,-4.889259309658113,-3.319897044846702
1153374,-0.7568939058907314,-0.6974058173257256
416220,-2.9396788587676723,-4.247872203121014
3694703,-2.5301260368840364,-2.0601989404924166
3257532,-5.944171815413085,-3.891955245725237
3173546,-4.323782874586756,-3.8440645151700306
1749900,-3.887972013785751,-2.430373188812854
2922904,-0.8377364449836626,-0.7704038794986705
402404,-5.232110170791082,-2.716490094002118
2807784,-4.524650581368792,-2.742370960325088
300686,-4.331330181660995,-2.6839151071354848
359153,-7.970540134881079,-3.4077389556987643
1719617,-3.5299735490001805,-2.190427156163799
670664,-5.635618329876236,-2.5271937030568075
1370690,-4.175602223025121,-2.007652690094586
2597322,-8.158237664934658,-3.052725786902298
2530064,-4.6905461872417,-2.8312931751009387
1506067,-2.5482460916157468,-3.237782701626242
3436844,-7.400096042664532,-2.507562101590595
3454088,-4.236793666564524,-3.313424393566333
1512267,-1.761520853553745,-1.4926562312521658
872847,-2.8544474605956793,-2.2961327462953642
2765272,-3.9857665658754295,-3.2666403540929867
2531953,-5.166466068260982,-3.380197964226447
876899,-2.5221199977060356,-4.011093623272979
239926,-4.78692442668101,-3.354290349151753
2808800,-1.6048794618634254,-1.3283324542692625
3001134,-3.920043102082931,-3.494829694386457
3693828,-6.606468276759266,-3.1888885324381
2465579,-4.42241751099128,-3.35222614527897
2561584,-5.419456237178547,-2.55237372745041
3534018,-5.845665718213513,-2.6568390622113083
2500574,-6.136633155406227,-3.0314910587673958
3077596,-3.9474125581133843,-3.0106841912243
591183,-6.274177084787447,-3.181142067673482
946844,-3.3481073530544028,-3.3191103052015043
3373196,-4.398316740740201,-3.3437529912051667
3177301,-5.713052579612689,-2.981157512512765
2599293,-6.845522612934427,-2.8330674203880286
1963356,-3.548009572432335,-2.73270708330845
1136064,-0.8100361001858666,-0.7494962898181347
678570,-3.495864724104242,-2.649255243137845
475892,-4.233591261644109,-2.7016690209690832
3784488,-4.510192959537239,-2.6462465244560835
1367398,-4.588816544358123,-3.4527391091042237
485491,-2.0919793480919866,-3.1984182943475266
3537713,-2.5826557100111933,-3.9781724603626234
659866,-6.22672313713276,-3.1886827223226675
1343383,-4.798038129056635,-3.1633509459834537
804524,-4.02036925931063,-3.286272551741072
2758735,-3.282055379289242,-3.9390519919871223
1473064,-3.516666957860796,-3.360744239573912
526462,-3.0533741299729025,-2.9573517235932885
1966055,-4.385649912901837,-3.2845546908011385
2186336,-4.631493194090524,-3.523632525485794
1471624,-5.189723893949608,-3.0038348867079963
3008832,-4.459015628448583,-3.082947304687631
1756512,-4.812448164088735,-3.4881129696436486
1150838,-0.7507705326808756,-0.687090539627075
878945,-3.431266547941927,-2.924235402960031
561221,-5.3994017791755144,-2.5394463735145636
3189099,-3.74226858050484,-2.9692664451721136
1061320,-0.044981732691134535,0.013365918309064084
1069672,-0.6049588473974297,-0.5392950649479493
1214586,-1.6859480496738175,-1.4231988339655315
1244714,-5.190786645563548,-2.9474928888399488
1501448,-5.599929426363837,-2.921574872556824
1814880,-0.08011672080336546,-0.019791686133809494
2219709,-4.271920817141503,-3.3808713392780807
3149630,-4.277369807866622,-2.8220551968654184
913405,-4.351353010486247,-3.165818540163066
322060,-2.316841302063778,-2.925088350694267
2872920,-4.0837804390359285,-2.5894175746465176
2632326,-5.517252979742436,-2.96832914780045
326699,-4.719325870095506,-2.960632383971433
3879488,-3.3609732583521073,-1.7732201224527515
2868865,-4.415831546515346,-2.9626742603164247
834764,-4.407353053111677,-3.296817634064087
2043524,-4.741189070162063,-3.4357287075096123
2409774,-4.350825673143211,-2.6314617385521895
2804379,-4.931095955270103,-2.7278276556928605
680941,-2.9931652701737606,-2.311107584104846
1399591,-10.620002294649288,-3.2862034891976046
3347523,-4.495696910674566,-3.3683353806114478
275999,-4.733284296610819,-3.859399468238907
2176326,-4.518732026349766,-2.902035105825363
881806,-4.706618600551179,-2.9122403628377787
1445500,-4.301750733646078,-2.7134277848040167
2049254,-2.1145423119931874,-2.7090702762196712
2582185,-2.6647221466748072,-8.136516345465088
1427015,-1.879998724728298,-1.6096999190405061
1579900,-3.5963557893997007,-2.6838080222213034
593151,-3.9494915360035887,-3.2887762634287485
2035849,-4.530583141025771,-2.870867103174547
1269592,-4.5704693795903495,-2.6316658793647854
1779307,-3.9789275381590032,-3.0243947207686803
1898861,0.193991013681109,0.25324352649305026
1500416,-4.469430933795934,-2.92039856880839
2929113,-4.2815820513111325,-2.7565641585309337
3050535,-2.870975193231594,-5.0900427758562525
3924702,-5.0442698509260175,-3.021196496701481
625404,-2.428276002492954,-3.1191264008668287
1990804,-3.3728170732924805,-3.2605667315991567
2963735,-7.8704681098706475,-3.3101166034400986
1724334,-3.133912894983968,-3.840780886687604
366864,-5.429659012611203,-3.611748298873582
3331086,-4.924613189071138,-2.9302962325834128
1900232,0.03927213536219165,0.10012698240406803
1983798,-4.385247551182961,-3.0276939240626732
2760314,-2.525351131403747,-2.0869426478686073
2873941,-6.466716505642862,-3.531732322825
2119420,-5.5493890220112085,-3.019376969601492
1081243,-0.31487005113101657,-0.25474128002105095
1141814,-0.1352900378192638,-0.07706316303566019
1994481,-2.4966535034092443,-1.901561851122396
1839422,0.2560593173277298,0.32237021069642624
3081276,-5.285508272055049,-2.748432759472003
2039042,-5.112732583279184,-3.2242925508192224
1108692,-0.02486446717206814,0.04459314083803406
1045158,-0.2350235881848982,-0.17298223711056915
1414441,-1.994352735223276,-2.648713730726729
2017594,-4.2128304363690345,-2.6941696045040846
2739943,-5.4430336254486615,-2.334608998629234
2800963,-4.618959249702437,-3.3630198817024106
1670063,-4.713888925886474,-2.993580651712396
2216287,-2.312620485940668,-3.708137236292098
1325519,-2.904993638963084,-4.532954560914562
2159216,-3.336761074014897,-2.752829546014461
409330,-4.7430134557329255,-2.646758580204897
2420273,-5.054112738094993,-3.4154640065123445
1537898,-2.195007993733311,-1.9186283148768095
1295003,-4.286155383113755,-2.836031131940133
883099,-3.6874634896102982,-3.3439844889323727
3200627,-4.584511407843479,-2.2160193591263657
1964643,-1.5776840807693315,-1.9799549067161046
534016,-5.6371440812285325,-2.5251657086040287
3736101,-3.5783510538095182,-2.2975626986627278
2547770,-6.83234914669594,-2.896165984677837
3514243,-4.9566060701368855,-2.4014842238719765
3265326,-5.817074667467492,-2.8550542470759943
2861800,-3.9348768417989426,-2.7748898799576405
3203086,-4.0931270083983975,-2.9686663303220766
3921531,-3.5562806958462834,-2.8349937904732156
488596,-4.922013814152865,-2.830169145013162
3391517,-3.7551720717496,-3.017111421540238
1555900,-2.355098628187755,-2.8164384205072692
835156,-3.511018638470443,-3.4892323637694185
3916525,-2.8228474335806215,-4.090956147315341
1625346,-5.032529285090851,-2.7827268239395355
1121805,-0.016940138946167194,0.05216217887522562
1541425,-2.3866355573997993,-2.928728540119014
900102,-4.345604982626069,-3.3924843433263163
3684029,-4.183030291242119,-3.3259200713001924
2563663,-4.597727861435511,-3.9083513815151885
450768,-5.2329714792283335,-2.504796327317824
3369203,-2.0451317563711897,-2.6252314348084833
2257479,-3.6394109610344394,-3.3555017204248165
1376349,-4.870721143056139,-3.5706065471008204
659383,-3.498845957782081,-3.3349149504426467
2195128,-4.729426542359397,-2.6988028744577734
1767938,-3.524624696466755,-3.3743558068079293
904339,-2.2273036536651567,-3.13864359656586
3732167,-1.9538323246946194,-2.6749038451903564
1846356,-0.3111113289342238,-0.25248091026215913
3198619,-5.35503504864948,-3.110742577196821
1512849,-3.8319025551586012,-2.7128483368986327
3476147,-3.6392041434727,-2.128245820360248
711726,-5.650101232894883,-3.3958925284902923
1297157,-2.0808162502937555,-3.2459337630946763
1623351,-5.005147131375553,-2.91358523574042
2450360,-3.5784828365054446,-3.4751399202709528
969365,-3.2140183530472397,-4.525117197382973
2464936,-4.622922274429771,-3.3289920875883556
3695403,-3.0366092017467925,-4.216494373143464
3839973,-6.2691564019682,-2.5958705014468912
703666,-5.401070715440257,-2.5990655086310985
446772,-4.346534890123881,-3.6500103794982737
726180,-1.8478559203428713,-2.2994019937674173
3907810,-3.407972325607029,-7.26822272795166
2718208,-4.036349442970077,-2.861331362676615
448158,-5.75001833272956,-2.6193607395852485
452783,-3.3092853496364425,-3.3647585547431382
1425304,-1.941257920691846,-3.3033421643147207
1470507,-5.245235439069214,-2.8038783859589222
462075,-4.047361459651143,-2.6907763469442987
2190533,-5.9433073366330245,-2.743005717650823
2019541,-1.9020784872647378,-1.72294387690057
973153,-5.252220324985441,-3.002417863834126
2600103,-6.545199997478678,-2.646415446801869
3413112,-5.059123924217193,-2.871328936449393
1909953,-0.579232459614975,-0.5190423538030506
1003334,-4.368292973575978,-2.894176291727069
2665938,-8.033495746084148,-2.820295906956164
3191300,-4.029199990269359,-3.2295476094736544
2582893,-8.877442806298946,-3.02411684892669
2735364,-6.447893908284989,-2.957718577966451
2239641,-4.158870514063269,-3.1774620688118373
558549,-2.9135760298354394,-4.184925737701008
3154336,-2.5407612086179823,-3.2007338008523063
2708203,-7.693427815253024,-2.946201707140548
1420497,-5.713226138055382,-2.2792136382893786
1313558,-4.937356240888415,-3.3123801341953225
1682668,-4.7043924711382745,-2.959720784851355
3103324,-4.871044540978898,-3.0740421306072085
3474632,-5.949020414223315,-2.8528595947443387
2156571,-3.2943134503745646,-4.440079514071451
403487,-7.9515510758049714,-2.785327486178201
1473425,-4.863820207073679,-2.668424229824091
468986,-5.4046879811557815,-2.4127917456712664
3951684,-5.678124826534466,-3.442353613512222
1609810,-4.736044345649884,-3.553083107733741
3865107,-5.390522046690219,-2.4313471528837507
913412,-5.773344640733711,-2.881318152942995
3932372,-8.509569677047606,-2.5499604627914154
1229475,-2.744686104711821,-4.678986223150884
2670787,-1.1077030538189268,-1.0339755022506272
925907,-3.445589891416378,-3.6566941901784826
718165,-5.114125938129482,-3.172029092717636
1224596,-3.8532645017008282,-3.3042315496888315
1265487,-2.433035233512532,-3.986906081886506
2908861,-5.44440169846364,-2.6479079318318925
633336,-4.856580942537597,-2.949122609178156
958885,-1.5790812479739498,-2.3346985325046443
205393,-4.8535834010113215,-2.960265729391869
887760,-5.362419665338673,-3.1518591128592277
2830053,-3.9609249868066674,-4.305300737228944
675333,-5.574947013802614,-4.212814793721735
2706327,-4.493017903363021,-3.3588666015431343
1326842,-5.915292919888931,-3.1812508944713835
3956256,-3.3723920265216387,-2.9121763672551664
3399924,-2.9584365537522612,-2.4734077778990873
1997118,-3.120907027066611,-2.1554992185002977
3159454,-4.161791119633526,-3.013458535017837
723913,-4.0503042109399505,-3.4555819869451923
1460009,-2.933398923804611,-2.456012852310608
1092967,-1.6089467157694042,-1.542189803879789
410187,-2.5976752553768288,-3.0300802793403765
986541,-5.2672139275419,-3.0813651366243233
1748592,-3.04609059686425,-5.215870312405473
3019134,-3.023088197633909,-4.869748962844399
2243745,-2.479996965646984,-2.0243980002447373
948717,-4.853502302755529,-3.6078808419480084
3358585,-2.4923849960729787,-3.6118516520712847
2144028,-2.849524770523946,-2.841963738549841
1848598,0.16860363835526393,0.23033487363800664
1259378,-5.865959142997223,-3.083280100457993
2907840,-2.824502916505937,-2.1487975334555736
1233952,-5.997580839291713,-2.8057683710562387
2857245,-4.548962155312713,-2.6157220183641936
2825229,-1.9295188027996515,-1.6644261699182152
589806,-1.970021540621895,-2.4382011532059504
2650341,-3.2373929767217136,-4.226467002892291
1886428,-0.40707920936379033,-0.33906241682975735
1955961,-3.8631007678809848,-2.4762808250115507
3278374,-5.969180231526577,-2.5346837094406127
1150025,-0.9902486635616516,-0.9241229351759144
3518722,-5.34238177140297,-2.9932056257116373
2509428,-5.1387795454372185,-3.1589951388071533
2805081,-3.0422850061444726,-4.310812985078541
3386419,-6.5829972293003065,-3.1802055147344683
318300,-4.50036540589886,-2.600334672150147
3442014,-2.766700685616384,-3.8941236439383817
1886922,-0.17535289547593985,-0.11364508645109911
3445062,-0.10038085801443547,-0.02677668336368061
3009194,-4.826957290079266,-3.0299548797075757
1435824,-4.249105749564364,-2.8844352335283983
3314102,-2.045518772996659,-2.6164241286644536
1687179,-2.5039071989972594,-1.8961913703331712
1320854,-3.547722784657203,-2.5575127734838166
3793472,-4.354729305827776,-3.2727888092489605
2752756,-3.1622917190079933,-2.2576071858612843
3838957,-2.2084104912119753,-3.04227594518915
2750189,-4.258710268308756,-3.6594447680570426
3099837,-5.965930807562995,-3.133959316168495
412696,-4.406652082728454,-2.880389831331931
3292038,-4.435021018069259,-2.705891057227154
2687073,-5.857691003980948,-3.5199572280064717
265673,-6.148912965980654,-2.884310817233571
3891489,-3.559792360611476,-3.465992388541254
1761552,-5.156443184760161,-3.646887718862975
1005055,-2.1908672209740687,-2.7638664694347814
2689857,-4.2064271046538035,-3.8967492612941523
712568,-4.0997235302228265,-2.8977206746070867
1092093,0.35157327656457316,0.4209152114123058
2213535,-4.617183279400394,-3.304354526964047
1633516,-2.9092691501622503,-4.354452758756989
3760127,-2.9120912336025766,-2.0388770898346174
1290831,-3.6739392846019454,-2.897738267186388
1564456,-5.528422017291285,-3.7558099977484227
1388194,-2.2347803811147458,-1.8362850571892217
1602961,-2.2262657320946864,-1.8443591085375768
3932542,-3.458124989380262,-3.0460408858162458
342313,-4.73141688329094,-2.384570461497659
1410354,-4.829302439627767,-2.7900570513738128
3031208,-3.9203236673292983,-3.439307891868013
2841325,-4.4694034026920955,-2.926049622421448
1626572,-4.611339286578482,-3.249996976881679
3471714,-4.199276138439353,-3.2918332969982016
1061378,-0.03846873305937204,0.025222425090508094
837473,-3.938555569456484,-3.1239644272054736
3674599,-1.5772328685607857,-2.213848428444315
424002,-4.103705786734904,-2.817413061222916
2907901,-5.754110404520711,-2.4683948086923966
2948369,-3.8426545930968663,-4.056057499121559
1791277,-1.8566192891409479,-2.592565472436972
3330709,-3.565853822703868,-3.137460052428918
1621234,-1.7267679375176188,-2.371789115649704
2621139,-1.857946493272336,-1.578159316075248
569940,-4.2717422898947985,-2.6746833276968625
2887363,-2.7204256188662033,-3.7622245343221854
2501180,-4.883008999518206,-3.1795707474835537
224802,-4.698380636244966,-2.8074732595255756
2173208,-2.7642821621245934,-4.107413345009518
3248321,-5.4889158481044635,-2.803492906504451
1353480,-4.651817642620647,-3.2995682967434816
3250813,-4.3402295612671296,-2.911882959547655
1825624,-0.4907978295715767,-0.42849992914895174
2283511,-6.441831523544599,-2.879121996404656
3143036,-3.838433162908502,-2.3013409223782704
1872855,-0.4918400426248265,-0.4262162467184857
1275937,-7.801857055110952,-2.846841976902863
2991257,-3.3099444537962883,-2.6137907340722837
2875147,-4.0006556837285805,-3.09141042342493
2916380,-4.050613403856437,-3.3976930329395874
2471757,-5.092819191191998,-2.918277447923364
636539,-4.990552971967213,-2.1105360564506714
2639377,-3.8341892265581565,-3.093300801206942
1707840,-4.112247289687574,-2.559009517742719
2137885,-6.8421533874570875,-3.478136588767917
2140079,-3.8808610446162706,-3.45759872623984
2925366,-2.898116746289759,-2.35380682709716
3095135,-3.2429035617276494,-2.594508612709511
1032626,-2.4545472927687544,-3.1440839027792498
225605,-4.2435979101149846,-3.408528646257184
1477585,-5.0425915684970715,-2.5956229519261567
576020,-6.414448177657083,-3.2701789489372395
1539928,-1.7245519767462794,-2.1495283290553524
1630993,-4.226592876849196,-2.5440195049099774
3651237,-2.7386235629724283,-2.275869687867872
3686108,-4.5194719625501545,-3.674830402884738
2470846,-2.596134350999681,-2.115639630282654
2025831,-4.171563297301885,-2.901502915834192
1127881,-0.07891432488757072,-0.019704464531794696
1561230,-3.9125906552076275,-2.941329355440513
2162358,-3.7939745873433637,-2.9274721014580485
2058156,-4.8332123841027075,-2.8525216634696564
457603,-2.3028636186667706,-3.038815326540435
1970740,-3.506331133241994,-2.2602807998316505
3732624,-4.167491664477336,-3.2654649606316544
3662514,-2.8526733430007987,-4.305287668238456
2916530,-5.675713175674891,-2.881992147644572
1765864,-2.2886765756818925,-2.831059300000776
972366,-2.666210361998639,-3.982893402725524
2526852,-3.46490564259526,-3.1919527411860713
1793865,-4.947607371594545,-2.366094571363607
1249301,-2.369865652584581,-1.8440943024044432
3139045,-3.6343412317196555,-2.7792798602375783
3337276,-3.774133458479018,-3.903995573134805
1660146,-3.1046790307613246,-2.0519330491651404
450561,-4.293048850974162,-2.974425054935719
3259337,-4.387635103112276,-2.703584303626848
640490,-4.777871571080812,-2.7258700123916983
2714653,-4.797432062018445,-3.0540192358283034
1417612,-4.307651456240178,-3.059356306818485
2637260,-3.8565217053982273,-2.8308136420829886
1757604,-3.9798748064461975,-2.3337650743547838
1261785,-4.163587798719858,-3.03622626865674
2231322,-2.0072889144127135,-2.6514935401058977
1751255,-5.523046902878004,-3.17818695419961
2948647,-3.899021151241563,-2.6802712465463316
1857164,-0.23186556942842748,-0.17175851422793106
2161126,-3.900197479080386,-3.1772722389278645
3499601,-2.246874972555025,-1.8148916993990971
426295,-3.9979121698262206,-2.919759766787666
2786005,-4.405230116795474,-2.3638466479846802
526227,-2.5995474753770482,-3.0677270879611034
3194994,-5.005800447455415,-3.5651427383665872
823863,-5.793768713826307,-3.2998959887993826
3857886,-2.379877836504336,-2.9930678385892433
1223010,-6.313043409773147,-2.903161350549973
2456739,-4.541345452010132,-2.8989358464787354
1647939,-4.303396876549639,-2.830628986078588
981394,-2.995916486629451,-4.519758043407038
2144992,-5.606425578243333,-2.6829075257829893
3509585,-4.736589986611281,-2.6310120409400826
1289926,-4.285429779539893,-2.4450759493424683
2501891,-5.568810353745853,-3.1195906927089148
2869445,-4.102358511029591,-3.2884328825110565
3136766,-0.48589075418119865,-0.40330363993110296
645605,-4.26037317933527,-2.952135683428764
1278305,-2.670786702542961,-3.9783692029800926
3918467,-4.050096536568361,-3.345071389487418
1483803,-4.1439216914772645,-3.017186039966192
2256850,-1.8418524252882063,-2.4648857657331456
3525684,-1.2610538612080324,-1.6300673730851167
2113309,-4.6058853755148235,-3.438153236976097
1458054,-4.900714274081201,-3.6005996781258824
3736406,-2.2937047599767597,-4.240082385491055
2557688,-2.976543808698281,-2.513892422321068
895199,-4.7036931127775885,-2.350632769263752
2720526,-5.496771982302997,-2.782557128066089
1082551,0.00091251012505561,0.06096911682654321
2104628,-5.535886325181841,-2.7084559068620404
2993734,-2.9024241047970505,-4.15855300691403
834410,-3.646162347091811,-3.2798767650217715
1420498,-4.166005888956112,-2.84703001312148
2608603,-1.7396414696485896,-1.4882172424885889
1759780,-4.4592018746878646,-2.6500087492949973
3152570,-5.168965000222079,-2.55703250006066
3528130,-4.541783824035772,-3.2961623632282513
2942254,-3.9773648880145505,-2.663872215843664
2879226,-4.041734377419522,-3.3062028095844633
1247014,-3.0593900926559443,-3.5356578338828086
3123111,-5.55328299687856,-2.8797846845757626
1164303,-0.2743270924575313,-0.21366089639192876
466938,-4.830052902575893,-2.7056286871706607
1793659,-6.0102566961450785,-3.2273038923504513
2902138,-5.252966047899137,-3.048488564470801
3725414,-4.460517863783204,-3.36486269605549
2647705,-3.7822949263174044,-2.509072989061157
2199766,-2.404643834006378,-2.142897969793877
1959473,-6.5192109410261905,-3.166626393783238
2813728,-5.223290318750873,-2.866719916033198
3265930,-6.348953588020108,-3.147094498847265
2407427,-1.805481175782575,-2.297616067623227
2421715,-5.85925933469763,-3.141778210024537
742769,-2.8521230114388487,-2.119893163515227
607593,-3.657862560153066,-2.2222711233455295
3177080,-5.535679158448215,-2.8518174263655105
712590,-4.21480089372496,-3.3714264647020977
2455946,-6.294671724720654,-2.8565765242197365
1027467,-4.9381027729092475,-2.90824756637941
2973033,-8.18325357274945,-2.5989530820650253
2548108,-2.0376027992135475,-2.6040635148528093
1360791,-5.781448504554678,-2.5910747315933467
278808,-4.834863496657956,-2.8690071800033836
1955497,-4.335293069643969,-2.749386834579792
1449548,-3.6340811127949815,-3.249700420719125
3307992,-2.083905426480933,-3.1323063976478265
1070135,-0.6034296562229813,-0.5338418061960754
2038170,-4.891987772716171,-3.379464795351668
2908081,-1.89167541008138,-2.479071119298932
578649,-6.114234089238757,-3.0337173114350224
3663855,-2.394153227382464,-2.9435541399087866
2925663,-3.332783393383216,-3.8762066161736204
2906884,-4.540888099413816,-3.5455660086101783
3262382,-4.297603211306871,-3.0951257683294098
697118,-4.732077254629411,-2.7407669751527726
3272596,-4.706810875256956,-2.477592157235721
1287742,-3.6615937400367042,-2.4007384563791323
956605,-2.173900076143956,-3.1147954376511544
2128598,-4.838877486914501,-2.836465397088269
1228915,-3.305628441746408,-4.885254041478538
3650832,-6.072628963119897,-2.924088681590891
528534,-5.217221990680722,-3.6732309120301774
1788314,-9.325940377173167,-2.8836173215286935
1152973,-0.5601219229384209,-0.49957753171817404
1892546,-0.8832823035407977,-0.8182705044061857
3516082,-4.954101777313074,-3.718759115102521
1278235,-4.544512692499839,-3.3789300231934627
3068025,-3.4528092356287963,-2.8755299350488963
674875,-2.8558110412908952,-3.292466625521432
3525765,-5.5253582329997055,-2.2526867709461804
1487389,-3.8150760186031145,-5.022086987291277
2033552,-2.9249778486579645,-2.4627387675253
474218,-3.0496154917956404,-2.3955827200913706
359009,-3.003148581781155,-3.586455261382711
620700,-2.7129475815842676,-2.411715965557058
3131684,-4.498509967790561,-2.4111941144451166
2898177,-3.15284679016754,-4.6330470288195995
2007018,-3.829843604357236,-3.20311563218768
2715650,-2.7971165174324306,-3.9792293657423268
3137846,-4.447996416469994,-3.03836595030006
3120769,-3.7957367975197243,-2.380485265404857
1475562,-0.8804827552304335,-0.8069917007921756
3284241,-3.4139561852058304,-2.2814752482815748
938832,-4.449835890191125,-2.5801918981740584
2501647,-3.7250027515449697,-2.7503113759044227
3533111,-3.205710661095825,-3.4277338095510723
3850301,-5.02652859052061,-2.957115150374148
3198430,-3.873380667794325,-2.5085241872428563
1277460,-4.743556689279043,-2.581670439899944
410003,-0.7324174999351282,-0.6723729696525473
1616855,-2.3239230307188015,-3.1067871758398207
3779184,-6.380986353031738,-2.607263170131875
2774683,-5.929945924742088,-3.0730524508258026
1672479,-3.6442924851744496,-2.3494169514767274
2018793,-2.5269466131785125,-2.033307582770977
1744998,-3.8235097527684374,-2.8519456539343397
2211475,-4.205382765492775,-3.195292862987556
2583492,-2.2894968136787774,-2.035586916073647
1835284,-0.002879785381448674,0.05713459793283571
2133190,-2.698790861029213,-3.467233859529328
2584176,-3.7856677711879287,-2.2883062291515692
1493190,-2.6185185818541217,-2.124879551446586
229787,-4.459031217296596,-2.786032881283411
3876197,-6.1113291614369585,-3.176344978619097
2709118,-8.965340126367277,-3.169750180707201
3022359,-5.007431047524666,-2.4216460784453675
731060,-4.642600898624672,-3.4554968685512106
560938,-0.5390365242087927,-0.47963060008092434
2390657,-2.5348755114378347,-3.5153689032649016
362433,-3.821773553797502,-3.992559328590085
1531407,-4.953497517469517,-2.42795405933313
665239,-2.9069101189766693,-2.2017918679182804
748596,-3.6194764953742102,-4.063551259476773
2394473,-4.868857297192518,-2.8673701791235833
2246123,-3.8219030068676,-2.629187613342303
1105295,-0.34999759928802493,-0.28978076688755594
2639654,-6.475415829035836,-2.2866420015465683
3499733,-3.711247525762832,-2.9765575223748573
3908446,-3.790020018649891,-3.7817592696191595
3269218,-2.415871247109993,-2.9933989775109118
945197,-1.9349980881762276,-2.597488622311416
920821,-4.885439995183678,-3.1687761361181432
525054,-2.8126898183240483,-3.857885905718231
291254,-2.1804632272324618,-2.8989983267782398
393286,-5.031556590656657,-3.4173310724819665
707090,-5.785693080411699,-3.1593321922737605
3712737,-3.4145970076098027,-3.928818058909774
3832081,-4.170121206324366,-3.3637085139721496
2474615,-4.401944676598007,-3.3230925139044527
2947902,-4.156683451382541,-2.891487859767154
2415132,-0.5088671325705638,-0.4438101461020194
3161022,-2.3234171488578075,-3.280184117269749
1272938,-4.5995970726650235,-3.2290042417398275
2286659,-5.003381480048516,-3.338850128870795
859501,-5.557039309399973,-2.677771328822886
1410465,-2.8879783349946124,-4.25393046015613
2937531,-0.06806412034868042,-0.007413918504017458
662269,-3.641250611528876,-2.1346160362410727
1279611,-8.234754205983954,-2.9026782870592256
1390962,-4.616744464851886,-3.353195869997515
495887,-9.243340577887883,-2.990877926100801
538640,-5.049627925934428,-3.8064948397048544
2938906,-5.333332047322612,-3.665235437143936
574014,-2.814617088489454,-3.8654402394405416
2049404,-0.7234690016188808,-0.6483849807097616
565231,-4.624360632750527,-2.885637371851111
2480668,-3.4933182101531224,-3.3039012044171083
892467,-4.718103242233002,-3.4179886462776836
237799,-4.297332748577513,-2.4969241002303377
3231847,-1.749055452302598,-2.2771833173498863
3750974,-5.357329987127571,-3.262592124525217
2514031,-3.373969069999681,-2.403468917282583
1576860,-2.813971566113686,-4.8835388616735615
1735954,-5.090009825340936,-3.3607041479127844
297142,-3.0640752819543127,-2.3197955669672035
1572125,-5.2958352393652985,-2.588987156347571
1512723,-5.5325378557443985,-3.3239465815022298
3000232,-2.7125875746108643,-3.95181812259105
3225843,-4.559492754323565,-3.729318698216336
3269910,-7.39054989755088,-3.3249665316880095
1763560,-6.636277381433598,-3.0981461549531537
2568550,-5.452537139338937,-3.5592194677194846
914097,-2.610172997858048,-3.395879812447955
1777805,-2.589144099428835,-3.2823132122513208
3318912,-7.508145934734034,-2.6156119936600972
1159571,-0.40608273094437997,-0.34406307877416087
841866,-4.833143358679063,-3.5830073914802765
1449926,-2.426902226157428,-1.9539712998897625
1210639,-7.17713113589215,-2.532874464499178
1007932,-1.9470002306162888,-2.8063819135250436
1661824,-4.231439280267458,-2.610636665167617
896115,-2.734066067149103,-3.8754801366740903
1851121,-0.08754739488489555,-0.026481042417756895
1888769,-0.8886723929351643,-0.8279731876725756
1734889,-2.806349950392941,-4.443706607267945
1622247,-3.214186320177822,-2.133403840401
2730277,-4.806267030569931,-2.997417300360716
3437314,-2.288925167345532,-2.991290761806258
245482,-8.089572575801466,-2.7075577437769263
2009173,-3.028024476799448,-4.225589717216765
3792287,-2.087040539637615,-2.704479297977632
337833,-4.403125865119722,-2.716528715018385
987939,-5.1050885388940594,-3.1021395132638663
1061806,-0.484246837959909,-0.41362446789429086
1425288,-4.250622143286529,-3.5042546237279044
3058364,-4.3882828313139575,-3.1781264969671215
2120104,-7.45884542084018,-2.3142890195948196
1579909,-0.6894693427573177,-0.6236135962617623
3214090,-7.077130677048613,-3.6010500694259946
818197,-6.191893385652088,-2.8057175206213976
3674172,-1.9108707166542676,-2.6524541654441927
284530,-3.7486693637442556,-3.6273549890452035
2249383,-2.670702931738383,-3.6625540307361515
3038117,-5.862929545207827,-3.1988074375643762
1681066,-2.9295891781047763,-2.1835761107754474
587919,-3.7337723657700077,-3.92433678594656
488565,-4.663606139666488,-2.8570076891452847
2629101,-4.656994433224205,-2.8261870909517044
2567606,-3.0310539774039538,-3.960001438276562
1862234,-0.6201379690402036,-0.5599161208419967
2043044,-3.6876547180859602,-2.7884737045429184
1602057,-5.475390069125927,-2.6481499379533546
1962199,-5.212307861444616,-3.023912442086908
3699172,-5.639301197121359,-2.7966827362113893
3019474,-3.874476083559464,-3.567496065065222
3882769,-4.223007074324559,-3.7192780801815415
1123536,-0.5680245212179822,-0.5067503371145581
3509782,-3.2425588865884785,-3.109147243120628
3396539,-5.929039668933697,-3.0154348165870917
419082,-2.5391420240580165,-3.9050941492195332
3011813,-6.236410633393172,-2.7358480319588345
2546617,-3.3216021800281803,-4.359823477569701
1051772,-1.099425777730917,-1.0366975325587733
2107051,-5.734100515638257,-3.019885661401349
303399,-4.164527808431447,-2.566549289142498
1899316,0.1999309872608293,0.2608733545265912
2256673,-3.9691158594117506,-2.877892471725794
585604,-4.334176017631944,-2.9784830347820836
2797736,-3.486366643645381,-2.817194870080044
336330,-8.191451024284586,-2.9144975360557006
3703336,-2.251885069106422,-2.729524479630552
3117719,-7.395590949326484,-3.444912788856337
2743438,-4.332554802664519,-3.8201009223318207
3380030,-2.139152736626435,-2.715426287297557
339169,-3.9011362176594933,-2.6261589355157415
3517792,-5.494347656880876,-2.5708296044205325
1263537,-4.026028219089489,-2.68093192952283
2443485,-2.7320246237114167,-2.248132562509597
2011047,-2.6525660213263973,-3.618319424257678
2219521,-5.028233975558051,-3.398915323516608
1371218,-5.729140291904783,-3.0009651399942743
3523703,-2.7461572426014893,-2.0960419989202084
314054,-5.44744784863486,-3.5028960110395992
1743579,-4.74022167530437,-3.3103935774452036
1053648,-0.19210296717724729,-0.12530067279525353
1497608,-5.212748765096691,-2.9879906513612227
2845917,-4.929782351395165,-2.5279897230097865
1859758,-0.9583760926318297,-0.8973716635365
548617,-4.5156717661857,-2.6256207248709567
208007,-4.467459847057429,-2.754553510200034
2550347,-0.9492562110136337,-0.8052418000023945
3155822,-4.776810098893754,-3.2147121531656655
3086332,-0.9946346409073527,-0.9088279751787661
1587596,-7.11905630438599,-2.821158127536808
1891686,-1.0028608526462917,-0.9432196205522627
2806399,-3.6963820326603436,-4.490520897976277
1247118,-0.362682906134714,-0.29189435788815377
1330700,-2.7838272914133713,-3.8346504423644587
2701093,-2.306012434584198,-1.9573462922849787
2039683,-2.8901449815956566,-4.702730862375133
504781,-4.247854513673668,-2.8042033622391775
3156064,-2.4789511961761788,-4.050285699587069
3230876,-8.34095637695738,-3.1330342900053245
2588965,-4.743973789709681,-3.4226855045141784
1095299,-0.031383364284709,0.02942317003276601
377962,-3.7423994879570937,-3.1743337102974802
1647633,-4.435380209129914,-2.7728446264002837
913456,-4.754021223000306,-3.2239809508047204
1291746,-4.7909608393474805,-3.606550194294556
3756412,-3.2441895348754,-3.3241109218250644
2730092,-3.8858340116092838,-3.3256628326873994
2664227,-3.135297153936153,-2.117254871446877
3029956,-6.461612876552582,-3.510923517609792
248760,-2.9469947272223056,-2.0664660960091763
1468802,-4.060365476191899,-3.131077345342188
1456216,-4.363861447179025,-2.4705437755595723
2792529,-4.539320726051652,-2.975573232710664
2770937,-2.2224760101504666,-2.805669790666352
370020,-5.248486241079368,-3.279948552701163
1035188,-2.0235254103256417,-3.1844163427770256
3023563,-3.853127259538007,-2.7349702659339385
2221352,-4.445371855564105,-2.7493561855660746
3265934,-2.377135725433567,-3.108228344202005
942018,-5.101202499981455,-3.3465060984847725
847560,-4.770352863658209,-2.2065650300331705
3774186,-4.303478446622281,-3.125472294447343
3533175,-5.714019693638574,-3.0654182782065322
1486077,-3.066488093505365,-2.555478272567929
400300,-5.306532306003172,-3.204967369299853
2809748,-5.1922548786234035,-2.8075263281569804
2039969,-3.753489367210445,-3.0146762670473364
3165684,-4.098111073594859,-3.403700668739623
1386112,-4.623909077564286,-3.440947839648142
1063683,-0.7044898038019392,-0.647321647696165
3049658,-3.5479382596549383,-2.6563124505615745
1084987,-0.3566819188332841,-0.2907622485641715
2048627,-6.47121717614674,-3.325778093077331
1144287,-0.5750336476996956,-0.5147851734490815
3398070,-2.5222421312641896,-3.0146439359063533
2911821,-5.131846976629566,-3.0771407109299633
3143557,-3.673355395980755,-2.860964843118321
2821184,-1.306507807717226,-1.0896845217510285
587426,-2.6386426464318773,-3.803760159232798
3870041,-2.6535384729677887,-3.8194013167408998
3211102,-4.437408439546367,-3.5278314910144974
2729088,-4.999056041286411,-2.747136846661892
2138552,-2.8848566636435464,-4.19595550797928
1012613,-5.801695284807871,-2.630149942992762
545557,-4.224096883826164,-2.72453543584322
693189,-2.7048888645922817,-3.163459588950774
1700108,-4.1698677319050255,-2.397606667846983
2544168,-4.544208135496375,-3.56822583632166
262511,-7.138023756108527,-3.1697158698012036
1240083,-3.262213213023929,-2.574934187975499
3075857,-4.404404632669161,-3.3055158877814947
1580925,-2.6425089917127598,-3.9747458618136187
3490662,-5.410107028105267,-2.8511852470148784
3048250,-4.5079569849594145,-3.4560590846778694
2214104,-2.1394538704393127,-3.528576181974849
2216446,-3.9339114912647943,-3.0974665896690667
2021878,-2.7437065129122593,-2.0048958796793994
3315634,-2.903687748852701,-4.541044405727705
3786402,-4.334420370475452,-2.8218973931109486
2268843,-3.2458948915281374,-3.3403944900031934
1033820,-4.492219715084838,-3.173153314733588
1264652,-3.2184911399195437,-2.4777793885732673
1894969,-0.7710992213579004,-0.6987913627534976
3375077,-2.459796660828169,-3.534426937290423
287519,-7.503022182672524,-2.7557960745600476
3467536,-3.6409725602028624,-2.489496525039214
513939,-5.470986252114037,-2.5650090658389564
3508466,-1.897629191134671,-2.5969787980332604
2170691,-4.6620116016799455,-2.4122091405286303
2781572,-3.023607327984669,-1.7700873610821954
1517323,-6.25150219697936,-3.143077570159933
922403,-5.687446273309513,-2.874381223837982
882398,-4.8556474827276785,-3.561219618679306
2012110,-2.4365218080498487,-1.948917062470933
2694499,-3.199236118617063,-2.347888073003226
306644,-3.6159184862701617,-2.687450740582248
696650,-3.3660499178493355,-3.653026470518089
3426883,-4.80439621034654,-2.9134888336271483
2963611,-1.8020443775712691,-1.614761748051417
3323309,-5.721835112006934,-3.229520265542085
1624696,-2.847547914945031,-4.207418336289752
639273,-4.268419723982071,-2.994120965554605
1035552,-4.997788806696358,-3.391714656262131
3398264,-4.728214887600808,-2.2218153039712365
3274028,-4.049706510954658,-2.7961865440521843
199220,-6.154146075513337,-3.1079890394514504
3688628,-3.739779012161806,-3.524223316334621
426436,-7.43683837086869,-2.8151445294844524
2642438,-4.12431816082424,-2.3924184702128932
1638955,-5.446703169114088,-2.9978316328007737
1960213,-5.466302955880992,-3.444031157871465
3474033,-4.943723656010771,-3.579253013330823
2964424,-2.5435120956218373,-3.7209640449405716
3268737,-2.6590945277438935,-4.47168040852337
3474809,-4.040042398128534,-2.8827893181430655
3410790,-3.033205736298191,-4.428722486649621
1350515,-2.8242191957862466,-4.447307862219695
2716152,-4.464146296351157,-3.772323444786463
508918,-3.5818382450318644,-3.118327332766234
683502,-5.0102166350271355,-2.5632480184562207
3104471,-2.155063961791842,-2.6809192852926675
1225037,-5.790368775487355,-3.298053929022507
1159677,-0.28775968763201926,-0.2281237135010194
2941797,-1.6927799029748345,-1.4401674658485673
2040557,-2.5457491598999993,-2.8934063794433507
3447958,-3.929492221310845,-3.426124361613651
3685084,-6.69287756952303,-3.1150695508020365
2005606,-3.3125060864420153,-2.5773730759231266
1516258,-6.641331478060272,-2.7796592789910393
3387114,-7.805929358219255,-3.2794463880877207
1555708,-4.150455990931881,-2.988967737006181
3794162,-3.957583853177953,-3.120647018215077
882955,-2.634244736245156,-3.6817080463467433
3104424,-3.9793121632005772,-5.26297485522738
694789,-4.778348412101314,-2.9063686847105568
2798226,-4.859787209998405,-3.1545894839480093
1471831,-5.28529183160236,-3.457296506673238
3274782,-2.444681166672637,-2.85972388671601
272547,-4.5396963235762104,-2.4132691430805435
2772159,-4.022738267101292,-2.2210855031556083
3075823,-2.421218941642919,-3.674714961096219
3802737,-4.1870487326286465,-3.4489880824192847
2591411,-3.1280272778659013,-2.7974324319767025
2225147,-2.66420740923153,-3.4684520123864693
2445340,-4.210255523084031,-2.3466238154965002
1010683,-3.36878650837526,-4.510200577900248
585499,-5.865620374552664,-3.616213276507308
3863172,-4.9125503512445965,-2.835000553682215
3523217,-4.101168820939631,-3.495298256058905
2937184,-1.8364707238319677,-1.4949042918657722
3342924,-1.9855919806220996,-3.066259372669103
3345632,-2.861918688489003,-4.22787081365052
627734,-3.2832465721138675,-3.149244587241308
1172211,-0.30975276793255246,-0.2500788965122509
2213313,-2.874993094015796,-3.808516867095257
1134748,-0.579941171270937,-0.5194930219367175
1052589,-0.1275717778955285,-0.06813271550911817
3035984,-5.687933079811073,-3.674032450434782
700513,-9.348194593381125,-2.453683976091078
2049743,-5.24174622174278,-3.0457986623403954
311120,-6.22642866300102,-3.2727175961633272
1507951,-3.931929257534903,-2.536750086533635
1094251,-0.532111936998811,-0.4734733888443682
2759875,-2.423530084506118,-3.091220557684422
3525993,-3.2416637481959856,-2.2534344643684756
1732728,-3.8535442575700007,-3.4697531625675477
1396612,-4.959071436006721,-3.1616708861462124
2033140,-2.8067016684614066,-3.9151261810253066
3115386,-7.246817896364989,-2.625124054980752
3218849,-3.798689490305291,-2.729159211630684
1946532,-3.1525765401681034,-2.1492388873685986
3258777,-3.233435808632308,-2.707725294527784
1332524,-3.561294917102461,-2.918925331043112
2530312,-2.089182511688192,-5.715032587802892
3948076,-3.9401512960632172,-3.450710759649415
441535,-2.5126008385987566,-3.6438874997578963
612329,-4.77814308744374,-2.9191537513631216
2258286,-3.517356824342604,-3.8912385115051893
