sample_id,y0,y1
3795165,19.00132580873333,19.051867199693383
1388640,19.644373727840108,19.69491511880016
1606904,19.505247442175662,19.555788833135715
3730133,19.365687434984093,19.416228825944145
3873474,19.838881649810876,19.88942304077093
1163349,23.98886935627567,24.039410747235724
1553663,19.031557449320342,19.082098840280395
1336891,20.594315197757506,20.644856588717555
3384797,18.684122045311565,18.734663436271617
1717073,20.167282025287303,20.217823416247352
828451,19.895091389665993,19.945632780626045
860832,18.733036152512646,18.7835775434727
3924779,19.611329588906926,19.66187097986698
530614,20.299427523239288,20.349968914199337
731638,19.06421939390821,19.114760784868263
1147993,23.951026026349968,24.001567417310017
694078,20.00767399032591,20.058215381285958
2178764,19.27549354842668,19.326034939386734
1870525,23.631581714920816,23.68212310588087
380557,19.91462287975744,19.965164270717494
2666108,19.879218108887088,19.92975949984714
815823,20.24147711531744,20.292018506277493
2497054,19.51394732939951,19.564488720359563
3679047,19.956395134651082,20.006936525611135
3808738,18.77191909210647,18.82246048306652
1119693,23.783001554885367,23.83354294584542
3213192,19.924435775691656,19.974977166651705
1045178,25.973254841769023,26.023796232729076
2111879,19.767612823956874,19.818154214916927
717790,18.815734453205064,18.866275844165116
2616871,19.092442694747582,19.142984085707635
3488151,19.723964005745064,19.774505396705113
2147475,19.98202114518449,20.032562536144543
2865653,20.337377854529752,20.387919245489805
3002696,19.997904310707575,20.048445701667628
1536227,20.28541293902805,20.3359543299881
2820924,19.00893993396972,19.059481324929774
3165630,19.07441821067614,19.124959601636192
3741089,19.773539537844897,19.824080928804946
501836,20.079701776712394,20.130243167672447
1071407,26.04633343779478,26.09687482875483
1570962,19.692133919701586,19.74267531066164
1911525,23.889939509882854,23.940480900842907
2694766,20.071924367146803,20.122465758106856
670845,19.97442189096158,20.024963281921632
294185,19.54683376991191,19.59737516087196
892775,20.320109006313945,20.370650397273998
1970114,18.757768375384455,18.808309766344507
3784632,20.08049573448898,20.13103712544903
432657,19.60297230279513,19.653513693755183
2206031,18.84183148010088,18.892372871060928
2836718,18.84487111011096,18.89541250107101
2155598,19.915160672663305,19.965702063623358
3245644,18.453372348987983,18.503913739948036
3210723,21.91412990885967,21.964671299819724
1715688,19.520596946775587,19.57113833773564
844872,19.22130580633489,19.271847197294942
3013760,18.862392572963866,18.912933963923916
3901679,19.487419401426372,19.53796079238642
483263,19.748971895421498,19.79951328638155
2719952,21.437173704911217,21.48771509587127
1883028,24.290922483042717,24.34146387400277
3873669,19.543195102337076,19.59373649329713
1591565,20.428719737322616,20.479261128282666
3328095,18.651092858867134,18.701634249827187
1686996,19.805004064526994,19.855545455487047
3434824,20.24646140079542,20.29700279175547
1451857,21.02016821026227,21.070709601222323
1565681,20.081782649666643,20.132324040626692
2144069,19.849945027053376,19.90048641801343
3898240,20.478784454328327,20.529325845288376
574540,19.954524246670964,20.005065637631017
1891817,23.067071543918313,23.117612934878366
2661506,19.72595927602749,19.77650066698754
2616930,20.89092802545954,20.94146941641959
2221800,19.75501595586783,19.805557346827882
3790037,19.094782035294518,19.14532342625457
2728424,20.148732336709088,20.199273727669137
1054061,24.237815089440495,24.288356480400548
308265,20.337802650240324,20.388344041200376
3262842,20.113069598635896,20.163610989595945
1605202,19.49379651670583,19.54433790766588
2540824,19.933585627840134,19.984127018800187
3776886,20.176461362620596,20.227002753580646
3353794,20.167258204331194,20.217799595291247
882549,20.35634625984271,20.40688765080276
3442326,18.837128389881645,18.887669780841694
2982165,18.427516921892682,18.47805831285273
3543650,18.577488898869845,18.628030289829894
3419475,18.909722011543067,18.96026340250312
1730446,18.941492907298553,18.992034298258606
1743004,19.864483609944166,19.91502500090422
453942,23.16389885960801,23.214440250568064
1988413,20.384785761071928,20.43532715203198
3235580,19.80076352984631,19.851304920806363
666179,19.88403450989553,19.934575900855577
919039,18.667245465295906,18.71778685625596
2755642,20.167043690377284,20.217585081337337
2199953,19.993594992078098,20.04413638303815
1639746,19.823237727171758,19.873779118131807
800546,18.622723746810507,18.67326513777056
3797730,19.74228262565744,19.79282401661749
571432,19.863781977466523,19.914323368426572
2605290,20.342553053073534,20.393094444033583
3311490,20.400395381155807,20.450936772115856
231025,20.01960101846787,20.070142409427923
2694854,20.002622718937893,20.053164109897946
1670191,20.193396020415996,20.24393741137605
2637346,20.09092447799279,20.141465868952842
2860625,20.281858059668433,20.332399450628486
1427639,19.94588926365121,19.996430654611263
2996053,19.884894658119304,19.935436049079353
3430657,18.573049974918995,18.623591365879047
3709794,18.632526440129336,18.68306783108939
2880876,19.928703022439212,19.979244413399265
3753461,19.935146712850763,19.985688103810816
672917,20.20696203764015,20.257503428600202
2966284,18.540328041183205,18.590869432143258
3076041,20.153665097290457,20.204206488250506
278726,18.99977286019327,19.050314251153324
383532,20.141984898148376,20.19252628910843
3798489,19.938329779547473,19.988871170507526
2278188,19.737311216462896,19.78785260742295
1083485,23.58676714624401,23.63730853720406
1322125,21.50989706898708,21.56043845994713
320062,19.992252642595716,20.04279403355577
984962,20.205722950727004,20.256264341687057
442771,20.416121121906478,20.46666251286653
1373078,20.072579496909587,20.123120887869636
2649967,20.18499070249587,20.235532093455923
2658428,21.600808574813286,21.65134996577334
278274,20.49094326112363,20.541484652083682
3130521,20.028359314799772,20.078900705759825
513415,19.556691627590226,19.60723301855028
2185544,19.581222563442637,19.631763954402686
2674169,18.47323742820043,18.523778819160484
1622782,20.701722032427316,20.752263423387365
1944431,20.078700851514665,20.129242242474717
2452925,20.090931204305154,20.141472595265203
1600380,19.814259944084665,19.864801335044714
1116134,23.9387864085778,23.98932779953785
2216856,18.378821701484355,18.429363092444408
2235221,18.790341588941427,18.84088297990148
1301420,18.922249829839604,18.972791220799657
3895408,20.597766407601437,20.64830779856149
3041105,20.036380525728905,20.086921916688954
428348,20.410231963988004,20.460773354948053
724771,19.857208735435663,19.90775012639571
822374,19.74466104833769,19.795202439297743
1682938,20.06028030753341,20.11082169849346
3026753,19.120980830557762,19.171522221517815
930415,19.807716809856842,19.858258200816895
3313673,19.229214558159704,19.279755949119757
1308025,19.794745587764034,19.845286978724083
1263537,20.101617675268958,20.15215906622901
1495433,18.733360737857424,18.783902128817477
3772061,19.596897522527918,19.647438913487967
2428629,20.254848507057815,20.305389898017868
1739438,20.28712453087042,20.33766592183047
3755412,19.258441515281582,19.30898290624163
2789851,20.130208125300406,20.180749516260455
1772033,20.14320183754831,20.193743228508364
3376680,20.52442770539191,20.574969096351964
2806309,19.650690333661363,19.701231724621415
339019,19.620512880964153,19.671054271924206
413451,20.044418297369603,20.094959688329656
3121895,19.937200624288014,19.987742015248063
2856888,21.881360303666945,21.931901694626998
2727744,20.03734859534705,20.087889986307104
511084,19.994199325223644,20.044740716183696
3268779,20.04826860209979,20.09880999305984
1075381,23.76728758999471,23.81782898095476
1486686,20.238982823137558,20.28952421409761
369541,19.696483413947956,19.74702480490801
1138562,24.044139434478833,24.094680825438886
1604998,24.392058612841097,24.44260000380115
2744314,18.46618715009041,18.516728541050462
2552517,19.64333608068101,19.693877471641063
653252,20.17020186584076,20.220743256800812
2987602,19.65320800646732,19.703749397427373
3678940,19.86443593028499,19.914977321245043
1683785,19.501127636210477,19.55166902717053
711027,19.931814849820682,19.982356240780735
3336442,19.258259501397,19.308800892357056
1949064,19.83212437512649,19.882665766086543
3498398,19.79962044985694,19.85016184081699
263872,20.101017357391132,20.15155874835118
2564060,19.36810528307563,19.41864667403568
987440,20.33993793116294,20.39047932212299
2000958,14.603560936496423,14.654102327456478
251237,19.37194489719499,19.422486288155042
2155886,19.004468008413262,19.05500939937331
1695088,18.596925893838772,18.647467284798825
1721284,19.389334850478274,19.439876241438327
500938,19.711371679724753,19.761913070684802
3306504,20.12658602539666,20.177127416356708
3520719,19.87248338336967,19.923024774329722
526026,19.848685407565167,19.89922679852522
1551101,19.092103659552745,19.142645050512797
3807809,18.394450418936472,18.44499180989652
2464501,20.166187645057494,20.216729036017547
2590974,20.346290893313054,20.396832284273106
1429559,19.571416386622825,19.621957777582878
1420184,20.5426544079535,20.593195798913552
2972467,20.08680545462817,20.137346845588223
1258008,20.275528292571273,20.326069683531326
748399,20.2059150066251,20.256456397585154
317367,21.17771063151305,21.228252022473104
2537630,19.976951256995584,20.027492647955633
2997186,18.85546140416425,18.906002795124298
298468,19.629537017916597,19.680078408876646
2126855,20.022653940131654,20.073195331091704
2248983,20.0424750538016,20.093016444761652
2268467,19.82878185084541,19.879323241805462
2186391,19.710139929365717,19.760681320325766
2909470,19.949365548445478,19.999906939405527
3115128,19.884206863418047,19.9347482543781
1899391,23.457153618845826,23.50769500980588
1577702,20.241218503499258,20.291759894459307
1917260,24.127692663588707,24.17823405454876
290712,18.48441427715374,18.53495566811379
854601,20.005285258729952,20.05582664969
3913417,19.361134254792905,19.411675645752958
1934130,19.66997120394775,19.720512594907802
2785519,20.339598715644307,20.39014010660436
2139819,19.870593703948956,19.921135094909005
3110356,20.239314552793502,20.28985594375355
2624193,19.46911667606989,19.519658067029944
628423,20.020236021356336,20.07077741231639
2256379,20.035425777736588,20.08596716869664
1421728,19.40432277952998,19.45486417049003
2810346,19.747760570552867,19.79830196151292
2163864,20.03282402318631,20.08336541414636
529409,19.70243688757015,19.7529782785302
1877416,24.892589950597777,24.94313134155783
1239232,18.370172156284262,18.420713547244315
2727106,20.28482236182854,20.33536375278859
3894772,20.021955126854582,20.072496517814635
384528,19.8229942812325,19.873535672192553
994305,16.43082532965796,16.48136672061801
1055874,23.815984756192915,23.866526147152967
3002238,19.001412717082204,19.051954108042256
3460713,19.62589538702937,19.676436777989423
2602154,20.794680813971812,20.845222204931865
1540331,17.960416056099234,18.010957447059283
2986127,19.74888426264371,19.79942565360376
3500142,19.550012326513603,19.60055371747365
1021700,19.88988686722849,19.94042825818854
2471142,19.649194193391704,19.699735584351757
2134790,20.16227757708914,20.212818968049188
671701,18.82382590954792,18.87436730050797
1793883,18.758453009309257,18.80899440026931
500038,19.574113723015692,19.624655113975745
1752096,19.663608790215445,19.714150181175498
2190780,19.491131737534083,19.541673128494136
703039,19.916854826057545,19.967396217017598
1769887,19.564538249942263,19.615079640902316
2749585,19.428340306506474,19.478881697466527
1367004,19.981481936939648,20.0320233278997
983142,20.160428922193482,20.21097031315353
1749321,19.41097603949779,19.46151743045784
2838510,19.940745995735103,19.991287386695156
1461964,20.0065726946072,20.05711408556725
3955629,19.94610130963901,19.996642700599057
3160223,19.290762445384296,19.34130383634435
2655840,20.177013520169044,20.227554911129097
3781719,18.39236600640376,18.44290739736381
3101035,20.56885218356387,20.619393574523922
1003386,20.122445689479573,20.172987080439626
3899306,20.33645363125719,20.38699502221724
3310550,19.634773511813172,19.685314902773225
1616390,19.724632698124353,19.775174089084402
499450,18.976027065296908,19.026568456256957
2025677,20.331662048634644,20.382203439594697
992961,19.81959882178944,19.870140212749494
3104116,21.39347539476075,21.4440167857208
3129045,20.110140914793266,20.16068230575332
3436998,20.32181824661572,20.372359637575773
1918950,23.83934473561749,23.88988612657754
1161113,24.388179126935263,24.438720517895316
949778,19.670257306782485,19.720798697742534
1038526,20.277720919227928,20.32826231018798
3051657,20.078697785237907,20.12923917619796
3667440,19.22982570252793,19.280367093487982
369217,19.987834596038873,20.038375986998926
3864104,19.69718083312419,19.747722224084242
3222995,19.560071054805857,19.61061244576591
458413,20.278262462809717,20.32880385376977
3901728,19.6437333991379,19.694274790097953
2851626,21.11113181800642,21.161673208966473
935596,19.832253675684775,19.882795066644825
2628176,18.70055570117569,18.751097092135744
3016531,19.655070201794654,19.705611592754707
919236,18.43834993445922,18.48889132541927
2465859,20.240458595619575,20.290999986579628
3548435,19.967026246186286,20.01756763714634
2420356,22.671986007726176,22.72252739868623
1991072,20.15778304309283,20.20832443405288
3341745,20.189786164527124,20.240327555487177
3477529,19.425156871423575,19.475698262383627
3454107,19.240378784260812,19.290920175220865
1452687,20.039733516693378,20.09027490765343
3158353,20.20476564857692,20.25530703953697
2885417,18.34971422797824,18.400255618938292
495002,19.102131314936408,19.152672705896457
2051840,20.029975508391047,20.080516899351096
2633577,19.80349536810536,19.85403675906541
2783009,20.28111868704722,20.33166007800727
805362,20.141725466739786,20.19226685769984
418244,19.878333578302346,19.9288749692624
754151,20.169890923362903,20.220432314322956
529475,20.62527269808539,20.67581408904544
2211723,21.016485411632924,21.067026802592977
2452302,20.09208836220091,20.142629753160964
3901000,19.816979057985847,19.867520448945896
1914520,23.924298178592714,23.974839569552767
456903,19.132714533483345,19.183255924443397
1171201,23.854813461072222,23.905354852032275
2907072,21.753618778014957,21.804160168975006
2671694,20.25326369294383,20.30380508390388
1236774,19.767913937015066,19.81845532797512
1524074,20.163100682730807,20.21364207369086
3794408,19.938894440366912,19.989435831326965
3773653,20.275409586807537,20.32595097776759
2228074,18.819780705149,18.870322096109053
2572264,18.150648546335404,18.201189937295453
3063644,20.19449296744756,20.24503435840761
2661157,19.01210926996134,19.06265066092139
437153,20.384371310424463,20.434912701384512
1903828,24.76959515872663,24.820136549686683
924227,19.41857738032122,19.469118771281273
3803037,19.594666673726667,19.64520806468672
2878875,19.398484502826534,19.449025893786587
3078250,20.01160271418274,20.062144105142792
842847,20.01968002474421,20.070221415704264
1396567,20.048595764959522,20.09913715591957
966997,19.760513863450704,19.811055254410757
2160137,20.450782184543677,20.50132357550373
3405617,19.158813273527663,19.209354664487716
682281,19.763678118718335,19.814219509678388
1422226,19.203691390036965,19.254232780997018
1944728,20.436684058664536,20.48722544962459
308325,19.76630299547681,19.816844386436863
479356,19.169492257889893,19.22003364884994
690620,20.286284314860175,20.336825705820228
2401896,19.687337978336995,19.737879369297048
846039,20.148306572391167,20.19884796335122
323698,19.83869207131668,19.889233462276728
2117310,19.99699589709918,20.04753728805923
2498202,21.485603053323945,21.536144444283998
259703,20.08295198559215,20.133493376552202
2484154,20.549261634473414,20.599803025433463
3326211,20.36116655098222,20.41170794194227
3012590,19.96979228356112,20.020333674521172
412696,20.15151887263316,20.20206026359321
2112225,20.516668614186482,20.567210005146535
2869003,20.126400135157557,20.17694152611761
2869054,18.78117122058332,18.831712611543374
2129013,18.927353256839083,18.977894647799133
248472,19.905120132495394,19.955661523455447
1120552,26.089184694542507,26.139726085502556
3371381,20.093173054454944,20.143714445414993
1195502,19.73784106130728,19.78838245226733
3327054,18.471084875465706,18.52162626642576
521414,20.342501290194722,20.393042681154775
3179961,18.963799372094133,19.014340763054182
465600,19.545632291268134,19.596173682228187
667486,19.64606523211699,19.69660662307704
2947037,19.44669401037736,19.49723540133741
1321949,19.89384985441197,19.944391245372024
3776416,19.820303251187994,19.870844642148043
336156,19.071832848994447,19.122374239954496
3422588,20.179260471691705,20.229801862651758
2461709,20.23262615423212,20.28316754519217
3202611,20.357428954976935,20.407970345936988
2887537,20.18195794936844,20.23249934032849
2182410,20.571084288850297,20.62162567981035
543771,18.70233569190492,18.752877082864973
2867255,20.397678501300625,20.448219892260674
1073297,23.77985949263018,23.830400883590233
3320136,20.156416426463696,20.206957817423746
2257955,20.275747114029055,20.326288504989105
3076746,20.201459167022826,20.252000557982875
522647,20.17629068653573,20.22683207749578
2837332,20.308020282570006,20.358561673530055
1257256,19.19215409904168,19.242695490001733
3751482,19.945530091269635,19.996071482229688
604162,20.423545176388615,20.474086567348664
3767644,19.86531303010824,19.915854421068293
1014154,18.538059146403747,18.588600537363796
1593976,19.515534032434523,19.566075423394576
3663872,20.42108849753905,20.4716298884991
2565689,18.925188323883358,18.97572971484341
3133336,20.013285099689877,20.06382649064993
3950160,19.289844705772794,19.340386096732843
3007804,20.10557424275632,20.156115633716368
3501026,19.70663402060216,19.75717541156221
3475143,20.138464542219236,20.18900593317929
1853902,24.425918267095614,24.476459658055667
1719588,19.33924423240403,19.389785623364084
2140766,20.020653797362005,20.071195188322058
2238723,20.222225847686644,20.272767238646697
1779141,19.917563954839405,19.968105345799458
1719324,19.253686759918285,19.304228150878338
1365642,19.360498422733034,19.411039813693087
3092092,19.89920219235295,19.949743583313
2443694,20.14771007796441,20.19825146892446
823046,18.713131843035953,18.763673233996006
1890716,23.703495172745264,23.754036563705313
3940617,19.590842024039613,19.641383414999662
3128334,20.000343431514597,20.05088482247465
3860912,19.795543507836996,19.846084898797045
2972824,19.319939206235404,19.370480597195453
2679830,20.186446072410288,20.23698746337034
2405544,19.869366240249846,19.9199076312099
3833681,19.688653323965294,19.739194714925347
1893960,24.43382047525878,24.484361866218833
3218950,20.378710301650212,20.429251692610265
2738507,19.076925811835217,19.127467202795266
1304698,19.745570503821817,19.79611189478187
3702153,18.53700611959401,18.587547510554064
458879,19.871865216258062,19.92240660721811
2708993,20.970350057997575,21.020891448957627
3778826,20.22927248047505,20.279813871435103
1376030,20.242623030831613,20.293164421791666
721805,20.3684322273857,20.418973618345753
1635070,19.0793840282219,19.12992541918195
918826,19.292372606248442,19.342913997208495
3872871,19.824070007927478,19.87461139888753
2198853,20.339138325395496,20.38967971635555
377094,20.588354878564722,20.63889626952477
986796,18.85652830038762,18.907069691347672
1827314,22.870637225944204,22.921178616904257
863752,18.863802768047037,18.91434415900709
1790449,19.8700958381094,19.920637229069452
3857626,19.641805030339782,19.692346421299835
3679172,19.68785116665368,19.73839255761373
2938268,20.046560853838308,20.09710224479836
1912552,24.32340663813256,24.373948029092613
2192856,19.786324683112905,19.836866074072958
3415980,19.775950274989345,19.826491665949394
3458979,20.612962010627214,20.663503401587267
692130,19.54384270992445,19.594384100884504
2921284,20.015091939575708,20.065633330535757
2533106,19.1271403553592,19.177681746319248
1948494,19.967965190966577,20.01850658192663
894569,20.068801324623752,20.119342715583805
2670298,20.5056346259709,20.55617601693095
915227,19.91507345011391,19.96561484107396
1351518,20.017308200675863,20.067849591635913
1414190,20.321363667264432,20.371905058224485
3361623,19.699869005375323,19.750410396335376
3537040,19.22820130136354,19.27874269232359
1554801,20.359809459038647,20.4103508499987
904688,19.923791320728427,19.97433271168848
1197707,19.16490169802636,19.215443088986408
2525520,19.88452982599018,19.93507121695023
3422387,19.507192626034506,19.55773401699456
1972430,18.950552297126134,19.001093688086183
2045309,20.141295863692267,20.19183725465232
3897030,20.730642744799464,20.781184135759517
3659302,20.282511864017533,20.33305325497758
589386,20.235762747143006,20.28630413810306
1274363,19.531106456397918,19.581647847357967
2421502,21.839784888546653,21.890326279506706
295369,19.66937603022291,19.71991742118296
1124343,26.18929828214555,26.239839673105603
1480248,20.146103173171074,20.196644564131127
195494,20.288330991084862,20.33887238204492
738233,19.29973177593479,19.35027316689484
3315775,19.298965654184812,19.34950704514486
3387449,19.59278793881075,19.643329329770804
3183673,21.64644559017607,21.69698698113612
873492,19.300815773742844,19.351357164702893
3078022,20.247154559154247,20.2976959501143
394874,19.74545252206078,19.795993913020833
632578,19.895192013732693,19.945733404692742
3754825,19.15507318011615,19.205614571076204
665400,19.732149288622402,19.78269067958245
3774979,20.25539415595643,20.30593554691648
2741724,19.86189690263098,19.912438293591034
2945555,19.91697608403853,19.967517474998584
2681640,20.18656784103094,20.237109231990992
539760,19.82072768040002,19.871269071360068
2502131,19.896031424377657,19.94657281533771
2555744,20.208595141303952,20.259136532264005
2212099,18.413035861211913,18.463577252171966
2614128,20.026511375590207,20.07705276655026
929645,19.27897593171363,19.32951732267368
301857,19.511113964480423,19.561655355440475
823055,19.96294193844896,20.013483329409013
3141361,18.82132258198367,18.87186397294372
1912969,24.381294316444624,24.431835707404677
2174830,17.950072868553935,18.000614259513988
1770960,18.863047937207142,18.913589328167195
2049254,19.01242325754106,19.06296464850111
2989354,19.437577257362545,19.488118648322597
1142748,24.434360566709127,24.48490195766918
3531377,20.006360492547937,20.05690188350799
1431273,19.73900253086659,19.78954392182664
3896038,19.44904086153133,19.499582252491383
3505113,19.95471763946903,20.005259030429084
544936,19.44718310113973,19.49772449209978
1271274,19.469576444325977,19.52011783528603
1103300,24.481294061831235,24.531835452791285
1883352,24.392920594805954,24.443461985766007
404174,19.779270873342156,19.829812264302205
2061292,20.30565417132318,20.356195562283233
648050,20.268301484141436,20.318842875101485
2584073,19.38648958937,19.43703098033005
2180972,19.62089412960962,19.671435520569673
2407599,19.48327242480228,19.533813815762333
414635,20.150329775232386,20.200871166192435
299546,20.082991830542284,20.133533221502333
2818752,20.31716393282402,20.367705323784072
1909461,24.229121736001147,24.2796631269612
3174265,19.52919742903423,19.57973881999428
499758,19.835724774917328,19.88626616587738
2014298,20.439079897438006,20.48962128839806
1436835,20.86889371953986,20.919435110499908
553450,19.877320240780296,19.927861631740345
392774,19.142627451136235,19.193168842096284
2531103,20.251745857972207,20.302287248932256
239839,20.06449730378769,20.115038694747742
3767239,19.92276034813953,19.973301739099583
1221017,18.576379117002187,18.626920507962236
1388194,20.635891743515216,20.68643313447527
2180685,20.577779536565775,20.628320927525827
1681871,18.970564374341425,19.021105765301478
3757734,18.883371900710923,18.933913291670972
555746,18.540804870912073,18.591346261872125
536358,20.10678127656138,20.157322667521434
2158114,18.875240026335717,18.92578141729577
3315446,20.160769426831518,20.211310817791567
921974,19.921851964302977,19.972393355263026
230822,19.536000184743042,19.586541575703095
1954206,19.426304457124182,19.476845848084235
2600154,20.322657536736845,20.373198927696897
528325,19.97927812831818,20.029819519278234
3700910,19.802301803161903,19.852843194121952
881735,19.82306666776666,19.87360805872671
2717338,19.073209621371262,19.123751012331315
607851,20.02845098367714,20.078992374637192
2751551,20.45467631006015,20.5052177010202
1294263,19.602636667124372,19.653178058084425
3187350,19.89709989528801,19.94764128624806
3440377,20.23127021885735,20.2818116098174
2185027,19.806148395374404,19.856689786334456
2703439,19.921847320564634,19.972388711524683
1741301,20.332233697447872,20.382775088407925
832440,20.002604318516124,20.053145709476173
292575,19.59510119265701,19.64564258361706
3272050,19.971967177459906,20.02250856841996
3546711,20.442690097813607,20.49323148877366
3863537,20.227164653539262,20.27770604449931
1370673,19.667208951967076,19.71775034292713
1757010,19.730023794368297,19.78056518532835
2650726,20.380009133613772,20.430550524573825
1526618,20.11785152488809,20.168392915848138
2470920,19.817492447345156,19.86803383830521
708393,19.926461829495477,19.97700322045553
3086792,18.813939039835176,18.86448043079523
3740965,20.00528338986858,20.055824780828633
1703586,19.798982374715973,19.849523765676025
3290070,19.911014132409672,19.96155552336972
1172463,24.461137885036038,24.51167927599609
1747902,20.02176326832361,20.072304659283663
1829421,24.295280846272654,24.345822237232703
2481851,18.80340800777986,18.85394939873991
518820,20.348739259746814,20.399280650706867
1837724,24.08181588552245,24.132357276482498
347482,19.635328057410362,19.685869448370415
3666859,21.8259904518671,21.87653184282715
870950,19.833139729825405,19.883681120785454
638494,19.634145081355808,19.68468647231586
2174725,20.519706324956037,20.570247715916086
2626774,19.46686560881818,19.51740699977823
3933479,18.764624150278145,18.815165541238194
1396487,20.36109761215332,20.411639003113372
1892939,23.875465859370742,23.92600725033079
2667803,22.120413745707335,22.170955136667388
3263398,18.782758171743072,18.833299562703125
3432913,20.262676886176187,20.31321827713624
810538,19.50183836114802,19.552379752108074
3282183,19.67408508885403,19.724626479814084
624156,19.649303817175255,19.699845208135308
3185480,20.009540469646065,20.060081860606118
696027,15.617573872788412,15.668115263748467
2900006,19.085444667656468,19.13598605861652
2195349,19.19877027334891,19.24931166430896
745217,19.974877862383607,20.02541925334366
3896159,19.89461899369395,19.945160384654002
2974881,19.450209523320687,19.50075091428074
218889,19.83161207890207,19.88215346986212
3934861,20.25329719544104,20.30383858640109
2481875,20.149786109833002,20.200327500793055
915535,18.251300314827496,18.30184170578755
1618665,21.054367155749254,21.104908546709307
2751319,18.18525781028476,18.235799201244813
2211784,20.575816695455412,20.626358086415465
2912816,20.532348823254615,20.582890214214668
2757257,20.082382436859366,20.13292382781942
2016807,19.523258257196392,19.573799648156445
201426,19.952705046498693,20.003246437458746
1597727,20.94950665462296,21.000048045583014
2699088,18.93513244588966,18.985673836849713
1427611,18.601621570419955,18.652162961380004
3797814,19.843638544225666,19.89417993518572
1023302,16.725698019311324,16.776239410271373
1051338,25.94282489098955,25.9933662819496
1631068,19.513106743503492,19.563648134463545
1735284,18.819974479990424,18.870515870950477
1662607,18.882972866490846,18.9335142574509
295823,20.099907871618072,20.150449262578125
530521,20.05357220258337,20.104113593543424
3035708,18.00454055116429,18.05508194212434
2847201,19.929164781612368,19.97970617257242
3850896,20.12974137183712,20.180282762797173
1445730,19.97061824062355,20.0211596315836
1694735,20.20818688781655,20.258728278776598
3675513,19.969923571078777,20.02046496203883
3136962,19.968302721121486,20.01884411208154
1036123,20.24122470952556,20.291766100485614
1004319,19.408545989745367,19.45908738070542
1158347,24.340836014778116,24.391377405738165
539487,20.037903483679134,20.088444874639187
711758,20.082754790737713,20.133296181697762
2665879,19.77169795082048,19.82223934178053
1210053,19.14432977075404,19.194871161714094
3071608,20.304801438697776,20.355342829657825
2684303,20.143641850357415,20.194183241317468
3877757,19.777393315216035,19.827934706176087
3404885,19.80185314927425,19.852394540234304
3244192,19.417112906839115,19.467654297799164
1743839,19.93961333165158,19.990154722611628
1534198,20.540329571095405,20.590870962055458
1456177,19.66516777990945,19.7157091708695
366173,20.116851608102788,20.167392999062837
2187232,19.721231534519823,19.771772925479876
1273580,21.382647411984603,21.433188802944656
2489084,19.145484892563505,19.196026283523558
1518889,20.12672245522488,20.177263846184932
554284,19.9560594752603,20.00660086622035
2408323,20.20193806971453,20.25247946067458
1822264,24.111452248238912,24.16199363919896
2171318,20.333987684393463,20.384529075353516
1566407,19.092025252661063,19.142566643621116
3887380,19.836333844908438,19.886875235868487
1031380,20.435364344201364,20.485905735161417
3952671,19.79797165561686,19.84851304657691
1260584,20.477484419973536,20.528025810933585
2749111,20.057732433888184,20.108273824848236
706402,20.210112878923383,20.260654269883435
3026396,19.979332202175435,20.029873593135484
3416409,19.578563005259387,19.62910439621944
2912710,19.58185309989142,19.632394490851468
3443663,19.999788684820082,20.05033007578013
1395640,19.583132004194134,19.633673395154187
479409,20.279231221634923,20.329772612594972
3801097,18.943595138404564,18.994136529364617
3526269,20.515331605762256,20.565872996722305
1236603,18.97244746299872,19.02298885395877
1905838,23.075379639702568,23.125921030662617
3767810,19.317752792792355,19.368294183752404
2557100,19.712330115503452,19.762871506463505
563601,20.155221150273007,20.20576254123306
2524011,19.901153990169863,19.951695381129912
622309,20.272648205759005,20.323189596719054
3261239,18.882074289101617,18.93261568006167
3728164,20.287101706625972,20.337643097586025
2501666,19.673147019145738,19.72368841010579
1103031,23.754208252692525,23.804749643652578
3337051,19.784350719086582,19.83489211004663
1170946,24.99083355198498,25.041374942945033
1061043,22.82973937960572,22.88028077056577
2712843,20.698522732126666,20.74906412308672
3729810,19.50719756814469,19.557738959104743
2638204,20.78069570868778,20.831237099647833
3542220,20.020223296986302,20.070764687946355
3684391,19.864438464869124,19.914979855829177
512569,19.83484453679606,19.88538592775611
592237,20.079762999674276,20.130304390634326
3524103,20.13632230542193,20.186863696381984
3737204,18.746828262467634,18.797369653427687
2939949,19.83527526551554,19.885816656475594
257823,21.173170941857798,21.22371233281785
408852,20.13595592602865,20.186497316988703
3880588,19.55388132387132,19.604422714831372
337833,18.915702921886183,18.966244312846236
1567447,20.036249018621824,20.086790409581873
2973094,19.981927489364146,20.0324688803242
3102927,17.354938569915785,17.405479960875834
3517392,20.419096134324025,20.469637525284078
2202423,19.97575951107077,20.026300902030822
487221,20.096703064432226,20.147244455392276
1303051,19.920932814025598,19.97147420498565
1093903,24.50178823201928,24.55232962297933
600759,21.836668714843295,21.887210105803348
2175189,20.183314890064615,20.233856281024668
910625,20.47039081653108,20.520932207491132
432187,19.958817919323426,20.00935931028348
469616,24.537799551198944,24.588340942158997
3794090,19.70400307432567,19.75454446528572
614604,19.867098544954192,19.91763993591424
3338256,20.167630166296533,20.218171557256586
2630082,22.384450557047796,22.43499194800785
1015561,19.54866121781036,19.599202608770412
2531226,20.094599237201024,20.145140628161077
2992865,20.733436140591937,20.783977531551987
802300,19.7412470138287,19.791788404788754
575105,20.16684462495972,20.21738601591977
3481095,19.310151983223204,19.360693374183253
2948647,19.947058313009997,19.99759970397005
2105548,20.493657433740896,20.54419882470095
3493511,19.930100459322727,19.98064185028278
2513955,19.635245821525665,19.685787212485714
2660336,19.750422431245916,19.80096382220597
3047610,21.938688950682398,21.98923034164245
549767,19.9186971586337,19.969238549593754
1905831,24.136672425906564,24.187213816866617
3835523,18.78500026824549,18.83554165920554
2620933,19.971716195097112,20.02225758605716
3784805,19.824267174188005,19.874808565148058
1043240,24.392374613684282,24.442916004644335
2701598,20.72903237027131,20.779573761231358
3379801,20.085532545346403,20.136073936306456
1345815,19.39236004146155,19.442901432421603
2567997,20.267200132661596,20.317741523621645
3930321,20.04781693941152,20.09835833037157
3916837,20.431469167333,20.48201055829305
612719,18.582988813754824,18.633530204714873
1532521,19.764016040584988,19.814557431545037
326569,21.738762029543235,21.789303420503284
3477215,20.06284666429941,20.11338805525946
420317,19.130102533424527,19.18064392438458
1346095,18.872399178460057,18.92294056942011
2039387,19.004475282334443,19.055016673294496
1972264,19.54071706572261,19.591258456682663
1388335,19.963751977356225,20.014293368316274
804762,18.672219496007305,18.722760886967357
1246957,19.961205001964874,20.011746392924927
1483297,19.796553781240778,19.847095172200827
1055774,22.935482069064975,22.986023460025027
1017800,19.847140568355233,19.897681959315282
1605615,18.8293705886128,18.879911979572853
2830813,20.89648672684676,20.947028117806813
198486,18.743969788173874,18.794511179133924
1241629,20.301447627270722,20.35198901823077
3947444,19.39078777561249,19.441329166572544
559049,19.938648712445023,19.989190103405075
687213,18.84593859457746,18.89647998553751
964761,20.29289431240522,20.343435703365273
2467684,20.345324651990854,20.395866042950907
1489522,20.391671591442332,20.442212982402385
474806,19.57911187543082,19.629653266390868
1048896,26.007754055048437,26.05829544600849
641153,19.802494415631745,19.853035806591798
1636286,20.16503397925348,20.21557537021353
1999961,21.17617549992067,21.226716890880724
2767675,19.79155204290145,19.842093433861503
3361936,19.938826597470367,19.98936798843042
3449869,19.698399587495913,19.748940978455966
1883965,24.377482612199216,24.42802400315927
2750918,20.579664118390294,20.630205509350343
621685,19.558718464848333,19.609259855808382
853703,19.13893372172602,19.189475112686072
1909831,23.13347466632025,23.1840160572803
530385,19.568959269155823,19.619500660115875
2474426,19.851398382234148,19.9019397731942
2813236,19.566309335098726,19.616850726058775
2573072,19.450052850098828,19.50059424105888
902373,19.689579688118112,19.740121079078165
2256179,20.382372564888325,20.432913955848377
1403472,19.688837839571352,19.7393792305314
214402,18.645040396043356,18.69558178700341
585337,19.904092554479437,19.954633945439486
2214706,18.431257502698422,18.481798893658475
3448773,20.367061207307437,20.41760259826749
3164782,19.88300785450409,19.93354924546414
3794162,19.9017771238576,19.95231851481765
909285,19.935129379729435,19.985670770689488
1092728,25.77745927112366,25.828000662083713
2521947,19.76779232827693,19.818333719236982
2401313,20.05401704773727,20.104558438697318
3661254,19.890871287774416,19.94141267873447
334962,19.66198100360387,19.712522394563923
3368565,19.66619177504476,19.716733166004808
1509352,19.548272951324023,19.598814342284076
3477516,20.24462593029081,20.295167321250858
2934050,19.430019113556,19.480560504516053
3797606,20.103404087479188,20.15394547843924
2143273,19.58459704171935,19.635138432679398
3780107,19.93338223334341,19.98392362430346
999981,20.305414945365737,20.35595633632579
2894510,19.872909760351458,19.92345115131151
269075,19.237933723840385,19.288475114800434
1573443,20.343477244584598,20.39401863554465
304402,20.38179902589609,20.43234041685614
1632536,20.19918484590573,20.24972623686578
3762845,18.713710359722512,18.764251750682565
3222345,20.0621569991852,20.112698390145248
3517526,19.66322918599255,19.7137705769526
2764252,22.677184900847408,22.727726291807457
1705838,19.838602464612492,19.889143855572545
3066389,19.51258939642339,19.563130787383443
3266828,20.50058039659256,20.551121787552614
3692987,20.314332275119153,20.364873666079205
895635,19.71505094040902,19.765592331369074
914870,19.91273119442755,19.963272585387603
3494524,20.27006828602095,20.320609676981004
1727027,19.55347953157464,19.60402092253469
1118296,23.95645778493212,24.00699917589217
3954647,20.331503045399515,20.382044436359568
884333,18.542241809002515,18.592783199962568
3198593,19.54906601965417,19.59960741061422
1200522,19.77984599691976,19.830387387879814
1824534,24.24317301690082,24.29371440786087
853722,20.212361287451994,20.262902678412047
823863,19.915882790389887,19.96642418134994
837388,20.11874977210066,20.169291163060713
1437007,20.00915574006809,20.05969713102814
274540,20.537667149009575,20.588208539969628
1140941,24.911435443455144,24.961976834415196
3423318,19.60251746771164,19.65305885867169
273832,19.845138334532695,19.895679725492748
1109280,23.610023060122362,23.660564451082415
1057082,22.830991755225934,22.881533146185987
3738205,19.03756628578539,19.08810767674544
969659,19.663429824728713,19.713971215688762
3545762,19.554152736362994,19.604694127323047
2003911,20.01179442304726,20.062335814007312
1168471,24.189815235228433,24.240356626188486
2414992,19.22186341389053,19.27240480485058
1487007,20.232447411820704,20.282988802780757
2873098,20.25328674335254,20.303828134312592
1376754,20.048347508597747,20.0988888995578
1021896,21.150537573216166,21.20107896417622
2782549,19.96457727926605,20.015118670226098
2472538,18.761321838758573,18.81186322971862
875895,18.926047307520324,18.976588698480377
2547194,19.557423082865043,19.607964473825092
696332,20.41392510630667,20.464466497266724
3808015,19.175232503907534,19.225773894867586
3079476,21.61140946072012,21.661950851680174
1205931,19.702546897584604,19.753088288544657
2489951,19.039866444423346,19.090407835383395
1598582,20.02985295260117,20.080394343561224
614856,19.84592571662939,19.896467107589444
2800352,20.16866756378908,20.21920895474913
911969,19.95942948453898,20.009970875499032
2770124,19.803252089759308,19.85379348071936
3325132,20.63905934967334,20.68960074063339
2789535,19.62340165701827,19.67394304797832
473891,20.15354083194146,20.204082222901512
2164088,20.291867401096127,20.34240879205618
2872059,20.250506205704724,20.301047596664777
484283,19.818727547942572,19.869268938902625
345255,20.239808502714162,20.290349893674215
1335602,20.37458259034386,20.425123981303912
1936847,19.74734175751794,19.79788314847799
706318,20.957077971241002,21.007619362201055
3225537,20.351337284220605,20.401878675180654
2929517,22.696939638884245,22.747481029844295
716750,19.214215101526836,19.264756492486885
1067900,22.766080844804925,22.816622235764978
3658025,15.270096190356917,15.320637581316971
864179,18.13720640058662,18.18774779154667
1131096,23.90767500384694,23.958216394806993
668628,19.799131240985947,19.849672631946
1984603,19.874472298984404,19.925013689944457
489562,20.28675290512857,20.33729429608862
1479451,18.640661055593895,18.691202446553948
1860485,23.768629793229014,23.819171184189067
2625764,19.201482837812105,19.252024228772154
3137242,19.104872175248957,19.15541356620901
3517262,19.91671764913183,19.96725904009188
1231944,19.82422227543467,19.87476366639472
2989043,18.391252188691734,18.441793579651787
2243186,19.550511811188347,19.6010532021484
1438338,20.15851987045506,20.209061261415112
2278521,20.276612239036773,20.327153629996822
1593165,20.155793297935983,20.206334688896032
3446238,20.099045324017386,20.149586714977435
729134,19.65579236779782,19.706333758757868
226613,20.114136953542733,20.164678344502786
3770699,18.741326743930788,18.791868134890837
1493190,20.683935331302596,20.734476722262645
3529369,20.203160062166084,20.253701453126137
2630850,20.458814162695475,20.509355553655528
2889093,19.64032993329267,19.690871324252722
3013392,18.88351248272479,18.93405387368484
3191300,20.280594231156172,20.33113562211622
3265581,20.00992896151937,20.06047035247942
1423364,20.06030280879538,20.11084419975543
2541802,19.839020911073636,19.88956230203369
3880171,19.20319878530392,19.25374017626397
1419121,20.29733638740164,20.34787777836169
2476983,19.72790961030885,19.778451001268902
1027431,19.73277297142115,19.7833143623812
1161278,23.974690968952913,24.025232359912962
424470,20.173148534996766,20.223689925956815
387316,20.007352386729266,20.057893777689316
1855054,22.614478790040497,22.66502018100055
2923312,20.102268654902055,20.152810045862108
3512622,20.241478990931416,20.29202038189147
2473072,19.635956745664412,19.686498136624465
668798,20.349423701252494,20.399965092212547
3711828,20.145604568131798,20.19614595909185
212836,19.936020033693378,19.986561424653427
1419207,19.5035434364825,19.55408482744255
2998343,19.840420935464604,19.890962326424656
3527997,20.326544486772956,20.37708587773301
2929551,19.11946262243546,19.170004013395513
1943127,19.68310500014939,19.733646391109442
1204364,20.340749702192234,20.391291093152283
3175823,20.51706377520514,20.56760516616519
3399460,20.011985197881184,20.062526588841237
2210994,18.31055097942961,18.361092370389663
2824802,19.636660278582905,19.687201669542954
1814258,24.378778885384637,24.42932027634469
1740447,18.539760041834533,18.590301432794586
1300504,20.028528951048052,20.079070342008105
2196063,20.329217673769843,20.379759064729896
800152,20.26205884025134,20.31260023121139
2825339,20.289362349958505,20.339903740918558
3957114,18.86463908904194,18.91518048000199
3002469,19.197012607238907,19.24755399819896
2717219,20.123805528138934,20.174346919098987
1528208,18.636977389460107,18.68751878042016
1337021,19.547801167385217,19.59834255834527
1947572,21.42138264445181,21.471924035411863
1060938,23.952979998524693,24.003521389484746
2771157,19.09236467024019,19.14290606120024
1205150,19.980188726908125,20.030730117868178
554193,20.185906818423486,20.23644820938354
631924,18.52143087291537,18.571972263875423
3340557,18.35857326329038,18.409114654250434
1792787,19.520765137832758,19.57130652879281
3035677,20.109588610419074,20.160130001379123
735700,19.88783719835458,19.93837858931463
2142863,20.029146884865245,20.079688275825298
3194686,19.940726851823253,19.991268242783306
1850453,24.190557390583564,24.241098781543617
3462862,20.511633367168507,20.56217475812856
1531603,20.42827049950004,20.478811890460094
850540,19.89259041546519,19.943131806425242
3222185,18.961184718424757,19.01172610938481
531018,20.180034715906494,20.230576106866543
529547,20.119760177912813,20.170301568872866
3320026,19.948356888119143,19.998898279079196
1736699,18.893187874540654,18.943729265500703
1169437,23.107983697658753,23.158525088618802
473839,18.903040259009092,18.953581649969145
2500698,21.792617540112495,21.843158931072544
317097,22.16231494318499,22.212856334145044
2598753,20.271638123026975,20.322179513987024
2972041,18.77438784621485,18.8249292371749
3917158,20.121140661454564,20.171682052414614
2128437,19.31916234475293,19.36970373571298
1887736,24.077787975636635,24.128329366596688
3714385,20.38836555156578,20.438906942525833
2240188,20.680128728911715,20.730670119871764
1021350,18.38406622050906,18.434607611469108
1970307,19.92167242833267,19.972213819292723
2910715,20.79615942415441,20.84670081511446
289766,19.89293915293594,19.943480543895994
3720121,19.56712780694232,19.617669197902373
1047372,23.10515689745522,23.15569828841527
1825134,23.03646869807951,23.08701008903956
2769918,19.697494821741355,19.748036212701408
647304,19.072549085313742,19.123090476273795
1371275,19.816950051057262,19.86749144201731
3271328,20.444486353307134,20.495027744267183
1700194,20.010738908130044,20.061280299090097
3211102,19.799004799322834,19.849546190282886
698781,20.323879522589536,20.37442091354959
1863699,23.93784930755626,23.988390698516312
3285500,19.960974263607124,20.011515654567177
597820,19.899161059781363,19.949702450741416
487904,20.2062742020837,20.25681559304375
2744414,20.08107047486912,20.13161186582917
3443763,20.178880756678794,20.229422147638843
878675,19.502206516999983,19.552747907960036
248606,20.402028757062162,20.45257014802221
3798295,20.002226206971127,20.05276759793118
3832976,20.41807884527157,20.468620236231622
372751,19.728091448402637,19.778632839362686
2832747,19.59549173860867,19.64603312956872
2509140,18.43474901806256,18.485290409022614
2451048,19.164732728344333,19.215274119304386
2997215,19.99281022821946,20.043351619179514
1070186,23.921091689864554,23.971633080824606
3396487,20.018226481196034,20.068767872156087
3191810,19.815377408112727,19.86591879907278
2621020,19.830534094631528,19.881075485591577
1634219,20.102865536166245,20.153406927126294
3214549,19.832814492636448,19.8833558835965
983084,20.70107004643678,20.751611437396832
1881026,24.606027032761034,24.656568423721087
2425943,20.25555410638093,20.306095497340984
