sample_id,y0,y1
600172,-75.33096202854317,-76.07994242759906
2613453,-74.54927214005741,-75.2982525391133
3750479,-75.04230741444854,-75.79128781350444
1142871,-83.44217944586161,-84.19115984491751
3127419,-75.33039515628126,-76.07937555533715
3160595,-75.24009782044912,-75.98907821950502
1996469,-74.81649455703322,-75.56547495608912
2116637,-75.06085485182285,-75.80983525087875
802377,-75.51880226434315,-76.26778266339905
3229344,-74.9455352177163,-75.6945156167722
3790230,-75.50737660016428,-76.25635699922017
1342785,-75.33068739863889,-76.07966779769478
3022548,-75.87979238123442,-76.62877278029033
1894077,-83.83104767789722,-84.58002807695311
1594862,-75.30956750376828,-76.05854790282417
944384,-74.41295370698657,-75.16193410604247
3918096,-74.06752436270298,-74.81650476175889
944567,-74.93249570551845,-75.68147610457434
1254153,-76.33071993601756,-77.07970033507347
3507037,-75.58509085819809,-76.334071257254
471067,-75.46344248584664,-76.21242288490254
229595,-74.40994423709608,-75.15892463615198
1675519,-74.18415486411645,-74.93313526317235
3315801,-74.98132172134028,-75.73030212039617
3092313,-74.8934891003129,-75.6424694993688
3526049,-75.05801585710188,-75.80699625615777
532141,-75.83924339497642,-76.58822379403232
985159,-75.26512612286865,-76.01410652192455
530722,-75.64611396433962,-76.39509436339551
1621570,-75.48920981508849,-76.23819021414438
1247509,-75.12440912034359,-75.87338951939948
1123785,-84.39307940126466,-85.14205980032055
3111656,-75.29601485605909,-76.04499525511498
759839,-73.73699257748436,-74.48597297654025
430004,-77.14447538568395,-77.89345578473984
341028,-74.74465443188649,-75.49363483094238
607721,-75.27691363154607,-76.02589403060196
1686221,-75.95584490286363,-76.70482530191953
1113374,-83.3269491389259,-84.07592953798179
2207779,-75.3182275729543,-76.0672079720102
2064672,-75.12563124021804,-75.87461163927394
945074,-74.98368124454747,-75.73266164360336
2178360,-75.69115036990259,-76.44013076895848
1974110,-79.77411608543068,-80.52309648448657
3882604,-75.34332259075654,-76.09230298981244
3494695,-75.30201474542197,-76.05099514447787
2756898,-75.3780411780156,-76.12702157707149
473784,-75.44859175425853,-76.19757215331443
2895733,-75.49207770627584,-76.24105810533173
3873647,-74.56656017724515,-75.31554057630105
2221536,-75.53555202633389,-76.28453242538978
3148984,-75.19704498923004,-75.94602538828593
1877793,-83.71663529635032,-84.46561569540621
2598857,-219.50770157922733,-220.25668197828324
3923274,-75.50032517637014,-76.24930557542604
3045151,-74.80806521771298,-75.55704561676887
218716,-75.54320800929962,-76.29218840835551
344638,-75.71420329069402,-76.46318368974991
2624231,-75.2090646517534,-75.9580450508093
475266,-74.64809092068663,-75.39707131974252
252864,-75.65885482939295,-76.40783522844885
1635540,-75.6332713780131,-76.382251777069
3807677,-220.18102074813558,-220.9300011471915
1245393,-75.23526033056925,-75.98424072962514
2622059,-76.91761742858918,-77.66659782764508
688434,-75.31630266665937,-76.06528306571528
3376168,-75.03294816056979,-75.78192855962568
1486914,-75.10497759641792,-75.85395799547382
270956,-75.12071327076167,-75.86969366981756
2912515,-220.72938355075348,-221.4783639498094
1686089,-75.04620700152084,-75.79518740057674
1886102,-83.22972402868024,-83.97870442773613
1736082,-75.77652113204502,-76.52550153110091
455475,-75.34137402854394,-76.09035442759983
2604676,-75.7062107203782,-76.45519111943409
3126318,-75.07676326610421,-75.8257436651601
3159881,-75.19525700834437,-75.94423740740027
1064880,-228.8001395228036,-229.5491199218595
2405544,-76.04161363151042,-76.79059403056631
3077559,-75.14615153480418,-75.89513193386007
3662169,-75.6911038555482,-76.4400842546041
2655298,-73.5113625794123,-74.26034297846822
1861653,-82.64596069498948,-83.39494109404538
1059709,-83.39053677653915,-84.13951717559505
1476914,-76.01953408591612,-76.76851448497202
2410050,-74.88642192035753,-75.63540231941343
1819798,-83.37094143920974,-84.11992183826564
1201025,-75.28355692655356,-76.03253732560945
2885935,-75.75990132852125,-76.50888172757715
324676,-74.62698810048829,-75.37596849954419
2176949,-75.09015706231334,-75.83913746136923
1446922,-75.26726603228607,-76.01624643134197
1996057,-75.03594503510179,-75.78492543415769
736975,-73.67092044209907,-74.41990084115498
642690,-75.22914698642788,-75.97812738548377
484140,-75.70696426794764,-76.45594466700354
2012332,-76.12066873294287,-76.86964913199877
380363,-75.0450245497842,-75.7940049488401
2674779,-76.90783441500636,-77.65681481406226
3672793,-74.90915077487031,-75.65813117392622
710504,-75.56578968219088,-76.31477008124678
525622,-75.22260622991473,-75.97158662897063
277036,-75.46782258043294,-76.21680297948883
2136590,-75.60982232707025,-76.35880272612614
2132173,-75.33458406793251,-76.0835644669884
1023008,-75.62015459007817,-76.36913498913407
606581,-75.37219206557991,-76.1211724646358
268814,-75.49218270679192,-76.24116310584782
261435,-75.84849109006383,-76.59747148911973
3263566,-75.31823463719472,-76.06721503625062
1002764,-74.92235856454607,-75.67133896360198
2745251,-75.53346246565135,-76.28244286470725
443562,-75.33686690141312,-76.08584730046903
1819041,-83.06643355767031,-83.8154139567262
468786,-74.90426376433344,-75.65324416338933
3258777,-75.69079412578209,-76.43977452483799
1295840,-75.44121093040249,-76.1901913294584
1590059,-75.73558494812255,-76.48456534717846
3434408,-76.1488037053611,-76.897784104417
1539345,-75.22521294788325,-75.97419334693915
2854826,-75.09906853840194,-75.84804893745783
572704,-75.9961379210384,-76.74511832009429
3755187,-74.90515499220663,-75.65413539126253
3206534,-75.236032412673,-75.9850128117289
1420624,-75.11752952227911,-75.86650992133501
3932506,-75.56071878623068,-76.30969918528659
2828196,-219.9801313122841,-220.72911171134
650859,-75.01674919358997,-75.76572959264587
3199860,-75.00492946122965,-75.75390986028555
1251180,-74.48653306055604,-75.23551345961195
1355216,-74.63720851047087,-75.38618890952677
1550045,-77.06783421344542,-77.81681461250132
3862835,-74.80900964629156,-75.55799004534745
2231233,-75.81125454551893,-76.56023494457483
3427527,-75.6060874955114,-76.3550678945673
3661121,-75.6299615618943,-76.3789419609502
515007,-75.23804964197693,-75.98703004103282
2438950,-75.19203692149719,-75.94101732055309
1573958,-75.69086622918076,-76.43984662823667
2047051,-75.12912115787925,-75.87810155693516
2708883,-218.83080903591846,-219.57978943497437
3290596,-74.3942134998809,-75.1431938989368
3203425,-74.95146368871063,-75.70044408776653
3927620,-75.19044394777109,-75.939424346827
958533,-220.0161139097162,-220.76509430877212
3929314,-74.63699564222846,-75.38597604128435
3446769,-75.1478792123127,-75.8968596113686
222885,-75.51411816302979,-76.26309856208569
3229652,-75.02220761476339,-75.77118801381928
3110936,-75.38319108684415,-76.13217148590005
2852010,-72.94134010994597,-73.69032050900186
1755899,-74.98012432561855,-75.72910472467444
3862031,-76.04845130541528,-76.79743170447118
3444708,-75.34474160811335,-76.09372200716925
2784838,-75.37157132947115,-76.12055172852706
748175,-75.20615217560345,-75.95513257465934
2275784,-74.97971948060729,-75.72869987966318
3944783,-75.26778283421318,-76.01676323326907
600759,-74.4852092447819,-75.2341896438378
3391662,-75.61414305588221,-76.3631234549381
1471743,-75.29435364389074,-76.04333404294664
3698761,-75.34467893060095,-76.09365932965684
1076369,-226.91622559329858,-227.6652059923545
244488,-74.72443179476782,-75.47341219382373
1014390,-75.25511083304667,-76.00409123210257
1522844,-75.05436308184626,-75.80334348090216
2484414,-75.42298897475052,-76.17196937380642
1672671,-75.65604546104574,-76.40502586010163
2702972,-77.36587750311443,-78.11485790217033
2589142,-75.12318304898585,-75.87216344804175
337257,-74.91676849558945,-75.66574889464536
3411478,-75.60732417101961,-76.35630457007551
2015012,-75.32871550823184,-76.07769590728773
868672,-74.97947725382491,-75.7284576528808
1322965,-74.9597683329115,-75.70874873196739
3881061,-74.53468408545704,-75.28366448451294
1662490,-75.70193018666524,-76.45091058572113
224836,-75.66082262360999,-76.40980302266588
3393507,-75.40725632437561,-76.1562367234315
2470140,-75.78852637242032,-76.53750677147622
3687277,-75.34204674931813,-76.09102714837402
1328225,-74.9386208400091,-75.68760123906499
3321273,-75.28607283320291,-76.0350532322588
1037347,-76.37576933508625,-77.12474973414214
3714417,-75.81667343821286,-76.56565383726875
1066437,-228.49929404035575,-229.24827443941166
1464351,-77.47031384564283,-78.21929424469873
3148495,-74.98639444820219,-75.73537484725809
2136099,-75.07620760917537,-75.82518800823127
3835006,-74.3634774897757,-75.11245788883161
2413293,-75.29217761168647,-76.04115801074236
327940,-75.38347801373186,-76.13245841278776
1967008,-75.13760329904632,-75.88658369810221
368941,-75.08905023929127,-75.83803063834716
1780493,-74.50019941308977,-75.24917981214567
1693489,-75.408433173291,-76.15741357234691
1956628,-75.81837441871342,-76.56735481776931
2627187,-75.22581520184777,-75.97479560090366
1381050,-75.17165680091259,-75.92063719996848
2838510,-74.92066172151846,-75.66964212057437
1538108,-75.10987088458604,-75.85885128364194
2215031,-75.74237039578985,-76.49135079484574
3360444,-75.5690374322605,-76.3180178313164
2777929,-75.40727699310179,-76.15625739215768
306693,-75.76320118289746,-76.51218158195337
951528,-75.23157545782392,-75.98055585687983
643968,-75.73247737780042,-76.48145777685632
1209855,-75.81449947436126,-76.56347987341715
3809943,-75.44836538707177,-76.19734578612767
3160579,-220.3426950076581,-221.09167540671402
2035104,-220.05965292738034,-220.80863332643625
3524620,-76.23793180514043,-76.98691220419633
1501604,-74.88598925442399,-75.63496965347989
2769583,-75.09254579174205,-75.84152619079795
1334425,-74.99894870097054,-75.74792910002644
3490522,-74.87956480639893,-75.62854520545483
2613654,-74.75333763120906,-75.50231803026496
1272573,-74.78282064983489,-75.53180104889078
3446860,-75.86871884507694,-76.61769924413284
751973,-75.76910931658209,-76.51808971563798
3755155,-75.07260560296832,-75.82158600202422
891158,-75.21297945187469,-75.96195985093058
2825352,-75.62455275845406,-76.37353315750995
309774,-75.57120482983542,-76.32018522889133
1517060,-75.15875796804652,-75.90773836710241
2517825,-75.31153125937264,-76.06051165842854
2787074,-74.83754866252048,-75.58652906157637
3753695,-75.23340091174161,-75.9823813107975
3174095,-74.94902820248844,-75.69800860154433
1264780,-75.07511496651367,-75.82409536556956
3099435,-74.34911783228733,-75.09809823134323
1812454,-83.53811919605602,-84.28709959511191
3274913,-74.76036034383604,-75.50934074289194
715313,-74.839904191336,-75.5888845903919
984605,-74.25139163980076,-75.00037203885665
2492582,-75.19132627197254,-75.94030667102844
556136,-75.500667070582,-76.24964746963789
2509140,-75.3200231654163,-76.0690035644722
1595426,-72.32468078863721,-73.0736611876931
2161087,-75.4954687480607,-76.24444914711661
1791442,-75.13237686368592,-75.88135726274182
1247903,-74.91683205145053,-75.66581245050642
1752108,-75.85720248606503,-76.60618288512094
1472781,-74.63669678996588,-75.38567718902178
1468317,-75.69646409931825,-76.44544449837414
1703759,-223.4672986149132,-224.2162790139691
2760719,-74.96894296709733,-75.71792336615323
3468064,-75.12476089779352,-75.87374129684943
3058964,-74.19699509667015,-74.94597549572605
1825229,-83.88165916081151,-84.63063955986742
3200898,-75.39588242849305,-76.14486282754895
1364492,-76.36732853551663,-77.11630893457253
584583,-75.21500131063468,-75.96398170969057
2919184,-75.66359740030308,-76.41257779935897
3328864,-75.32470816353602,-76.07368856259191
3184160,-75.42394317394354,-76.17292357299944
1153247,-83.95876163135107,-84.70774203040696
1362250,-75.10122331966329,-75.85020371871919
3952486,-74.84223053080956,-75.59121092986545
2692094,-76.25714234072709,-77.00612273978298
244750,-74.90438467453804,-75.65336507359393
2754887,-75.52136860409614,-76.27034900315203
423656,-74.90630321617962,-75.65528361523552
850550,-220.6937325308611,-221.442712929917
1071483,-83.17628167123681,-83.9252620702927
2630489,-75.11635836818297,-75.86533876723887
2681554,-75.4308918142987,-76.1798722133546
917743,-75.42281057225135,-76.17179097130725
2902874,-75.5718256053138,-76.32080600436971
2041040,-75.93279736013406,-76.68177775918997
2801525,-75.47445626226293,-76.22343666131883
657780,-75.38307017130839,-76.13205057036429
1529630,-74.94147748730336,-75.69045788635925
3474818,-75.40352890903607,-76.15250930809196
3251864,-75.58486345695457,-76.33384385601047
1538960,-75.38877159204111,-76.137751991097
292782,-75.48527478414803,-76.23425518320393
2649310,-74.6101051034333,-75.3590855024892
1995765,-75.77876762393875,-76.52774802299464
567235,-75.33509285634955,-76.08407325540544
3196705,-75.05437858161682,-75.80335898067271
1604733,-76.42886763875221,-77.1778480378081
1289109,-75.16096929705391,-75.9099496961098
1668522,-74.84338258555508,-75.59236298461097
2154976,-76.06682574891518,-76.81580614797107
3172646,-75.09331926677855,-75.84229966583445
3239304,-74.91554211746556,-75.66452251652146
2234054,-74.64986298378251,-75.39884338283841
1873118,-83.41766767873735,-84.16664807779324
2791569,-76.07851868487192,-76.82749908392783
1761095,-75.24592042468784,-75.99490082374373
3270400,-75.47521616005795,-76.22419655911385
1748638,-74.99856948553342,-75.74754988458932
1568214,-75.36245345894726,-76.11143385800315
1015079,-75.33867358239235,-76.08765398144824
1911427,-83.41694428904596,-84.16592468810185
1498810,-75.30228395031472,-76.05126434937063
3154295,-75.03431084084524,-75.78329123990113
3799070,-75.36707562024878,-76.11605601930468
290040,-75.11201552434089,-75.86099592339679
3270760,-75.09686034212353,-75.84584074117943
1213836,-74.98394827506424,-75.73292867412013
1360508,-221.460957701598,-222.20993810065391
2804622,-75.33054481283135,-76.07952521188724
3299099,-78.68122954681529,-79.4302099458712
1959362,-75.04731524233081,-75.7962956413867
3363714,-75.71390165613133,-76.46288205518724
3917760,-75.27502027905275,-76.02400067810865
3369203,-75.07691220893852,-75.82589260799442
1106085,-228.73942433150606,-229.48840473056197
3375490,-75.00777671865364,-75.75675711770954
244210,-75.45913808575553,-76.20811848481142
907893,-75.20287127259527,-75.95185167165117
3529095,-75.64128409278584,-76.39026449184173
1101920,-83.47883038150107,-84.22781078055696
2620240,-75.15910415942277,-75.90808455847866
325262,-75.24030094792978,-75.98928134698568
732065,-74.96485619229603,-75.71383659135192
3837757,-75.65371264476515,-76.40269304382105
270866,-74.8558555270578,-75.60483592611371
396617,-75.37529664345814,-76.12427704251405
2823881,-221.2540521475277,-222.0030325465836
1054151,-84.06932798198272,-84.81830838103862
1758720,-73.44677457523792,-74.19575497429382
2433793,-73.36461774155255,-74.11359814060846
3218253,-75.18926633053007,-75.93824672958598
1049160,-83.3970214360793,-84.14600183513521
1430963,-74.79992985821353,-75.54891025726943
2049404,-75.35927286132906,-76.10825326038496
3224823,-74.65013987422056,-75.39912027327645
416016,-74.79694189229934,-75.54592229135524
1917995,-83.48991712420468,-84.23889752326059
333250,-74.90914321520506,-75.65812361426096
700330,-75.644879595343,-76.3938599943989
3015555,-75.19843568354602,-75.94741608260192
1226961,-75.61777676550855,-76.36675716456445
3172162,-75.00808576954643,-75.75706616860234
1214506,-74.62263270704925,-75.37161310610514
951357,-74.79377621271941,-75.5427566117753
725432,-74.79850533266917,-75.54748573172506
2809136,-75.4517293612466,-76.2007097603025
1918899,-83.04477987876531,-83.7937602778212
1045801,-85.31093235210076,-86.05991275115666
2465579,-75.57575379981145,-76.32473419886735
2634245,-74.83847764275514,-75.58745804181103
3958492,-74.80144478020401,-75.5504251792599
2837714,-75.66008800880728,-76.40906840786317
1863917,-83.22571606276406,-83.97469646181996
3213460,-75.46358549801458,-76.21256589707048
2211884,-75.81330908128854,-76.56228948034443
616325,-75.27161543481508,-76.02059583387097
1754430,-75.06488270509824,-75.81386310415415
1303760,-75.25468152971766,-76.00366192877355
2255626,-75.74395787328801,-76.49293827234392
3002197,-75.67061860397811,-76.41959900303401
3040820,-75.30952584741239,-76.05850624646828
387157,-75.14382255507928,-75.89280295413518
1645688,-74.85927544507993,-75.60825584413583
1740161,-74.67780555265513,-75.42678595171104
333920,-75.76918732214001,-76.51816772119591
2227203,-74.9068618731413,-75.65584227219719
3938503,-75.65420876937179,-76.40318916842769
1240858,-75.91827956350605,-76.66725996256194
3385219,-75.50161867441062,-76.25059907346652
747863,-75.58741406115882,-76.33639446021472
2651587,-76.02501664039599,-76.7739970394519
2570312,-75.61246061914143,-76.36144101819734
2537064,-74.9938024022402,-75.7427828012961
2639958,-75.81178914716013,-76.56076954621602
1419095,-74.76985103026367,-75.51883142931956
2858693,-75.00303639299894,-75.75201679205483
479950,-75.71500451808114,-76.46398491713704
397952,-75.14867781905279,-75.89765821810869
3911046,-75.13040328817016,-75.87938368722605
1396837,-220.10641598752704,-220.85539638658295
3945141,-75.52543679685009,-76.27441719590598
377501,-75.38345484487816,-76.13243524393405
3411237,-75.42295110721467,-76.17193150627058
2692101,-75.8587620685321,-76.607742467588
2746597,-75.42909373639212,-76.17807413544801
1198878,-74.84046636704876,-75.58944676610466
695013,-75.17074781570435,-75.91972821476024
480558,-75.76827280139221,-76.51725320044811
2879051,-75.49196364769664,-76.24094404675253
605643,-75.41960541817757,-76.16858581723346
3453488,-74.68941785540424,-75.43839825446014
2886235,-75.47473818289511,-76.223718581951
3678211,-79.62141877232023,-80.37039917137612
3744275,-75.82712467698109,-76.57610507603698
2046733,-75.22966430105843,-75.97864470011433
1950402,-75.9441683774251,-76.693148776481
3488945,-74.42810187917858,-75.17708227823448
2240188,-76.73966396555647,-77.48864436461237
1312093,-75.62766371023314,-76.37664410928903
2216555,-75.1517324841614,-75.9007128832173
3173758,-75.59596494489244,-76.34494534394834
3941770,-75.84232356208824,-76.59130396114413
1101130,-83.26804951114171,-84.0170299101976
705234,-75.90580372364302,-76.65478412269891
3209176,-75.92371546100868,-76.67269586006458
1886519,-83.69486857882106,-84.44384897787697
3043394,-72.58488807736484,-73.33386847642073
1088206,-227.28209599913848,-228.0310763981944
283651,-75.14405263810599,-75.89303303716189
1126475,-83.4703554690192,-84.21933586807509
1342471,-74.79639599243139,-75.54537639148728
2193419,-75.06593701241864,-75.81491741147455
2117193,-75.68074448409708,-76.42972488315297
2557364,-75.75690153842477,-76.50588193748067
695085,-74.70191729402765,-75.45089769308355
1894566,-82.57960415204323,-83.32858455109914
2145613,-75.37971805565039,-76.12869845470628
3366550,-74.58911759062825,-75.33809798968414
2205736,-75.49324492262673,-76.24222532168262
712433,-75.55923982930939,-76.3082202283653
1004319,-75.2803827221878,-76.02936312124369
600647,-75.87388591958916,-76.62286631864505
3199777,-75.16795828196929,-75.91693868102519
958570,-74.99206509346517,-75.74104549252107
3212867,-75.66393900558992,-76.41291940464582
2013451,-75.26334527524186,-76.01232567429776
363071,-75.35297475349199,-76.10195515254789
1241456,-76.12298762343016,-76.87196802248606
1421159,-75.84500641594379,-76.59398681499968
3699651,-75.46560154063579,-76.2145819396917
1215704,-75.20216402958994,-75.95114442864583
351983,-75.47844496985061,-76.22742536890651
3430170,-75.32737135546549,-76.07635175452138
1745789,-75.46768408650003,-76.21666448555592
521638,-75.18849790431868,-75.93747830337458
1674498,-74.9117902320485,-75.6607706311044
1122107,-226.79998562546643,-227.54896602452234
2692873,-220.3893867098015,-221.1383671088574
697194,-75.63600701301918,-76.38498741207508
1377690,-75.62605424036049,-76.37503463941638
3343921,-75.62801790972983,-76.37699830878573
1848077,-83.51231390184869,-84.26129430090458
1323433,-74.81448766391009,-75.563468062966
3776573,-75.20005568349373,-75.94903608254963
2395959,-75.46973739251031,-76.2187177915662
3449004,-75.38703119818068,-76.13601159723657
3084061,-73.04196662179606,-73.79094702085196
758051,-74.94505314157809,-75.69403354063398
1365808,-75.24918169033502,-75.99816208939092
2559738,-220.07589862965781,-220.82487902871372
1205253,-75.11025754724879,-75.85923794630469
1856851,-83.68195948399664,-84.43093988305253
3293417,-75.00272112991367,-75.75170152896956
1671005,-75.7195180705539,-76.4684984696098
442386,-74.46169007161238,-75.21067047066828
3282773,-75.13999416899667,-75.88897456805257
918868,-75.54968106053212,-76.29866145958802
1764037,-74.89859441956544,-75.64757481862135
2250833,-75.51923678079653,-76.26821717985243
1519554,-75.22041466848712,-75.96939506754302
2452396,-75.00427136379942,-75.75325176285531
475520,-74.96365184500942,-75.71263224406532
2010255,-75.19913538670696,-75.94811578576285
1687542,-75.34281084579527,-76.09179124485117
3171537,-75.69112068163801,-76.4401010806939
3681248,-80.5960291911691,-81.34500959022499
850123,-75.16560373670399,-75.91458413575988
334426,-75.42052066248401,-76.1695010615399
2532273,-75.40688248904382,-76.15586288809972
2117297,-75.38653178772189,-76.13551218677779
586734,-74.95749448379921,-75.7064748828551
218956,-75.22096869922363,-75.96994909827953
2239074,-219.93298369853562,-220.68196409759153
3454042,-74.72792396645025,-75.47690436550614
1689739,-78.34350797363548,-79.09248837269138
3152638,-75.34886842173883,-76.09784882079472
355384,-75.61755760157925,-76.36653800063516
1109372,-83.63719518025796,-84.38617557931386
2233032,-74.89184000225778,-75.64082040131368
1634961,-75.1827758559539,-75.9317562550098
820222,-75.35853186983837,-76.10751226889427
3784706,-76.74278590652193,-77.49176630557783
1540127,-75.60569818705815,-76.35467858611405
877952,-219.82314835491331,-220.57212875396922
1366823,-75.39615291974428,-76.14513331880018
2035109,-75.22839583955549,-75.9773762386114
1369226,-75.47762838769685,-76.22660878675275
1877212,-84.17213272415003,-84.92111312320593
1295647,-75.40504852387943,-76.15402892293532
2981680,-75.16762098706405,-75.91660138611995
3328186,-74.90955642545723,-75.65853682451313
269685,-75.18189903952779,-75.9308794385837
2186405,-75.40749302381109,-76.156473422867
2132683,-74.88276501996748,-75.63174541902337
3717213,-75.15077555238958,-75.89975595144547
2901964,-73.0531299055975,-73.8021103046534
3096529,-75.63414739061152,-76.38312778966741
490259,-75.58802289781767,-76.33700329687356
2236135,-75.1074204958245,-75.8564008948804
824339,-74.55237522243556,-75.30135562149145
1562979,-75.1209040500796,-75.8698844491355
3114260,-75.68575119384177,-76.43473159289766
2556281,-75.19213520332184,-75.94111560237774
1953728,-75.04220768102078,-75.79118808007668
2658633,-219.22322521010489,-219.9722056091608
1362034,-76.1854486552974,-76.9344290543533
1229392,-75.38522489836836,-76.13420529742426
1395580,-75.49493165433171,-76.2439120533876
1133747,-83.46643762843256,-84.21541802748845
3319773,-75.5168178974615,-76.26579829651739
531148,-75.02761105413641,-75.77659145319231
1022909,-75.28709309709946,-76.03607349615535
3026448,-76.43417017443029,-77.18315057348619
2502749,-76.66595857807793,-77.41493897713383
2145222,-75.49022940439869,-76.23920980345459
2879815,-75.15430712261444,-75.90328752167034
1340777,-75.03626980116671,-75.7852502002226
2589086,-75.17551766824648,-75.9244980673024
233772,-75.36166277075621,-76.1106431698121
489853,-75.0460295683899,-75.7950099674458
305567,-75.24785702004061,-75.99683741909651
514555,-75.18200505844457,-75.93098545750047
406418,-75.4183327217699,-76.16731312082581
633766,-75.20340907652268,-75.95238947557857
3371092,-76.7423620650251,-77.491342464081
2857293,-227.60132183487784,-228.35030223393375
3112510,-75.20469995006908,-75.95368034912498
3262765,-74.56805939337116,-75.31703979242705
1410461,-74.83272453373785,-75.58170493279374
1878827,-228.68124552916427,-229.43022592822018
1678619,-75.53025728113997,-76.27923768019586
2628620,-76.86464835851397,-77.61362875756987
3538937,-75.34491694200004,-76.09389734105594
1969248,-75.87390586273982,-76.62288626179571
2196852,-75.96947634117585,-76.71845674023176
3508683,-75.26354428208973,-76.01252468114562
3455592,-75.29827156514033,-76.04725196419622
1158507,-227.79038893673157,-228.53936933578748
197492,-75.1062393859519,-75.85521978500779
986278,-75.15723125941504,-75.90621165847095
3307853,-75.36234072702577,-76.11132112608166
2735104,-75.38982830979408,-76.13880870884998
438515,-74.82623706269382,-75.57521746174972
1767376,-76.24161091365416,-76.99059131271005
1383479,-73.83168069695351,-74.58066109600941
3209340,-75.67655214430448,-76.42553254336038
2814323,-75.34529299929517,-76.09427339835106
1103030,-233.71412964725397,-234.46311004630988
937708,-75.11000160342168,-75.85898200247757
3500221,-75.75280221749027,-76.50178261654617
2234105,-75.97686929372206,-76.72584969277797
3673815,-219.87822952247006,-220.627209921526
289756,-75.42454860191037,-76.17352900096627
1007857,-75.49430795298693,-76.24328835204282
3487034,-75.66413610526119,-76.41311650431709
369712,-76.17802479303595,-76.92700519209185
1309327,-75.17009044830137,-75.91907084735726
718443,-75.69520654893856,-76.44418694799445
2688158,-75.39707512083594,-76.14605551989183
1371510,-75.38425060335871,-76.1332310024146
702580,-75.94771808994494,-76.69669848900085
894038,-75.02109212923006,-75.77007252828595
1169593,-83.530673931153,-84.2796543302089
3337276,-75.31380611022976,-76.06278650928566
2985573,-75.35955133179115,-76.10853173084706
2816231,-75.68916436306435,-76.43814476212025
374559,-75.40726349682235,-76.15624389587825
2803376,-83.4485942676467,-84.1975746667026
2035462,-222.40590823438683,-223.15488863344274
2857432,-74.92602407156323,-75.67500447061913
3908684,-75.35134699858217,-76.10032739763808
3412481,-75.39404963931482,-76.14303003837071
2789172,-75.23957979439042,-75.98856019344632
3292204,-75.05486662556415,-75.80384702462004
658086,-75.63646029158159,-76.38544069063748
2919453,-220.30362391935984,-221.05260431841577
3247551,-75.53798019886403,-76.28696059791993
493241,-75.37139671896578,-76.12037711802168
1596775,-74.8238952415805,-75.5728756406364
554186,-75.19879254036819,-75.94777293942408
2626763,-75.82319682079273,-76.57217721984864
2703581,-74.93602747063149,-75.68500786968738
1437375,-75.2760910716594,-76.0250714707153
3203048,-75.58754526942197,-76.33652566847786
2857865,-75.373437689356,-76.12241808841189
471805,-75.55050900798739,-76.29948940704328
1414404,-75.01095351273777,-75.75993391179367
1218197,-75.19390596650204,-75.94288636555794
351603,-74.96107245831719,-75.7100528573731
556855,-75.4565275479357,-76.2055079469916
3148766,-75.53060489568836,-76.27958529474425
2111922,-75.40428270538416,-76.15326310444007
1572701,-74.78090558580917,-75.52988598486507
605614,-75.47606811467989,-76.2250485137358
2274215,-75.08929081561,-75.8382712146659
1457211,-75.4616895698474,-76.21066996890329
1236023,-75.63767720848514,-76.38665760754104
3257795,-74.75096655602017,-75.49994695507607
3295188,-75.10167895701711,-75.85065935607302
1061832,-83.66907077887753,-84.41805117793342
501691,-74.85618083297882,-75.60516123203472
452772,-75.07412288393766,-75.82310328299356
599078,-75.06044461296395,-75.80942501201984
688233,-75.2958968071949,-76.04487720625079
1883143,-83.46201118443346,-84.21099158348936
876271,-75.077209526725,-75.8261899257809
2810031,-75.48741927493576,-76.23639967399166
1635452,-74.77783727185324,-75.52681767090914
3507822,-75.04501350679877,-75.79399390585468
418422,-74.96361149782116,-75.71259189687706
1493333,-75.09666584893274,-75.84564624798864
1226306,-75.3634767612869,-76.1124571603428
1033478,-74.89979429753427,-75.64877469659017
1632536,-75.53121768199631,-76.2801980810522
197505,-75.19897396336498,-75.94795436242087
3459709,-74.8480221202466,-75.59700251930249
1045734,-83.70723629681721,-84.45621669587312
3407410,-75.14650681132991,-75.89548721038581
1994550,-74.51530341941175,-75.26428381846765
2053383,-220.07828471260973,-220.82726511166564
1165954,-83.16763343246109,-83.91661383151698
3067042,-72.20397024583032,-72.95295064488623
2767389,-75.49795135281674,-76.24693175187264
2119527,-75.56503829917762,-76.31401869823351
1110682,-84.34560705911231,-85.0945874581682
1160287,-83.55910941979954,-84.30808981885544
1274523,-75.13820133489386,-75.88718173394976
622816,-75.58691056795121,-76.3358909670071
710677,-75.65676418752035,-76.40574458657625
2403863,-219.29843189141613,-220.04741229047204
1986914,-74.83670331247515,-75.58568371153105
375741,-83.44448539593246,-84.19346579498836
3404346,-75.22553330319171,-75.9745137022476
1221263,-75.48670474412049,-76.23568514317638
1131666,-83.41458587279755,-84.16356627185344
1397732,-75.09504974937757,-75.84403014843346
3322881,-74.98254452690058,-75.73152492595648
3870839,-75.47459842452832,-76.22357882358422
2600329,-75.48522474487811,-76.234205143934
1913703,-229.81077215890113,-230.55975255795704
1662180,-75.1222250201976,-75.8712054192535
1840459,-83.07510888862956,-83.82408928768545
880525,-220.3085235747358,-221.0575039737917
851188,-75.20373854920781,-75.95271894826371
1645952,-75.25594556829472,-76.00492596735063
2575878,-76.09934224905821,-76.8483226481141
3537902,-74.64156036637887,-75.39054076543478
2906443,-74.76451068511238,-75.5134910841683
1619208,-75.25393535114044,-76.00291575019634
2409941,-75.57561446271988,-76.32459486177578
2619657,-75.50968060326556,-76.25866100232146
578763,-75.18816708414877,-75.93714748320468
1411124,-75.83260705501057,-76.58158745406647
1509277,-75.51121282427782,-76.26019322333372
202922,-75.34572678918134,-76.09470718823724
3663869,-75.60511517197908,-76.35409557103497
399959,-75.79830101941914,-76.54728141847504
1560734,-75.05222601131025,-75.80120641036615
1573945,-75.06826178271129,-75.81724218176718
3495849,-74.621583178338,-75.3705635773939
3833263,-75.61117927842233,-76.36015967747822
3520573,-75.23038428037842,-75.97936467943433
3542793,-75.40859127942606,-76.15757167848196
1995866,-75.17932126120033,-75.92830166025622
1294634,-74.55771803763174,-75.30669843668764
716068,-75.10127484317893,-75.85025524223482
1138452,-83.1018912608474,-83.85087165990329
2522864,-75.02114970085576,-75.77013009991165
2661091,-75.29580007325531,-76.0447804723112
1228504,-74.7406078346475,-75.4895882337034
322070,-75.40928603891199,-76.15826643796788
3393200,-74.67429157473119,-75.42327197378708
1060938,-83.89579181147788,-84.64477221053379
320004,-75.62779426899046,-76.37677466804635
3299050,-74.81479604317522,-75.56377644223112
1516258,-75.57871657261397,-76.32769697166987
3162065,-75.61110263177271,-76.3600830308286
1772321,-75.50926773361975,-76.25824813267565
2693657,-73.94708915927228,-74.69606955832818
600573,-75.30179803256988,-76.05077843162577
595551,-75.40193401049916,-76.15091440955506
2715241,-74.56975845179585,-75.31873885085176
638182,-75.42939857638781,-76.1783789754437
3937973,-75.60081302195086,-76.34979342100675
2601216,-75.22179052865015,-75.97077092770604
272079,-75.42726578468205,-76.17624618373794
2177960,-75.70479340570657,-76.45377380476248
629949,-74.10160059640073,-74.85058099545662
268649,-74.65740954314153,-75.40638994219742
3706551,-76.8198820519501,-77.568862451006
3165447,-75.53636098270393,-76.28534138175984
3433246,-75.44331863376043,-76.19229903281632
490285,-75.1725298156813,-75.9215102147372
2744511,-74.98333479422325,-75.73231519327915
2002222,-220.28387333880906,-221.03285373786497
1763948,-75.33657084455622,-76.08555124361212
1837547,-82.8230636028171,-83.572044001873
821244,-74.36702001052551,-75.1160004095814
3256699,-76.39365353106741,-77.14263393012331
1508246,-75.25368700611313,-76.00266740516902
2981603,-74.82095846173328,-75.56993886078918
3533916,-75.16271995758517,-75.91170035664108
3054096,-74.42324498772426,-75.17222538678016
314054,-75.57447268112175,-76.32345308017766
2153268,-75.34990261350798,-76.09888301256387
993932,-74.69373182544561,-75.4427122245015
2796698,-75.46941097528911,-76.218391374345
3892429,-75.02373653658061,-75.77271693563651
3445341,-74.71099542605539,-75.45997582511129
3157947,-75.29664082767712,-76.04562122673302
3865048,-75.16300433489009,-75.91198473394599
2554937,-75.57184357873372,-76.32082397778962
275411,-75.22000283557445,-75.96898323463034
1973112,-75.94230119244276,-76.69128159149865
3787406,-75.46251091271661,-76.2114913117725
3807935,-75.50056058766896,-76.24954098672485
3797708,-75.41675127613179,-76.16573167518769
2515720,-74.94388501073938,-75.69286540979529
2408582,-75.2840574517565,-76.03303785081239
2903344,-76.56620988648119,-77.3151902855371
250245,-74.95914448526904,-75.70812488432493
1170859,-228.43231968572192,-229.18130008477783
3955879,-75.38962807166878,-76.13860847072468
1022877,-74.83011512766656,-75.57909552672245
399482,-74.69393772234123,-75.44291812139713
1129783,-228.49109962673236,-229.24008002578827
2122253,-75.18962005393698,-75.93860045299287
3025009,-75.89800925365002,-76.64698965270591
1422705,-75.18535949823593,-75.93433989729182
2649464,-75.58477535774125,-76.33375575679715
1869064,-83.7161285269862,-84.46510892604209
3173382,-74.8681841868494,-75.6171645859053
951052,-75.44943719623605,-76.19841759529194
3422881,-75.69233437118645,-76.44131477024234
2280699,-83.40368642312318,-84.15266682217907
2747676,-75.10429348576875,-75.85327388482465
585337,-219.8385084698361,-220.58748886889202
837309,-75.31291243855088,-76.06189283760678
826323,-74.95230664644991,-75.70128704550581
875274,-220.07015328400294,-220.81913368305885
3716850,-75.6873246294262,-76.4363050284821
1097219,-83.85661123132253,-84.60559163037843
2180655,-75.64712108728952,-76.39610148634542
1355044,-76.28041226676424,-77.02939266582015
339612,-74.5636961167056,-75.3126765157615
1863088,-83.17844930118345,-83.92742970023934
3886636,-75.66504989433828,-76.41403029339418
2899284,-75.247403291965,-75.9963836910209
1771888,-76.23707722923254,-76.98605762828844
1395332,-75.68401962602915,-76.43300002508505
3482682,-75.18434370091443,-75.93332409997032
2165685,-75.58589214693102,-76.33487254598691
1511916,-75.11153123687329,-75.86051163592919
500015,-76.16368910819334,-76.91266950724923
3169149,-75.0295720258756,-75.7785524249315
2716990,-75.71229676685834,-76.46127716591424
1214794,-74.91224094006132,-75.66122133911722
1572796,-75.82997407645404,-76.57895447550993
1134825,-83.34619835587493,-84.09517875493083
1380692,-75.3320427049142,-76.0810231039701
3335880,-75.08440955163132,-75.83338995068722
398494,-75.07144861438334,-75.82042901343924
3195890,-75.0733314599422,-75.8223118589981
389847,-75.12866596772729,-75.8776463667832
677760,-75.49049051538644,-76.23947091444234
2641149,-75.80105668032434,-76.55003707938025
1112725,-84.14730020259354,-84.89628060164944
2875774,-74.99946768593732,-75.74844808499321
477172,-75.42048162102826,-76.16946202008415
742758,-75.43579198331392,-76.18477238236981
2968820,-75.64316655680202,-76.39214695585791
907708,-75.01362009926775,-75.76260049832365
548181,-75.72573054877913,-76.47471094783502
2613149,-73.78109926207486,-74.53007966113076
3850719,-75.6278285346148,-76.3768089336707
3932478,-75.68294055106111,-76.431920950117
641640,-75.48949187138555,-76.23847227044145
2636226,-73.1069383570983,-73.8559187561542
1915529,-81.49363853433138,-82.24261893338728
3335084,-74.78807410930017,-75.53705450835606
1137709,-83.27909392543987,-84.02807432449576
3389404,-75.67942118879648,-76.42840158785238
1030833,-75.59509615717194,-76.34407655622783
3211096,-75.13345117461753,-75.88243157367343
2621480,-76.21449772407085,-76.96347812312675
2995085,-74.5054593796804,-75.2544397787363
3437028,-75.43800751074421,-76.18698790980011
3782831,-74.60671595910016,-75.35569635815605
591795,-76.03158653040389,-76.78056692945978
372702,-75.23693385508388,-75.98591425413977
1899030,-82.98528147636704,-83.73426187542293
3676910,-72.54913585915578,-73.29811625821168
353896,-74.97155792997725,-75.72053832903315
1053436,-83.32842877671784,-84.07740917577374
1981159,-75.49389889798336,-76.24287929703925
3853317,-74.86090789618741,-75.60988829524331
224940,-75.41934208565084,-76.16832248470674
1434085,-75.62770275281842,-76.37668315187432
233969,-75.22376434943949,-75.9727447484954
3071630,-218.5232444079154,-219.2722248069713
2966721,-75.29158692778323,-76.04056732683912
3764220,-75.46167176750797,-76.21065216656386
1845492,-83.52226223480113,-84.27124263385703
2947037,-75.18512682044889,-75.93410721950478
3028102,-75.5712832152745,-76.3202636143304
3112486,-78.98753512830136,-79.73651552735726
950017,-74.95005905338664,-75.69903945244255
1167659,-81.32671952894985,-82.07569992800575
1092347,-229.23057070475028,-229.9795511038062
2933717,-220.1089102970287,-220.8578906960846
2192545,-75.53545546505558,-76.28443586411149
1670538,-75.2554888008674,-76.00446919992329
847552,-76.08404938174267,-76.83302978079857
2412266,-74.93121360377164,-75.68019400282753
3221559,-74.80661343884142,-75.55559383789732
2175001,-76.00675908055096,-76.75573947960686
1404375,-75.07243259867595,-75.82141299773184
1333540,-75.43188302275966,-76.18086342181556
520690,-75.36365321967611,-76.112633618732
2176875,-75.26495087191222,-76.01393127096813
1305104,-75.68626360979817,-76.43524400885407
2248223,-76.42622381572484,-77.17520421478073
3434688,-75.13093479819507,-75.87991519725097
3014448,-75.30760999966375,-76.05659039871965
2879166,-75.24895501099252,-75.99793541004841
2002431,-75.66581498254655,-76.41479538160245
690033,-83.41227728401947,-84.16125768307536
2140489,-75.23881396349131,-75.9877943625472
1333854,-75.6325534924779,-76.38153389153379
2115302,-74.95176094999323,-75.70074134904912
2417947,-73.79108897878262,-74.54006937783853
2993953,-74.78380105647811,-75.532781455534
3475452,-73.78112614279995,-74.53010654185584
668848,-75.72273124178149,-76.47171164083738
3472778,-75.45850247209752,-76.20748287115342
3288180,-74.79241542498188,-75.54139582403778
1065255,-83.33604835782009,-84.08502875687599
2397874,-74.80127662843388,-75.55025702748978
3038828,-75.58986399710565,-76.33884439616155
3764747,-75.32797022562906,-76.07695062468495
3740481,-75.76394778549962,-76.51292818455552
2626526,-75.23518877040456,-75.98416916946046
2004488,-75.27449684258215,-76.02347724163805
1520145,-75.33423012913352,-76.08321052818941
2268780,-74.69197257512022,-75.44095297417611
2506437,-220.72728021484704,-221.47626061390295
2062367,-74.79621089059596,-75.54519128965185
1542391,-74.72444181705161,-75.47342221610751
2146477,-74.95586995808088,-75.70485035713678
2625066,-75.08074998031718,-75.82973037937309
2728702,-75.48498924511958,-76.23396964417547
1340329,-74.70569281825122,-75.45467321730713
3387861,-74.8151936150494,-75.56417401410529
440361,-75.14824006802957,-75.89722046708546
3531820,-75.22192828305504,-75.97090868211095
219699,-75.247740191325,-75.99672059038089
3682700,-219.9704517166984,-220.7194321157543
3688107,-75.61791252674197,-76.36689292579787
1773362,-75.21054944854792,-75.95952984760383
1844249,-83.92467111631686,-84.67365151537275
3446541,-75.24105849258228,-75.99003889163818
553618,-75.07820594534712,-75.82718634440302
1056351,-81.44882248843207,-82.19780288748797
1354704,-75.75465663190764,-76.50363703096353
1457061,-76.86939852689062,-77.61837892594653
2282450,-75.89174727655923,-76.64072767561512
3309379,-75.07063946761875,-75.81961986667464
3015542,-75.56477837996836,-76.31375877902425
254247,-73.91434099390808,-74.66332139296398
748798,-75.54480344806785,-76.29378384712375
2885417,-74.54132392777011,-75.290304326826
3337168,-74.97782062337056,-75.72680102242646
1734017,-74.75617270882064,-75.50515310787654
1031310,-73.30384083877969,-74.05282123783559
3478421,-75.05676143749956,-75.80574183655546
3264329,-74.98429543300614,-75.73327583206203
2817597,-75.34165730021095,-76.09063769926685
3405402,-75.17928426704695,-75.92826466610285
1353125,-75.60758784333069,-76.35656824238659
3462589,-75.28501492415039,-76.03399532320628
3087193,-75.1765570888807,-75.9255374879366
1068171,-85.25583582423707,-86.00481622329296
3492455,-75.32778399229477,-76.07676439135066
3839054,-75.09857441599854,-75.84755481505445
1015208,-75.64824985062707,-76.39723024968296
2842598,-75.5136156185345,-76.2625960175904
1557667,-75.2986898144382,-76.0476702134941
3125755,-75.12536736272261,-75.87434776177851
915548,-76.59361212160567,-77.34259252066157
1404555,-75.55106105550357,-76.30004145455946
1066913,-84.0083014675109,-84.7572818665668
2927433,-75.39291814446672,-76.14189854352261
3397102,-74.74550895129026,-75.49448935034616
3041486,-74.75591240371388,-75.50489280276977
1062765,-83.62203596275342,-84.37101636180931
2711356,-74.78521802910326,-75.53419842815916
3352872,-75.60882244488931,-76.35780284394521
3533869,-75.59133135971656,-76.34031175877247
1063368,-227.67732215686215,-228.42630255591806
2024122,-75.42741404318416,-76.17639444224005
847852,-74.64687133491591,-75.39585173397181
1470974,-75.03323218262899,-75.7822125816849
1640477,-74.85694843442693,-75.60592883348282
3171931,-75.57243917924866,-76.32141957830456
932962,-75.124176630515,-75.8731570295709
219472,-75.25771231711343,-76.00669271616933
2554549,-75.36298751234428,-76.11196791140017
1504594,-75.48454937325799,-76.23352977231389
3345768,-75.39445415666275,-76.14343455571866
554720,-75.11886351373099,-75.86784391278688
2254044,-75.27030369959587,-76.01928409865177
2962885,-220.66160058024812,-221.41058097930403
2615302,-75.89764590080277,-76.64662629985868
3208255,-74.84090803338569,-75.5898884324416
2838968,-75.30487444146311,-76.05385484051902
1960213,-74.97542988638733,-75.72441028544323
1081496,-230.833147726991,-231.5821281260469
270130,-75.3552170719979,-76.1041974710538
3164376,-75.27079695751968,-76.01977735657557
398972,-76.23590739183581,-76.9848877908917
1327927,-75.24130564187485,-75.99028604093074
1736772,-75.229271010842,-75.9782514098979
878761,-75.56596817634532,-76.31494857540122
3468041,-74.86199735272794,-75.61097775178384
2807923,-74.99821271630033,-75.74719311535624
1469905,-75.4356917408933,-76.1846721399492
983619,-75.83591898370994,-76.58489938276584
2411998,-74.83155385617576,-75.58053425523165
2759709,-75.3932331688664,-76.1422135679223
3081113,-220.59411080018725,-221.34309119924316
2121516,-75.41334705684976,-76.16232745590565
628280,-75.439911676296,-76.1888920753519
1281378,-76.44486746351326,-77.19384786256916
2040228,-74.9486407060776,-75.69762110513349
2738618,-74.7481782274752,-75.49715862653109
537006,-75.16650957169651,-75.9154899707524
1345671,-75.36357391528502,-76.11255431434091
3127114,-74.7776448936274,-75.52662529268329
3752206,-75.45296704371533,-76.20194744277123
1055874,-83.47504275854139,-84.22402315759729
305185,-74.90678305961967,-75.65576345867557
3035527,-76.51108737377507,-77.26006777283096
2846816,-75.65875002346439,-76.4077304225203
1323187,-75.5455251520538,-76.2945055511097
2493075,-76.2773417018338,-77.0263221008897
737218,-75.51490179747749,-76.26388219653339
210087,-220.09619553523294,-220.84517593428885
2523652,-75.5547470795737,-76.3037274786296
949880,-75.84530840954073,-76.59428880859663
707090,-75.85929870450649,-76.60827910356238
2732618,-75.63715223174854,-76.38613263080444
1197651,-75.29698335035314,-76.04596374940904
3477161,-75.0240384716104,-75.77301887066629
428595,-75.56906920705556,-76.31804960611146
2766349,-75.43354452254785,-76.18252492160374
2254428,-75.8280378681856,-76.57701826724151
364436,-75.5415729808015,-76.2905533798574
3320830,-75.38729732371999,-76.1362777227759
2064892,-74.92560938053659,-75.67458977959248
3883390,-75.26283606712508,-76.01181646618099
1345815,-75.22303698367855,-75.97201738273445
687663,-75.27583999074811,-76.024820389804
3667169,-220.9000846309807,-221.6490650300366
1999224,-73.0622889010118,-73.8112693000677
830045,-74.93796411303425,-75.68694451209015
3318575,-76.02993186869067,-76.77891226774656
2140959,-75.2337265337169,-75.9827069327728
1474677,-76.15139340084335,-76.90037379989926
1768207,-75.30230328154266,-76.05128368059857
909922,-75.31545425141115,-76.06443465046705
479973,-75.07620425501743,-75.82518465407333
1390253,-75.43592801395003,-76.18490841300594
1107822,-230.70113758453482,-231.45011798359073
1526130,-75.55800102079647,-76.30698141985236
3203579,-75.22880344173134,-75.97778384078724
3122065,-74.9981433869775,-75.7471237860334
1679323,-75.13546753145577,-75.88444793051168
1962289,-75.79448183288117,-76.54346223193707
2967167,-75.50041329011998,-76.24939368917588
226029,-75.3775740920768,-76.1265544911327
1489451,-75.70124767733564,-76.45022807639155
1513472,-74.68387408158611,-75.432854480642
2423313,-75.96258632607604,-76.71156672513193
217028,-75.12398923179572,-75.87296963085161
408781,-75.51829683614255,-76.26727723519845
3183941,-75.12905615104829,-75.87803655010418
3224258,-74.85184943971971,-75.60082983877561
3784100,-75.354221360221,-76.1032017592769
3780404,-75.33499271732752,-76.08397311638342
636317,-74.80559044440248,-75.55457084345838
3723469,-74.82983754202172,-75.57881794107762
713350,-75.98947012550033,-76.73845052455623
1301058,-75.91534121905639,-76.6643216181123
3235853,-74.3337205922554,-75.0827009913113
2413887,-75.17377265049274,-75.92275304954863
911641,-219.9440381376773,-220.6930185367332
1103716,-83.98507886312358,-84.73405926217947
1511178,-75.35059156260469,-76.09957196166059
668102,-219.12861494990997,-219.87759534896588
1011185,-74.58573521808216,-75.33471561713806
930257,-74.61285895472781,-75.36183935378371
2593326,-73.5700168218423,-74.3189972208982
3911586,-75.68268748400573,-76.43166788306162
2666759,-220.13057118083404,-220.87955157988995
956956,-74.69543012033014,-75.44441051938604
