sample_id,y0,y1
1725687,6206.065973048539,6204.422895091525
804100,7517.671911823683,7516.02883386667
519052,5765.302178469467,5763.659100512454
1727562,6831.669113763542,6830.026035806527
1619473,3582.6672080271637,3581.024130070149
1779087,3437.1371980783147,3435.4941201213
2022375,3644.2951149717705,3642.652037014756
2925267,5255.3585282068225,5253.715450249809
1739102,2326.5191105325466,2324.876032575532
648224,1357.637791045241,1355.994713088227
1083142,2782.323512901544,2780.680434944529
1416250,4018.5535685528666,4016.9104905958525
430936,7707.507280941328,7705.864202984314
2770950,6731.924343169187,6730.281265212172
1945308,2569.189610490567,2567.546532533552
2774927,3947.47178615913,3945.8287082021156
1562917,1837.909695816135,1836.2666178591205
2902388,4247.923295831729,4246.280217874715
2053445,5395.9047998628175,5394.261721905804
2764334,4937.835694406564,4936.192616449549
1717602,3163.0712672894847,3161.42818933247
1305578,2656.223874448023,2654.580796491008
446435,7735.474094570831,7733.831016613818
1683084,19383.40571016886,19381.762632211845
2046923,19079.551187631943,19077.90810967493
874827,4354.110729930645,4352.467651973631
3064650,2531.8243340402732,2530.1812560832586
1096072,5663.235096880462,5661.592018923448
1363316,19381.660416972114,19380.0173390151
2504804,7610.76924236594,7609.126164408927
3374857,3638.6235221925263,3636.9804442355116
1906904,2458.742071300308,2457.0989933432934
846718,5126.212521669735,5124.56944371272
620432,1965.641098050853,1963.9980200938385
1453602,2183.3837523323978,2181.740674375383
3144513,3354.9722652619553,3353.3291873049407
1345360,2437.4841324525314,2435.841054495517
303282,8208.67327938378,8207.030201426767
2013729,20067.343810772407,20065.700732815392
2780467,3060.728697313146,3059.0856193561312
3467437,1717.267566302537,1715.6244883455226
726369,5879.966744457593,5878.32366650058
2430623,4426.117973727815,4424.474895770802
3125222,1459.3468167371734,1457.703738780159
3084337,2561.7056961233975,2560.062618166383
1853799,5408.541328924587,5406.8982509675725
397811,5421.897172245631,5420.254094288617
270956,7553.863624620357,7552.220546663344
408234,7131.1646537689285,7129.521575811914
907482,9698.681331499769,9697.038253542756
3429783,3283.9752634999727,3282.332185542958
1916935,4504.565418385975,4502.922340428961
3117413,5126.373664159371,5124.730586202357
1255096,6101.621101746532,6099.978023789518
3349535,19091.859420724642,19090.216342767628
1526311,6025.104704967171,6023.461627010156
3059356,19381.031950599092,19379.388872642077
895785,4088.8954543100194,4087.2523763530053
1353393,7253.506168924103,7251.863090967088
1197043,3957.754291940274,3956.11121398326
2147949,6103.684577045296,6102.041499088281
3318066,2266.6595071016413,2265.0164291446267
2690127,19079.177722291624,19077.53464433461
1023084,5129.744832848396,5128.1017548913815
253469,6493.403399236377,6491.760321279363
587640,4934.320854285018,4932.677776328003
811617,8289.908587802793,8288.26550984578
2052856,4626.292607823733,4624.64952986672
1556675,3655.1189975076622,3653.4759195506476
2685950,4164.086950144831,4162.443872187816
3335727,5734.44180245298,5732.798724495966
2769583,3599.703509192311,3598.060431235296
1621316,2507.951005967792,2506.3079280107772
2035305,5254.624510490036,5252.981432533022
3834063,18442.62851344901,18440.985435491995
1097361,3909.054938318572,3907.411860361558
564511,19693.023362297503,19691.38028434049
1152222,3413.9356900180287,3412.292612061014
3495098,2470.873254094947,2469.230176137932
3444708,5812.570147788109,5810.927069831096
3058601,8494.626528257737,8492.983450300724
2655466,5347.139905035548,5345.496827078533
2246288,4472.39311201538,4470.7500340583665
3895518,4187.563188001948,4185.9201100449345
1233185,6330.808470024317,6329.165392067303
2279153,2163.421683761867,2161.7786058048523
2490671,8921.759392037371,8920.116314080356
1576626,20891.24023841706,20889.597160460045
3471760,19321.956917739222,19320.313839782208
2887146,19079.13415119362,19077.491073236604
831166,3970.0791815306816,3968.4361035736674
2762953,5370.974630056125,5369.331552099111
1320020,4318.894043215075,4317.25096525806
1822408,3501.859014076487,3500.215936119472
3269129,3126.1106098479613,3124.4675318909467
1629742,4042.241775647241,4040.598697690227
2859054,6093.637838370151,6091.994760413137
340506,4353.0388883034375,4351.395810346423
2028115,8698.386029807845,8696.742951850832
2006110,19394.273198986455,19392.63012102944
711363,5901.409582708261,5899.766504751247
2204191,7281.6672284121505,7280.024150455136
1689407,4070.0838803323163,4068.440802375302
1325067,18545.81334177931,18544.170263822296
3847091,4834.303868426442,4832.660790469427
658221,2700.8143726261055,2699.171294669091
454715,4164.8108227563125,4163.167744799298
2929140,6852.4251687523465,6850.782090795333
1692107,4787.580900334756,4785.937822377741
2746664,3591.0662104442026,3589.423132487188
2014061,19502.437657696097,19500.794579739082
2256558,1469.6746241027631,1468.0315461457487
1361872,5817.174196673046,5815.531118716032
1025190,5436.058133427478,5434.415055470465
1278159,4188.875789456219,4187.232711499205
2477217,5138.849614864529,5137.206536907515
1203198,4385.606875679902,4383.963797722889
1436281,4581.045202157445,4579.40212420043
369935,3938.067165836254,3936.42408787924
3332349,3095.9401261854373,3094.2970482284227
2721292,5205.497485202873,5203.854407245858
868309,6062.562466948329,6060.919388991314
992072,3459.305216001567,3457.662138044552
1333457,1803.7154246325358,1802.0723466755214
1083415,3047.2825117375733,3045.6394337805586
3274428,3843.9025858926243,3842.25950793561
1941834,5613.3288289739585,5611.685751016945
2927404,18666.48744592652,18664.844367969505
2826146,4670.11026159054,4668.467183633526
2568960,19216.808429740868,19215.16535178385
3673175,5130.827540375037,5129.184462418022
3473673,4350.048849975502,4348.405772018487
1592619,18666.663413450224,18665.02033549321
3310022,4714.634491260694,4712.99141330368
992961,3924.067305511803,3922.424227554789
2633309,3493.025373782313,3491.382295825299
1607406,19216.160784345055,19214.517706388036
3162466,3134.2008533982294,3132.5577754412147
3786097,7779.874734436311,7778.231656479297
1841046,6979.264866949176,6977.621788992163
1442741,5644.989981520727,5643.346903563714
2646030,3367.925378298967,3366.2823003419526
2838512,4910.16750462782,4908.524426670805
2121761,1987.0825108295055,1985.439432872491
492616,12017.326118086445,12015.68304012943
1935246,4499.09958598677,4497.456508029755
2257620,6226.071987925339,6224.428909968326
588784,7461.655720617377,7460.012642660363
1380986,4232.857149704374,4231.21407174736
1933760,5077.173645668829,5075.530567711815
1824904,1479.4831149261324,1477.840036969118
817330,4749.438869977386,4747.795792020372
2665541,3982.3950639362997,3980.7519859792856
2163292,5363.255058453165,5361.61198049615
1337021,18545.13530414938,18543.492226192364
215798,5622.907644187089,5621.264566230075
2857088,2925.8228632692967,2924.179785312282
200588,21524.527223064346,21522.88414510733
3692405,4754.368173805405,4752.72509584839
3669312,4727.910741695845,4726.26766373883
1252335,6179.042852549351,6177.399774592337
2042545,18753.455341775396,18751.81226381838
1825674,6965.344024894815,6963.700946937801
3175448,3004.6053540754015,3002.962276118387
3897985,3107.719657655564,3106.0765796985493
559360,6176.319405508731,6174.676327551717
1322733,8482.269418359823,8480.626340402809
1032324,2236.3524395822187,2234.709361625204
2432091,3360.8067988286807,3359.163720871666
2783247,3409.412912474558,3407.7698345175436
2915921,4991.343614266055,4989.70053630904
1037306,3182.2995421144856,3180.656464157471
558549,20255.891617994792,20254.248540037777
2765832,6075.010077783069,6073.366999826056
2976014,4272.305566578826,4270.662488621812
1331892,4963.235871310419,4961.592793353405
1487951,4727.821079835867,4726.178001878852
752191,5091.341360953384,5089.69828299637
365464,3699.1830744969598,3697.539996539945
3838984,4595.392567798118,4593.749489841104
3185246,9852.874392394462,9851.23131443745
1007668,19492.279422250507,19490.63634429349
439945,20641.777533785713,20640.1344558287
2270188,3564.1561708126515,3562.513092855637
3225326,2396.214569690173,2394.5714917331584
246574,6659.001753538826,6657.358675581811
2463147,2284.2969060651135,2282.653828108099
307910,6942.874679283812,6941.231601326797
1199072,4782.41615515084,4780.773077193826
1898081,4522.707262440882,4521.064184483867
3711670,2712.5970772653927,2710.953999308378
2521381,18950.868115480574,18949.22503752356
1141929,3939.76319173382,3938.1201137768057
2768180,2193.517278197324,2191.874200240309
3919805,6145.638067483197,6143.9949895261825
1378871,18750.03937302032,18748.396295063307
558520,1729.0247524280878,1727.3816744710734
3443280,3683.8457588721603,3682.2026809151457
349324,2890.632005404003,2888.9889274469883
3019797,19068.970071882803,19067.326993925788
1095274,18763.62327107104,18761.980193114025
730579,7738.266665533934,7736.623587576922
2035031,1769.588595185325,1767.9455172283106
2541576,3804.927219746071,3803.284141789057
994505,4619.984778369573,4618.341700412559
598461,2099.9150553350432,2098.271977378029
702600,6666.5160746559795,6664.872996698966
643687,19330.444208053592,19328.801130096577
1792163,4955.3748527601965,4953.731774803182
521598,3840.4384823425403,3838.795404385526
2703279,5585.3494900641845,5583.706412107171
2625822,4487.372184447904,4485.7291064908895
1589736,4448.764068850228,4447.120990893214
2881730,2364.546712564213,2362.9036346071985
1561799,4926.991537086043,4925.348459129029
683315,4410.48470576884,4408.841627811826
1378953,8670.356746791726,8668.713668834713
2046522,5699.048640660982,5697.405562703967
971612,5144.445569153096,5142.802491196082
3137242,3961.554264157881,3959.9111862008667
748123,6467.709460270769,6466.066382313755
1366872,6083.808589548354,6082.16551159134
2928708,3464.389485346455,3462.7464073894403
253346,4381.201113326067,4379.558035369052
3121603,5025.697649857155,5024.05457190014
3406466,4426.046237798668,4424.403159841654
1371257,1779.931768096899,1778.2886901398847
3394678,8644.692512747086,8643.049434790073
476732,18545.781922045062,18544.138844088047
2896983,2461.3421746250606,2459.699096668046
1517239,7060.919803902566,7059.276725945551
1859934,4718.148286058805,4716.50520810179
312508,5510.6706540261375,5509.027576069123
3692000,3151.377361471325,3149.7342835143104
2210195,2628.2213212409233,2626.5782432839087
1459486,4394.261484320944,4392.618406363929
1982546,4322.620026378232,4320.976948421218
586365,21329.042575838845,21327.399497881826
2864292,3958.2986728774467,3956.6555949204326
2163201,7147.387943847298,7145.744865890283
2913354,2469.42203799821,2467.778960041195
2502794,3478.4457961805847,3476.80271822357
2820700,4710.70110395667,4709.058025999656
1425329,4702.232826899818,4700.589748942803
1511135,18897.644477695674,18896.00139973866
614837,5678.149463645504,5676.506385688489
3665747,3982.4009439554197,3980.7578659984056
627641,7277.389309306851,7275.746231349836
1374547,2051.643529805555,2050.0004518485403
2041136,5095.2616990359,5093.618621078886
1886726,19237.831866864348,19236.188788907333
1139281,2700.0236583730575,2698.380580416043
1640868,5379.079659170186,5377.436581213171
3133103,19051.81173604001,19050.168658082996
3875087,19659.943056385746,19658.29997842873
933678,18804.291390532613,18802.6483125756
3254109,19893.603286465986,19891.960208508972
1032238,7679.854148706037,7678.211070749024
1539032,4830.535654594293,4828.8925766372795
243711,1859.9667966892669,1858.3237187322525
3800460,8311.798066189423,8310.15498823241
1737652,1705.1933504293652,1703.5502724723508
1325200,3347.8379463536,3346.194868396585
2466068,5459.338760428216,5457.6956824712015
1112232,7276.143067077999,7274.4999891209845
3465021,20862.610245508564,20860.967167551546
651673,3742.552170133629,3740.909092176614
3863596,8596.084253549132,8594.44117559212
3525993,4464.937590490754,4463.29451253374
1477316,19710.326436419495,19708.68335846248
931173,20457.678573973037,20456.035496016022
2220340,2922.458152705239,2920.8150747482246
1624314,3978.4590862051377,3976.8160082481236
1296024,4176.914860449937,4175.271782492923
3832512,2541.4671322193217,2539.824054262307
1239086,4111.135819810092,4109.492741853078
2669057,4073.3492217864004,4071.7061438293863
953788,19208.777704550055,19207.13462659304
679699,3645.5965378260744,3643.9534598690598
926780,4625.985428052585,4624.3423500955705
1218870,3776.7812101237073,3775.138132166693
3298114,18676.531852215554,18674.88877425854
2458956,19736.83718223051,19735.194104273494
2917394,5694.81465575823,5693.171577801217
3100963,18667.933626363007,18666.290548405992
3685453,7762.469266977445,7760.826189020431
715784,9114.876600700398,9113.233522743385
508821,8616.152843939875,8614.509765982863
1163959,19710.81694717775,19709.173869220736
3943948,3844.9175732740828,3843.2744953170686
1457699,4871.446124171881,4869.803046214867
834131,2903.1237136377285,2901.4806356807144
2157434,23058.153594123258,23056.510516166243
1754284,3785.401334274639,3783.7582563176247
1407169,2551.8030942895807,2550.160016332566
2258232,1781.9965237593894,1780.353445802375
429958,5011.641808374999,5009.998730417985
1168812,18937.91588676814,18936.272808811125
1811284,3210.8396398900704,3209.196561933056
2975834,3672.7867771424626,3671.1436991854484
2396049,3068.3998066976246,3066.75672874061
3033303,4150.301284743774,4148.65820678676
1046248,5588.898549991716,5587.255472034702
1384200,7835.668605204979,7834.025527247965
1417637,2877.072227836423,2875.4291498794087
3271818,2605.497507357414,2603.8544294003996
3034146,3207.4012383860077,3205.758160428993
1444327,3913.0108869514547,3911.3678089944406
424430,7542.9421317456845,7541.29905378867
3384552,3308.2842349140333,3306.6411569570187
3742197,20067.011987500042,20065.368909543027
3111198,4344.4568498210565,4342.813771864043
1101941,5353.970412003848,5352.327334046833
3101806,3687.0251585557467,3685.382080598732
1501639,1991.4305130931036,1989.787435136089
458815,5486.538169241983,5484.895091284969
2273242,18817.066305637953,18815.423227680938
2653252,18951.21655233401,18949.573474376997
1054519,2881.830973846026,2880.1878958890115
3225798,20016.927955433286,20015.28487747627
2873150,1866.595942288987,1864.952864331973
3273261,1791.0200980978757,1789.3770201408613
2157833,8114.832572040718,8113.1894940837055
2621933,19395.06764660428,19393.424568647264
1746523,18223.978373732978,18222.33529577596
504957,4527.335490679622,4525.692412722608
1218122,6182.99792957336,6181.3548516163455
1474968,5683.611514628914,5681.9684366719
1523401,3444.009799368145,3442.3667214111306
2792502,3771.587794244657,3769.944716287642
1109235,5991.16115488926,5989.518076932245
1396519,18817.051098312713,18815.4080203557
3427338,3806.936853993251,3805.293776036237
1114852,19555.48354180138,19553.84046384436
3300797,3077.125538497413,3075.4824605403987
3906781,19700.178129486423,19698.53505152941
653415,2066.070926262947,2064.4278483059325
1843759,18428.9272436494,18427.284165692385
3896913,8134.869005316137,8133.2259273591235
757303,18897.56899770717,18895.925919750156
2652342,4627.267217854218,4625.624139897203
2236559,18927.82834614724,18926.185268190224
924478,7512.403669263169,7510.760591306155
2166698,3798.479378647236,3796.836300690222
1644947,2429.0711072878294,2427.4280293308148
278324,3699.8766017019443,3698.2335237449297
624823,1704.823633010502,1703.1805550534875
3407032,5373.622530319694,5371.97945236268
1912435,3676.1716191705214,3674.5285412135067
2816373,4637.182272072248,4635.539194115234
1055058,20197.704667312373,20196.06158935536
464842,3801.616550820898,3799.9734728638837
1313798,2185.318535032814,2183.6754570757994
3848325,9892.70321011034,9891.060132153327
2690710,6099.678404659847,6098.035326702832
509729,2454.6005659245684,2452.957487967554
1293886,4301.866881185449,4300.223803228434
882914,8625.877428505208,8624.234350548195
1708366,6517.755244811481,6516.1121668544665
2785947,5532.712889309239,5531.069811352225
264249,5365.08000428424,5363.4369263272265
2943953,1358.3187912438912,1356.675713286877
3190415,5375.371229003066,5373.7281510460525
614470,22502.44635356752,22500.803275610506
2459087,4168.049789391246,4166.406711434232
2787005,2186.5183955788802,2184.8753176218656
1431539,4547.56912606692,4545.926048109906
735468,5537.6100044256245,5535.966926468611
3305797,5712.456194153847,5710.813116196832
2280255,6186.171637570042,6184.528559613028
1544472,3485.6824071497726,3484.039329192758
3185460,2652.404645441938,2650.7615674849235
2754085,2729.733119449991,2728.090041492977
2517264,5344.049570007415,5342.406492050401
3288765,3193.117107997583,3191.4740300405683
2879421,4146.608536922983,4144.965458965969
537505,1704.4224672342816,1702.7793892772672
2172049,5793.620013457259,5791.9769355002445
1166597,2985.6803820678224,2984.037304110808
3838080,2505.8861806725804,2504.243102715566
2511248,6185.7418033953345,6184.098725438321
548057,2341.8870001824794,2340.2439222254648
298296,6210.764176241489,6209.121098284475
1321651,4992.188744293486,4990.545666336471
1524501,3076.2215020331823,3074.5784240761677
2540606,4287.11459836924,4285.471520412227
3754333,19371.162674843687,19369.519596886672
1323641,5658.5362099647,5656.893132007685
3724839,3561.130412078178,3559.4873341211633
841015,3565.0537398859697,3563.410661928955
1665908,6057.309256838445,6055.666178881431
2260082,4678.289936110825,4676.64685815381
2507566,8255.136674188869,8253.493596231856
3193337,1837.6440625115974,1836.000984554583
1401107,2016.3824072247314,2014.7393292677168
1302007,5451.447291695602,5449.804213738587
1783420,3272.1071388294977,3270.464060872483
2443511,4720.09834280219,4718.455264845176
1057216,4959.145919986503,4957.502842029488
386602,1779.6301703908186,1777.9870924338043
548119,2565.5673721654885,2563.924294208474
3492479,2961.61055337222,2959.967475415205
3293879,5733.172499096445,5731.52942113943
533892,4865.829632010642,4864.186554053628
1213661,3116.1880973374778,3114.545019380463
1946798,7307.097779711445,7305.45470175443
1263537,3196.4973214477473,3194.8542434907326
2809321,2548.9689223799505,2547.325844422936
3380575,4164.034681616198,4162.391603659184
1689961,4703.460832410176,4701.817754453163
2789855,4741.639802059502,4739.996724102487
3157994,6421.657443861684,6420.01436590467
1907511,6043.766847126395,6042.1237691693805
3208828,4728.514940374813,4726.871862417798
2560806,2104.0099919886443,2102.3669140316297
3321820,4413.040388846431,4411.397310889417
221399,4644.942692629051,4643.299614672036
275930,3999.166481866523,3997.523403909509
1673280,7846.193748504479,7844.550670547465
873433,4497.892343405823,4496.24926544881
3917205,20480.35443021784,20478.711352260827
278580,7232.335541686535,7230.692463729521
1951897,4973.039408211786,4971.396330254773
1749409,19226.337852519264,19224.694774562246
3068346,1828.210003778557,1826.5669258215428
3344612,3391.91692381644,3390.2738458594254
2059000,6581.501353495425,6579.858275538411
426231,9789.565128992715,9787.9220510357
1715528,5668.243288819373,5666.60021086236
363482,3060.9591949544165,3059.316116997402
1972704,3110.598825025355,3108.9557470683403
3006931,21522.180585363163,21520.53750740615
2418477,9263.385780398568,9261.742702441556
3101076,5984.194154366439,5982.551076409425
1969793,6798.296587564276,6796.653509607262
2922549,2684.9941455089,2683.3510675518855
3479543,5330.480234221921,5328.837156264907
419443,3960.1961130839272,3958.553035126913
3231106,20016.310726920794,20014.66764896378
3795448,4858.1437221648,4856.5006442077865
3344384,2113.7191041943747,2112.07602623736
2625274,2736.1448224373803,2734.5017444803657
3191273,5554.5943553691895,5552.951277412176
2578348,4701.257931205467,4699.614853248453
1483307,20244.969817227524,20243.32673927051
3533995,5400.336235624093,5398.693157667079
3715930,3866.1694738326373,3864.526395875623
1962458,3058.623017493346,3056.9799395363316
1334676,5435.8249104842325,5434.181832527219
1398820,3300.9614108061483,3299.318332849134
1781691,1956.0699113664273,1954.4268334094127
1962561,3381.3598939609856,3379.716816003971
962504,3201.466065447082,3199.8229874900676
1426547,3428.2769094261403,3426.6338314691257
2981433,5957.005159805708,5955.362081848694
2800957,4808.908700399666,4807.265622442651
2504071,4529.481142196125,4527.83806423911
1275430,2542.0994273049423,2540.4563493479277
1297079,2700.791415026166,2699.1483370691512
3739120,4838.959688372975,4837.31661041596
598170,2455.1752543156363,2453.5321763586217
3505501,5165.474432260691,5163.831354303677
3014519,6525.191469026553,6523.548391069539
1380229,4609.021540026674,4607.37846206966
627618,9729.33613548272,9727.693057525707
1809044,3427.504101620025,3425.86102366301
800768,4108.173885537489,4106.530807580475
2727097,22485.78981618589,22484.146738228876
3160645,2511.565022137787,2509.9219441807722
1553269,4668.193596941686,4666.550518984673
1760577,7857.608629386412,7855.965551429399
3744926,5219.367957628594,5217.72487967158
3540845,6330.896034146318,6329.252956189304
357557,4452.640614668989,4450.997536711974
1834712,3936.858333898031,3935.215255941017
1314850,7282.878156370603,7281.235078413589
1531592,9394.792656636717,9393.149578679702
706227,18804.28880414311,18802.645726186096
2650137,18676.19862351535,18674.555545558334
588743,6576.209273563283,6574.5661956062695
3688055,9042.228719845949,9040.585641888934
842825,19858.74069903868,19857.097621081666
925057,5697.937924600141,5696.294846643126
420737,4253.777914955576,4252.134836998562
2793219,19256.029679055868,19254.386601098853
3148991,5652.239507031622,5650.596429074608
515567,5832.939403639659,5831.296325682644
3800092,3938.849884356343,3937.206806399329
700561,4071.0322543071284,4069.389176350114
3758986,2248.7741821872155,2247.131104230201
3700180,5562.44316484384,5560.800086886827
1112369,4528.788395344992,4527.145317387978
863124,2536.9334608650556,2535.290382908041
3207294,3776.4181033672185,3774.7750254102043
2433033,3509.431791074218,3507.7887131172033
1437322,5734.3627658401665,5732.719687883152
462492,20573.216420443692,20571.573342486678
3326691,4008.5367727517637,4006.8936947947495
1525841,3064.7738427356053,3063.1307647785907
2478247,2598.7683048399963,2597.125226882982
271657,6226.002254088302,6224.359176131288
3019576,20282.498164688746,20280.85508673173
1746413,8684.039711889496,8682.396633932482
3136969,19079.036959494442,19077.393881537428
2796698,5893.623848538081,5891.980770581066
1588314,5289.499919402682,5287.856841445669
2686276,3117.725918835178,3116.082840878164
1059597,6489.4545962053335,6487.81151824832
1757505,4307.484225924518,4305.841147967504
1260329,2944.440654924555,2942.7975769675404
430667,6831.02983834894,6829.386760391925
1668057,3475.170734451626,3473.527656494611
249382,3374.3067226074522,3372.6636446504376
2594908,5160.829988718222,5159.186910761207
3399543,6123.424267178951,6121.781189221936
2648251,4794.201822128124,4792.5587441711095
1217970,4087.092257104102,4085.4491791470878
3207884,6066.159176617291,6064.516098660277
1538981,12106.039751154325,12104.39667319731
628451,3905.7595489231285,3904.1164709661143
1409533,4656.022041591279,4654.378963634264
1750327,4855.747763096873,4854.10468513986
1123013,19393.63496849693,19391.991890539914
374229,21962.693888121383,21961.050810164368
3367501,4656.245278370865,4654.60220041385
1463801,4316.719704483084,4315.076626526069
584425,4543.836923510839,4542.193845553826
1816409,5328.639869155039,5326.996791198025
2728601,1707.033378959502,1705.3903010024876
2853001,5711.405027849457,5709.761949892442
3521663,5022.610903401931,5020.967825444916
504739,3447.667066709255,3446.0239887522403
1203113,4269.526373748323,4267.883295791309
1448657,3253.8112389461717,3252.168160989157
1260222,2509.582135160023,2507.9390572030084
2182229,5319.181429660739,5317.538351703724
2439664,1751.7031383923318,1750.0600604353174
1940642,7500.443887894842,7498.800809937828
1985370,21490.20434501462,21488.561267057605
487718,7835.329927873397,7833.686849916383
1260926,2353.714499941188,2352.0714219841734
1981620,3571.358517273299,3569.7154393162846
1013077,5295.015717053493,5293.372639096479
2538121,8364.62745551327,8362.984377556257
1353009,2434.185760951671,2432.5426829946564
3793561,6231.547526173138,6229.904448216124
2002375,20075.057216438254,20073.41413848124
2871600,3127.977065520537,3126.3339875635224
1340536,4418.335920598661,4416.692842641647
1358664,6053.109674385736,6051.4665964287215
3058392,8576.10525440882,8574.462176451807
1060282,18432.26803191936,18430.624953962346
2006458,6157.636288026472,6155.993210069458
3270954,18666.05564293498,18664.412564977967
3759077,3828.7569148279704,3827.113836870956
2897638,6409.1680043392935,6407.52492638228
1344521,3391.3164685275487,3389.673390570534
372185,3080.3517653658923,3078.7086874088777
837720,3857.984638912369,3856.341560955355
572791,3139.383882584249,3137.7408046272344
1163281,4808.183772190488,4806.540694233473
1210074,2171.9570195304505,2170.313941573436
1529373,5046.79479086582,5045.151712908806
3299725,6125.212313082121,6123.569235125107
3851422,3375.1564290506612,3373.5133510936466
1104133,3315.035427212932,3313.3923492559175
1011732,5475.737109294224,5474.094031337209
1492142,4931.261579715342,4929.618501758328
3161727,4778.044905414848,4776.401827457833
1302944,2867.641593373691,2865.9985154166766
3893505,20956.407022738687,20954.763944781673
309927,2349.4542290352183,2347.8111510782037
3788844,6554.802705218858,6553.159627261844
2811475,3220.539059498006,3218.895981540991
425256,6347.188345700254,6345.5452677432395
2059450,5276.117721432438,5274.474643475424
2423155,18676.358343496784,18674.71526553977
1637324,2288.343560567508,2286.7004826104935
1399494,18391.285609715647,18389.642531758633
310787,4647.172723385132,4645.529645428118
2529652,19255.09201738739,19253.448939430375
1779584,5629.932425502646,5628.289347545632
3704627,19068.60411982747,19066.961041870454
1042459,6421.636350503741,6419.993272546726
1197510,4232.502083701728,4230.8590057447145
2219407,2655.795646625357,2654.1525686683426
2180325,5909.61645015066,5907.973372193645
1435576,3132.2782078359587,3130.635129878944
3366550,3720.6350940254165,3718.992016068402
2803364,2787.064804090862,2785.421726133847
1965963,3711.084625877552,3709.4415479205372
2568685,3132.3529332734297,3130.709855316415
2670237,2511.699232436282,2510.056154479267
360942,4661.35285847551,4659.709780518497
3223321,5446.156371884057,5444.5132939270425
2693363,1838.9619528518815,1837.3188748948671
537665,20851.039774314744,20849.39669635773
1959113,3255.5685218438343,3253.9254438868197
2834912,2954.545918399809,2952.9028404427945
1219919,7445.396696927072,7443.753618970058
3159454,4615.972350929664,4614.329272972649
2802738,1887.9999878203694,1886.356909863355
2830452,19381.492831698997,19379.849753741983
696263,4225.253463119545,4223.61038516253
3858925,3550.372814922164,3548.729736965149
1682747,4439.5982190063205,4437.955141049306
3774996,6196.876875587509,6195.233797630495
2129711,19068.82176863847,19067.178690681456
211216,6197.691280509366,6196.048202552352
3347884,21272.29437339186,21270.651295434844
2113793,4477.579080301183,4475.9360023441695
1504091,5813.76632555724,5812.123247600225
2134358,3337.803155090267,3336.1600771332523
2046744,2226.975117350145,2225.3320393931303
2221536,5925.9162243200335,5924.27314636302
3062659,2478.694262484229,2477.0511845272144
2837196,3803.4134609073976,3801.7703829503835
217861,4773.0070435488315,4771.363965591817
1285274,5157.5972991080835,5155.954221151069
1760413,3392.9037695435027,3391.260691586488
220679,1750.3381550062995,1748.6950770492851
944243,3365.3967992238468,3363.753721266832
3227560,8689.097834662009,8687.454756704996
3518482,10901.93172775518,10900.288649798165
3739030,3231.3566655269983,3229.7135875699837
1312841,8330.689917995393,8329.04684003838
3503965,4247.326191501032,4245.683113544017
2443174,5844.030799390701,5842.387721433687
1496129,4442.477898708993,4440.834820751978
3833687,3659.731335288106,3658.0882573310914
2945176,4145.569939128476,4143.9268611714615
2435472,5691.263112967224,5689.62003501021
2861270,3534.6073878499824,3532.964309892968
3909721,19092.11450364168,19090.471425684664
3492032,4024.382452655065,4022.739374698051
1605414,6061.208113190623,6059.56503523361
743747,8247.033916732931,8245.390838775918
3116431,7451.864437946504,7450.22135998949
2589109,5960.998735709706,5959.355657752692
3028526,1453.7615948252212,1452.1185168682068
1167998,6637.731440744767,6636.088362787752
2153475,18753.485810936476,18751.84273297946
817305,10563.762128334953,10562.11905037794
2518566,6482.934942484988,6481.291864527973
1756441,3248.2455308209883,3246.602452863974
1000026,4834.56740557988,4832.924327622865
3171725,5275.958539921856,5274.315461964841
1082696,2127.8020916725472,2126.1590137155326
649554,2630.1888430878807,2628.545765130866
3338172,5144.843938452041,5143.200860495027
1477585,3389.735659331894,3388.0925813748795
1397035,18951.530715903413,18949.887637946398
3793179,6402.6067329488,6400.963654991786
2061434,8050.822541867842,8049.179463910829
588830,2784.7694467226993,2783.126368765685
1550642,5819.717926888314,5818.074848931299
2766357,4128.16361318434,4126.520535227325
709466,4419.02617451488,4417.383096557866
3791062,4935.642601097842,4933.999523140828
2500630,3929.314177953543,3927.671099996529
1128204,1677.9796504742267,1676.3365725172125
3844045,3206.9163738241723,3205.2732958671577
1115043,19732.393284053825,19730.75020609681
1696637,5293.689564430215,5292.0464864732
801443,4265.388490389727,4263.745412432713
3215381,6281.671215423982,6280.0281374669685
3681326,7026.996802986204,7025.35372502919
2123673,6164.046878050726,6162.403800093713
499450,6908.778591291085,6907.135513334071
2554642,6213.307306237664,6211.664228280651
3054200,21558.071303436158,21556.428225479143
2923381,5067.088413174555,5065.445335217541
2622917,4105.229450757893,4103.586372800878
3068889,18515.531115118065,18513.88803716105
1815973,18791.831400091352,18790.188322134338
997680,4864.692473676562,4863.049395719548
740735,5067.941119076995,5066.298041119981
2182571,5155.215257582494,5153.572179625479
3701229,4280.146336265695,4278.503258308681
2801228,1837.8095491443576,1836.1664711873432
3875973,5057.0553833145195,5055.412305357505
3513191,3503.9534982612463,3502.3104203042317
3753358,6625.025489407845,6623.382411450831
2714253,4089.2475432525293,4087.604465295515
2628877,1978.940191690062,1977.2971137330474
1357139,4040.5493685607767,4038.9062906037625
2249628,4976.515042078152,4974.871964121138
1864270,2861.2408580370675,2859.597780080053
888767,4129.347112271651,4127.704034314636
2678387,3877.7154271548934,3876.0723491978792
3664206,2108.492728017041,2106.8496500600268
3714507,6461.1596084226,6459.516530465587
2447161,3468.8891705875126,3467.246092630498
1995858,5673.572554887915,5671.929476930901
2711251,19028.80410682026,19027.161028863244
1607556,2290.611149565875,2288.9680716088606
1741216,5086.9567599423235,5085.31368198531
3856382,3869.5535414195033,3867.910463462489
225645,4622.539518234849,4620.896440277836
248500,2511.956070742441,2510.3129927854266
461274,4580.953666372814,4579.310588415799
2728424,2185.939768034644,2184.2966900776296
663758,2625.206150038165,2623.5630720811505
3528392,4501.97822478899,4500.335146831976
500414,4679.498312059971,4677.855234102957
2974838,20424.30296282948,20422.659884872464
599078,3045.4103307705805,3043.767252813566
3117544,4070.975070586455,4069.3319926294407
3708992,4835.825303254381,4834.182225297367
3206853,3054.8140897204535,3053.171011763439
731097,3937.8626909950626,3936.2196130380485
2110348,3740.678674504009,3739.0355965469944
1905102,4433.987583346037,4432.344505389024
340183,4677.535532148136,4675.892454191122
1781913,3152.6955168612176,3151.052438904203
2521683,4527.512863075276,4525.869785118262
3147374,3415.1864941081635,3413.543416151149
1740185,1232.9736051727932,1231.3305272157788
3242599,2207.8922127397454,2206.249134782731
647786,1453.0374203595552,1451.3943424025408
3439942,3923.9094620105902,3922.266384053576
3077415,18951.525916783674,18949.88283882666
1563156,6186.265208775486,6184.622130818472
2914206,3409.9093819819454,3408.266304024931
672910,4524.926797289406,4523.283719332391
3504603,3445.131495412276,3443.4884174552612
2702821,7417.8993412772925,7416.256263320278
2249212,3237.322590332246,3235.6795123752313
996676,2871.832753649748,2870.189675692734
2464791,5636.1706052762,5634.527527319186
3135349,18658.55880783012,18656.915729873104
2585573,19092.72708430742,19091.084006350404
936495,6352.664519461424,6351.02144150441
2779545,5010.766751404307,5009.123673447292
2695939,4922.005466638329,4920.362388681316
713663,3374.290608012761,3372.6475300557463
3400198,18676.831304337073,18675.188226380058
2283897,4231.015576747645,4229.372498790632
1009717,7895.119950542788,7893.476872585775
2127447,18934.515117773084,18932.87203981607
1314823,2606.927031578409,2605.283953621394
2826838,18644.90704177617,18643.263963819154
3427632,5999.65494867424,5998.011870717225
3257684,2689.3309650260708,2687.687887069056
3343751,7957.973670953927,7956.330592996913
1167336,3898.779110182762,3897.136032225748
3115386,1911.3328856455541,1909.6898076885395
1250510,9168.549669157042,9166.90659120003
218148,19028.842708232376,19027.19963027536
2877701,20665.991375376132,20664.348297419117
3501825,5067.279880217385,5065.636802260371
2211475,2288.2729436175573,2286.6298656605427
269691,4228.157344234258,4226.514266277243
314894,19370.378489391907,19368.735411434893
2394092,2971.920178627134,2970.2771006701196
943562,6185.649251939436,6184.006173982421
1259169,2786.8320318621363,2785.1889539051217
2744105,5209.725577432336,5208.082499475322
3732364,6048.841703064795,6047.1986251077815
2224798,2318.306230333444,2316.6631523764295
2555557,1561.8578582321945,1560.2147802751801
1636535,2535.133724187274,2533.4906462302592
2793025,3846.260146109481,3844.617068152467
2931891,6852.05927933265,6850.416201375636
1915628,4310.0170628691185,4308.373984912104
2554079,4513.84054725995,4512.197469302936
1769191,2835.351405837636,2833.7083278806213
2182997,1291.3956469716634,1289.752569014649
2237248,3548.695606303589,3547.0525283465745
1687609,7068.189257811385,7066.54617985437
712574,3241.8910120449027,3240.247934087888
3741373,5830.257575271589,5828.614497314576
2906026,4608.088002701616,4606.444924744601
3832709,19240.046969721872,19238.403891764858
3377892,3139.316454869082,3137.6733769120674
1464402,6503.088720392918,6501.445642435903
681293,1866.4831322916482,1864.840054334634
1435218,3698.8305893131583,3697.1875113561437
3118599,6046.033630786356,6044.390552829343
378618,2134.18539979531,2132.5423218382953
1517796,2460.5532549540103,2458.910176996996
2476561,5504.307326661103,5502.664248704088
1133890,2209.002056176942,2207.3589782199274
2751630,18833.988803233522,18832.345725276507
1399553,3678.8867564442244,3677.2436784872098
203904,2639.5030875038974,2637.860009546883
2639279,6318.43925265665,6316.796174699636
3155730,18216.966218660025,18215.32314070301
905207,5481.0316176271235,5479.388539670109
2538926,7581.901558422085,7580.258480465071
261946,4529.03889517258,4527.395817215566
1205675,6773.789616095105,6772.146538138091
397651,1739.9970203033968,1738.3539423463824
2909937,4125.435313909047,4123.7922359520335
3407364,7058.796109288147,7057.153031331132
1201073,3131.589768440482,3129.9466904834676
1523601,4438.832411071011,4437.189333113996
1122254,2481.7301544116076,2480.087076454593
753267,18505.785445955225,18504.14236799821
1192009,4095.7937105612373,4094.150632604223
2148247,2787.108204301408,2785.4651263443934
2105398,4302.052197589812,4300.409119632797
449495,6696.7619137336305,6695.118835776616
807106,1460.0506533106932,1458.4075753536788
3109838,3115.8973290831254,3114.254251126111
2767674,18556.505622348803,18554.862544391788
1072027,6003.577637000321,6001.934559043307
2898521,19699.14243795781,19697.499360000795
2889710,5347.6953330004735,5346.05225504346
3692918,4365.6694349292075,4364.026356972194
1385841,1078.3917912862742,1076.7487133292598
1270757,3901.0910502607376,3899.4479723037234
2806725,5098.667785875341,5097.024707918326
3086496,3149.162420909065,3147.5193429520505
1149820,2480.362387242305,2478.7193092852904
926766,3032.277857140612,3030.6347791835974
3755195,5535.217887221536,5533.574809264523
2686481,5383.9163864164075,5382.273308459394
1988676,5590.547248129486,5588.904170172473
1560024,19671.125898938,19669.482820980986
3164868,3687.746585321607,3686.1035073645926
3198481,2639.443442859699,2637.8003649026846
544827,3785.516651813693,3783.873573856679
3199230,1683.0739836885075,1681.4309057314933
1525304,2290.4780389950033,2288.8349610379887
1245222,18556.034874525245,18554.39179656823
3123668,3983.335419966836,3981.692342009822
2974641,18904.802202593946,18903.15912463693
1446749,6659.1783944516455,6657.535316494631
1821496,7791.517265923294,7789.874187966281
590647,2240.6155014192937,2238.972423462279
2122051,5886.122953110776,5884.479875153761
3715766,4843.453887201143,4841.810809244128
3059469,1910.9763600579731,1909.3332821009585
1871427,20599.427035920355,20597.78395796334
2827679,3910.024962723529,3908.3818847665148
3116622,3808.041092551152,3806.3980145941377
1507006,4015.3199600618855,4013.6768821048713
3029809,5322.549243674426,5320.906165717412
1394404,18391.526872122435,18389.88379416542
2023840,5908.4146646363315,5906.771586679317
2146005,4373.538561037766,4371.895483080752
925968,1616.0276691760337,1614.3845912190193
1084047,6242.192442465765,6240.549364508752
997712,4359.179214364175,4357.5361364071605
650768,6312.401325258946,6310.758247301931
302762,8311.362875629142,8309.719797672127
972458,6566.636037444092,6564.992959487077
2415078,5211.259979969089,5209.616902012074
1785412,7726.877324267688,7725.234246310675
2411082,8622.485415752304,8620.842337795291
667806,7433.65511268329,7432.0120347262755
3741288,2509.2497049682484,2507.6066270112337
2457610,5886.915035866551,5885.2719579095365
1680834,1747.8196950943109,1746.1766171372965
250618,1693.098500995184,1691.4554230381696
1762317,6196.389147475839,6194.746069518826
1366227,5255.312518019064,5253.66944006205
3543025,4372.465308977592,4370.822231020577
2430658,9656.047228879172,9654.404150922157
1774369,6316.712180433055,6315.069102476042
1586111,19185.808818355617,19184.165740398603
827986,4810.29822148424,4808.655143527225
3053830,3117.8137144167627,3116.1706364597485
440491,2306.581973824022,2304.9388958670074
3045659,6768.969214335147,6767.326136378133
2791661,6008.92376479334,6007.280686836325
736877,4836.093541804667,4834.450463847654
3230422,3658.944866895058,3657.3017889380435
2443694,4427.495300120465,4425.85222216345
3953550,2622.9868430123656,2621.343765055351
2143090,6603.727154064635,6602.0840761076215
2214316,2328.5047293223183,2326.8616513653037
3210448,6843.929977110337,6842.286899153322
3929794,5718.6764054835885,5717.033327526575
3132396,18803.787887183793,18802.14480922678
2016035,2747.41165996677,2745.7685820097554
969573,4426.1858856180625,4424.542807661049
2570196,19038.58209008288,19036.939012125866
3362160,3287.7195062142137,3286.076428257199
229444,2128.2363322005,2126.5932542434853
3804446,5902.989082088218,5901.346004131205
493431,8119.521088796342,8117.878010839329
1723645,4442.781538584347,4441.138460627332
2987833,5424.19232360221,5422.549245645197
3776229,4461.149363076469,4459.506285119455
941534,4313.332092585514,4311.6890146284995
232008,4022.121777690245,4020.4786997332308
2454574,3842.7098948975836,3841.0668169405694
3535421,4785.061606110196,4783.418528153182
906443,7275.473168847025,7273.83009089001
1833677,18323.028026454114,18321.3849484971
1543451,20641.92676351189,20640.283685554874
1200068,4207.139927612311,4205.496849655297
3423853,1535.19996464011,1533.5568866830956
929493,4199.867248083067,4198.224170126054
1138551,2550.6863120097596,2549.043234052745
715811,4730.747042926915,4729.103964969901
1123991,8959.019171626205,8957.37609366919
2521910,7894.144889687229,7892.501811730215
893425,6347.034304593143,6345.3912266361285
3746340,1663.299720751199,1661.6566427941846
2213518,3372.2474537647863,3370.604375807772
3519870,4075.5304142095397,4073.8873362525255
1256347,20440.663713906873,20439.02063594986
410801,7748.735240936244,7747.09216297923
3240428,5475.932545904781,5474.289467947767
937054,20205.184992860544,20203.54191490353
1625632,4146.533919442649,4144.890841485635
1344874,6192.184828049449,6190.541750092434
2440511,19671.186142532057,19669.543064575042
3670071,2182.4806967687086,2180.837618811694
1879943,3781.2417027547617,3779.5986247977476
2169004,3667.9568656894457,3666.313787732431
1331796,6939.781701339858,6938.138623382844
2109421,3529.292074168699,3527.6489962116843
568297,19670.5189628332,19668.875884876186
3870061,4818.288591243369,4816.645513286356
2924114,19659.85796996429,19658.214892007276
237046,4164.355310226075,4162.71223226906
3026923,3767.7449239100524,3766.101845953038
292381,6177.525592777004,6175.88251481999
3944783,4807.996418509232,4806.353340552218
2476628,18569.34015543177,18567.697077474757
261360,6490.5335708017865,6488.890492844772
3326822,2266.8743299895955,2265.231252032581
3941156,6632.978835046242,6631.335757089228
1898310,3369.139021318213,3367.4959433611984
3847593,5208.4666456978475,5206.823567740834
3462238,8056.66090650621,8055.0178285491975
3681528,4244.02719678868,4242.384118831666
2153198,6306.391378702034,6304.74830074502
1918865,4956.940990991289,4955.297913034275
732321,2837.023558013129,2835.3804800561143
3454966,2057.967498940888,2056.3244209838736
2045309,4769.561976470906,4767.918898513892
1349282,18950.805801807135,18949.16272385012
2788238,4184.441455118343,4182.798377161328
844178,4597.954100615538,4596.311022658523
2992031,4998.753732498156,4997.110654541142
3760127,6666.0031045421865,6664.360026585172
3289533,6212.8146097374865,6211.171531780473
3544719,6143.211888110838,6141.5688101538235
651870,6203.693562142321,6202.050484185307
1875895,2687.7392060284583,2686.0961280714437
3959135,2941.76531972992,2940.1222417729055
395800,4397.736885384366,4396.093807427352
590139,2098.9853582043856,2097.342280247371
2285830,6108.6062922437595,6106.963214286745
1544882,2196.081621010888,2194.438543053873
1895955,5287.126429800825,5285.48335184381
3269226,4420.893925521398,4419.2508475643845
320851,7895.302910016082,7893.659832059069
1944861,4117.90262990091,4116.2595519438955
896013,3086.5234338360942,3084.8803558790796
2112225,4938.972187957175,4937.329110000161
2564661,4513.422225033443,4511.77914707643
2700988,18887.392486455432,18885.749408498417
2021134,1417.6565305493557,1416.0134525923413
1624290,3829.1130485829867,3827.4699706259726
3190915,2323.4840478227525,2321.840969865738
2686532,5051.5036826717605,5049.860604714747
200195,3741.329514962991,3739.6864370059766
916859,5554.0420274738135,5552.3989495168
2061134,3323.898389704812,3322.2553117477974
1163626,3517.5828636256792,3515.9397856686646
240700,5775.675373252963,5774.032295295949
2728442,4140.42444124323,4138.781363286215
2246280,3759.705258998517,3758.0621810415023
1838315,8347.686919838901,8346.043841881889
1275673,18776.8371252424,18775.194047285386
2615505,5509.946047849881,5508.302969892867
2438466,6837.204344762024,6835.561266805011
2134725,4930.30260453673,4928.659526579716
3742937,3728.959501259282,3727.316423302268
528392,3897.558890271759,3895.915812314745
1425308,2276.6030865142693,2274.9600085572547
3477640,4372.778015662953,4371.134937705939
465505,2954.5968336501996,2952.953755693185
1576885,7108.435764273462,7106.7926863164475
2786005,4425.9890233106225,4424.345945353609
1695256,19330.53963720849,19328.896559251476
3208056,2424.795419034152,2423.1523410771374
620184,4689.09528573128,4687.452207774266
1291796,6105.758194063584,6104.11511610657
3405450,19380.84250034064,19379.199422383626
3723528,6069.037464534627,6067.394386577613
492771,2652.9276572245644,2651.28457926755
902495,4818.565377041018,4816.9222990840035
3253683,18545.15204367255,18543.508965715537
1025961,2890.6313157724117,2888.988237815397
1316395,5295.524538031946,5293.881460074931
1293251,1911.1169925990664,1909.4739146420518
489688,2193.8506277236897,2192.207549766675
3907873,4318.935253761977,4317.292175804963
296565,5328.356329754784,5326.71325179777
2787995,20407.220814682354,20405.57773672534
1457177,2747.957272968876,2746.3141950118616
2209844,19226.404988920276,19224.761910963258
2602316,4678.712178809354,4677.069100852339
