sample_id,y0,y1
611207,-1.0814170863566956,-0.9804582779065801
3090099,-1.5469493799856786,-1.4572683569470317
556700,-0.9288152355796928,-0.8269028781411818
1722206,-1.158162703064394,-1.0594595944646814
220437,-1.5397877545863288,-1.4461101176466165
2937961,-1.4375630802403365,-1.3386794305776486
2562195,-0.9428652481017655,-0.8447633881297424
1248444,-1.1523495738778515,-1.0499981192841266
3000443,-1.7850041528107454,-1.6826069308834297
3129219,-1.215323609002372,-1.1144168324836736
310177,-1.1684418554462692,-1.0898346133020147
3210759,-1.7373747396954464,-1.6459152200014222
3325059,-1.1316944722558873,-1.0419785503754542
1835284,-1.1496598931672426,-1.050553295606732
2108756,-1.7305586147004706,-1.6310395475321815
1505824,-1.377931316026555,-1.275567010357706
3035383,-1.2549068423979535,-1.155079662055663
3730183,-0.7213419485673278,-0.6300143909223048
2707959,-0.7593013595565522,-0.7164735810347101
2153198,-1.323543817111397,-1.2201410505067365
2463054,-0.990864746907266,-0.8913028419440319
217514,-0.8991422089901621,-0.8013793706625895
2423812,-1.0409911482283378,-0.9395199070986981
2792111,-0.6549848830624948,-0.5522577375504417
1290827,-0.8073747934765843,-0.7096696483089258
369002,-0.8982425341856408,-0.7874111817125111
637436,-0.6184212963058121,-0.5198043604635395
3304469,-1.1234984039268265,-1.0191582496278382
3535272,-1.2743131758617314,-1.1720564502831992
3337168,-1.297348133705016,-1.20040782713113
465452,-1.1747846092522949,-1.0711748895239714
1315075,-1.3186955548101378,-1.2240163970323812
580457,-0.7277961681685856,-0.6183356994374511
554284,-1.4747332131698878,-1.3753027292037012
520842,-0.8731169306720578,-0.7715320688202828
309470,-1.833143310055323,-1.7278685390479596
2871069,-0.6606434531777166,-0.5597427401335691
1015203,-1.6892807716532552,-1.5865535752788333
631310,-1.1387681939545717,-1.0549482578031437
2473217,-1.4365139953697197,-1.3363825438802361
968145,-0.5525652903404512,-0.5099474698241042
2720203,-1.1624394097782598,-1.0613586141921745
1291484,-1.157456311946172,-1.0663532536642528
3318732,-0.4423206742905199,-0.40014378199858597
2617720,-1.7074268278988665,-1.6107870610234474
2268780,-0.08882899400404459,-0.04671617584360177
3802459,-0.21121978880723857,-0.16851212908235524
3316564,-0.8613963593611738,-0.7628104299056091
739295,-0.8874612994872151,-0.7827224796473282
2841325,-1.4229793608388726,-1.3236495509548656
323208,-0.48454094736768116,-0.39580697081334426
2628327,-1.309802462558501,-1.2139672455362263
412665,-1.559134231203111,-1.453710315590581
3205975,-1.343427820595364,-1.249313099978784
3685305,-1.1057564573342213,-1.007592065798546
3439762,-0.5497166267337186,-0.5066222966990941
2784723,-0.7089667885079205,-0.6142686637782071
1395148,-0.9243931069785145,-0.8241256952616365
2914145,-1.470650099865694,-1.3775839355823707
1346158,-1.4306346305808617,-1.3307367597965858
3122786,-0.6813058304998606,-0.5827747364121859
2512217,-1.389567053403944,-1.285130850292131
1415605,-0.65157895528205,-0.5535504297251078
3361824,-1.260034083847961,-1.163374533901721
801714,-0.40839382049447137,-0.3661480359983911
322293,-0.945501744856704,-0.8542734109942993
1287632,-1.3765157534007457,-1.2820613533320606
2493632,0.007214787627281727,0.04919905728644042
3675348,-0.6314409213546286,-0.5358364470481622
3081862,-1.3321505357661134,-1.2336260549593259
588927,-0.6215537259242153,-0.5228417932551462
1948207,-1.157237054392772,-1.0746317232090612
1341333,0.7299333522749998,0.7570992030161335
1666421,-1.210652220387079,-1.1251335700910747
2882277,-1.3927640057584416,-1.2917724771419192
3874426,-1.3257393002743987,-1.2247977621193216
569805,-0.7816712344030714,-0.6842603951000208
2278667,-0.8096687264530766,-0.7062180713354052
1646403,-1.5793634863502621,-1.4809451804907607
1709894,-0.5741144965685007,-0.531167438977387
3448174,-0.17225521591123982,-0.13008553460456723
2796070,-0.999958865109788,-0.9080307588459374
1771042,-1.078357306092797,-0.9779242896912054
3848403,-0.8794543540492217,-0.8369465266121665
1613581,-1.8145600123799512,-1.7152339240544268
3679464,-1.3635683574060997,-1.2588879122609176
3778895,-0.1447269632594751,-0.10252610094026493
1255892,-1.3134980491231818,-1.2180323065222085
1825975,-1.6084027424495548,-1.5114778103734958
1071001,-0.9055959085960759,-0.8092202996415407
3171092,-1.0259149945810924,-0.9231853190389234
937747,-0.46029505737782306,-0.41840208864089873
2492955,-1.2901387231487755,-1.1908390360044403
1875249,-0.12072546976370663,-0.07800717412073432
2656582,-0.4710841598116281,-0.4294573581624207
1145627,-1.705125156317988,-1.6054921515746725
1149239,-0.6002010551971486,-0.55788404028066
1074625,-1.5503619944087095,-1.4465580488733252
289677,-1.5653948575013945,-1.461525472070916
3397186,-1.5226747464549297,-1.4241414858025685
3063328,-1.342711504079902,-1.243622028677865
2980191,-1.6411245580589315,-1.5407407722423088
3772844,-0.5025649154744953,-0.4608916564830988
1620791,-1.2092302721369979,-1.1027105677355806
283165,-0.9160360837818864,-0.8245027919768264
875275,-1.474105541028798,-1.386670000240557
3195577,-1.0422422037355397,-1.00013436398575
441976,-1.2531610831988125,-1.1516531286657439
3408223,-1.3307908749525275,-1.228352329779594
2240505,-1.1923230283917592,-1.095398798903875
2221058,-1.2170046022911363,-1.114062709236478
1990839,-1.0611670053380982,-0.9608131697952051
1840247,-0.6672874576249153,-0.6250389785018771
3526147,-1.4247203782992082,-1.3202802415062453
545662,-1.181963389965943,-1.0940901479512404
1040746,-0.3645871857396628,-0.32282502776110095
3054079,-1.1886282434954805,-1.087796028101898
331954,-1.172427083458429,-1.0726500867908755
2921903,-1.433537282515968,-1.3350240795189023
1456216,-0.6937210152947043,-0.5943651412445464
209200,-1.297090984903108,-1.1930097141844753
3912210,-1.1128216546266056,-1.0713302280603831
2597692,-0.9888120119814063,-0.8903509681659472
1446972,-1.703138727971331,-1.604212590240458
3204077,-1.3214547790460824,-1.219513890307211
2809525,-0.9126503521520111,-0.8144531911010342
3777606,-0.6084039529243922,-0.5113846874141189
1623378,-1.2263823084078782,-1.1237334198991211
742601,-1.405543401601923,-1.3173072872496174
2823715,-0.08358298420869992,-0.042752069464923326
1233502,-1.331909068199371,-1.2357454302040356
3192342,-1.5932090375026688,-1.4878997374860485
1275752,-1.5847961357502496,-1.485362342782472
3062838,-1.0132471850075218,-0.9156573347955601
1077244,-0.000618390017061099,0.04149816838065662
663039,-1.2904328417730424,-1.198564731768341
1436162,-1.152083566455327,-1.0500354102638878
918868,-1.578165833946953,-1.4793590918866122
393805,-0.8505032400113808,-0.7573293256261107
2415859,-0.9439588805189872,-0.8450379963447109
3502746,-0.4165945754821419,-0.37454468614431313
2639396,-1.0008351595345952,-0.9017513482984224
2718618,-1.6083100573323594,-1.5115144695295009
3140548,-0.9933668534646432,-0.8906348350378275
2549649,-0.8119245781147717,-0.7221494650293663
299546,-0.8305380631472348,-0.7343295661206637
3655040,-1.2791754050337092,-1.180527908134833
3132396,-0.7177177584948002,-0.6748860496272682
1369579,-1.0007185100700864,-0.9045642875657047
2198470,-1.0617973359499646,-0.9636618022340746
2461709,-0.6803728878222228,-0.5880172937733574
673859,-1.0673109866168493,-0.9740110010626
1229181,-1.2207961263869915,-1.1257016217108196
1330076,-0.9731547236819239,-0.8713055975467091
735097,-1.2547596712267641,-1.1552323722177922
2399318,-0.5588379690272972,-0.4842029935623041
2831807,-0.870762978879223,-0.7750033051994762
1855330,-0.9803042445594139,-0.9013322335319551
2733093,-1.6974209758178262,-1.5860895574766822
3906550,-1.8631120208614276,-1.7705376734921272
2719962,-1.3344790765292418,-1.2372340894105807
2400912,-1.4592336662590948,-1.3558631153015064
1156028,-0.8649387490110385,-0.7760087976644867
1775904,-0.7021123347878888,-0.6050709876569806
1080111,-1.3928355865218305,-1.3089646231184715
2193068,-0.5636404193333637,-0.5213950362327564
3215078,-1.353608128825278,-1.2517637416378102
1902333,-0.9591816169328682,-0.8591969677446343
1363316,-0.2663251433113598,-0.22379191593228462
3938062,-1.6847040803454574,-1.5854807523896355
2528398,-1.2392131852778419,-1.132190689245716
2505272,-1.4043016270691733,-1.299275570079661
2823719,-1.004312828855198,-0.9043130726479183
315052,-1.1208336700538513,-1.0225002546921322
3405129,-0.9307065079101714,-0.831845218874043
1986913,-0.2845773316168505,-0.2428700484418514
614738,-1.6873668535652486,-1.5867199237519074
3219529,-1.738043959668438,-1.6473040155752112
2581623,-0.2729595404287535,-0.23149284394352157
590269,-1.7719457111652532,-1.6747125086648194
438269,-1.4693273385814623,-1.3675812394642128
2641254,-1.0723810032291399,-0.9728973961211808
2700207,-1.7762025458489572,-1.673579088556013
1766967,-1.634896906130204,-1.5375973639411193
3108567,-1.1503884511769447,-1.0515650307731734
2592362,-1.1716975558210678,-1.073327642063402
2270945,-1.5564987972327264,-1.4611518469363323
3715487,0.42923595499057204,0.4707742570455624
3151646,-1.4906425879900362,-1.39088282341498
955189,-1.2414081302672864,-1.1420611446702726
1155626,-1.189357428612744,-1.0920286567474964
447421,-1.529775319804289,-1.4261798540766786
1149613,-1.0584808666650736,-0.9562246419295766
316661,-0.5126174388277565,-0.415117146469959
354296,-0.4966220079754998,-0.3949755982680342
471782,-1.8491196095531808,-1.7454993131440601
3898734,-1.2004107547728187,-1.1033742882650932
1004046,-0.8361690488162604,-0.7950682258136175
1254270,-0.7883560707356809,-0.6806889856237119
2410262,-0.8440597408787192,-0.7433199425564128
3410400,-1.1721078717023776,-1.0693488599054068
3874824,-1.7314739062415603,-1.6295945298805665
831380,-1.114857106671415,-1.0138163307338577
286680,-1.6298270900061942,-1.5308264159584584
3059202,-1.0335944348143244,-0.9346643936749873
1237535,-2.000303493083657,-1.8987257361057004
585806,-1.7964202469008776,-1.6908178895301442
1907340,-1.5032733348307445,-1.3999526777052629
1039809,-0.0874457628553334,-0.047366573281999336
1019120,-0.3210102899163345,-0.27873878372811783
683339,-1.692973266951172,-1.579214205876251
1015973,-0.7700195494381868,-0.6677217968928072
3264786,-1.4528391155359464,-1.3539496426325108
1983950,-0.6611173767139088,-0.61796961637381
224156,-1.6756340615921737,-1.5739833789662778
743158,-1.4636240809196608,-1.3642472317028669
1240917,-0.8258801317433075,-0.7233121780438425
1791114,-0.7385252052691242,-0.6966083736833176
2715103,-0.80034925180102,-0.7582587343043434
1434226,0.1478350874940642,0.19076994492238253
3885744,-1.4984794302584468,-1.3999861233427415
599286,-1.124983297764603,-1.0224353864026523
2669168,-1.4859283926407583,-1.3892886257653392
1751321,-1.125238223850731,-1.0171937979850258
3719046,-0.755944373485431,-0.6575993536195541
951657,-1.3893033879435428,-1.2860448773202637
633988,-1.020349615054378,-0.9179280535668888
2566198,-1.2357902964364866,-1.1325766859513309
203284,-1.9369339594630137,-1.8353130732127383
2624328,-0.6088784768075973,-0.5091530760410895
2633935,-1.0135397732271219,-0.914823882779877
1577258,-1.0353787218429917,-0.9386775162072715
1788314,-0.874006725873125,-0.7788877569052841
3215666,-1.5484870551368006,-1.4498976479555958
1812707,-0.8930784343887558,-0.8037131587699508
2598933,-1.7482370946042978,-1.6460737704565749
3933110,-0.08260356860809775,-0.04088611384236962
844097,-1.2840384745538003,-1.1823436992913396
1951585,-1.6737678966946938,-1.5740659142379436
312084,-1.614870731841599,-1.5172752377084753
645367,-1.4170272797134895,-1.3127375953353155
1405421,-1.0039875092441601,-0.9043520285519059
3658829,-1.5233898567362383,-1.4264532947493485
3008587,-0.34277047349258877,-0.3023306880085334
3662307,-1.17687911204423,-1.0807517492531482
1792320,-0.21310698329449002,-0.17103949988960687
3538574,0.15155452758399396,0.19550244678987644
3389812,-1.7941146420912557,-1.6912792886810069
2731357,-1.1303450449702588,-1.025736321991398
555954,-1.1399834740996129,-1.049523334286522
2704244,-0.07260576652841177,-0.030545591634108138
2630358,-1.050057775301871,-0.9521599857655959
3472196,-1.5300619441825773,-1.4230353170062457
2025090,-0.9261265506205532,-0.8316566487038624
3737290,-0.29136366572262173,-0.249286951483856
2274950,-0.4567305913330011,-0.35802349915350207
846277,-2.1661436636212263,-2.062190147149564
1229509,-1.691950194721671,-1.5952823586837739
2817024,-0.4824213504902554,-0.4407209035523168
3801817,-0.9400861184359204,-0.8411610460928107
3890726,-2.0387620051231297,-1.9415272840135862
2284549,-1.0447991576455413,-0.9405699747275051
2485642,-1.408363105179484,-1.3094887509516178
1514682,-1.615494843201918,-1.5156677982682345
1385311,-1.09261788088897,-0.9951004345200751
3781830,-1.3574133028578186,-1.2643835868346651
1687111,-1.3721744093262833,-1.2788608883284065
2905847,-0.8353339831381776,-0.7312180525238603
907708,-0.7332995630550113,-0.6347178970477293
3494596,-1.556946319710835,-1.4593377730254184
3464435,-1.7743554992884496,-1.6781134771267294
3873720,-1.2482456620828213,-1.205626221215757
3485964,-0.38837333551046255,-0.3458480266930779
408263,-1.487091201444873,-1.38995657030613
3150306,-1.1591216197555858,-1.0662200244538254
1503281,-0.7456316375611417,-0.7033163732504601
1892857,-1.0764946746051443,-0.9726952254914931
3435968,-1.6504291202930577,-1.5426445575873327
2261209,-1.4699202067036368,-1.374896040589735
1358365,-0.9777165882803834,-0.8876404809966262
1264782,-0.552809238035411,-0.45458369465610793
273464,-1.143119835449854,-1.0449380593118625
3095135,-0.12257493589786211,-0.07623583771302933
3053303,-1.067675963701523,-0.9707286374961059
3171482,-1.5241236290028453,-1.4230764818350328
3533942,-0.7979774517318079,-0.7554612920967577
2676103,-0.5291763269284702,-0.42975964760829144
851172,-1.8497319175015177,-1.7532859825398424
3810179,-0.4676326489775492,-0.42709718583131745
2642446,-1.2361903425144167,-1.135834244147325
1903462,-0.6876414759575094,-0.5851000301185043
2215084,-0.9059903365074635,-0.8109536241371376
1364907,-1.3575016853147635,-1.2574728548880545
274769,-1.3394067143114503,-1.2360466601589033
841396,-0.898242058014987,-0.796781845860786
3219767,-1.5805056364338061,-1.4787364546404558
2693399,-0.7027595701250458,-0.6035226697942033
3089700,-0.8331590647695828,-0.7921154656439278
273973,-1.3548119277679542,-1.259258048957734
590208,-1.0148790302884527,-0.9177054074967336
1284754,-0.7605507437759629,-0.668848138208957
2741430,-1.2017737090465868,-1.102070433162671
2993985,-0.808062288782621,-0.6995198262836229
977023,-0.5444358337988353,-0.5029401260287594
2416720,-1.2102228892257085,-1.1179369360589824
3339849,-0.9910015763210787,-0.8960768916437567
1694098,0.6021937059636814,0.6298332044089999
2608395,-1.1690722294873215,-1.0695448087321737
2258427,-1.0275758085238844,-0.9270803358046342
3365237,-0.3048447108597176,-0.2616752426392785
1760833,-1.3640307200289041,-1.2643609988770463
2540970,-1.9138538031812096,-1.8127649521617308
3745831,-1.0580808990681454,-0.9582574086074629
433539,-1.199439510476377,-1.12075489132107
2846218,-1.5477332136323472,-1.4560469476022104
3455973,-1.3324667776113337,-1.2353129560873268
2863410,-1.0345656365111868,-0.936473482266913
397306,-0.9187487574834721,-0.8194786529030897
3485100,-0.7451467091662487,-0.6463783950301067
1352373,-1.6813023954869635,-1.5840022489822592
3886636,-0.8218813101333341,-0.7283550155429409
1595765,-1.9692992517896322,-1.8691493956233756
1323795,-1.2382856868818397,-1.1398866022692424
1522236,-0.009296686071764926,0.03723010279826838
3527887,-1.993118020297709,-1.8911821307713663
2126817,-0.8159073714286562,-0.7222765646399367
1610425,-1.359591417943771,-1.2579972557884638
1485134,-1.2779797665453523,-1.1808099880585476
3266187,-1.3053007625463113,-1.2075761291916456
2708803,-1.063477968748622,-0.9748242071799975
1314502,-1.3026156880173227,-1.1985946551936395
1980285,-0.6598858592830426,-0.6175498762606686
3444329,-1.0515007894212829,-0.9611726137021174
707404,-1.3993816017744174,-1.3027758091275592
3744068,-1.4608740121878798,-1.3599784948818014
3666855,-1.060487983453974,-0.9727032757895587
1992220,-1.3523346510907992,-1.2535302087809164
1875310,-1.2563360397343688,-1.1555203102315106
589246,-1.3497325767823891,-1.25515314987115
3231397,-0.3020119925499461,-0.260111156794259
3402574,-0.438012346297315,-0.34136734839693494
3245230,-0.9023338487251076,-0.8008159668835919
1467366,-1.285343893850737,-1.1851801165345799
2246126,-0.7221571219125332,-0.6327767896085786
2005105,-1.2377584608304002,-1.1373392058052167
2135574,-1.142420956124897,-1.0412199074137343
407926,-0.4046172321773879,-0.3048537434174535
3240985,-0.3081135184982867,-0.21129721266912693
2244358,-1.2014472501502966,-1.106030647449734
323313,-1.2841415585634472,-1.1806703623468633
2630424,-0.3271848958785023,-0.22951671947803332
3268223,-1.0027962753468112,-0.8857759738169158
572701,-1.4059173816701798,-1.3007290624466232
283545,-1.227813392805825,-1.128929743143137
1222800,-1.6242119288113543,-1.5207097367669147
595143,-1.3373846036723163,-1.2393338733937715
638047,-1.2341179723071583,-1.1370756531852078
3954817,0.004907643185365684,0.04716435504674593
1008251,-0.15512710743904723,-0.055257443417277674
1974310,-1.5102600584065495,-1.4153023206253137
1208940,-0.767743873019743,-0.6656643211073174
250775,-1.4436882922986913,-1.3408171377910338
1743839,-1.065910181289621,-0.9701326714568391
1917424,-0.8002099642457161,-0.7009617456831698
3896439,-1.8860740118272112,-1.7875836994011398
1504004,0.09824168437626057,0.14052930348948245
1051335,-1.4271485623379205,-1.3271723308929388
3263750,-0.48540760531127314,-0.4449169152294328
630381,-1.2798058198619087,-1.181205203528049
2435666,-1.1732948585901766,-1.0759392413832576
1815390,0.2708395029857734,0.31263117587102995
2450718,-1.392674899175344,-1.2961598236356169
975469,-1.0009840517035633,-0.9587897765982334
3789632,-1.1362746820185068,-1.0367316589502993
1234175,-0.18625535470528365,-0.14529440837886015
1255522,-0.8769392081051297,-0.7739638606435395
702318,-0.8365121208090018,-0.7940143388647598
2750801,-0.4400104507811826,-0.340646538036701
1316102,-1.4965698708690784,-1.4080957014252011
1014449,-0.7950302150137978,-0.7027308152311509
2511262,-0.9636168755702351,-0.8619146624520745
3134112,-1.267348630166014,-1.1723790886541758
1445172,-0.8043640311029349,-0.707068673548172
1754934,-0.5181627726838599,-0.4307102559085473
3245461,-0.7188844098479483,-0.6315247331484464
2730655,-1.006954337217228,-0.9033329691784187
2582628,-0.9566260531544553,-0.8528770080588852
433472,-1.382709946895056,-1.282101024946335
3503550,-1.1262206626620972,-1.023734760534314
3729812,-1.2440639712940869,-1.152927934283092
1948773,-0.9282669389644107,-0.829451534944684
3092889,-1.0631155611378102,-0.9637661472951842
2650347,-0.8270463869548741,-0.7246742899657397
260118,-1.1584017024526867,-1.0554627795429596
2259322,-0.9144771981761992,-0.8093539736679414
2747399,-0.8234191282649395,-0.7260015196707315
1789637,-1.2728383846994382,-1.1720674865010312
1772784,-1.0874219998519457,-0.9865986023339108
1635140,-1.3823766899902943,-1.284151456435512
552013,-0.5375537123870975,-0.49590534408751585
3118500,-1.2380814312513333,-1.137041842132674
2044543,-1.9186339181847083,-1.8164150367479932
3241053,-0.5659175685182367,-0.5228421867453454
893391,-0.9516706590317046,-0.9100034748942059
216945,-0.9542601503787046,-0.8788329336210664
2877220,-1.5262669371933826,-1.4252064757683602
3684493,-1.3337276976483252,-1.231744263495877
2240439,-0.9838478928013841,-0.887730513062652
2830792,-1.3225559972322196,-1.2277505103065356
840587,-1.8304553682862559,-1.728434742479366
587951,-1.4064335784341317,-1.3040846070017813
718909,-0.7200515044845418,-0.6159093779556929
1912036,-1.244838781886101,-1.1451482044381647
2624092,-1.5936819257630548,-1.4942098478946306
2702937,-1.1144610187332642,-1.013462129646437
2797873,-0.9117667485839778,-0.8124918969907882
3241828,-0.973169554232884,-0.930671772288642
2028136,-1.06067411336172,-0.963316144017379
1914956,-1.0336230789636855,-0.9317244371459732
3738598,-1.1847034541293362,-1.0796047289863147
672549,-0.16650207549087703,-0.09055824031210624
660183,-1.0323858674954474,-0.9405661208813227
2693567,-0.6213989939752166,-0.5788860601401784
865827,-1.966081656567034,-1.8691121521199303
2057741,-1.3658358079162456,-1.2677993192642525
1397627,-1.4475582070362303,-1.343080223666735
2263396,-1.1198184338774961,-1.0240779243804246
3041784,-0.9635408502609298,-0.8671543718767291
1162032,-0.5321675789384944,-0.4869844172776654
2060876,-1.073470751686644,-0.9719839948301574
3662514,-0.33735041153710865,-0.29524213214851436
1849393,-1.478636761866182,-1.378081357191649
3448986,-1.1842267380616103,-1.0870860532904625
3384960,-1.2159743921394857,-1.1165363425704296
1354627,-1.7527847142249624,-1.6533377872775579
3953047,-1.4860445448010662,-1.388627961023445
1399636,-1.938336700535986,-1.8476526692036925
2676512,-1.0396642417372473,-0.9424139903107207
623418,-1.306589381965204,-1.2118402106554125
3881077,-1.2506662548479401,-1.1511887445198519
3068684,-1.1347954586551698,-1.0396725887091172
729040,-1.8089805133041064,-1.7049753313166773
2945840,-1.2350445152178884,-1.1329818599696637
1280152,-1.5056248754952506,-1.4093310582050356
2469733,-0.9979571600066057,-0.9552994392088207
2549172,-1.0556205157331733,-0.9536100450249206
803597,-1.3988675604700718,-1.3092584874852609
3117482,-1.160728466147881,-1.1185323561120568
387177,-1.2957834656424092,-1.1934141826754152
2513975,-1.2441038827418076,-1.1454039492471995
2196257,-1.1126571262573688,-1.0361703727032425
3741199,-0.2097311015940573,-0.16787368747786172
1440014,-1.6364270273729462,-1.5320238088020395
432972,-1.4744413877785834,-1.3771403927231076
1712850,-0.7909307200532686,-0.6966563774132876
3734042,-0.7996073569799187,-0.690812503166162
2610789,-0.852915930251217,-0.7512884307868826
577233,-0.6346611579850674,-0.5625962758037264
1452784,-0.6137202917127355,-0.5094409050084922
624030,-1.2226097682741215,-1.1261496805503257
1631068,-1.4863396297631164,-1.3867456925405592
1524501,-1.0072641013641603,-0.9102407151079132
1073870,-1.7333619815384753,-1.638101174979873
1095136,-0.4266599436499678,-0.3785729345089116
3871077,-0.8740892195990504,-0.8318010146309194
3008918,-1.7792999184494502,-1.6761220729740542
3422882,-1.7764581494910012,-1.6795938502652779
2155372,-0.3037551733879398,-0.2606084287933748
1477658,-1.1405449893389912,-1.0428425985998442
1829482,-0.8542834466240974,-0.7545223799474357
1128524,-1.5560250703098193,-1.4564428262055569
963890,-0.7374142588146078,-0.6946414659650737
1099395,-1.194660126136252,-1.0962922307317207
966245,-1.0122607877942291,-0.911530787934787
2551417,-1.0296430902466056,-0.9281131413801491
826132,-1.9028806781457,-1.8082586286247186
1522019,-1.000815262627778,-0.9020413130826578
2196065,-1.0778482248404067,-0.9829975491403217
2587887,-1.3723327663281455,-1.277759834827558
1289033,-1.314132349478765,-1.2127589417473763
3768385,-1.6638058570087275,-1.564600501128408
3344390,-0.81238847404645,-0.7709758749269695
537759,-1.068353421276782,-0.9600729925343552
676476,-1.4693095765581676,-1.3696721728750116
1697300,-1.3138999228499495,-1.2156715457787706
633837,-0.5813502256865739,-0.4812492990763597
1813718,-1.4971588974216492,-1.3932895119911708
1046830,-0.9733216739758717,-0.9316799790487236
3084875,-1.3242234507308235,-1.223305480276809
1209992,-1.4918959197186235,-1.3957722173298532
619445,-1.177559345979241,-1.0683469166973465
1671523,-1.4950317923846237,-1.397555826998472
3941292,-2.1296597459932,-2.0279828722173168
2882007,0.14325550883795335,0.18456304916183586
412876,-1.2271870969699603,-1.1291955547073256
3002500,-0.8156013553746724,-0.7738117756903924
2720062,-1.4339431303607206,-1.3310025663420104
624014,-0.10030697105257413,-0.001570569813917011
2663824,-0.45019594137900576,-0.4083020750490356
1760917,-1.500636614546718,-1.40710542790506
1120755,-0.9890436439372247,-0.8978029989307134
918406,-0.3034812834160944,-0.2613526642477398
507488,-0.7324194663002234,-0.6908448790846327
3840707,-1.2609328198823897,-1.1601258198276176
2043457,-1.674190201959269,-1.5747344335684765
2539113,-0.9116272376623011,-0.815466730939945
1332524,-0.9884449739393502,-0.8905388454788747
3450910,-1.4264807910603392,-1.3251159236736203
2795546,-1.3034393415177297,-1.2014192237166657
1205760,-1.338083035100441,-1.238289140913284
2460864,-1.5274908122473223,-1.424186895046017
332701,-0.9414228045026392,-0.8477327442143805
3799725,-0.9729341495484058,-0.8752280190343908
1361246,-1.1924342845479758,-1.1010488540969319
1385485,-1.5024385030054643,-1.4055325492075221
1555234,-0.25002949685888787,-0.20672500794458318
3528438,-1.9274961289804444,-1.8276942747245437
2430976,-1.9283995068511763,-1.8269495858329114
1529446,-0.33637818714724405,-0.2938831955088078
1048054,-0.07353144912632037,-0.03138639613943067
852622,-0.4628867681175274,-0.4206088434823705
1449003,-1.5711735783130996,-1.4700490003431592
2411805,-0.9722826352037153,-0.8815554309491072
1117630,-1.0227694954033784,-0.9208708089307875
2210597,-1.0209544583346146,-0.9223405019634261
3728268,-0.8543591686152239,-0.8119664893117625
2016965,-0.6909875368362962,-0.5843302913237615
682093,-1.3990023802321625,-1.3013597427796806
1404967,-1.8542672544327194,-1.751090546004846
3291929,-1.574983455217271,-1.4796468628718378
1065723,0.03129000959626678,0.059648344109525145
361386,-1.3435073323698192,-1.2233969511754148
1023288,-1.2081475475307937,-1.1051097073011136
1553356,-0.860158747826412,-0.76101612804524
2639282,-1.3415418099127334,-1.25309535324473
480729,-1.8120968923609806,-1.7107867801726013
414635,-1.3316423274938713,-1.2317610101717162
2122002,-0.4859402345744738,-0.4436055271470475
708289,-1.6958526274246268,-1.5976684847983647
747483,-1.2081607519135271,-1.1102619731378713
748824,-1.3659296633448492,-1.2627829270521345
2433147,-1.809872190349712,-1.7151000491065607
1244500,-1.229606786580509,-1.1336777113859517
3339305,-1.0898990228652259,-0.9835014488863392
1730714,-1.3993353528638726,-1.2967477126771296
725158,-1.432599636208757,-1.3324140488777776
2622003,-0.9547033191880413,-0.9136758879533406
1324027,-1.3293426358397251,-1.230873558436774
3019812,-1.054059264606105,-0.9570169454841545
3442105,-1.0548602768925008,-0.9511871361570263
1517045,-1.179561176024675,-1.0814957141433317
620149,-0.6943386759234982,-0.6529832785849169
1136412,-1.3634010677367199,-1.2632899416540444
2790618,-0.7917443715838886,-0.6950101491621063
247643,-1.6090648588263807,-1.5044819242364191
833332,-0.9006205671353155,-0.7955013279864945
949569,-0.3237512825854352,-0.28109509755066275
413224,-1.6369361107547538,-1.5530556463575593
1145169,0.09151559642064483,0.13425169853134222
1863698,-1.421142597981723,-1.3208561915386072
2900803,-1.6644910102054733,-1.5633723120925613
2841233,-0.8568383092239117,-0.8102419772646281
1321268,-0.9757618510296111,-0.87834606304581
906694,-1.173764296032837,-1.0764618459311341
2249985,-1.4176215876642047,-1.3179107323855241
1761487,-0.9856308224758088,-0.8885962917036878
823933,0.16457844744262112,0.2072429131133895
3171381,-0.5172547403759972,-0.4142475198773953
1314490,-0.9156234517353342,-0.8153387648481562
2615850,-1.4325684793256932,-1.3364453148901774
1039645,-0.24010000466035147,-0.19245121100366708
351087,-1.1325533823825884,-1.0333319285797442
1361121,-0.26997241655203835,-0.22792364607337312
1768835,-0.13190555354486816,-0.08975068744156234
2549873,-1.4202108016177113,-1.3168476077617959
839047,-1.0315057441269657,-0.989358065036775
1625279,-1.425033048134602,-1.3292963171445304
3113699,-0.9715146283499368,-0.8751609433535567
1318784,-1.3104645221802478,-1.2130105662051391
1886428,-0.6169151558423606,-0.5737829474501226
916567,-1.5563286234853861,-1.4574918293850994
3003794,-0.8962679039836035,-0.8536321928090098
1788816,-1.2415666628965514,-1.137057299508074
241668,-0.3827357740534086,-0.342327090658045
3933022,-0.9956198684920419,-0.8941119139589733
2176813,-1.2177580524273697,-1.1205011924334773
1708870,-1.399453258250547,-1.3059888473882781
316242,-0.4201552879752877,-0.32277643032521985
801443,-1.3143872413189592,-1.221636552547903
410540,-1.6629145039014779,-1.5593980573739679
2716243,-1.6978216970160986,-1.5999821147300086
1467204,-0.9048303479891002,-0.7986603514291237
2865101,-0.8443810491806397,-0.7433869401200762
3008766,-1.4378005780661782,-1.3385946115456286
1064205,-1.9435623985880932,-1.8413477171992079
926303,-1.2004828918651222,-1.1016158453596752
3798286,-1.7582805348273471,-1.6524759501098303
1053997,-1.7699580685087934,-1.6756959281425567
2949272,-1.2749653746740575,-1.1755829988805973
1043984,-0.5101208123631198,-0.42013479616804994
1205901,-0.7104078888225878,-0.6104048722496371
1248023,-0.7351201415501645,-0.6922946584106269
863493,-0.39989216381085324,-0.35731759585818895
1310679,-0.9164809406106383,-0.8124021431089002
217712,-1.136370434389,-1.0341612979215993
1594073,-1.8361292252589037,-1.7350073040126748
651407,-0.11924501552437994,-0.07749191301681774
1866881,-1.0365103741549324,-0.9355440250577687
2151058,-1.5046833915945865,-1.4043005771301744
217854,-1.3282026827599345,-1.233933915559764
1286554,-1.3319918209269885,-1.2345334341818444
2594420,-1.1033412844037647,-1.002730598552076
602016,-1.2136852810159116,-1.1265731889360335
1455892,-1.1087091310395887,-1.0108578972703144
3297986,-1.0353573176062958,-0.992860610342807
3836929,-1.7761459314677848,-1.6742764952297977
1130719,-0.873270451706377,-0.7818486660264548
3004052,-1.0538847748022655,-0.9564053856717347
1115389,-0.29831428618850975,-0.2554002283912089
298749,-1.537329824759925,-1.4295989082416685
722349,-1.0126207119400454,-0.9108176016864948
1218984,-1.1224587282623213,-1.025333343380006
1097591,-1.5928014790418414,-1.4883918110969896
817210,-0.7224114321026031,-0.6805565716936468
3358430,-0.7200592342750254,-0.619038848715719
2558552,-1.132739391810747,-1.0338838923457547
1450766,-0.7863151623184255,-0.6862805911979353
3931819,-0.08225876446038816,-0.0404027592463273
1488592,-1.1024448596041927,-0.9983156305124208
2195753,-1.0250441629969043,-0.9269341414450039
1390744,-1.2492981224358033,-1.148372516405316
2002878,-1.2201553103487501,-1.1271204549693519
3446694,-1.608211469983336,-1.5072725108400191
255396,-1.7526850248151975,-1.6523232849558047
2604412,-0.927518415964663,-0.8279818421484935
673494,-1.2304107544423928,-1.1377374685096229
3183186,-0.522294426918197,-0.47964560172686177
1415086,-1.6943340343622377,-1.5894295236548226
2159216,-1.109154466827472,-1.0066522958718631
2963735,-1.3306012683094124,-1.2353555920981527
629796,-0.2611096188099191,-0.21989434693430268
3144749,-1.7472106003693848,-1.6485789061640983
3730133,-0.8851595749924323,-0.7888471103069022
2948651,-1.5124456375204947,-1.4169010107660722
2741284,-0.4253781786713242,-0.382665572839754
700157,-1.2882808002205197,-1.1937287808619435
217550,-1.3725189558930482,-1.2721983820574545
432975,-1.4645440853846807,-1.3668837605519069
1997478,-1.0310855409970547,-0.9276996439067028
1750319,-1.0257156795262456,-0.9282998258172867
2415519,-1.0634855763887856,-0.9677202547588379
551748,-1.458807549238505,-1.3635839632760063
2175426,-1.6261943407207746,-1.528933671439308
3159827,-1.9397323641566877,-1.8434400051473825
3745919,-0.9475416490145883,-0.8512415791834083
1385766,-1.1890704978032318,-1.089345097036724
3094718,-0.236439199134404,-0.1953484056416456
2743940,-0.930525398444344,-0.8299310475987878
2245843,-0.7751542521869977,-0.6755941171462131
429852,-1.3159287641896076,-1.216578824628417
2194500,-1.2333699017247253,-1.1319444890911674
2745457,-1.5602900452008677,-1.4601623483548694
1871454,-1.3936002305690565,-1.2949620515036189
3208091,-0.1909605900252379,-0.14932654505922277
1351499,-1.2237852022342817,-1.1389559565710836
618623,-1.5556215133254756,-1.4472084701281176
2198286,-1.6204502300621237,-1.5201318186205293
1210599,-1.123962503261448,-1.0267036109642307
2106608,-0.8744911206506691,-0.7759152416566124
3922793,-0.5765761846633658,-0.4769550350091162
3516331,-0.3565354978583098,-0.31412489143348
2441078,-1.1424674244565303,-1.041161187022086
1569798,-0.6861833158386774,-0.5878134164430486
372178,-1.2434433968080627,-1.1406283237071606
558659,-1.2650790104239786,-1.1707634832348568
972075,-1.116946254214788,-1.0188482389132112
1135080,-0.9239528264665533,-0.8259019185689422
3032404,-1.4023720463462241,-1.311722784063922
2594980,-0.9474067872300109,-0.8532610458244125
3725751,-2.1066405623593027,-2.0119063650539832
3515948,-0.4801089851115405,-0.4379138736790147
3532300,0.3939828508021139,0.43505410254072946
3014519,-1.0434578877542795,-0.9446309147625044
2977878,-1.0450949577048394,-0.9425216344114715
1349191,-1.3003917635638542,-1.1997673391709573
2412221,-0.5538368437229958,-0.45279676655548806
1077992,-1.0264289550435668,-0.9212324716517342
1035984,-1.5716557196945378,-1.4687629284519874
2140099,-1.074617282466826,-0.9813896780209721
3386167,-0.4572382853803623,-0.4141085311473615
3475732,-1.3463205727978782,-1.2428263174336216
1733837,-1.5399541592913366,-1.4395652214310828
3270900,-0.6356534475325475,-0.5944593215718712
3377501,-0.3151714246855106,-0.2746666265027011
2535393,-1.4972416279208405,-1.3976733697655763
1089855,-0.19965597138535696,-0.10547308776669717
1792063,-1.0542985077459142,-0.9607877401663165
2660790,-1.695645105312717,-1.5952855251376736
1547479,-0.553720791120817,-0.5104497291014488
539718,-1.1637065418107349,-1.0703644320024726
2575550,-1.5292713225476817,-1.4303078803576865
423656,-1.2963017025802956,-1.1978644393786797
1169695,-1.2616438371495313,-1.1626865656090797
2228454,-1.0625458662783134,-0.9590245232401329
2224377,-1.335475340787528,-1.2344518025218223
1314009,-0.3091610595869535,-0.21750102480862632
2622917,-0.7079430918196361,-0.6587446236394017
2902669,-0.9569425882455426,-0.858382464960859
1755907,-1.8432465680694214,-1.727830659851782
1199399,-1.0534030642074899,-0.9564209305589713
3699480,-0.5694352066515727,-0.5262291764674449
1480454,0.11506518953639105,0.1573883790141858
253829,-1.4729365247461303,-1.3688489905649617
3373541,-1.3788400029876553,-1.2806979996414862
3464904,-1.0333913022920633,-0.9314262101173343
2895551,-1.5802656644924786,-1.4808256170420202
343231,-1.4998130841597843,-1.4073555080034423
2436722,-0.6493450369632342,-0.54870075037082
1522026,-1.047545787160514,-0.9551872782028754
1023375,-1.3314500942907226,-1.229427352646847
2610356,-0.36371662329478427,-0.2569963533234566
2484870,-0.8139001740221263,-0.7180176368879934
1998600,-1.7270510762882103,-1.6232726690268509
1279201,-1.4103173136432894,-1.3146282876861977
2815393,-0.6832677042987073,-0.585511614052105
3458530,-0.9007860341073581,-0.7954534178336412
279855,-0.4478698690009743,-0.4066698221248977
1570937,-1.1831386550246457,-1.0823092449446547
2782570,-0.717114877157201,-0.6143113603570535
3876172,-1.1127071940529716,-1.0105901630882492
1721505,-0.9021411117253977,-0.8044462890294513
1499476,-0.636571885059037,-0.5938696665305714
1150909,-0.7295038035084223,-0.6882049494338129
3064784,-1.1284609263992609,-1.0306338268873996
2212156,-0.8707493828414112,-0.8278858307499329
3850353,-1.2374134416767653,-1.1390971800921474
751788,-1.059687050449631,-0.9613382848697148
278122,-0.9091163881449009,-0.8096354383541449
3121823,-0.39596027339212014,-0.353022528116794
2229093,-0.8371900646513184,-0.7355428420241767
3249969,-1.2740322629195944,-1.1747292059373928
1011119,-0.06578653347191593,-0.023160294998155362
861975,-1.5799223229793053,-1.4808610655684897
3666987,-1.2249269855064908,-1.1236003392846963
1892288,-1.4703460433095663,-1.375209869014174
3020676,-0.8400994046607408,-0.7979747951500435
1790399,-0.8809732687982837,-0.7791409496768434
1526681,-0.895922870722704,-0.8539643755347613
637607,-1.6457891770829691,-1.5464938227209748
2117412,-2.0440183503737255,-1.9454370352412216
1906894,-1.2525208911308938,-1.1545013507225765
3104164,-0.10014261725907286,-0.058932145287246274
405637,-1.0854377480737385,-0.9823374029258491
1998324,-0.778612275070611,-0.7364375566311756
3894815,-0.7109644597157894,-0.6680080847653398
1793549,-1.1852489157816937,-1.088227348375751
1739107,-1.4044416089516367,-1.3085786074974686
3235327,-1.130426142863344,-1.087546389986093
1614566,-1.5560414334241197,-1.453449880737051
3726911,-1.466262922072632,-1.3682042013041897
1720545,-1.1075460473684857,-1.0125800317873537
2490060,-1.7255646873017374,-1.6292440500864118
2915124,-0.48945642533255573,-0.3999902829849271
2454966,-1.1277444231973306,-1.0249854114003598
3033619,-1.4493761793541322,-1.3484769908324152
1831081,-1.4545335529975467,-1.3583062940882809
2615361,-0.8762756670871445,-0.8001363864762168
1439997,-0.721497860213382,-0.6241770037921245
1772943,-1.3932248823270963,-1.2970053330352467
3658852,0.0642485423406835,0.10579205005906228
2413696,-1.1073464573985743,-1.0043461811357766
2421611,-1.3943028347868387,-1.2912956142882368
3397119,0.06517450092960564,0.10820028992206093
1106236,-1.4100462974632666,-1.3102882809940488
953131,-0.033984644469992054,0.008952571926362507
961776,-1.8559689615627226,-1.7587442257106698
1523863,-1.24879896547676,-1.1485981822040428
226380,-1.0953141171474674,-0.9944269331482714
3376228,-1.511324805838047,-1.4046336464282358
2494799,-1.234919968619012,-1.1274042011825967
1089093,0.42674145329276003,0.46726837137048177
1263841,-1.4936473689132814,-1.3960906226039742
2619417,-0.5827191219228549,-0.48726804107046373
2045900,-1.422588468034165,-1.3241853552113398
2613656,-1.5133924316544753,-1.4142803513261497
825940,-1.5574168513039404,-1.4652206652042905
2574640,-1.6967747382608183,-1.5951745603414322
2000347,-0.8940352120762619,-0.8519903758037122
510413,-1.3942514076946293,-1.293355890388551
2565200,-1.906570914902274,-1.8084388193730943
2505634,-1.4651967359121083,-1.3625599941309117
3033041,0.09698162544015726,0.1391074912703132
3267614,-1.0970429823936618,-0.9953561482073691
263347,-1.4888234816132704,-1.3852818341574222
1591214,-1.5327646194132531,-1.4317208178626404
1751369,-1.7607953193534793,-1.6639156358906682
1083719,0.105131371007331,0.1467939249162824
3882880,-1.3873169851031983,-1.286882103561079
2667250,-1.4394390643171942,-1.340338253959422
1298712,-0.4733482853078502,-0.381123568358109
348766,-0.5171936516735401,-0.47512231363579066
3854173,-1.7467893555455634,-1.6406333611002601
2808725,-0.4735301753161131,-0.3770616286196836
2743627,-1.195265666465972,-1.090844766488183
2063665,-1.0371703354051214,-0.9378487624957131
1504334,-1.1029082339748995,-1.0025345608626977
3094140,-1.0924972944891953,-1.0027445059108566
380763,-0.0987044100760453,-0.05574113414952381
3549230,-0.8978625908437592,-0.7952761136052691
3112755,-1.1833938951479672,-1.0883025196216478
551282,-2.018135578833405,-1.9098286478757855
229567,-1.0820000805154706,-0.9865979233261729
1524661,-1.538342745453976,-1.4391620274355763
1822830,-0.2533722805119875,-0.2109904016186822
1153932,-1.709286418020797,-1.5984863514250582
2892095,-1.776803033218522,-1.6737283883215763
2515789,-0.8544153112408233,-0.750873913713777
3095100,-0.08395478839396231,-0.04330126637073939
3526161,-0.9267312729380297,-0.8282504583137471
200256,-1.3360797392453736,-1.2326680282041065
3769245,-1.0441213422649755,-0.9473262534711437
2998905,-1.1008085003677577,-0.9940672718113686
3751126,-1.5962741232425557,-1.499570581557628
1622316,-1.505234289678243,-1.406183015942427
198717,-0.9745939910841525,-0.8752761094085878
2249808,-1.26799144096873,-1.1675320727305225
3170068,-1.9107575696645132,-1.8098042217847952
2509550,-1.3272616445685501,-1.230245449077761
2939862,-1.0243408080884595,-0.9534867547680407
1354877,-0.5225301817817622,-0.42383536744467776
2031224,-0.9209267278964748,-0.8256230768119595
1458526,-0.5022006610146644,-0.4021996543968275
2842135,-1.6042612464979145,-1.5059186265085178
1538576,-0.7813621140103748,-0.7391225791626121
653514,-1.7468654738136464,-1.641733090539963
2411652,-1.3523592557778568,-1.2506866888602646
3700044,-2.0261897107969657,-1.9257987578852167
2845917,-1.187602578994982,-1.0900335264227068
3755256,-0.0751695114069531,-0.03352769688868801
1245530,-1.1363634450449935,-1.0360602917368391
731623,-1.3032827372066573,-1.204995419733215
2738536,-0.6301377925322906,-0.5882109215827809
1789876,-1.7774232297472292,-1.6804533568334992
2894152,-0.5299518292710933,-0.48786920545144685
2712683,-1.531229393098327,-1.4313247487408565
3836411,-1.4262544720302783,-1.3182679724568518
2272433,-1.2057450511814893,-1.1049131874399132
840750,-0.32429434870849255,-0.2813772651264858
3095953,-0.7415514470135731,-0.6528339211011442
2925051,-0.5950920255708334,-0.5174526371923809
485844,-1.183854285479595,-1.0842743458123674
876859,-1.711537416942157,-1.6153071003183332
3547623,-1.595367563145873,-1.4914092049023089
1846764,-1.2740476539517875,-1.1709217402358154
1063276,-0.8861782350800971,-0.7855658944837176
3225675,-1.0870170839962083,-1.0442849415175677
2445832,-0.3759043880927868,-0.33387700498470696
996725,-1.2561399637125814,-1.1574950300315328
1273966,-1.5087359858138303,-1.407831165979664
266496,-0.20068623125927354,-0.15974692451073352
1778985,-1.4408347389108482,-1.3410089327161228
2910715,-1.336144019008966,-1.233765969692983
1240755,-1.6447362788877804,-1.5509309492848762
1977999,-1.4943775282036849,-1.3972774657938039
2793792,-1.42624738364757,-1.3219097130106015
667813,-0.8224546723508586,-0.7199280006658726
698071,-1.6592623399917446,-1.5631955206273362
3357757,-1.3921819318943878,-1.2923327862497807
2704199,-1.6686211211552249,-1.5641986728141222
1872732,-1.1206296568796321,-1.0202455786669768
1522589,-1.2006632960278985,-1.1018657483417331
1941834,-1.3315683970491616,-1.2371649337243946
537780,-1.738564896340924,-1.6452490340664867
258491,-0.5657726710210478,-0.47969229991520046
2771929,-1.2279227496186076,-1.1323767252727681
3497989,-1.4740269008297142,-1.3732111964678422
3100619,-0.73236742015364,-0.688791147624777
1571456,-1.0141196610054841,-0.9104588265428347
3514082,-1.6788870774266338,-1.5815574374154915
1617255,-1.8325667799932166,-1.730050416438612
3479854,-0.7254113866483654,-0.6211130506978038
207905,-1.6676686934134506,-1.5651271874357824
2903280,-1.7169278720862013,-1.6157030162102595
3297360,-0.32425028344306045,-0.2823883926508191
1501604,-0.4799811558491506,-0.4392333843047378
2152247,-0.37518496695890635,-0.33503400845989617
3729562,-1.5477195004996345,-1.4490218553125418
2904045,-1.4219044020735183,-1.326014024676025
2926808,-1.7437105852421666,-1.6479245620426495
949640,-1.4153582810072496,-1.3188962467509808
1935124,-1.3228103018675712,-1.2250192321209226
624287,-1.5369945962499008,-1.4329417872793904
3957447,-1.44630005772125,-1.3479231692821516
2398081,-1.022751415523832,-0.9278052050087646
1707657,-1.1831395079977216,-1.0947627088793739
1413831,-1.748370654204914,-1.6363888270331253
1667329,-1.1202696170056574,-1.0245635027331335
2193708,-0.1527806041726416,-0.11069303440271344
3878903,-1.385012763931477,-1.2868555626765725
3679158,-1.10646451425189,-1.0083920232188024
1322168,-0.9976361783790214,-0.9124114299608289
1100851,-0.3266554797337004,-0.28025465568640884
653342,-0.7695480712001408,-0.6748134551300333
1193316,-0.55875624489009,-0.46274811478655353
1037347,-1.5787393212460654,-1.478012495264535
3743033,-0.45834177576677726,-0.41571334465912047
2825838,-1.1298330510601893,-1.0328284860278676
1628875,-1.1845663778376487,-1.0833420703865604
2111920,-0.928666094892536,-0.8305390937612742
2418755,-1.3336095146443965,-1.2450324885421336
1715273,-1.8906360789718477,-1.787158598787852
397348,-0.8452784960315305,-0.7520088233631892
1520145,-1.1934392847501503,-1.09547663764765
1471831,-1.2475454588376134,-1.1509359221055528
1731767,-1.431435548336153,-1.3363225853644343
2056859,-1.5937871863679667,-1.4956950321236928
448308,-1.0171737954817088,-0.9194332293861888
806073,-0.619721882565508,-0.5262352688488579
3955415,-1.0276001369586074,-0.9277333236193777
207350,-0.4435689210820321,-0.4002578343111925
2399209,-1.0943769337153806,-0.9951695000395864
1379245,-1.1899901080692243,-1.1492224490606129
2042575,-0.7405652431356222,-0.6640247359683598
909763,-1.981288673875369,-1.8797736242398089
802916,-1.6303044489772773,-1.5319914087807782
3014560,-1.2301020191309309,-1.1297389799744637
735603,-0.3031718453885014,-0.20116052295007225
867583,-0.3507582445077774,-0.30923091222901816
3065818,-1.672095873050657,-1.5738187301505884
2937042,-0.9195008424110807,-0.8232274540296818
552220,-1.0956304494211326,-0.9932425265163922
3756442,-1.8017746407409252,-1.697942707772416
1357144,-1.4040251401271207,-1.3069578545569884
594937,-1.5633051973051182,-1.4651080362541413
200799,-1.2013362212842826,-1.108459770393078
3368598,-0.9914204156569414,-0.8964041502996806
951008,-1.2469100738640857,-1.1568331909219265
2842346,-1.383784011367566,-1.2853723360009957
527042,-1.0677596638109152,-0.9705146766922541
3854830,-1.0203646226315333,-0.9220976765029321
2986533,-1.5166994639475662,-1.4184530481405015
3840185,-1.0240131358364684,-0.9273095941515406
2563152,-0.0979764583812831,-0.057243634726244164
489726,-0.18020213274309055,-0.1372345893752906
2582964,-0.6808031624506982,-0.577758918528407
3017716,-0.9924061800945357,-0.8988801738036843
2559237,-1.0951165178907112,-1.0532871195396447
617452,-0.372435285523694,-0.27008788273567774
3371530,0.07566782020228757,0.1176643259719321
3682051,-1.6997672362074026,-1.5982815878140744
3215924,-1.562679143598726,-1.4667253689863367
2414776,-1.1436430436543332,-1.0437637705018075
1686002,-1.0412896370296545,-0.9431566978209157
2461307,-1.2969428154679055,-1.1991975448334125
2921000,-1.3910536711166064,-1.2874168657766922
1198026,-1.2465652579431226,-1.1458474612973744
1791240,-1.189312130564148,-1.0890019906299906
2541018,-0.638190782710048,-0.5970267152178863
3861435,-1.1921556531889854,-1.0916125689203298
2035600,-1.5979369441532776,-1.4982251147355623
287670,-1.387131233529423,-1.293131697951046
2741958,-0.9247571180309377,-0.8310877910566914
644297,-0.44965093802945844,-0.40816580686159465
3400550,-0.002035909221390686,0.03988807486645002
1578845,-0.6122145926433656,-0.5237285009361315
2159222,-1.1438359917666272,-1.0463378004856383
2791259,-0.2854596453292003,-0.24329734535675765
1701607,-0.7486342659789056,-0.6464389994671256
3697582,-1.1754292244361924,-1.0791208115514181
465403,-0.5551885919167391,-0.45144666275732204
2221094,-0.23591441542954367,-0.19370025495644
364548,-0.3696647109831044,-0.327006445138046
561430,-1.2176408899105304,-1.1222265172712111
3899623,-0.8550511220546742,-0.7759969474316171
1953348,-0.3948677862983723,-0.35438978750293515
1953272,-0.3865606734981958,-0.2904379941725016
1203681,-0.36085973324254944,-0.3193590177945521
3130625,-1.131086345574103,-1.0295040944722367
3098720,-1.2896249135848852,-1.1887714617556817
1067308,-0.4400767765373357,-0.35185710379107893
2836467,-1.449268530320201,-1.351752830828084
1355415,-0.6273950904115246,-0.5332166982108781
1138936,-1.3882876970260678,-1.2894899048267117
272823,-1.4818494884125972,-1.3814219888459298
483717,-1.0641904161445126,-0.970134501513367
2161087,-1.6271107260502118,-1.5349604306988343
3277587,-0.4789405683917579,-0.4376193114186369
3945141,-0.9244386303000304,-0.8254342534732017
1401316,-0.9083053865592162,-0.8101338305304951
1158136,-1.1365935563946084,-1.0515100872561625
3693208,-1.4625012067514385,-1.3701002556478514
611442,-0.7016447958192571,-0.606879953844077
845114,-1.9035989122052626,-1.8057773195536133
1854290,-0.5428883696342715,-0.4999065749183707
2191644,-0.886943729404533,-0.7869407128315824
2948014,-1.476742445196036,-1.3766658553067534
2886363,-0.9176907525148903,-0.8180760976429007
1367758,-1.1879601229889964,-1.091104268902077
3746376,-0.10376399584703111,-0.0615466301924702
295695,-1.0216442233309757,-0.9110841132453875
