sample_id,y0,y1
1317292,1.1665161329481601,1.020999972143172
1700238,1.166681801101284,1.025007684836522
1332310,1.199869273631739,1.0551362183239135
2705415,1.2300547877043935,1.083694040870487
3462605,1.1874057900647417,1.051659487332847
2647016,1.2798962735494874,1.1333322438014994
2948393,1.4818181131320256,1.3470137429191957
2741918,1.3665688814336856,1.2176216596249807
1369448,1.2545201572013625,1.1079561274533745
906761,1.4745119233981892,1.325829464161362
1067211,1.0136619975996313,0.8748989056521859
1306999,1.3477730349286532,1.2016724530530658
2972951,1.325219004845163,1.1796719709413812
1942724,1.2641619614238562,1.122235562518739
2673483,1.155859602325463,1.009295572577475
901292,1.2614957607372415,1.1146707407577223
3857305,0.8482927051443998,0.7042432106933816
1283032,1.2641498423246424,1.1190938159417292
1875598,1.4182507014004235,1.2716555762349575
2126629,1.038101097087978,0.8929230192068611
469515,1.166530387646608,1.01996635789862
3191810,1.085698202859092,0.9380787584129406
1011815,1.0662722722323064,0.9207561114273183
3381245,1.5058819916109834,1.3593179618629954
378021,1.1518526920781957,1.010202506940781
368813,1.2101461696132028,1.0656703859449128
1882321,0.9786707281476434,0.8332032718151465
2926504,1.2544590236943631,1.1089119897905813
2286899,0.9471796539942465,0.8006156242462585
1104328,1.3946874042517785,1.2543637599590842
1877640,1.1022660847674086,0.9567190508636266
3304372,1.5412614128557203,1.3951608309801329
1830147,1.2658101195806597,1.1202630856768778
1006503,1.1871700638888707,1.0400174046257633
1024910,1.108291414210355,0.9648485694356119
3683580,1.578487197886179,1.4343164988423447
2876111,0.9222188626305856,0.7766718287268037
1544596,1.6480080364079892,1.500357272624748
3445446,1.0412336585140174,0.8959193272388619
3797356,1.3175610205350707,1.1741181757603276
224698,0.9722154224136188,0.8287725776388757
1345890,1.3614290940805611,1.2174101550737457
3917576,1.1246619265881546,0.9791148926843728
1864612,1.3864809379049048,1.2398858127394388
3115128,1.2988735976996044,1.1543978140313145
3946957,1.373742624810676,1.2292361887727952
1634219,1.3080014023500877,1.1624852415450995
3469858,1.4771483680567323,1.333008250166738
2992996,1.3153908072678193,1.1687956821023533
2930466,1.1739469855258058,1.03079383885739
537780,1.4646136969447845,1.3202169051436965
546843,0.9718893648196911,0.8371135889967827
2966237,1.3974441087112561,1.249793344928015
3025114,0.9068439989103143,0.7600189789307952
1363847,1.0570300993539645,0.9080828775452596
497032,1.1072685561521476,0.9694975598419227
2915425,1.170321313018165,1.030280397873136
3696851,1.0150197282213835,0.8705132921835025
2225047,1.2334175540163608,1.0868535242683728
3536362,1.540880314013594,1.396404530345304
3912228,1.3205541483558445,1.1763834493120102
3288994,1.261599950307258,1.1184903714467718
2105055,1.0949882012378953,0.9539687637217712
2489752,1.08843972642799,0.9454201230883833
3345533,1.2458361237595634,1.1007800973766502
963345,1.377946456803311,1.2303270123571597
423046,1.2010445521010293,1.0555283912960411
570558,1.4461313933217497,1.3019912754317553
2495205,1.0006147995010348,0.8555587731181215
2965568,1.2447485081477347,1.0996617062893805
2703261,1.2894236175059426,1.1428595877579546
644644,1.3641296990780367,1.2199895811880423
1226043,1.5953884032627812,1.448824373514793
1872481,1.5181921716119855,1.370278482422751
3689209,1.5420885609651283,1.3954934357996622
294178,1.3843261523040675,1.2392701259211543
2832447,1.517894811210087,1.3707109316442858
3891474,1.128071003673564,0.9839003046297298
3092261,1.424713108455819,1.277062344672578
2175900,1.1225171596134635,0.9735699378047586
1505487,1.162706765341558,1.018230981673268
3206300,1.1876186446083736,1.0465992070922494
3479622,1.2134252129365528,1.0668611831885648
1691251,1.0306077409603356,0.8886813420552184
3220315,1.2600457568844037,1.1132207369048845
3139219,1.4174279272363208,1.2698084827901694
1106070,1.013444684807335,0.8662920255442278
943298,1.1505217180662086,1.0031070203842785
2562287,1.2592320052410513,1.114175978858138
1758536,1.2574387429322964,1.110286083669189
1873563,1.2510154441764694,1.1044203190110033
3447407,1.0597772329488448,0.9197660229574862
1309215,1.0618104199539933,0.9173346362857032
2544651,1.138735998555439,0.9911165541092876
232561,1.198281050794114,1.054005653662472
3496948,1.1154675104097052,0.969951349604717
263900,1.4291280783881923,1.2846522947199024
1561187,1.8068812259188398,1.6596973463530387
3850100,1.1962426800229273,1.052071980979093
910906,1.3440534586310744,1.200034519624259
3924640,1.2249560597772127,1.0773052959939715
326578,1.1818057031834375,1.0374089113823495
409955,1.4172053628988248,1.2706413331508368
1905164,1.326544295963985,1.1788935321807439
3409479,1.0040038606303607,0.8563844161842094
2458125,1.2476750800557181,1.1000556356095668
3216669,1.277473441492417,1.132997657824127
2597139,1.037993831992475,0.8935970401913871
1269068,1.3347446101899683,1.18922844938498
3932542,1.1330386537340669,0.986443528568601
3753705,1.3268695685576757,1.1781871093208482
1588033,1.1059744851308242,0.9588218258677167
1432763,1.4329950660593207,1.2864310363113325
1996183,1.178129673210922,1.032613512405934
2164450,1.1930391750410412,1.049317307863476
2035709,0.9259831037388229,0.7829385744990929
2276836,1.2868402249936661,1.1434625813237482
2528073,1.4950834854645891,1.3529839696257877
2284649,1.0850277846186396,0.9378751253555322
3020677,1.461099695868665,1.3159216179875481
2937151,1.2938546289113588,1.1538137137663296
1617487,1.3535152140832898,1.2079990532783016
204011,1.3653893140984479,1.220913530430158
440289,1.3597485887967797,1.2152728051284898
1111565,1.283696757334824,1.1399991671839786
1505654,1.2905957924294857,1.1481785014853347
3425547,1.5235741086463317,1.381923923508917
2986415,1.364042132456963,1.2189553305986087
2185615,1.0737150488779579,0.928536970996841
1767919,1.1338536231568674,0.9856413104458633
3310986,1.0864105716483539,0.9403099897727664
2660497,1.196053185575451,1.049228165595932
1003300,0.9910076523810677,0.8446469055471612
657107,1.482160288211013,1.3353352682314938
1477044,1.1968152901144669,1.0517592637315536
2229195,1.4095212737835336,1.2619018293373823
2594908,1.6035803495167378,1.4585243231338247
1195015,1.3945853538166386,1.2501095701483487
2285417,1.3345628690157585,1.191440087660336
3851709,1.312610544527235,1.1694706031548325
1226876,1.2353982291642747,1.0875159150832565
1825634,1.3324514740913356,1.1866452609459452
643577,1.2778615820143129,1.131297552266325
1585274,1.3155760890055148,1.1757841049409825
3434275,1.2065015257835447,1.0623614078935504
1758486,1.3247139440932618,1.1806950050864464
3433655,1.156732042545916,1.010168012797928
729778,1.384107084847022,1.2385909240420339
1917317,1.3577343613267143,1.2087555384761148
1570617,1.207743500949002,1.061148375783536
2135994,1.2865666456388518,1.1402058988049453
3144448,1.19907496229554,1.052510932547552
1766228,1.182275729960468,1.061465723789691
1162529,0.811013910647071,0.6712515789335266
1786423,1.0704161016580453,0.9260193098569575
847820,1.2884304993722533,1.1546183116138682
857938,1.4147033158872258,1.2681392861392378
1753883,1.1733311563307383,1.02781499552575
1980040,1.1655174826293635,1.0251830777949034
824011,1.2631275205561299,1.1216820355380737
3304843,1.4302785120700343,1.2847623512650461
3524981,1.1308743471798028,0.9867209317230645
825789,0.8314774554490865,0.6957311527171919
3059815,1.6121645485665799,1.4642508593773453
197117,1.3282935548106016,1.1828569546970886
420942,1.2040985978176975,1.0604003207835275
2119527,1.7157539879803956,1.5702378271754074
3095402,1.5602748151076582,1.412624051324417
872593,1.3330789578869702,1.187562797081982
1846652,1.2646153912264304,1.1177592204570463
2702223,1.183213791522382,1.0360611322592745
947860,1.2015901031863008,1.0560739423813126
3017235,1.339109201416235,1.1999820460865998
482742,0.9404757063775533,0.7936506863980342
3722984,1.170431668371048,1.0248846344672662
3303103,1.462802128747097,1.316238098999109
1039786,1.2399350209572857,1.0923155765111343
1810651,1.1023531133178224,0.956546900172432
3758377,1.2379100935590328,1.0913460638110448
280986,1.325669106347517,1.1777867922664988
2270352,0.7926906707617671,0.6515771718694179
665400,0.980014181544606,0.8455515351233058
937454,1.074374198724559,0.9272215394614517
1666456,1.730348294757139,1.5896870866848993
1755171,0.9794843721904265,0.8339682113854383
649089,1.2397041900160537,1.1064279052441766
2548499,1.1685240924948843,1.0219600627468963
3178245,1.0407443529835825,0.8941803232355945
2285128,1.174277950125648,1.0332585126095237
3800994,1.1651630952770473,1.0186791991409383
3064556,1.5145512165070545,1.3673673369412533
2027206,1.3681969172229205,1.2203146031419023
3878314,1.4657887031756773,1.3212822671377964
2491452,0.6897028370427399,0.5428778170632208
3424258,1.4862150371089835,1.341481981801158
2518459,1.0589944118310777,0.9168948959922762
2755642,0.9680901501303962,0.8209374908672888
392102,1.3621067830037348,1.2157460361698282
2181314,1.3074493341113451,1.1587668748745177
3754092,0.9871354960288072,0.8471242860374486
466327,1.3648838165671977,1.2204080328989078
471760,1.3880577478828369,1.2433246925750114
1763306,1.079440272597929,0.9318208281517777
3370621,1.4170223960219945,1.2725466123537046
1326578,0.923238850693789,0.7790987328037946
547004,1.3460483332334663,1.201908215343472
2478754,1.272470943063925,1.1269547822589367
1366371,1.3584765415814126,1.2140007579131227
607990,1.3183977626958632,1.1739219790275732
2250639,1.1694372444580798,1.023890210554298
3492358,1.4458499288414908,1.2992858990935028
2797198,1.192958796427074,1.0455440987451439
920281,1.2996933339311032,1.151481021220099
869125,1.3620584235137412,1.2170683314979038
1758102,1.3169121620362723,1.1703481322882843
1450937,1.2977263914294899,1.1501069469833385
3845919,1.3061712523375404,1.1589873727717392
2468482,1.2315792971218789,1.0894797812830774
414602,0.9363747644825271,0.7908586036775389
1205194,1.2862996489868597,1.1386802045407083
573661,1.2336360251459777,1.0846888033372728
1232663,1.535851119939583,1.3960591358750507
284131,1.3725589336255384,1.2267836485554404
3037652,1.3836354494594214,1.2367792786900373
1905971,1.406102980932106,1.2592468101627219
975328,1.5844244809450752,1.4393684545621617
718796,1.186866159610109,1.0478559687560796
2151639,1.3878207982087887,1.2412567684608007
476135,1.1945813716358662,1.0469619271897148
1378817,0.9979122481652523,0.8500299340842341
3158570,1.1416729948710787,0.9927257730623736
2658248,1.2859942701632687,1.1459830601719099
316223,1.0876315506314322,0.9431557669631423
1291015,1.1151718912094546,0.9719280002949466
970864,1.2287372083084611,1.0836811819255479
1074397,1.2863803793291375,1.1387609348829861
1268342,1.5631624004842557,1.4165983707362677
3420847,1.5233988695529326,1.3768348398049446
3928056,1.152571825385688,1.0070247914819062
1053669,1.0869160610872377,0.9461472940334964
1318371,1.360374301307618,1.2129596036256878
3849623,1.5016883846358462,1.354037620852605
1826258,0.9457294514598156,0.7980786876765744
436164,1.3528334151104242,1.2070581300403262
1862825,1.048775014674259,0.900061010568274
1139112,1.0226090108107269,0.8784688929207325
2001250,1.3574019485773547,1.2108379188293668
1872248,1.5351482249915085,1.3907074735076315
3129700,1.3133244097819252,1.167808248976937
2859788,0.8585852921011472,0.717471793208798
3320225,1.074344632564111,0.9267251881179597
3323289,1.2609787316537842,1.1133592872076328
1401449,1.260455091841757,1.1170122470670139
974983,0.8916257005843037,0.753031660873558
1050550,1.0261188838586066,0.8810628574756934
3493493,1.2994768699072559,1.1526518499277367
2045973,1.4154047615807073,1.269888600775719
2513867,1.554623027320192,1.408058997572204
448278,1.1241844441177127,0.9807415993429695
573520,1.0977603414773531,0.95270431509444
2122404,1.0150264293121292,0.8668141166011252
2577790,1.3219845017801046,1.1754204720321169
1070186,1.0305872430569345,0.883434583793827
3300664,0.8722981723126929,0.7272421459297796
261321,1.2615421950811245,1.1178439180469546
3848102,1.4738086191966955,1.3283720190831825
881147,1.3291718199154023,1.1826077901674144
2700252,1.5264225360242243,1.3798585062762365
928380,1.7588006670727427,1.6122366373247548
1580690,1.1583649797979834,1.0096509756919985
2270416,1.3263575942099286,1.1808105603061467
472592,1.3395033022043508,1.1929392724563628
2925391,1.341870002337536,1.1973635662996551
1211971,1.1385542668005737,0.9930381059955855
332554,1.3034317091321044,1.1570709622981978
2628819,1.0710191945347023,0.9244551647867142
3536543,1.1586818168221313,1.01106237237598
1676085,1.4099855116974456,1.2680591127923284
387075,1.1125043376662096,0.9688060606320397
1212933,1.2215332339122178,1.0749692041642298
306485,1.1504637103014004,1.006323592411406
3776513,0.8807632001395777,0.7349879150694797
3668104,1.4082366973400833,1.2605859335568421
1267808,1.2289682720078459,1.0824042422598579
1026049,1.1433499675148202,0.9961973082517127
2196257,1.0551491692552695,0.9096330084502812
3098265,1.3512797729169475,1.2057636121119593
685049,1.6040782944128549,1.4572532744333357
2799043,1.5336555340733429,1.3927614875356809
1666296,1.1269254334235024,0.980824851547915
587647,1.5944418962762374,1.446822451830086
3749581,0.9454383236150492,0.8007052683072238
578763,1.5597251513573978,1.4131611216094098
1705974,1.3570350888309526,1.2120205014263317
2749497,1.6059882597139938,1.4618348442572553
1288503,1.2686672391050091,1.1197200172963042
911621,1.2846895740391553,1.1381255442911673
295547,1.0526615103893964,0.9092186656146533
3382602,0.744047969951897,0.5968953106887896
1286850,1.1092729781732458,0.9610606654622418
3084813,1.1720514953482857,1.0322595112837534
1294902,1.2550933507642186,1.1096567506507056
1521985,1.5180112356259472,1.372495074820959
1717493,0.9482887723287705,0.8060456653880204
1551258,1.1015808164457364,0.9539300526624952
1705259,1.197255113466629,1.0577932726417074
582337,1.3879918988710729,1.2432588435632475
2167145,1.2631961648036862,1.1145137055668588
2415983,1.2815177603791148,1.1440668523738555
194536,1.228353399944173,1.08245545818488
3877199,1.5175937926413594,1.3716648967836025
3486897,1.2035372263420954,1.0569731965941074
1427962,1.238201230371894,1.0905817859257425
3404346,1.1626825659940576,1.0219137989403162
2845439,1.2952466759177026,1.1496996420139207
662688,1.169838916261157,1.021956602180139
999318,1.2897888044911505,1.1442726436861623
3847359,1.32258562735725,1.1738716232512652
2624273,1.2317448192093128,1.0909760521555714
1196773,1.1288371641256374,0.9812177196794861
2583492,1.1932216439509544,1.049202704944139
1691703,1.0538671037922773,0.9132058957200377
1028413,1.4201869714411706,1.2730343121780632
2733666,1.1648556820938452,1.0227561662550437
2575876,1.3271829571876603,1.1814076721175624
3843815,0.9019742641400754,0.7574984804717855
1568920,1.0314128482642642,0.8848177230987982
2008398,1.226452009609383,1.079887979861395
2631032,1.3278799801607168,1.1802605357145655
999813,1.2962698251273042,1.1486503806811528
2550040,1.3966250143804326,1.2500609846324446
408511,1.3508807333766772,1.205105448306579
429790,1.2834371257970456,1.1403275469365595
556540,1.4791979529074906,1.3313156388264724
2754883,1.4063968880545055,1.2609468707679994
1405915,1.360568541380995,1.2165496023741795
2276426,1.273419112577956,1.1334079025865973
2806882,0.9727722281198308,0.8350638548089369
1807002,1.0651309864892144,0.922748228590486
3164725,1.5579578990568586,1.4132248437490331
1625566,1.1283573913908111,0.9819966445569045
2844316,1.4697586836677339,1.3231635585022679
1676830,1.2206150805769556,1.0852751579725277
3950866,1.0354234543958596,0.8912527553520253
3244934,1.2227126748032933,1.0758876548237741
1632796,1.1136443346221512,0.9670803048741632
1428261,1.418010562872146,1.2703911184259946
3549416,1.1936701099445035,1.0481539491395153
526035,1.2061449604557903,1.0616691767875004
683857,0.8721490136499914,0.7253239936704723
1811643,1.608490513568906,1.4630096372167922
479894,1.4027917914875567,1.2572756306825685
2044213,1.1100470179260906,0.9634829881781026
1960748,1.3161644078266705,1.1745677516226452
1285048,1.0351336910472049,0.8896175302422167
3748236,1.450893856868463,1.3044099607323538
2636269,1.1371927067303065,0.9897780090483763
1993526,1.3530235786466576,1.2064595488986696
3152216,1.1025159441785823,0.954896499732431
365947,1.5788532267176756,1.4345778295860336
1793199,1.132300657481758,0.98652537241166
3417816,1.2633177476016733,1.1167537178536853
1000730,1.1696944515028207,1.022075007056669
3960092,1.6647897773102907,1.5197029754519367
3322462,0.9020800168698626,0.7573469615620372
1401857,0.9743700136396258,0.8296369583318004
535337,1.3171428080313823,1.1719647301502654
2893505,1.4595798271337668,1.3144930252754126
3655178,1.4100704914397844,1.2655947077714944
3387250,1.204739784053705,1.0592236232487169
337726,1.6735942727421067,1.5259748282959553
1780585,1.4198998399511926,1.2712173807143652
3705803,1.3213855731785986,1.1745294024092146
1395411,1.1389957640883501,0.9945199804200603
3033291,1.682843121430323,1.5364513223079868
2124901,1.346808492626127,1.1983322545449164
1405646,1.1835154546811113,1.038459428298198
1615757,1.073422673006873,0.9252103602958689
2517727,1.4834471407243124,1.3362632611585112
2180212,1.1981304430868198,1.0544328529359746
1499441,1.0760252243671677,0.9318718089104294
1853554,0.9601512783539361,0.8146042444501542
3154377,1.3377214006250548,1.1905687413619475
1252961,1.610993094026625,1.4623106347897976
3263914,1.215291861518695,1.0676724170725436
1460972,1.225704991568827,1.0780855471226756
2818983,1.1821374427315985,1.0344866789483573
1151015,0.9346316553689284,0.7895756289860152
3871743,1.0527033520771047,0.9072358957446078
2845800,0.9970891513001661,0.8525827152622851
1149613,1.3042098953075283,1.157057236044421
1488294,0.8726202383950916,0.7260562086471036
3913419,1.413622732085744,1.264908727979759
2488888,1.2956110212017515,1.1500948603967633
2790215,0.8962597562814294,0.7504844712113314
438748,0.9937599336281451,0.8469349136486259
3089339,1.401294566758148,1.2554883536127577
3435466,0.8748191404969523,0.7269368264159342
672340,1.4018506242291364,1.2563344634241482
1246552,0.9106006018949766,0.7637444311255925
752935,1.0857195055026783,0.941700566495863
563376,1.108237383607554,0.961673353859566
1128613,1.0540609219055432,0.9058486091945392
262639,1.2530515260424424,1.104369066805615
1108473,0.9591251436968886,0.8185516215830388
2010730,1.2720016148102067,1.1264854540052185
678963,0.9271653161271141,0.7816491553221259
1291409,1.174150610571734,1.028634449766746
1502248,0.9120312105063411,0.7665150497013529
3195520,1.4407748040461241,1.293949784066605
1685832,1.2376135063943476,1.0959393901295855
1375596,1.2046024152033046,1.0601266315350146
1143990,1.290053160455998,1.14348913070801
2643698,1.6024575931367875,1.4569414323317993
2630064,1.3844346057427503,1.2389184449377622
2440703,1.4174122269886096,1.2719756268750966
1893165,1.5082075630639236,1.365054416395508
2167792,1.1948425200388313,1.047689860775724
3956994,1.3684950339558954,1.2276964010231461
3941225,1.077918821066366,0.9323717871625841
854512,1.344969918949023,1.2126465015341026
3865598,1.4807002368206397,1.3375602954482373
2412405,1.3949621164602881,1.2494459556553
1120552,1.425139649261695,1.2820168679062725
2260120,1.4818045212671893,1.335998308121799
3072584,1.0041031015514508,0.8593462862264618
3960392,1.2833942992508995,1.1423449426728498
400674,1.4146285502076636,1.2688532651375657
2398043,1.1470366471518147,1.0081567986400963
2146541,1.2151335042358533,1.0693582191657554
1524661,1.2736998516382136,1.1329310845844722
2547948,0.8903067349853365,0.7458309513170466
990487,1.208295150269256,1.062519865199158
999081,1.1260449917530013,0.9860337817616428
3737272,1.2659178911315605,1.1193227659660945
606045,1.5928581404558282,1.446033120476309
361613,1.341817563684441,1.1974074506372998
3205975,1.003873527354833,0.8573094976068449
3082238,1.25214013354353,1.105283962774146
214763,1.2433381114318804,1.095718666985729
2781007,1.210336981993291,1.0648208211883028
2107128,1.6441468244605335,1.4985082249959325
2435560,1.2960768988025404,1.156078604276305
3156557,1.1772107057889978,1.0306466760410098
1573094,1.51017545534575,1.363580330180284
3952760,1.43917149716777,1.294665061129889
614819,1.3649880960895384,1.2239686585734142
3546616,1.3501277974282972,1.2035637676803093
287585,1.5092661915347867,1.3695038598212423
3465803,0.9235588971752697,0.7780427363702815
1425608,1.2810637943788183,1.1328514816678144
741140,1.4856571556077234,1.3390931258597354
2912539,0.957780558694401,0.811185433528935
1596464,1.1684321024447537,1.021868072696766
2859450,1.1024151159371256,0.9656622897929574
1230450,0.8887235774238897,0.7435146981725587
391314,1.3268259814177972,1.1810506963476994
726515,1.358102064246083,1.2193389722986376
2144028,1.104587214134183,0.9590710533291948
2169631,1.113376186272819,0.9715937364891045
2979176,1.5044279568995278,1.3578328317340618
3435968,0.9476809639146482,0.8032051802463582
2825229,1.4611004057361299,1.3158781303200677
3241532,1.264142470392684,1.1201235313858686
1410541,1.6822602662725132,1.535696236524525
1832436,1.3388728541993093,1.1967431901462704
2638514,0.9028252945457653,0.7567247126701779
3183268,1.444172927304196,1.2954904680673687
1458937,1.4295794738839287,1.2830154441359407
3782715,1.6355041204278646,1.4891433735939583
1762573,1.2560150135244124,1.1104679796206305
3186940,1.184404157229528,1.0367847127833767
1639936,1.2170698212554567,1.0709692393798693
3809662,1.3621831254617525,1.2187402806870091
245087,1.2011974783261692,1.055681317521181
2889056,1.0143045267916833,0.8663908376024487
2560258,1.0370183050064892,0.8962625232994316
1583630,1.0743237771252292,0.926673013341988
2059949,1.0843216879793518,0.9371690287162444
1292628,1.2581938219467739,1.1134607666389484
695491,1.2872249581651176,1.1437821133903745
1351882,1.150757611598605,1.0060245562907795
374711,1.0199010585126727,0.8875776410977523
1457211,1.3003665170508245,1.1603553070594659
382611,0.9575293247803396,0.8133892068903452
1490465,1.5113088418305696,1.3636893973844182
1240917,0.8898256771264133,0.7442786432226314
2191750,1.3628171573059633,1.2146048445949593
3192348,1.2572352069674249,1.1117190461624367
3164259,1.3117369998309119,1.1717257898395532
1948625,1.3083388627422705,1.1707363677673173
3714507,1.3085196536891315,1.1640132176512505
3505562,1.2022170066989686,1.0567008458939804
519218,1.3597057778168637,1.2128807578373446
3494793,1.3096149239498984,1.1638396388798005
939366,1.1282677976026871,0.984824952827944
243920,1.1465907985276824,0.9987084844466643
761182,1.0574658281104412,0.9109017983624532
1637789,1.1809849721006733,1.0375421273259304
2456068,1.5521169350734076,1.4055529053254197
3940617,1.015390254997771,0.8677394912145298
744093,1.487083791945033,1.340519762197045
2147279,1.1856303045175873,1.0401141437125991
1676373,1.3654372451555825,1.2271524497457076
642294,1.1305446747374368,0.9854886483545234
2125214,1.6700990425651,1.5211202197145006
1536601,1.3597029069007303,1.2131077817352642
3270284,1.4226727836195459,1.2808903338358313
272075,1.46766333409646,1.324285690426542
2587911,1.1404925761839393,0.9939285464359513
1553873,0.9913623603726458,0.8468559243347649
1344797,1.3819663220825376,1.2354022923345496
3210536,1.3296496174333028,1.1845935910503895
3152754,1.2500606170855457,1.1032355971060266
1367842,1.088892749094825,0.9410104350138069
554580,1.343539972321855,1.1959205278757037
618082,1.5028812822953952,1.3557286230322878
3886704,1.3585320671779155,1.2140256311400346
3020210,1.6904518052858932,1.5428323608397418
297311,1.5599543882757443,1.411271929038917
506946,1.2739822989451588,1.1352192069977134
3147789,1.0967041106440447,0.9480216514072173
2112926,1.2808117736820355,1.1437822017192045
2114491,1.3541047221004738,1.2062224080194557
1912406,1.559088018952544,1.413865743536482
2027916,1.4056757705520864,1.263576254713285
2844693,1.1638014278424673,1.019374000430915
2573933,1.355482098421902,1.2104260720389888
890252,1.4423823908756002,1.2952297316124928
1937103,1.0994731695767155,0.9588119615044759
2186391,1.1644818567173718,1.0165995426363537
2418688,1.0908807236595652,0.9464049399912752
1742869,1.3879332556278248,1.2413692258798368
3453179,1.3552354917271918,1.2084104717476727
2654844,1.0211631401966865,0.8756469793916982
2278770,1.3123751540312243,1.1636926947943969
344239,1.4849563315806957,1.3408162136907014
1107111,1.2990898880359727,1.1514704435898213
2137757,1.109651222099823,0.9609687628629956
3678506,1.3275786817602244,1.1831512543486722
1041184,1.3813204929514074,1.236264466568494
1903998,1.2222377717092219,1.075983236264286
3371895,1.7769436816138104,1.6290613675327923
3929305,1.438861577854016,1.29226645268855
3255598,1.2533017143835368,1.1081236365024199
1094412,1.524974312863991,1.3885061189525894
1783879,1.4498861342439295,1.3121151379337046
1489455,0.8734412677345131,0.7289654840662232
2114195,1.2055654448950681,1.0597901598249702
2700797,1.0079549672277581,0.8624388064227698
981857,1.6042402819659665,1.4587241211609783
2601171,1.5437184595031956,1.3982022986982074
1379671,1.3708830245639794,1.226149969256154
2481832,1.4236565208785088,1.2778812358084108
1775879,1.206827105252211,1.0613109444472228
2110977,1.0350584650270442,0.8898803871459273
2980657,1.0383646133841264,0.9035602431712965
2503011,1.2266227783301364,1.0800587485821485
1029283,1.3886853302218027,1.2425847483462154
1787318,1.1418087785541546,0.9952447488061666
2716173,1.004154972477342,0.8610321911219194
2708519,1.2197779420657542,1.0732139123177662
658634,1.759195053828505,1.612631024080517
2164514,1.191237572774317,1.0504688057205755
1319239,1.4989614172070618,1.3534452564020736
3340122,1.3886061347482814,1.2396589129395765
3349904,1.4666714238711787,1.3205708419955913
1975110,1.341526416820865,1.1960102560158767
3127200,0.9709048727916639,0.830580557743314
616664,1.5164210203367583,1.3677385610999309
1519012,1.5873366496689296,1.4407726199209416
2967764,1.323996420070085,1.1752824159641
937452,1.1653837472661048,1.0243001810413996
3102453,1.2896502315964284,1.1435186526297068
1707177,0.8509747467321805,0.7080263289338914
3546357,1.0819503096010328,0.9364341487960446
1986523,1.2885077717196927,1.1481733668852325
644816,1.1317959005761267,0.9828486787674218
1084731,1.1359747929855655,0.9886911727884673
2223028,1.4072256446535987,1.2627498609853087
2063365,1.2252436237871838,1.0807678401188938
666496,1.0554859942197745,0.9121083505498567
1599523,1.3122574440001684,1.165104784737061
1249821,1.245609443048399,1.0979586792651579
2521555,1.393940502488502,1.2457281897774979
3536571,1.035494481668857,0.8957321499553126
3142010,1.5180574562961415,1.3704380118499901
3916470,1.1507539571668943,1.0056671553085401
859028,1.1599959935450914,1.0168732121896689
3034236,1.420808003830206,1.2750017906848157
1642717,1.3842635096198845,1.2408858659499666
320652,1.4257820443955698,1.2800067593254718
2859307,1.3964407860143155,1.2503092070475939
3949352,1.2020715637954742,1.0559399848287525
2484732,0.896579030433254,0.7524083313894198
1429866,1.2189089948756544,1.0738529684927411
415491,1.449932296494099,1.3009850746853941
3365205,1.393194444416746,1.2455749999705945
3041197,1.1782724395144648,1.0292936166638653
1850289,0.6535348219987801,0.5048208178927952
2233794,1.5455902666525718,1.401114482984282
1074580,1.041717501028489,0.8935051883174848
822374,1.1565221937720511,1.0154053341305769
1126993,1.2695177888804345,1.1229537591324465
2897761,1.3197200942366678,1.1728639234672837
2804294,0.7731062799602022,0.6265111547947362
3309799,1.1721728650239098,1.0266567042189216
3357652,1.5297866421543203,1.3811041829174928
1292976,0.838734356917581,0.7054580721457039
1009525,1.1356007393360648,0.9869182800992373
3249720,1.2114755858729225,1.0701414642008809
1552444,1.5390416613662135,1.391127972176979
2444240,1.224282363939197,1.0795493086313717
2899194,1.200502274628588,1.0564527801775698
711249,1.3050973773041703,1.1653479380977396
817911,1.0911893898313172,0.9494920293022826
3385126,1.3133956036677152,1.1657761592215639
3462304,1.0444270004849914,0.9035153134833354
1842513,1.0633471288704965,0.9146331247645118
3483633,1.2777491735101238,1.1311851437621359
2855117,1.3531849236241733,1.2086784875862924
2022218,1.575245060344679,1.4352338503533204
1074771,1.178278005891296,1.040261677323988
1263308,0.8868123360708483,0.747050004357304
573340,1.2185785599714962,1.0728032749013983
930873,1.270674939128855,1.1275521577734324
3803853,1.4845462175089315,1.337393558245824
897257,1.297685529853045,1.1500660854068936
2280150,1.3439594399407468,1.2052722164568832
983205,1.101413270425621,0.9529370323444105
3300305,1.070122673028092,0.923558643280104
681592,1.3350909978866512,1.1889904160110638
1028514,1.0083499430954075,0.8622493612198201
3425857,1.3771455244938,1.2295260800476486
3260033,1.1362179374894426,0.9885984930432913
1785456,1.3677836197805366,1.2267000535558314
966727,1.3660812330130823,1.2178689203020783
2527144,1.293247446017441,1.1522280085013168
3497582,1.4131196123526517,1.274109421498622
2828873,1.0827560790748667,0.9355721995090656
1344973,1.0600100620048816,0.9276866445899611
518412,1.0964747054604767,0.9499106757124887
413954,1.0535328683065042,0.9077575832364063
2010250,1.0441089672315365,0.8985928064265482
2170545,1.29359909761094,1.1495801586041245
2643630,1.0057704288837035,0.8654467845910092
945197,1.5201747799492513,1.375441724641426
3040938,1.4583526602991213,1.31070189651588
2251339,1.3176429342038214,1.1704590546380202
555914,1.5836458753852585,1.436026430939107
729589,1.4978480362140405,1.3523318754090523
1945505,1.2449417930189,1.1012199258413349
287680,1.1716969904384664,1.0253362436045599
3360701,1.0463104258692257,0.8997463961212379
1608118,1.1362354465267435,0.9901348646511561
1062206,1.3834333620256383,1.2376580769555403
2602608,1.4407154891103966,1.2973378454404787
299079,1.1797075358773885,1.0400613766237592
1499694,1.2380568386610418,1.0901745245800236
972958,1.5901148976994037,1.4456391140311138
480251,0.8558005375490834,0.7100252524789854
2456258,1.2792353001896484,1.1357924554149053
1900975,1.3975847419691985,1.2520377080654166
2702857,1.2936100800225048,1.1470460502745168
1940023,1.34608943980535,1.2044153235405877
3200086,1.1479073101256454,1.0013432803776574
810584,1.25152350207966,1.1051627552457535
3953295,1.3079006132115574,1.1623535793077755
2551542,1.343614755852811,1.1946675340441062
2006473,1.2868177672941024,1.139198322847951
3373196,1.1614489435604305,1.0148849138124425
414241,1.0531072080652413,0.912087770549117
428029,1.4037109506186873,1.2626915131025631
1506282,0.7851850835631935,0.6394097984930955
861437,0.9668281380796755,0.8189458239986573
1951928,1.0037107481914145,0.8620366319266524
1001124,1.3231434517300331,1.1813610019463185
435757,1.371335878982207,1.2237164345360556
3652823,1.1071626379832264,0.9674003062696822
3038659,1.2505476487548572,1.1098803626948188
293363,1.2984857547140713,1.1516607347345522
1961372,1.425755883682324,1.283829484777207
2150199,1.137243669496578,0.9906796397485899
1485142,1.3530587457808063,1.2064947160328183
198140,1.2800420461195865,1.1310948243108816
2808901,1.2632537151980843,1.1201005685296685
2622957,0.7956822114711446,0.6491181817231566
3958059,1.3676311094608615,1.2214995304941398
3915710,1.1338487006958753,0.993050067763126
3875323,1.134392305904408,0.987208426338607
2791137,1.2515231428602454,1.1049591131122574
641809,1.1354075232039154,0.9885825032243962
2178250,1.6260060733699002,1.479181053390381
2935979,1.4176734529425092,1.2721264190387274
3773064,1.3283404116665039,1.1817763819185159
3122871,1.099856003136526,0.9519736890555078
3327054,1.3039773956556067,1.1563579512094553
2976981,1.5188054559494237,1.3722103307839577
1391555,0.9691906441430116,0.8247148604747216
1790741,1.2665962826133637,1.1200322528653757
883214,1.5787644013845976,1.4326638195090102
2030827,1.196531196403514,1.0617554205806055
3476110,0.9061303050395914,0.7613979415613711
1353019,1.1027578944653182,0.9569826093952204
310889,1.3231772108373137,1.1766131810893257
3840717,1.4739065879654176,1.327775008998696
2168714,1.2903982442875055,1.1438342145395175
1982039,1.438399946099603,1.296725829834841
722814,1.3708012844138868,1.2221188251770594
2587864,1.348344992400067,1.201780962652079
3349118,1.131430828052947,0.9869550443846572
206652,0.7583669639765773,0.6118029342285893
2685406,1.1829838522248428,1.041333667087428
2772800,1.1627794731708334,1.0162154434228454
2393400,1.1993606364253373,1.0585918693715959
3110678,1.3570236549834132,1.2104285298179471
237499,1.1827785286121686,1.0383027449438786
281086,1.3900702726606442,1.2439696907850568
684025,1.2432560875039849,1.0977399266989967
3277674,1.0330756436663857,0.8878975657852688
3938060,1.3269309967005463,1.1813839627967644
2111910,1.1854559490976966,1.0377122962693914
814953,1.546273299595068,1.4025278521817446
1853902,1.0339922747074237,0.8908391280390079
3159184,1.173779632056815,1.028004346986717
1563721,1.1298902099009198,0.9841149248308219
1761952,1.4906624701968088,1.3490766713212825
1913110,1.6052774618164398,1.4576266980331987
3911969,1.246156168014415,1.1008110064611603
1013768,1.5084697293342333,1.3619056995862453
867702,1.403848968932756,1.2570239489532369
2399770,0.9329996346201728,0.7939894437661432
1115129,1.30799481002802,1.1672260429742787
1582213,1.0258501239913,0.8823768459980506
2634372,1.3573062080963765,1.2115309230262785
1436402,1.1591789969301645,1.010496537693337
1405235,0.9092763039632197,0.7642202775803064
2593430,1.3122447498222853,1.1667285890172971
729988,1.1011739035498898,0.9532915894688715
2013905,1.0220595467950475,0.8754955170470594
2063235,1.302301866209963,1.1567857054049748
2748325,1.3043261459802664,1.155643686743439
2551924,1.3497615755023484,1.2031664503368824
3011123,1.4666632381667624,1.3204087027218265
466893,1.1718499369221,1.0271168816142746
1746593,1.68361988315623,1.5375193012806425
1116327,1.5568687135750081,1.4079214917663032
462982,0.8374402801647077,0.6937420031305378
1483308,1.1153429905956695,0.968982243761763
560164,1.5142190161884364,1.3663367021074182
2274305,1.5010300521850264,1.3565236161471455
3274525,1.0441728974135582,0.8976088676655701
1535859,1.0204094324200583,0.8738143072545923
1495381,1.388327293751809,1.2396448345149815
2835816,1.423627594672781,1.276771423903397
748559,1.1272480345941922,0.9817318737892039
1907287,1.2872903903560775,1.1427839543181966
1255355,1.3381769642071648,1.1899646514961608
2638185,1.1900036419418119,1.0444874811368237
2809445,1.0340749097822088,0.893970310912475
2238790,1.17339729990588,1.0278811391008917
328717,1.5005760633723968,1.3529566189262452
2278171,1.0799705565103876,0.9352375012025622
2053339,1.262590433071625,1.1184370176148868
895225,1.4990417757142325,1.3524777459662445
1220520,1.1835872664009597,1.0404644850455371
651556,1.2976672278358379,1.1500477833896865
3427338,1.1126836500986728,0.9658586301191536
1231075,0.9110443264694015,0.7654972925656196
1150831,1.5003526804619896,1.3535276604824704
3889242,1.3517235490883275,1.2054690136433917
2142862,1.137896690434575,0.9902459266513339
2560870,1.2035535746881645,1.0580374138831763
3726469,1.2456333394892092,1.1011269034513282
2623456,1.2214756215965497,1.0759594607915615
1660417,1.2340067589802994,1.09002896268114
1560519,0.8950764077632405,0.750892408331415
3247901,1.1450581472169232,0.9984941174689352
3323939,1.1714636938827399,1.0235813798017217
1321041,0.9506511342485098,0.8048758491784118
872574,1.2278935571772285,1.080274112731077
1946426,1.0722956701325181,0.9306215538677559
1522064,0.9785793102459971,0.8438035344230886
2248868,1.3024829676405538,1.1558878424750878
1141242,1.0672745283835319,0.9201218691204244
2263206,1.2438816511768052,1.096230887393564
841533,1.3989115746971836,1.2512921302510323
633919,1.2342976927910647,1.0901575749010703
3147367,1.1303010932524318,0.9847849324474435
2156950,1.263074642758482,1.1168511304859237
3386419,1.414218245040779,1.2665988005946276
3357730,1.282634500982303,1.136070471234315
3399924,1.2306914345857078,1.0841274048377199
1082703,0.8950470838415461,0.7484830540935581
1756824,1.5495843642282687,1.4030203344802807
461074,1.2640124351776754,1.1175285390415663
2557104,1.4642159158335473,1.3235547077613077
2594597,1.7497845552822728,1.6011020960454454
2883890,1.5863855719409157,1.4395294011715316
3412481,1.429376193907433,1.280428972098728
3007035,1.5536664323488132,1.4070713071833472
552693,1.3340496299288105,1.186430185482659
3508998,1.3586956066675635,1.2110761622214121
1510875,1.0209087541410022,0.8719615323322973
899618,1.1340188847129726,0.9940076747216141
880158,1.5326610473880733,1.385508388124966
2527969,1.1577599630346176,1.0134845659029756
2138552,1.17957792273504,1.0392542784423457
2628817,1.16870141385468,1.0242256301863901
2011082,1.3503597372664469,1.204584452196349
652511,1.2309377213789112,1.0923670925190776
2807027,1.027139111891443,0.8837746942264744
3716765,0.8529318762915165,0.7084254402536355
1526644,1.0892983833452794,0.9406159241084519
1470038,1.5801100772621215,1.4345939164571333
1531194,1.3083348477308034,1.1641814322740651
1770327,1.1954382098355145,1.0482855505724071
2021134,1.045198933979885,0.8965164747430576
2418420,1.1610482468955692,1.0144842171475812
1421866,1.2361458030304349,1.0920056851404405
2202058,1.1448451810826192,0.9990698960125213
3477495,1.3629034720099091,1.2163394422619211
1359748,0.7166081984074991,0.5788372020972742
922673,1.2377354485068797,1.0903207508249495
1992736,1.2345960819656394,1.090442666508901
1759571,1.4288768284795041,1.2855124108145355
1380047,1.4132455454182966,1.2658308477363667
1980238,1.3172199033461245,1.1734980361685594
2185783,1.6379524192132597,1.4913883894652717
869536,1.0959024916166573,0.9498019097410698
695265,1.2347202537717505,1.0889449687016526
2731824,1.7657513888159706,1.6191873590679826
1007825,1.485768070516686,1.339204040768698
3150322,1.2361674750329257,1.0874850157960982
3386283,1.3891105431958655,1.2425465134478775
3338172,1.3712963503672515,1.2257801895622633
3777436,1.1512325467371134,1.0081097653816908
3269156,1.3971487120234543,1.2505846822754663
2196597,1.2953735184761928,1.1513545794693774
1784607,1.0026042739329968,0.8592398562680282
847959,1.234073811611961,1.0864543671658096
2748093,1.0696821496149056,0.9220627051687542
3808547,1.3302685140726136,1.1837044843246258
2520361,1.2603402247274682,1.1137761949794802
400720,1.2719971816101674,1.1245824839282372
372751,1.3040612104133416,1.1572361904338224
3774990,1.1608687385409022,1.015352577735914
2738689,1.2861030401661917,1.1382207260851736
483178,1.3004800586197398,1.1573704797592537
3955323,1.5473797812606098,1.4007846560951438
2465711,1.3412286258093278,1.1990989617562888
1198503,1.3277634416671358,1.187007659960078
313647,0.9881676350579676,0.8416036053099796
3835062,1.2932298218855747,1.1511303060467732
2599639,1.5080403809015182,1.3604209364553668
3887128,1.3789477524253233,1.2328161734586016
199169,0.9647772094761129,0.8190019244060149
2022864,1.3010227177513143,1.1552474326812163
2900297,1.0536487366112564,0.9059979728280152
1449589,1.2033628892387858,1.0557434447926344
1664833,1.092023994698543,0.9740306145751687
1205675,1.636066103932598,1.4949825377078927
1479451,1.262096043526003,1.1142137294449848
1543045,1.2469912066097242,1.1003960814442582
670893,1.4783707736033684,1.3342173581466301
3906948,1.0949211644424262,0.9487895854757044
3838914,1.291988400940964,1.143274396834979
335100,1.3116534003110556,1.1650893705630676
1223548,1.4046313858249981,1.257806365845479
2209626,1.7290640889301168,1.5882953218763753
2852654,1.2321887754110248,1.0863825622656345
3071709,1.1772350603460073,1.0300511807802062
3835544,1.3326905728703788,1.188214789202089
1899261,1.1564164162030641,1.010869382299282
628336,1.7536221752015808,1.6092253834004926
2273166,1.436197179296252,1.289341008526868
2256271,1.5003489433143002,1.3548019094105184
1974628,1.0544389439119408,0.9127648276471787
2254438,1.399219139444342,1.251568375661101
648282,1.5487360996911408,1.4032199388861526
1453694,1.2244305187099722,1.0799547350416823
3213444,1.5214429648584886,1.3738235204123375
3264101,1.0809392088728647,0.9333197644267134
3858970,1.1394628427048186,0.9939158088010368
529882,1.5722270449480846,1.4246076005019335
3367159,0.8353618041656272,0.689845643360639
3477999,1.3085780860905203,1.1628028010204223
706402,0.9459117431298729,0.8111359673069645
1644819,1.146775443094973,1.000211413346985
346573,1.0600852236763494,0.9132602036968301
2226437,1.74125696931394,1.59678118564565
1671069,0.8333595954681488,0.6926983873959092
1718647,1.3190307103617285,1.1771043114566113
3475487,1.394556692151546,1.247992662403558
2831404,1.4765305096519878,1.3296743388826038
889343,1.2301786464823226,1.0914155545348772
3160223,1.1389272552107002,0.9927037429381418
2397444,1.154117045482592,1.0141058354912333
1999882,1.3134149703858047,1.1655326563047865
290611,0.995706284760754,0.8488812647812348
3885549,1.2698924854352303,1.122241721651989
875861,0.9780495345804494,0.833909416690455
2843377,1.1104453828618297,0.9662746838179954
3335713,1.3821107602927345,1.2365945994877463
3876045,0.9637002604690403,0.8186134586106861
1547942,1.1446537460993051,0.9970029823160639
306461,1.2694099596975745,1.1236346746274766
2885704,1.2795101887816187,1.1337039756362284
1971122,0.8853736443571398,0.7416517771795748
1259682,1.4175578249200695,1.2709937951720813
2749190,1.1077804380618863,0.9620051529917883
1726419,1.1320407187311972,0.9854766889832092
1118450,1.2831364652515451,1.1341892434428402
2422408,1.1218443357894763,0.9752803060414883
297460,1.3897040538792114,1.2407568320705065
2551883,1.3980850180260136,1.2504655735798622
3131312,1.2664798772675063,1.1220040935992164
1867889,1.2234383563691738,1.0770465572468375
1746232,1.29359427679957,1.1484161989184531
840016,1.234182347076906,1.0886661862719178
2934133,1.4226598146950318,1.2791865367017823
3166262,1.44698454993271,1.3004205201847219
2226101,1.167454829425844,1.0240119846511009
2580793,1.4179495852134136,1.2713855554654256
2480572,0.8770165080580459,0.7304524783100579
1953388,1.2122916602121159,1.0791777432119818
2448927,1.188126514217269,1.041562484469281
1245011,1.095512106587035,0.948916981421569
1837345,1.045601469329253,0.899006344163787
1214480,1.1734607285819716,1.024984490500761
1291222,0.9303537333590034,0.7837897036110154
1828681,1.374082675455859,1.2279510964891374
1687083,1.130510712903103,0.9954113650845038
992035,0.7987179418523416,0.6532017810473534
3023504,1.0014151783574807,0.8556398932873828
2510361,1.194205238623315,1.047380218643796
2197742,1.4185857467848453,1.2717607268053261
2793118,1.1514204373241566,1.014696618871857
1991416,0.9091803947939547,0.7626163650459667
676877,1.42923181950797,1.283456534437872
2478655,1.0888449612696673,0.9420199412901482
3711080,1.0915711092995442,0.9474004102557098
888423,1.2307653665519318,1.0844046197180253
2898953,1.643649466635686,1.494935462529701
486885,1.3076282508843107,1.1624501730031938
809479,1.392720549019089,1.2475424711379721
537805,1.4319418165522098,1.2864256557472216
2118186,1.2828209857878201,1.1341385265509927
1454442,1.2420786016926892,1.0973455463848638
1448323,1.220152078855807,1.0729994195926995
530722,1.5743053781662741,1.4292493517833609
3682731,1.2861376053172426,1.1405905714134608
2414114,1.305307713338143,1.1605746580303176
3933249,1.171685694288453,1.0261386603846712
2412879,1.1920173556626399,1.0441350415816217
3004202,1.4613185590117546,1.3141346794459534
2151859,1.1869490295015972,1.0463755073877474
2745783,1.3348389487763253,1.1896474775720405
3388173,1.314231414085816,1.1687152532808278
2729088,1.128871866133602,0.9833557053286136
3912402,1.0169126760703748,0.8692619122871337
2565784,1.5151402059302095,1.3685761761822215
665184,1.3971014144419143,1.2502763944623951
2742690,1.0499508462208256,0.9101885145072812
2977478,1.153363272006991,1.00571250822375
3480099,1.450603134288679,1.306127350620389
1489045,1.3963381678052798,1.2481258550942758
3052252,1.1057864219921392,0.9596548430254175
3681413,0.9860514973883969,0.840504463484615
733563,0.8223297359381966,0.6744474218571784
3419139,0.9074954348160242,0.7627623795081988
2566671,1.043649592036118,0.89708556228813
2597744,0.9157250865555944,0.7691610568076064
957277,1.2076851313675883,1.063545013477594
2821287,1.226629204902496,1.08003407973703
3145326,1.3499655703796793,1.2034015406316914
3505147,1.330971747226342,1.1854555864213538
3107382,1.2860168169605923,1.1391606461912083
2677622,1.1136701727425127,0.9671061429945248
3398001,1.010370276210258,0.8703590662188992
1171981,1.180655639373782,1.0396362018576577
1321394,1.0857679856115365,0.9386153263484291
2445102,1.0817605660841771,0.934935546104658
1245530,1.0342053463692795,0.8886583124654978
3955879,1.1069477477771308,0.9652736315123686
1265780,1.4608302851648038,1.3142662554168159
2200275,1.3723454266080939,1.2272894002251806
640160,1.0648410011821383,0.9180159812026192
274850,1.2511607948635388,1.1053855097934409
2881036,1.5391784151582586,1.3925832899927926
2464813,1.523823975934899,1.3783078151299109
1681824,1.2759328558771514,1.1342587396123893
396498,1.0636673700864812,0.9168423501069621
2624936,1.4006840795922724,1.2540889544268063
1034947,1.2734140635968756,1.1323304973721704
2787977,1.6102548528555367,1.4615723936187093
1987664,1.4556931840246958,1.3091291542767078
1329663,1.2508411772728507,1.1077183959174282
2748416,1.4075214375617395,1.2620052767567513
2758036,0.8900815399949794,0.742462095548828
