sample_id,y0,y1
1844763,1.7353731126445928,1.7646802934920645
1771888,0.6333174371612053,0.6467150205618573
1024287,1.0449848787372888,1.0578864628406928
288474,0.9059266652199394,0.9186870853543572
1883300,2.334580331645289,2.364142661498647
3428840,0.6826825572813993,0.687520994206108
1838234,2.448043434467825,2.4783070216937606
2552424,0.579614694196658,0.5918011348154486
2846554,1.5256329764367997,1.5381193170132066
3468405,0.664040194424516,0.6775257006889492
3036887,0.44058417713088993,0.45322729725619304
1108947,1.482983834106499,1.5133788735969826
2196246,0.10042910590059545,0.10563215142828197
1203967,1.0772425658441245,1.0901662103647147
2840948,0.38351559725272133,0.39678026042575865
2613211,0.5497166520061996,0.562707687588327
1906717,0.5756304731705245,0.5865879353451204
1530335,1.036605091322354,1.0487767788552282
2765353,0.38324499609615137,0.39614625470630493
2199766,1.4260057007779947,1.441257062948418
525690,1.0796134927395153,1.0928897708144543
3061711,1.0508962000947357,1.0641621938216232
2476578,-0.3802472710847309,-0.3751559708237405
1124537,1.8062121292137205,1.8342481349983857
2721222,1.2647705532690554,1.277772854810694
2715313,1.0108718019299812,1.0244881502206271
1846191,2.532840760165711,2.561913373192285
936061,0.9596363807946903,0.9735078414708811
1934582,0.8813721977624003,0.8944776214566857
452250,1.2512185946602798,1.2643987371860725
1934450,-0.11855654119947301,-0.10593112089476941
693877,0.6903808687727793,0.703108148500929
1501367,1.0103742969294072,1.0226234264998257
2215805,0.37937162416273906,0.3926018373473018
1033287,0.6646272225107981,0.6775351025721943
1637334,1.1104026146113029,1.1227062980339062
2464501,1.6387831326497762,1.6519447140378025
1245492,0.7736448775206697,0.7865685220412598
3055588,1.3369338347931703,1.35226472603799
2673695,-0.23455919745908055,-0.22942789256892898
2806574,0.8001940398500496,0.8124185960622916
621682,0.39689648192587035,0.410405387871261
3159894,0.6691327695041049,0.6813778170530392
2225857,0.6113102207107715,0.6157931498000622
2046576,1.047575414487362,1.0604543232312431
255642,0.3005956289816897,0.31263403922539235
3474533,0.7578987735056542,0.77090118439388
3382769,0.46222779030538774,0.4670329519483422
1509498,0.6063227016137248,0.6190097357964583
372924,1.0710916572502085,1.0838189369783582
1536857,0.933688798309367,0.9465342616421247
3862540,0.7401371966786785,0.7452240427581016
3484516,0.749076923333504,0.76201597709816
2052220,0.6304315203050326,0.6427980061369921
2172013,0.18500823671266053,0.19784256997976435
891965,1.034627057529343,1.047466390072446
3102197,1.6164252837843436,1.6287596523066643
3521051,0.8070877578616418,0.819617467944289
1964633,1.1587105833155231,1.1707274192640322
1951882,1.7416468545923158,1.7547522782866014
1581393,1.3422540326838164,1.3602367701262104
1344470,0.4544642943939668,0.4662518864664715
1554766,0.874721799271078,0.8873102405145871
1451191,1.2296300661242656,1.2424755294570233
1489956,0.8164937004840258,0.8295155098374671
251883,1.6667371703867335,1.6794754873426085
1731478,0.2772000911209007,0.28964184294573325
1114591,2.1432076292594777,2.172872639609272
1886959,1.354260061482159,1.3821602347696311
1779874,0.7981084227574649,0.8107230522843037
211052,1.1256897389017766,1.1390936650131351
302116,0.8309652131485172,0.8434775010060516
229356,1.1937559536129767,1.2065274397148202
970746,0.9534760081061966,0.9654697845051268
1439905,0.819667860029102,0.8323989607984219
1665541,0.6566838549503716,0.6697892786446571
3803441,0.8425841574505903,0.8473054216609155
3920894,0.9309643114720707,0.9430351018732561
3750258,1.0944198753285452,1.1072430881737394
3228516,0.6856961028219898,0.6989148525709764
715985,0.7924570006953203,0.8053467556924878
3502465,1.5324747691373357,1.545106934519052
516543,1.1106397487987787,1.123812744045391
1696852,0.7754426145277661,0.7882510392556947
1950402,0.9779751666761727,0.9832470821701693
1948369,0.8018511669204574,0.8144242463382082
1810254,1.5527516612348404,1.5812116744138875
3845636,0.09102282496130132,0.10343659108229775
381838,0.2955002517702071,0.3083694465683561
588253,0.6200599125343729,0.6327504294943749
2887967,0.3587040207921619,0.3638085352990506
1129224,2.2721781161859775,2.3022864647946095
1450736,0.19270012601022268,0.2054789534382091
2988676,1.1582752905216749,1.1707278319615015
3704264,0.44072188135311774,0.4456865472321577
2198149,0.8831801809752254,0.8878109908404404
1281283,0.8130842067653741,0.8261659740964169
1553392,0.4654267365240786,0.47823883858275107
195339,1.4778498939999931,1.4922659437529648
3717336,1.146972812106614,1.1602259819945773
3463136,1.229920006075885,1.242574090444841
1311026,1.4058636724171456,1.4193960186459789
3690235,0.9595778525781837,0.9725253467203803
956570,0.2606252361526701,0.26548369929085713
687437,0.5211621837732212,0.5312110345150141
2442788,0.492008217140596,0.5048203191992684
3300525,1.4544406939016818,1.4677860896334598
2722022,1.2956280384036842,1.308869724965032
3500179,0.81855703556922,0.8315000698897088
2214848,0.8425773856673736,0.855934354663425
1890140,2.052029866045575,2.080245901875272
554284,0.9749065178855238,0.9877186199441963
949793,0.8080504047876409,0.820459843827642
3086792,0.343067539686339,0.34782822306140976
2901263,0.131423443768753,0.13629362888064359
259325,1.3137512280345247,1.3269014321453174
3090745,0.5744794752356349,0.587367424552044
2835427,0.27293093090567017,0.2774138599949609
2457491,0.33981450674150454,0.3443755131366855
3090432,1.0665479738125283,1.078883697260965
2861004,1.3556306658748267,1.3688723524361746
545274,0.27150221406210406,0.28375134363252275
312409,1.3836746644419233,1.3964541026149397
1215168,0.734240068051611,0.7475162344768174
737589,1.8142082955186982,1.827485020201957
3771650,0.6265848523975186,0.6397692714009324
1738929,0.7366244298459048,0.7495184803559389
540635,1.1649276060851321,1.1763358973452056
2681261,0.7999296540167405,0.8045349472823776
2144109,1.3718601751730704,1.3846081099894474
921184,0.5953352493946155,0.5998962557897964
839047,-0.026521438672296893,-0.021662975534109896
456954,0.5176840426037286,0.5304296818194043
570242,0.47279306661622617,0.4855578544735731
241867,0.843745208317078,0.856609970264075
1540677,0.32209767327752437,0.32732031355675756
3854418,0.6698024945703676,0.6830097908163735
351905,1.00414482946441,1.016733270707919
758761,0.9694846235184382,0.9821115016148588
898074,0.5874695275369237,0.6000688856059977
288530,1.3222552484023842,1.334915111936367
2499492,0.5625928483029403,0.5673319704055979
1951440,1.1924223047942362,1.2052530996715018
2168405,1.1548589733934491,1.1675055642409666
2274291,0.2922413481596561,0.3049173895490781
563616,1.1179718668364569,1.1308254819963446
3002751,1.2927582072617976,1.3047313088145063
2037543,0.823724068266628,0.8375640400763935
807595,2.4223641020507394,2.4514074715524936
2579110,1.0792810001053326,1.09227203568746
283234,0.727401784932802,0.7400799918920573
1267511,1.1878001109446001,1.2008594381196442
1716601,0.35237079616537753,0.35720437821765816
2763325,1.2853600156538678,1.2983060849283128
3399047,0.8283421218639986,0.840481260598914
3792057,-0.11040705182656407,-0.10539043876367304
3903105,0.7666429897358666,0.7788569538729372
3289942,0.5293750662592535,0.5338579953485442
2150374,0.6482174597756336,0.6527003888649243
389402,0.7227149631815939,0.735831014568405
2276013,0.5225257109384893,0.5353378129971618
2842796,0.2619259883940226,0.27473809045269504
1524961,0.4453664659101281,0.4582033266603117
740735,0.37724830096962153,0.3823917611342494
1388232,0.1935612492551716,0.20612270550056655
1141242,1.9516038459812906,1.97904574142054
968071,0.7472329829028179,0.7604288355698327
3000540,0.9472173020852984,0.9600516353524022
2877146,1.4610510404963541,1.4754182470363286
2194984,0.9184137762446236,0.9308879249931482
1632664,1.0434393478433874,1.055973344021161
905149,0.4365991256937855,0.4415002567548429
3408001,0.6622328464737286,0.6743982804501956
1636413,0.08916787727066933,0.10202085373463299
2593504,0.8095500654213608,0.8227459180883755
813599,0.488012875651676,0.5002242250726583
3706848,0.9968680795259444,1.0094181495348467
873492,0.3027247202467412,0.30735553011195615
2927220,0.9248932621479022,0.9297517252860892
2798267,0.9639268368115756,0.9774240378455755
3262849,0.7101381926591455,0.7234618082701758
1646659,0.930060990882721,0.942211592442754
633988,0.6733794702812453,0.6858550172794201
731752,0.61087031077163,0.6228791915765686
2032828,1.0083398458931805,1.0209535892875956
1992923,1.1194481001142071,1.1327588361849632
2197695,0.5914224378055244,0.6032213443933243
3211954,1.655473554473827,1.6690176360923252
3757471,1.2554067845914918,1.2686484711528396
3804599,0.37851494097367083,0.3834761461549512
891158,0.2391369145059186,0.2439953776441056
3230029,1.8773374124144036,1.8900279266823983
2004152,1.988106573918992,2.0013712370920294
1845986,2.1845725859170257,2.213644035509985
2015609,0.39644801561618975,0.40100902201137073
1334009,0.5983698557023917,0.603610356225733
927930,1.172887344557361,1.185486702626435
3901008,0.22557575417571152,0.22988430182534703
971349,0.41619556248382034,0.42899241127028903
747353,0.8502186862223025,0.8630196871214928
3030590,1.4177548940090527,1.4310546561011903
275411,1.5018760845799257,1.5141217390201476
2208655,0.860365900920361,0.8735503171269973
2579271,0.809693213836596,0.8225498168871149
601627,0.5589578042275568,0.5712269854097387
2670380,0.34002352923090384,0.35341011721075866
1050125,1.5917256715539834,1.6199645174917925
1079325,1.7941717766572909,1.8243567719670195
1298953,1.0572184629134391,1.0701502826270262
3060629,1.03425338439328,1.0469507868539565
238974,0.3432854927924496,0.35656165921765604
2023901,0.6760342246511815,0.6888796879839392
2227878,0.7330386118062088,0.7383098847502758
810861,0.4704390647875799,0.47515658480805745
3934950,0.9389689949948687,0.951042668103921
677551,0.8884760564687744,0.8933355405270973
245087,1.3291888894026787,1.3417882474717526
2796032,1.2975598119420018,1.3108705480127576
581605,0.1705447033829729,0.18354755166674352
1121535,1.7542532601913454,1.781602690723945
1859778,1.8235987915621341,1.8517418703844974
365520,1.5624807807538335,1.57569953050282
3116873,0.6802893968353101,0.6932131500409987
1599518,0.9551222825814403,0.9672819735066106
2515160,0.526852417702802,0.5320780630667887
1166224,2.2113342541414536,2.2404136842744147
2448272,0.8857446519615334,0.8982743593862846
3121814,-0.12309068005471646,-0.1183694158443912
1820192,3.503961640577514,3.53342163909661
1202674,0.7429877684777412,0.75560835839493
2822927,0.8152203536493671,0.8276824471101707
504334,0.5600284805856266,0.5732596658519438
2169353,1.0577658529985694,1.0629780582066843
1816209,0.7901648010239931,0.8010208233622467
3277834,0.94530437536357,0.9579474954888731
3278820,0.6864878215669428,0.6910488279621237
1377610,0.4397777340305941,0.4522196951212735
1027085,1.0078371215219721,1.0205606804631078
874448,0.8689307030102856,0.8819786855633281
743975,0.8847448282687042,0.898032507921818
3284550,0.9619892569630414,0.9741820644746098
3950687,1.2975032369309654,1.3102709920305686
2858636,0.30327259467775336,0.31538114152116115
1451405,0.6667952591888414,0.6794660757678074
2114630,1.1560964249148524,1.1689196377600466
3674316,0.5480896657481045,0.5600712043784943
2565226,1.4081333913160485,1.4213865612040117
3717133,0.7828356293164653,0.7957145407923174
931484,0.8626145227225063,0.8746226958385964
3135198,1.4256690446044122,1.4384112930737984
1933911,0.7316165639166916,0.744437517463956
3246437,0.7288190079389322,0.7413913831270862
3298237,0.25981658206709146,0.26429020448456203
2556033,0.801281494134735,0.8057644232240257
1355104,1.300994428320347,1.313761515227232
2253755,0.3811398090702176,0.3943471053162235
3369003,-0.03515946568690842,-0.0224982087854948
362876,0.40960138286710135,0.4230868891315347
1446105,-0.052851335431149615,-0.03950537853025138
944137,1.3790924706740497,1.3919490737245686
1720496,0.9142842539892762,0.9274923196403226
1954855,0.28042099051577024,0.2854020994695151
3693618,0.8113305786500922,0.8241619292020903
1279992,0.7223296388663083,0.7348310853410348
1155519,-0.0443841061256246,-0.033896578822510515
2563936,0.9538052276387474,0.9659389618463362
2222459,1.44981774286692,1.46274138738751
2931699,0.7132598615136883,0.7184089892525832
2713210,-0.19683420833544024,-0.19206882812628012
3913475,0.4051530750983318,0.41745191949898425
2141625,0.5616172155697199,0.5743960429977062
506018,2.225080760185043,2.2543203685426496
1371140,0.013972614169684872,0.018455543258975582
1677821,0.5460359052615285,0.5588154771336502
3545333,0.8803473572914096,0.8929357985349187
483752,0.8887275618123819,0.9021780445312245
2469796,0.9939693252290571,1.0061769114256922
896935,1.0525897479538018,1.0651292602017781
843132,0.14916632273593303,0.15402478587412002
3533012,0.7155468427591676,0.7281243766360918
1464334,0.8634765584566617,0.8760977785866257
1043335,2.040642491702419,2.0701792070128358
1530206,0.4503510428504762,0.4627075369533922
3521647,1.4818585415702195,1.4947709882843718
2724462,0.7429269792757155,0.7561000012603561
444930,-0.23503652874060882,-0.23042332669108306
1823818,0.6123983000189472,0.6232543223572008
1352512,0.6787928098032121,0.6912453512430389
1702075,0.9707015520942144,0.9829939433171604
3831867,1.4317830281109694,1.4443933124727915
3417206,0.866332325376152,0.8784145363884229
2460339,0.7566458711761366,0.767461247982837
3046797,0.37464991003141307,0.3794152902405732
1739749,0.8335118140303891,0.8464018942305757
382403,0.6506978504646508,0.6618693464894636
3509953,0.7449107465228567,0.7575758046437706
2490627,0.5233700665795409,0.5281588577118288
2164149,0.5777804458769908,0.590851766908671
1004434,0.7675413375572778,0.7791360304784438
3651034,0.9144909009322126,0.927101185294035
2494631,1.088184800460472,1.100773241703981
887007,0.6039118610614365,0.6169028966435637
2857245,0.8175043414288674,0.8300791795335543
1790227,0.04680951017735829,0.05186979799158686
380488,2.139437382217156,2.1674248249580534
2417850,0.7670171035447562,0.779157179683526
896077,0.968471976388842,0.9812508011060879
1518962,0.9626435268468413,0.9754667396920353
1332041,0.6094482173457955,0.6140092237409764
426530,0.6848920104257984,0.6976819197842049
2862036,0.09950539871643305,0.11301213377287855
1942713,1.040248423209369,1.0529617009889982
1489113,-0.0475414222391084,-0.03729518369243712
3897030,0.6526351649563045,0.6663620259336176
1568420,0.9484991227049359,0.9607035595356053
1103110,2.331094540332607,2.358555232724893
2652664,1.468884061139284,1.4842113583550551
1612533,0.595265829644821,0.6078324656059451
3367259,0.6865020596827559,0.691360522820943
1788947,0.5398272072938146,0.544773573650482
618989,0.022062517105873702,0.034473347142098265
3203628,0.29102739202266903,0.2960954101125548
2739966,0.3871546308748379,0.3918758950851632
1941593,0.14521710977896995,0.15722598244391184
3067108,0.9796178029292448,0.9918042435480355
3079822,0.813368939222507,0.8180902034328323
3277729,0.4610865262494699,0.47403311087669864
1867183,2.1589765189801104,2.188339840482505
3315528,0.5487692264023368,0.5611413040378995
2189329,0.4688901854370406,0.48143505122505886
3742199,0.8066651975232224,0.8191299096726499
3733507,0.8292381506338715,0.8419847263275284
1749439,1.2150086915930385,1.2276080496621127
2542164,1.0630231166069133,1.0753860940142048
3405450,0.1943228963155524,0.1991813594537394
2505064,0.9601673536699634,0.97305743387015
3446121,-0.06471290402350327,-0.059854440885316273
1728204,0.9519922523252948,0.9646520874773363
821333,0.315686550421872,0.32569963184800876
3403215,0.6753251666719943,0.6883054918511842
2186851,0.8207592364032279,0.8260259420060923
1590059,0.9570402455508474,0.9691173449844146
2745101,0.33313272288576595,0.3383784203838958
3952783,0.006602978410250149,0.01075729229550293
2453902,0.26595650194991993,0.27941934062359697
567516,0.01603156590887922,0.02928473579684243
2140292,0.8537035987877407,0.8589611815770106
1059583,2.265788718744584,2.2944499390249806
2157616,0.7023833748271148,0.7151359294511777
1511029,0.784913496390763,0.7958568423941619
533080,1.2137172167820514,1.2265707238466816
2198344,0.5977960799317774,0.6026262983567767
1732125,0.3603703932874832,0.37311735398543655
2476561,1.0429864216143965,1.0558318849471542
3662467,0.3417994872757931,0.34711665204611386
683339,1.284094851523766,1.296494130872003
808553,0.5176937793863736,0.5223245892515885
2256495,1.236330248570464,1.24964098464122
1019989,0.3888011834255267,0.40147743802146285
3247264,0.0314584768407018,0.04371908764536636
2690611,0.17701443976093204,0.1816197330265691
635477,0.345519164999207,0.35895799342798174
2583954,-0.09607232005904653,-0.09135105584872127
3168772,0.04211184143448027,0.04722521315507383
212948,1.0190695582692086,1.0322539772726225
1193569,0.2815722413209343,0.2919131095153835
3694459,0.9860026814644256,0.9988481447971833
1446707,0.3479104445077164,0.3600926874530566
2140079,1.0523477600705011,1.0642023315292382
3307403,0.47194913228409807,0.47667039649442333
886148,1.1189777332872675,1.1315552671641917
305106,0.5207394267369931,0.5335515287956656
2933413,0.10941978425002763,0.12144406074692671
1230486,1.2598339154939606,1.2720203561127512
631662,1.4225303954634083,1.435015886910249
1086880,2.0572984411322928,2.0862943885364396
1288778,0.6095953450811551,0.6219190263804542
3807979,0.7449203449444501,0.7497788080826371
2047973,0.3578575034923191,0.3702132742729291
3254374,0.8826482739973378,0.8946197069739957
473628,0.9919898613801227,1.0051857140471374
2137388,0.6524343309411638,0.6650077851887817
3442014,0.13177847010744348,0.13663693324563048
2063459,1.0733339903504682,1.0863819756713469
3117413,0.2467247190562527,0.25952571995544305
3872905,1.2033422362544757,1.2163864577814405
1520079,0.706912104286373,0.7198021844865595
1622782,0.30228971719405107,0.3154285271938394
2436654,0.7440801269914623,0.7569702071916489
2744314,0.3958886172564323,0.4006098814667576
1354441,-0.08287176821691866,-0.07096727804151548
336799,0.6381928562141608,0.6504004424107961
2156847,0.598622419276588,0.6112655394018911
2654851,0.8377276820478944,0.8506513265684845
3727525,0.9794490059900129,0.9919721446321137
1334996,1.1257397256765551,1.1386662413906623
3873678,0.635660004718323,0.6480320823538857
2566745,0.752680444589616,0.7655259079223737
2978852,0.6454654470911753,0.6507688025198892
412829,1.2907582018766808,1.303548108521996
1586276,1.1593230359537299,1.1720576288958857
1893960,1.621419962723109,1.6501905780568127
3206959,1.330642791810092,1.3429631970290528
3412238,1.7070755408376148,1.7199767994477684
2537687,0.6813117547595289,0.6933930156369188
939465,-0.01589880786479303,-0.0036380939510024524
1371218,1.1942400731786278,1.2068503575404501
2759388,0.42352501611927934,0.43587008113269116
1064178,1.4602885011429931,1.4887731951378336
1625279,0.9079975256214456,0.9200089192631729
1970990,0.7404390870648014,0.7534991457455933
309735,0.7451582606166335,0.755360184134905
1039310,1.9272164249102666,1.9569774938630942
437385,0.8295536176658973,0.8421149937695446
1284413,1.103289872355928,1.1160686970731737
263121,1.0886144989923694,1.1016964863540926
1106501,0.5287286996486382,0.539376732273255
411576,0.07676731161075684,0.08203840723741995
1992477,1.6937118166853675,1.70662426339952
1758230,1.0738849315761416,1.0858367034600116
3163325,1.5522372370185988,1.5650827003513565
3065252,0.7502226386359871,0.754783645031168
2432030,0.2746975523927072,0.28742918850026367
605032,1.0946252800862784,1.106394590866301
1727875,1.0931433962770762,1.097836944542297
2539694,0.6111126176701995,0.6239773507758971
227754,0.9050742546022382,0.9177612887849718
1206069,1.0391697695533466,1.0517429997799699
994566,0.9755527661624857,0.9884764106830757
3724875,0.45789230857458,0.4707067182044908
1134594,2.524115910791352,2.5538839582835022
3200526,0.8169197035130851,0.8290248318420065
1888902,1.5434850977733785,1.5714725405142758
1145247,1.443707788696543,1.46642873102079
2649687,0.6488914371967631,0.6535222470619781
870475,0.5569310371399008,0.569563202521617
2547770,1.3837716163471323,1.3965283087120697
3658557,0.3576340871950544,0.37027745235434306
3838557,1.0081231357360767,1.0199839296623934
2760476,0.1481424834193872,0.15299788928641175
3293860,0.003787364099771262,0.00891422292528199
681592,1.2709098300831103,1.283744484432383
3548592,1.0002180903933882,1.0129858454929914
964311,1.184653945446632,1.197234929372609
2478472,0.7450739273168586,0.7575213076190525
420163,1.032546357219717,1.0458918651834315
484036,1.5949423568543137,1.6074720669369609
2513293,-0.11895606351869548,-0.11406528865077536
3013985,0.14151661625238532,0.15379891449033323
3928773,0.786783984364297,0.791642447502484
751311,1.1282590718930652,1.1415237350661025
374714,0.6457796394454958,0.6586808980556493
3510390,0.9863200006318091,0.9989885354972395
2689973,1.7005844667385026,1.7138952028092587
1824516,1.6004253516654565,1.6301313263117343
1808940,1.1721493934197942,1.2010199393435386
2919284,0.20450899204070683,0.21784282453596904
196734,0.8642039668851009,0.8762876189970625
2016520,0.6735292313902959,0.6884236985762389
2837825,1.2636373834183896,1.2765162948942417
1644844,0.6379175321296009,0.6501145409548854
3925346,1.2829941343698965,1.2961558264440194
2910813,2.308958748094506,2.338005008472079
2162312,0.5572262415910527,0.5699749226875095
1110541,0.9949325493713744,1.0061040453961874
2286921,0.24695185562493804,0.25944247011046895
2141520,-0.15342968311082728,-0.14827575468182574
2223565,1.3976506829606863,1.4101196616161134
2174395,1.1157427006226135,1.1291138271450305
1165929,2.487024744105004,2.516975160712584
1372465,0.5381201786645495,0.5510102588647361
1220296,0.7783433944043187,0.7908541900429448
1938237,0.6385224937154572,0.6516279174097426
2915487,1.1742481108872291,1.1872136036062222
392551,0.29151483390538935,0.3042494295489031
2819490,0.5121878596587794,0.5173521652391736
2485847,1.6367984714523849,1.649908216672578
2862248,1.0985769506565157,1.1116773603177266
1061320,1.6190115473264721,1.6467484341151444
3093017,0.9340126276070022,0.9468915390828543
3663872,0.9341210231290487,0.9474207852211861
2432181,1.1156735455662423,1.1288808418122482
1124737,1.120792695910208,1.1498137888978137
3432332,0.8522783630183823,0.8648811797963435
2133823,0.07494198808716443,0.07963553635238538
2454407,0.540398423483021,0.5456840252466332
720294,1.1498990966777565,1.1623572714760178
1541866,0.9009982091854165,0.9137182789795402
1155235,1.1215811711584385,1.1324371934966921
2057450,1.0721300161266722,1.0847293741957462
2685767,0.8424549167644951,0.8469131441040192
507036,0.7380554998723824,0.7507263164513484
596252,0.8541742235874799,0.8666756700622064
3523217,1.355071199352804,1.3678680481392727
591100,1.010324793793235,1.0235897916280645
3464319,0.6850970892543062,0.6981188986077476
3677553,0.5376046254356622,0.5428440099770809
2804837,0.5081860111945068,0.5203092345921247
1193085,1.1945252031582374,1.2078821721542887
725191,0.8714992384789139,0.8841492183887653
3458639,0.715832130683,0.7205533948933253
3801300,0.35528227674583346,0.3673506057104152
2238953,1.0112876787569764,1.0158486851521573
2551426,-0.1447504364485387,-0.13087477698432415
2675947,0.026293324821785147,0.0394549062098114
1844383,0.699345989060165,0.709833516363279
907409,-0.04642242659740281,-0.04178198305646491
363308,0.28371535810739235,0.28854705023530913
746896,0.17739364551657932,0.18225210865476632
1101213,2.647638402121104,2.676844141039412
620926,0.647265226373117,0.6597285667848031
711798,0.8261697214151117,0.8390049976769374
3876575,-0.05307980943185109,-0.048263916659907424
3216474,1.3017000651594874,1.3141108951957121
2531226,0.431494488471249,0.4439146891042655
911429,0.9396044039630843,0.9518758536933442
1317100,1.167420514014917,1.180199338732163
2801058,1.0208857492784276,1.0340359266975065
3850652,0.7289782200798329,0.7410183706609685
2973045,-0.17895930161834966,-0.1742380374080244
2804203,-0.041171301402166516,-0.036252695307906646
274044,-0.055469274925567524,-0.04253431410833575
2797678,-0.14341077996415497,-0.1305875671189609
2106462,0.5022414988824437,0.506962763092769
3930730,1.0439272692461619,1.0568590862165543
3739250,1.0801870888633947,1.0925936161201868
3007608,0.5781394309486041,0.5883236830317169
3889342,0.868410511072021,0.8803729391553461
847886,1.3080145664758298,1.3208600298085873
1770424,0.9329545555004018,0.9461275479526597
2125197,0.6485449768705704,0.6534321250717152
3005903,0.4576718046896778,0.47055071616552985
3118034,-0.14714823064721966,-0.14214981839148877
3728856,1.016717505775528,1.021943282980318
1894206,2.4159195600067105,2.446340964840899
1887209,1.963575605863982,1.9914870325958747
3073099,0.8745921918101522,0.8871588277712763
3407043,1.1886382979454149,1.2014837612781726
918164,0.043982387974999204,0.04900217442910465
1936800,0.5982757663569396,0.6115647788726442
1262335,0.9003548774199006,0.9142493410826253
3469530,0.4847118354926429,0.49770341734317275
2020472,0.44772435079711376,0.4525376883062697
3670792,0.45255942705152263,0.4654495072517092
2891250,-0.04092641872809377,-0.03597841329196394
3724939,-0.4930077878420992,-0.48778201063730947
3357343,1.075399605325354,1.087852146765181
1080039,1.6373573059239053,1.666664486771377
1038852,0.34110838656020925,0.34620711107908964
2038780,-0.23320648234954144,-0.22872355326025073
964328,1.088235078990086,1.1009917713550235
3772995,0.6130094694777027,0.6258185679884251
1479602,0.8886070030887359,0.9024599472454253
2551748,1.3522476037982922,1.365558339869048
692992,0.38661679845956004,0.3991456564633115
2182498,1.2592465816677203,1.271634525487045
1791603,1.0553790259680664,1.0677347967486766
3916199,0.5473143244646279,0.559880960425752
1025807,0.4359303062673527,0.44898952361715977
3197768,0.1529893173266636,0.15828348645816454
3855536,0.9891856891354058,1.0012837418546587
3179483,0.9317465237638283,0.944499822441986
971276,1.2221691386717288,1.2342005314854378
589407,1.0571057970352522,1.0700187867131732
1139706,1.6656446952922908,1.6952583208903822
1263691,0.7723803632170888,0.7852258265498465
2824409,0.30148882600485416,0.3143565784336121
3281020,0.6778091662519947,0.6908798186097209
2778307,1.395923060798492,1.4089335872897055
952438,0.04328060684482332,0.04807732412626503
590554,1.0500188044391927,1.062525934982198
499895,2.1051174043379772,2.1352239990550252
2248073,0.964296855691376,0.9775270688759388
1961720,1.3093307742477283,1.3216658613217596
1661909,0.823009468786814,0.8357448062976937
3533995,1.0370599889142713,1.0496142390002754
2770669,0.7151867772802406,0.7283826299472553
3876578,0.6057026014198483,0.6182184213739286
3759784,0.3072233164796765,0.31907812876453867
1354202,0.04512500125665808,0.04984626546698334
3888922,0.7113965049151416,0.7161148884212678
1949395,0.2929953810131155,0.2975573987370787
3431257,1.1579233651471477,1.1702337543957702
877194,-0.015510472387079366,-0.010789208176754106
1703064,0.78967203173127,0.8019924334367385
2511453,1.1207066901852074,1.133865212805255
961433,0.9152406139007015,0.9282737159009847
1857970,1.9786969296714307,2.007596273678434
1342429,0.5896091597316648,0.6030713068472955
2034981,0.6551827486077288,0.6602167861538145
1071681,0.11257257834339118,0.12432614893055582
2427756,0.06074825532517564,0.0655575840536694
202920,0.4093515321854907,0.4216559433226301
582285,0.8456439226081767,0.85877132172401
2773951,1.0523901220669876,1.0623476231827622
3838984,0.3313454435489362,0.33631325305757415
638793,0.5374279108311193,0.5499676339892381
1463347,0.39430116511324353,0.40714662844600125
882914,1.2415881982650996,1.2538493246240656
384958,0.7977459384834977,0.810008862374282
1327955,0.9809466745241529,0.9943369344786278
2558465,1.1069959031772758,1.1200100276646539
2262494,0.5973688508289821,0.6094357285271025
2946019,1.2198876724247119,1.232644362083604
3035911,1.0204650156496295,1.0341563780922052
3800410,1.0370299157357528,1.049174175018425
3128996,1.3887650561570317,1.4013450906180878
3488745,0.5904986331356087,0.5956432993670977
383076,1.1504526901355656,1.1637986470364639
1084691,2.224895672167484,2.255211778371609
1054477,1.5283954167673788,1.5579321258122458
1712458,1.353101680103371,1.3657709529877267
646409,0.7597991788847407,0.7728924845040153
3283163,1.5194932637635072,1.5318076472863966
3063726,-0.1038580942094649,-0.09938447179199433
2829238,0.6325040605658376,0.6450991075170345
817302,1.0261642369984874,1.038361048365071
472886,1.311051178031899,1.324110505206943
735603,0.9931025518787233,1.0052995607040076
2563315,0.4772689241609055,0.48199018837123075
2408797,1.032872390051062,1.0460912509669191
1556198,0.9586358820437897,0.9710668536023855
3140210,0.7856430039671471,0.7977557205208691
3766592,0.7937724369454167,0.8052419542357669
1721348,0.5630286069956961,0.5755776502107381
320359,0.6657781363432187,0.6779013597408365
939072,0.6813741712196162,0.6940282555885722
2741918,0.7901484152303084,0.8036924968488066
2050699,0.04332945116305742,0.055663819685378035
1892809,1.0321900502683254,1.0430460726065791
1710536,0.7546698317317379,0.7673831095113671
3066278,1.557852890452514,1.5701459434067555
2423758,0.7120075109192833,0.7249199576334356
648045,0.7659411084934256,0.7788312970964417
3733136,0.38304881690154796,0.3881776316740782
3197630,1.0623059367143075,1.07555602654901
1137783,1.5878781488384572,1.6112851255836254
3845076,0.3574854103661551,0.3624081577273321
471114,0.517895444752239,0.5295430994454811
3069421,0.6655144138344795,0.6777961542060075
3155572,1.3666026453874451,1.3783828982167259
1950938,1.015551660454468,1.0287368475301846
3713554,0.7921206807060468,0.8050974172335181
1518011,0.843954277633349,0.8584296266053512
3042482,1.1171158930747298,1.1296390317168306
1194086,0.8353349421900037,0.8479141132458797
3041201,1.1611150674772643,1.1737035087207734
3145346,0.5423948711365163,0.5550714455489476
2503947,1.2320901081289393,1.2449806219459143
897279,0.5629342049253254,0.5679322919852747
2125675,1.3309593302376468,1.3437714322963192
2820024,0.11152707009782309,0.116811831925761
2505374,0.9461801663818434,0.9587359138697633
3121169,1.073479838926205,1.085943179337891
1551229,0.8618668925608874,0.8750170699799664
2838177,1.1273476266623241,1.1320688908726493
1369773,0.7084327795058949,0.721397624821621
875923,0.6138374968734589,0.6270906667614221
1699351,1.4490085175437488,1.462897369565613
743159,0.7008052543930834,0.7129074783433124
2781421,0.8097041950827637,0.8217812945163309
2152227,1.3561726253706636,1.3689625347290701
2986172,0.4208128235146129,0.42553408772493817
1593367,0.8270167509626015,0.8399403954831917
3229960,0.7191573407956156,0.7315424056413002
2940069,0.9537632067448062,0.9664063268701093
1898165,1.8523972348860105,1.8804186007083392
1563479,-0.3668529356152444,-0.36213167140491914
370453,0.18040736552830494,0.1851286297386302
1240741,0.7339594911880385,0.7465763927195916
3438953,1.49317363112397,1.505941386223573
3099854,1.0176615866191694,1.0307435739808928
1936300,0.6301125739156468,0.6429592969521705
2789845,0.8384270418051195,0.8505881830713586
1127005,2.406204753173075,2.434224150595083
2866404,0.9748025684015932,0.9877150151157456
1844191,2.667625517735569,2.6968910044045358
1547060,1.0143357392513885,1.0272451588937395
593233,0.9703823522942139,0.9829009949590541
2989679,1.6843322526412665,1.6972416695451749
2403256,0.6646649547674482,0.6779411211926547
3339454,0.2005301109579708,0.20516092082318577
1068046,1.47279669635999,1.4983692885242077
426334,1.7199005536242558,1.7324402767823748
946283,0.6345892677723097,0.6473459574312019
2261162,0.719820869004661,0.7248360657651131
3260144,1.0407069135694693,1.0535637328634855
1539345,1.2631208991384517,1.2753708866281233
3422593,0.25536596154471525,0.2599269679398962
1260926,1.3750306456425359,1.3884927927581665
2246626,1.395579065192798,1.4084245285255554
2047721,-0.033998500800346276,-0.029060414719524807
500133,0.4839271043502964,0.4890984567614596
2768180,0.7355624651994328,0.7486671520671703
2944599,1.1445391426932368,1.156721385638577
1338328,1.1931915034188072,1.2062051901313267
1106840,2.3696220058378454,2.3980573595860113
2892299,0.0729075881606367,0.08528479833614833
3299729,1.3339608746970875,1.3459378610864547
3880386,0.10756135934464117,0.12037346140331362
2222276,0.9504364484329075,0.9551933474816183
3942668,0.7295488647195938,0.7344073278577808
1750453,0.6888226555265309,0.6938479732789499
565585,0.7483674101159957,0.7580170706523255
537922,1.4145228551228661,1.427390607551624
3389243,0.6835063895492108,0.6958207730721003
1051338,1.8476144924888982,1.8769216671195115
658245,0.74130775222288,0.7534811483433256
2122178,0.44561626853460357,0.4507580603745004
1445064,0.9429794287615234,0.9552561077423817
2497243,0.6493901554528808,0.6622579051520346
3370710,1.3326065947381274,1.3456999269336796
421022,0.46204650029259575,0.4745587881501301
2930488,1.2617655339359066,1.2743976993176227
3239708,1.0555347697214588,1.0681123009303424
988037,1.2283646605566712,1.2403375214200247
2495839,0.5450190661862191,0.5574285052262202
3488321,0.739634971579108,0.7524693048462117
688290,0.555783440733963,0.5692923466793538
2492092,0.3832634574064472,0.3889017884579961
541138,-0.2143869679608824,-0.20975615809566744
1548694,1.2320383736612914,1.2448727069283954
2999238,1.1465454732878264,1.1592249917471587
2835352,0.6869348542757638,0.6999043400698423
413224,-0.19183896379628862,-0.18055714436702708
303868,0.8942245504680626,0.907698372095966
3004101,0.8214420734445711,0.8339110494549851
2025162,1.189200499113752,1.2020029089142066
2729808,0.6016497611347886,0.6144396704931951
1261693,0.8286135115101292,0.8414145124093195
3326200,1.06774416913662,1.0808261564983432
2224863,0.6942562422901566,0.7071798868107467
1769191,1.09345404603043,1.106232870747676
524484,0.4196414977729318,0.42454099552525015
2935210,0.4908284208802471,0.5037857171189595
933219,0.769772705361515,0.7821713921329786
320426,1.5300377626702528,1.5428498647289253
2628831,0.48063132131306774,0.4853924613544063
1618035,0.8573418022990799,0.8694522771381149
816468,0.5255427088903051,0.5303043066853159
3475869,0.7758144610658672,0.7884575811911703
2554079,0.6101157583141317,0.6226445109537412
1633910,1.2230857874159484,1.2362245707471504
258871,1.4879232118127343,1.4999835459288278
2567602,0.8947285554842852,0.9076419509324967
1150838,1.058267102002299,1.0688330025815624
1284585,1.225206068545338,1.2376694089570242
2156482,0.757567969316776,0.7701673273858499
2843283,0.5435429612534548,0.5555407297814268
1749240,0.3963352874065749,0.4008962938017559
2598592,0.8848411795120593,0.897564741152212
3353168,0.8804943226625441,0.8849635358070184
2814092,0.5203403146721087,0.5324909188096189
556828,0.6356005453857287,0.6404222348662418
946761,0.2745039161764168,0.27919916536736905
1815197,1.4426919069777608,1.4721316872698376
1204135,0.6557674093507384,0.6610341149536028
1130729,2.110484904004354,2.1410914622661648
965756,0.6454521500881862,0.6576660017151361
427686,0.0786921908923387,0.0835506540305257
1992067,0.5361473930864012,0.5409892980089651
2617556,0.7821920546375412,0.794937693853217
3199860,0.2425928608501826,0.24735824105934273
385084,0.9069546241034094,0.919010717398255
3272105,1.5375734323368122,1.5502384904577262
2048896,1.0770269185567307,1.0895349250891713
2273040,1.2788380069236798,1.2917362672651942
3430993,1.0092604668508527,1.0224794389345153
2928111,0.3277095342286427,0.3402173209912329
1588314,0.6891816642310591,0.7019052258712117
902784,0.8549359335131239,0.8669139660653036
498525,1.0459327747862703,1.0592204544393842
562076,1.3499036192625788,1.3616141597256646
3797741,0.7145263934921021,0.7269681453169347
2789587,0.6924826298641631,0.7039418602253493
2455539,0.37952097297499,0.38461825800952476
2153804,0.38646729707604877,0.3988337829080083
2254992,1.022484273791802,1.0356116995531146
562166,0.9712130753921522,0.9846985816565855
970384,1.006581369796519,1.0116858843034078
1592098,1.0314281125893272,1.0434675536388724
1391155,0.5562833683617858,0.5689945879473333
1369559,1.2140693163159821,1.2261046103267295
3032404,0.8908839244242691,0.9030647145119486
820913,1.5226906008084906,1.534719715163254
2251341,1.1328781910534818,1.145477549122556
956786,0.35759368119859974,0.3700626572090137
2594826,1.0444460014640555,1.057768280741871
2409330,0.5321952674800392,0.5449322638497369
628659,1.2421384020876112,1.255577230516386
2436685,0.8386564097390773,0.8507859670011847
3021809,1.3603455525782795,1.3733336518912056
2002335,1.031224962495819,1.0443637430399237
1266202,1.269593175183143,1.2817867405191388
912213,0.1667484626938551,0.17146972690418036
3319926,0.38136062584382197,0.3936603486464772
839704,0.5733841190367621,0.5859507523321574
3873088,0.5994869991996189,0.6122323168563681
1159504,2.1679504255783715,2.198240257698041
577956,0.7208337701772075,0.7331539551956667
350663,1.0398615844384782,1.052633070540322
3388591,0.3459146659766669,0.35086528023944014
666010,0.9848997945527995,0.9895933428180206
242148,0.7230195560377326,0.7357873084289441
3236395,-0.313373595328184,-0.308812588933003
2755020,0.9703328581805291,0.9826687988014386
1814405,2.0277151800440665,2.0542079099498713
2916211,1.2447307275499009,1.2739417266763162
1747116,0.6849712213193628,0.6900521788229755
1156757,2.2109215336564305,2.2396672204352606
3270423,0.009071489497228247,0.013843283654200844
2062646,0.9915756804056182,1.0045217496800631
1290827,1.542814575124339,1.555693486600191
3375073,1.5322641403116495,1.5453234674866936
3877261,1.2237078832069281,1.236654467834157
3180323,0.5679045422872329,0.5728443465599021
1267722,0.42972848256526686,0.4421594541238627
2132442,0.3984393446645243,0.41134060327467786
445664,0.5151958292128906,0.5280747406887427
231243,0.44363184793940824,0.4571886711306643
1108483,2.433650393632661,2.4613242146279743
2644109,0.9132491136662815,0.9268592737866571
2526453,1.301717265342262,1.314780313136796
3198724,0.4281566419310767,0.4327176483262577
2803920,-0.06536154165805841,-0.053217282375386143
2707888,0.812691998654303,0.8258878513213177
1026029,0.758832697278226,0.7636746022007899
3297190,0.7853813579045579,0.7985658036691876
429759,1.1583154467711285,1.1709314902943597
2530032,0.6678862151215891,0.6802645003818769
760851,0.8324975098168881,0.8451296751986043
809504,0.30351658612572935,0.3081297881752551
1234179,0.563711461858554,0.5749528710406935
1618754,0.6447819018179918,0.6570629241402537
3150333,1.1048154885877444,1.1177503406256248
2945074,1.167977258251425,1.1806642924341586
883994,0.9761149280117493,0.9892164325598596
2157506,0.36531186660608983,0.3779112246751638
3363256,0.2742531417180978,0.2863030260507118
229069,-0.20035987892006035,-0.18703737556623923
1965418,1.238985056620156,1.2520791250038261
2111460,0.8604524327008297,0.8733536913109833
3879329,0.2921161602616831,0.3049840209054988
2189359,0.662345335577718,0.6753778132515713
507039,0.4655165442124915,0.4781268285743138
3199638,0.9960605147101369,1.0090408398893267
804444,-0.08846753829415582,-0.08360907515596883
538894,0.9829279331553391,0.9960325934237518
2220230,0.9883724664937906,1.001313954479183
3944708,0.7030300663117343,0.7154718181365668
3021229,1.6125684402476315,1.6253916530928256
731623,1.2314603527045562,1.24378541538734
2680377,-0.01151728560984805,-0.0069562792146670716
2501891,0.9155242897642417,0.9275917700253591
2167081,0.7498407476350808,0.7622153023492184
2652342,1.3594360962024803,1.371703314560099
2648684,-0.23363719157764945,-0.2289159273673242
3839719,1.098520830927706,1.1107072715464965
2709118,1.2472754190514863,1.2597227993536801
1913192,2.740973105675195,2.769755650354827
3187218,0.6676791615671845,0.6797918806903471
3438201,0.3504748615316594,0.36391368996043416
2118466,0.7142359698790584,0.7273292727208831
2507102,1.0225582467484073,1.0349676857884085
1892576,2.0369214062368335,2.0667669663796655
1868436,2.257942742956333,2.286838325714084
1373701,0.6998982109593107,0.7124430794084403
593908,0.820976175152514,0.8336250694354348
3400858,0.261515010840026,0.266666781320943
1289875,0.9805311421447422,0.9937812319794449
2002050,0.5921306287323599,0.604412513812943
3445556,0.8401227755236444,0.8534918899632683
3398963,1.1504459989496922,1.1628990640144354
262000,0.637786325001342,0.6493617643997591
3690906,1.1241420220500271,1.1371744732711229
912282,1.5856950353167587,1.598201980883864
847161,-0.26630478270948904,-0.2616915806599633
2670919,1.1680460779667226,1.180733112149456
1813955,2.2485092019169572,2.2769203954587716
2933422,0.602677006268642,0.6159762091340526
2740488,0.8647731963852404,0.877776044669011
3188924,0.4824611152382019,0.49535119543838846
1608201,0.7395843708098652,0.7521401156343658
1898058,1.973570321199767,2.003886427403892
2714288,1.0174867733359867,1.0219697024252774
3511749,0.8026670896949462,0.8153431310843682
3063842,1.463035854204218,1.4768949722511504
3015546,0.7794716235723687,0.7840326299675496
1939219,1.0936511500628328,1.0986306433518322
3259558,0.8746085046434761,0.8868316029517654
3799682,1.032388755760989,1.045256508189747
1940063,0.32969891387452355,0.3349659262949047
1373227,0.6472983783103576,0.6599253369664295
967708,0.2860732927318739,0.29816418120164245
1482991,0.46941046101569006,0.4826177544600654
2540824,1.4191967203889235,1.4319986618337603
3276899,0.5118132853421982,0.5243199153723639
1793762,0.6496938863205218,0.661812933820141
2779438,0.5200161875135807,0.5298023427196614
1818596,2.391498325776409,2.421830880606731
3688698,1.1381510813586084,1.1508659081946493
3189531,0.7090643556849797,0.721674640046802
3062058,1.065219843582971,1.0779544392264846
867482,1.4089305726036179,1.4209138164549073
543336,0.964246844034206,0.9765715957687617
2639774,1.4908470602592048,1.5035671300533284
2707590,0.015535074415752415,0.028698368835428645
1330832,1.04789579090694,1.0601457783966115
2869003,0.8260332684787087,0.8389354750008824
1294000,1.1535429779887107,1.1661248457457147
1979819,0.35122507675845976,0.35641041486972047
524871,0.36454951387428425,0.37622253672816497
847795,1.0875588220782797,1.1008099779819187
751622,1.1541511072504607,1.1655713457129935
3740262,1.3518297058693276,1.3651173855224414
1911535,0.5839977329940005,0.5944852602971146
2739220,1.314657361228121,1.3269610446507243
3240656,0.22843423630949697,0.23349469434964473
2178374,1.0873121301204138,1.099852917024394
3700209,2.4612701940862083,2.490189385167207
3488767,-0.24419231679290127,-0.23923093092247705
1399666,0.41049980363669925,0.423730016821262
3351788,1.0557690727735418,1.0684689757513244
1058304,1.4749626559775384,1.5030789018370592
1736607,1.3143278017759932,1.3262633318201995
2618352,1.2079194969481524,1.220809577148339
3709957,0.7561763587860458,0.7691679142668266
760871,0.783563778595485,0.7940104198898972
897288,0.9627557939584106,0.9758675644294577
1412905,-0.14657055157446613,-0.14190286560874982
816983,0.8421471493091744,0.8547763953494808
2142954,0.5030306782902192,0.5154267076221637
3051575,0.4576777921908289,0.47021698808024287
2989530,0.6817427648830212,0.694087829896433
1597956,0.7525218815115207,0.7654231401216742
2159216,1.0355344766184977,1.0484245568186843
3086642,0.651342258655309,0.6645381113223238
2508112,0.907034494203503,0.9200711739817548
3876549,-0.2336991144836788,-0.22869986559203354
3085856,0.8339972539953587,0.846690056628063
2629942,1.5354737690793672,1.5485217516324097
1301040,0.20541690332132423,0.21760334394011493
2445401,0.3138675959961204,0.32422097231331176
2733269,0.7596873143465224,0.7723119938307458
2061636,0.7409582660341718,0.7535938964504993
1727556,0.8731779197088549,0.8857027080831615
2045272,0.9674394830393446,0.9796217259846848
2994042,0.5298195373596819,0.5343024664489726
1211924,0.8114895058331459,0.8243349691659037
2200168,1.1710907163980189,1.183423453189742
3217113,1.0448531570936985,1.05727975750239
3807647,0.4182610014025316,0.42289181126774655
2976852,0.8646875053546637,0.8768528370232818
2403200,1.1707289112522452,1.1839476610012318
1734833,0.4678389866164165,0.4796481253372173
564736,1.0012626395832358,1.0140120033384332
1035997,1.5083101169457063,1.5205496961869638
3138208,0.823259161419988,0.8365704572024377
3749301,-0.2019875592861926,-0.19707132254581916
2003701,0.8323002028585443,0.8448190564627421
2720112,0.7417186457881139,0.7542266523205543
1319828,0.9779595620071352,0.9910302143648615
1768984,0.3693413284850176,0.3816799979117908
3366547,0.5591316831994853,0.5715717890878351
2913407,0.9924913596686161,1.0028925611868271
3509771,0.5157517592085661,0.5286083622590849
2550689,1.434475516979548,1.4473961318032287
2974035,1.0208128178729883,1.0334231022348106
915818,0.08294412082773939,0.09575622016861296
220848,1.0482419274167298,1.0611008460535036
726369,1.0951682152287838,1.1079581245871903
308244,0.8395584759308049,0.8525458438520723
581819,1.4991168877328156,1.512370614911835
2777752,1.2481404783529757,1.2607441778221595
1318477,0.8454292734560293,0.8579959094171533
2690168,1.494658505150177,1.5072797252801409
1438511,0.2556269137314974,0.26825907911321356
1720140,1.227620454290328,1.2403118172806082
3944080,0.5953535025004592,0.6074443909702277
2599407,0.6474310106442764,0.6521522748546017
3531913,0.8601397717718176,0.871078921186398
3029714,0.49403262718513397,0.506261395650841
1912969,1.9388676903174318,1.9676003788232648
1867657,1.617003896364975,1.647076156059788
3544253,0.3548542608761764,0.3670894183491464
351066,1.135729756556374,1.1485234033909537
904960,0.1831140502391155,0.18767505663429648
199713,1.2921215989445285,1.3054791295963515
198579,1.175478628369269,1.1879174887154138
2724840,0.13195907842324883,0.14460219854855194
2604863,1.6385831205090502,1.6516501592424333
1304331,-0.1928812119088526,-0.18811122187793972
277829,1.4084457356049862,1.4206452611692932
2745357,0.9537833525145879,0.9666743798054678
1759791,0.9054926058423511,0.9168417165349108
3758671,0.536512416962951,0.5414457295438148
2415453,0.9043152463807498,0.917273055670457
3297078,0.5190496353630525,0.5321356679699867
3033813,0.6140988941928878,0.6263914302503822
3549162,1.0071050016804821,1.0197744238399777
