sample_id,y0,y1
1944871,-3.1390242106869577,-3.404318680181211
2538358,-1.580041597344687,-1.2365914123378035
1119442,-5.081216561478663,-2.025643249575436
2797974,-1.0232074213145606,-0.8429469575747314
1104886,-3.4566779577715554,-2.891957275908675
1144824,-1.431184197863787,-1.0294583324386393
1152275,-1.2170439576170533,-0.9847948535874207
2528258,-1.419126197612012,-0.8091380741028461
1116173,-0.2775369767859379,-0.060289374466065304
1034444,-0.9028428295587717,-0.6455567362455958
2028889,-0.9738334760767028,-0.7738490755650871
2570367,-1.164818442024735,-0.9397921580735988
368937,-1.6486149394694687,-2.2928754473959607
714357,-2.423086736381756,-1.4762901165444866
1155448,-0.5311982544831713,-0.3624756689699818
831362,-1.5033424090823142,-2.3962963048062926
2504461,-3.0374897039331934,-1.6836359464991273
1847230,-1.5295378506742474,-2.7759564067916473
2282267,-1.7600408831430225,-1.237669371658555
383142,-1.9942852857194953,-3.240703841836895
225637,-0.43212542046658003,-0.7050595920963281
3945753,-0.9046043769283457,-0.5910867166997584
2109008,-1.4905560601401655,-2.954476198488636
821522,-0.6350383416904763,-0.34695205135845725
3443937,-1.7019130269844098,-1.2175188327601656
1948064,-3.025205102542639,-2.841905758451952
1119641,-2.191773978386431,-1.5817858548772652
3891904,-3.0469702011217366,-1.8689141413441794
1592209,-1.4096334413008456,-1.8255999660554787
3292624,-4.088566802760854,-2.9105107429832975
964775,-1.7819499123966878,-1.171961788887522
450992,-2.221710086192071,-1.5532866608946811
411657,-1.862532440055802,-5.021495447207582
1011435,-0.5743846389557111,-0.3421355349260784
2990617,-2.5326819417900226,-1.419966511509859
3417938,-1.7284149073128077,-1.32668904188766
825343,-0.17958768754266757,-0.4164717153772471
1891399,-1.8123748299233668,-1.3867277242557172
3117191,0.7468667751116712,0.5099827472770917
958061,-1.3480200832284952,-0.8953588604428049
1363619,-1.1228730685663508,-0.5616248606467045
1747265,-1.8652537475207767,-2.575420381400382
3403308,-1.4797553733841322,-1.0780295079589846
2051028,-1.5290733842604096,-2.2392400181400154
3396282,-1.3729561849218073,-1.045161659306735
2056701,-2.8180111111656676,-2.208022987656502
3487182,-1.4686871204914178,-1.2436608365402817
2726927,-1.3219935046958613,-0.9790253637842127
2043454,-1.2839082636582915,-1.6770165613283767
2410922,-1.476664339286805,-0.9567454822327826
914784,-5.8523363569335425,-2.5713584465834116
2163292,-2.454353012062507,-3.918273150410977
2819150,-0.7020567103607586,-0.9749908819905067
3369614,-1.5419650743163187,-1.2538787839842995
2544125,-0.9534608547245443,-0.7135070516137615
3122385,-0.9607424024527015,-1.3538507001227869
2795228,-1.8962556037533473,-1.4706084980856977
1714941,-0.3579178409560347,-0.1639275626961531
2392222,-0.513271189713157,-0.8353356703522568
1155235,-0.7082790853247658,-0.4414906058242021
3310779,-2.018475967198125,-1.350052541900735
2207672,-0.42609992282520825,-0.14907449298604114
1411672,0.07214111107392096,-0.20079306055582713
1295161,-0.970309674038677,-1.6145701819651692
2895024,-3.1185878415859736,-2.989006989309096
3654575,-1.6342024752363629,-1.0729542673167165
1296330,-2.755913228664988,-2.6131374090671446
3297869,-2.057179531914582,-1.3887561066171916
1223326,-0.3297948042535861,0.0505931296795008
1737818,-0.964223992798013,-1.4059276333449136
344796,-1.5086447294513678,-2.15290523737786
2270705,-1.2572001417520224,-1.038537657947733
572590,-1.0239100524351505,-0.6961155268200785
1032848,-1.1305071210155315,-0.9305227205039158
3891518,-1.59278456420384,-3.1679763335742654
2188702,-1.5291838625477798,-1.1684866037081245
230336,-0.6474709881997853,-1.0634375129544187
1381194,-1.3247289713690504,-0.9230031059439028
2412232,-1.5220365554492012,-1.2085188952206138
2477598,-1.7891468286927878,-2.3790886412079124
3544222,-0.9112192335215775,-0.6444307540210138
2018184,-1.5354802052931809,-0.9742319973735345
1851675,-1.4196414602101353,-2.8835615985586056
231310,-1.0011100546255183,-1.3942183522956035
696512,-0.7385827832135118,-1.0330870023504477
3933589,-0.4201900753548342,-0.1959969348976206
1596492,-2.284807038483631,-3.5386259520091343
411585,-3.762113702986231,-2.4082599455521647
2811209,-0.9484677178114931,-1.2705321984505926
2860108,-1.2999745902466995,-2.7638947285951696
3392684,-1.5040709757104453,-1.0784238700427957
1902147,-0.529465550793892,-0.34490945054394584
733564,-1.8694244482235538,-1.2010010229261638
1218717,-2.109304907828109,-1.6836578021604593
1111241,-0.2834925081988225,-0.08434217069054967
2906131,-2.6230267484420295,-1.7902304789467307
848124,-1.9900658242246365,-2.788128695845257
3014672,-0.5990230635306274,-0.3990386630190117
3708714,-0.9594170152267001,-0.34942889171753433
3048611,-1.771473961169923,-2.620480079204743
1616704,-2.34998783054143,-1.1719317707638728
1710203,-1.1579637238070126,-0.8590094896299801
3044208,-1.208215720414846,-1.7981575329299708
3366361,-1.7839948413865478,-1.4959085510545287
1458727,-1.8035600259085856,-1.3508988031228952
1394461,-0.34303086936532556,-0.07624238986476184
3460869,-0.7792212563624809,-0.5124327768619171
3010464,-0.06823183572353264,0.16401726830610008
876548,-1.0474332488451497,-1.7529680133416756
3794205,-1.4562203754687675,-0.9697057623240695
1427901,-1.1805763163390057,-1.5343322804455144
2456382,-0.6885848492412902,-1.0816931469113755
814560,-0.5232851473590219,-0.9392516721136552
1513759,-3.21681814345683,-1.1221007674712178
1504412,-1.9365416648982898,-2.9791799967095374
2763700,-0.7049488110679918,-0.9418328389025713
2502264,-2.1999194557914863,-2.9919807972012813
3117916,-1.7479890817332364,-2.1410973794033215
2194123,-1.257892982456505,-0.6479048589473393
2649787,-2.5395160044107032,-1.9295278809015377
1089093,-3.208537794689963,-1.4351015971500678
1037879,-0.5491546620233578,-0.29186856871018196
3278163,-3.4129406943978675,-2.2348846346203106
3131457,-1.959777414416603,-2.352885712086688
2782388,-3.1174509068117664,-1.9393948470342095
3087070,-1.3957744560919971,-0.9701273504243474
730847,-3.191920324822751,-2.0792048945425874
1231167,-1.056433159439062,-1.4495414571091472
914930,-3.4510221450067853,-2.2729660852292284
3949658,-1.9574705948235107,-1.5770826608904236
1641397,-1.28547975917344,-1.0281936658602642
1609737,-2.4708311676757093,-3.2848206772378226
1437945,-3.6514586751532705,-3.0405249331480277
3151079,-1.2546287666123364,-1.798952786120979
3711895,-0.8525974944639318,-0.39993627167824153
2504512,-2.7203623888318824,-1.3665086313978165
731301,-1.8078017078947202,-1.3243772862119774
2216221,-1.1092962167648437,-0.8322707869256767
3388019,-1.282617459496592,-0.9391672744897084
3862559,-2.0849199009643176,-2.9855402672891445
2418006,-0.12661053759512308,-0.44867501823422273
1710254,-1.9850257768492288,-1.625954159059503
446364,-2.0791183518095506,-0.966402921529387
381559,-3.4460773173333616,-2.835143575328119
2173232,-3.7788111492682894,-2.6007550894907325
1559853,-1.499204743357957,-0.7592679652986893
1118900,-1.4452877025637876,-1.0845904437241323
3854168,-2.481656060855388,-2.367525999717485
2225579,-1.071424218622209,-0.8046357391216452
2754763,-1.6039773835992754,-1.3717282795696426
1126116,-2.2369065544190208,-1.6269184309098548
3882624,-2.2896688653768353,-3.7535890037253057
978044,-1.4942336468102704,-1.1507834618033868
810531,-1.0341522356049244,-0.6324263701797768
3413353,-1.7582745883993955,-1.4304800627843233
605607,-0.522134240348014,-0.19433971473294187
2457869,-0.8211387078262,-1.0580227356607794
1891863,-1.0155580804465028,-0.7385326506073356
2128157,-0.8326195982458164,-1.2485861230004498
1136064,-1.913151230897348,-1.4875041252296983
2440511,-1.4798328680885295,-0.9157122615920905
831183,-1.6861189537902197,-2.079227251460305
1417325,-0.9015060597545121,-1.406930771987606
1779341,-0.3638287545957499,-0.12387495148496708
855914,-1.2357954806656155,-1.572953986631318
580889,-2.3110142366977193,-1.967564051690836
313349,-1.8114233476941901,-3.042108046726725
2705702,-1.3237840695321734,-1.1237996690205576
3069459,-3.1260037626382267,-1.9479477028606698
2532704,-1.9825223568993666,-1.5298611341136763
898047,-0.9459328281191586,-1.6560994619987641
1972692,-1.2661934669468384,-0.9071218491571128
2208393,-0.881817250519987,-0.4800913850948394
1664754,-0.41270270842846823,-0.8551247065921062
1807831,-0.4163923471447105,-0.6256761355400731
1021700,-1.1810119059405269,-1.0010373309571756
3088459,-0.9263530989842733,-0.6781625174947664
556666,-1.3051176729245386,-0.9616674879176548
1014952,-1.0532142656477068,-0.786425786147143
3102117,-1.865815830367887,-1.4377878960673027
2611851,-1.8082209807032823,-2.85085931251453
3837706,-1.9666873991473866,-1.605456248044797
2639902,-3.6687802014024897,-1.5740628254168776
994749,-0.853264073699657,-0.5254695480845848
1229461,-0.716121366062207,-0.5161369655505913
3199261,-0.16256612792925973,-0.5163220920357685
2182410,-0.9682254312788878,0.1444899990012758
1979622,-0.31417004390716263,-0.06674487816988095
1511995,-1.801772012869518,-2.593833354279313
735674,-2.1718549030207677,-1.561866779511602
268529,-1.353100141698628,-1.7690666664532613
2142873,-1.5211548543532787,-2.4217752206781054
1152787,-0.973960965271719,-0.7071724857711553
3494377,-1.6619201403460553,-1.436893856394919
2479560,-0.5603114604444906,-1.0020151009913913
3189858,-0.8709779010735299,-1.4609197135886547
1156448,-1.809091965759986,-1.5423034862594223
3809187,-0.402851313407303,-0.2028669128956873
3889824,-2.7853150932948525,-1.4314613358607864
2127651,-1.7718848611925053,-2.316208880701148
1884338,-1.5981028671417272,-1.1724557614740776
3758350,-1.3590431860095389,-1.9489849985246637
1911156,-1.7074932103967453,-1.4502071170835693
2866810,-3.0049785064182837,-1.8269224466407266
2477977,-2.0387479869194207,-2.6286897994345457
322204,-1.5654563309271985,-2.6080946627384463
1128596,-1.2607167931288614,-0.8350696874612118
2149268,-3.639226178012837,-2.5031376875208418
1291407,-2.0166520240996273,-4.86376932301093
1307992,-1.2072538667296822,-1.9174205006092877
3878511,-2.0501827049049224,-3.5141028432533927
2666298,-1.9411153093991405,-1.515468203731491
2172794,-3.1159215390052237,-1.937865479227667
1463951,-0.9044819912019069,-0.2944938676927411
807766,-3.8248336871789905,-1.7301163111933784
3330613,-2.115329361799014,-1.5053412382898483
735700,-2.0967764375080815,-1.6441152147223912
1016020,-1.5259537153225469,-1.293704611292914
2187102,-1.6481224475990524,-3.9245437942298236
2248019,-0.9633258068241972,-0.7633414063125815
555211,-1.9892403529439031,-1.4279921450242568
224613,-1.577369448871171,-1.8994339295102705
1081291,-3.63539906565452,-5.09931920400299
2477280,-1.3614276111216388,-1.7151835752281475
2948333,-1.6653334614825208,-1.3041023103799312
3954375,-0.3473659268335398,-0.14738152632192408
1066132,-1.2623004500378183,-1.6782669747924517
440668,-4.339347248745293,-2.2446298727596807
493161,-2.5657532689451945,-1.61496773149294
2885175,-3.096390306393444,-3.416419766488895
242035,-1.6661384575047324,-2.0032969634704347
2719363,-1.990111573999041,-2.890731940323868
3257926,-2.695487107678963,-4.159407246027433
1195831,-0.18731649000067385,-0.6032830147553072
2551347,-1.0451917403591204,-0.8129426363294878
2284102,-1.7032810594780776,-1.277633953810428
1887217,-1.5643291371548138,-1.1386820314871642
1249982,-0.10380050886177983,0.12122577508935639
305567,-1.4019969746717107,-2.3026173409965374
1707219,-1.473527958672592,-1.2742011466466936
3408622,-0.5449788389761229,-0.26795340913695576
1339576,-0.8186647868720642,-0.5521658767622339
1526556,-1.0956040528459974,-0.6938781874208497
2003562,-2.2864970400792752,-3.7504171784277456
3831707,-1.3498311286739053,-1.7429394263439906
1822376,-0.26434872573229684,-0.6803152504869302
224940,-1.215620251343719,-1.5376847319828189
2811484,-1.2009423137798256,-2.4547612273053288
3417923,-0.6158181044138142,-0.3387926745746471
1820841,-1.524595033233348,-1.9405615579879814
3532947,-0.49940526746622127,-0.15595508245933754
3890051,-0.8534503152122328,-0.4523867266651427
1759622,-3.0927768182870654,-1.9800613880069016
552013,-0.42599727326350645,-0.1379109829314873
1667328,-2.222012341090675,-2.9719934003013813
1153582,-0.5067244349660007,-0.3010623175695976
3448970,-0.5814954062082964,-0.3758332888118934
3150322,-0.7055223555691276,-0.9504289263534237
3834609,-3.810518568976484,-2.456664811542418
720887,-3.3246973291794037,-2.713763587174161
3419251,-2.2902371398291335,-1.888511274403986
260624,-1.077269265604652,-1.4932357903592854
929707,-2.708120846869848,-1.5954054165896845
1268563,-1.693898051963341,-1.9775597351223335
2173371,-2.056024885483304,-1.3160881074240363
2550840,-1.9860821528269539,-1.530720707985432
2265573,-1.508105600386771,-1.2080299565921733
372135,-1.6409562019345907,-3.1048763402830613
2818139,-2.3430468199447834,-2.887370839453426
1260292,-1.0890251543063565,-1.4821334519764418
1444795,-2.1431517894858025,-2.9352131308955975
3332723,-2.7762793071813836,-1.8254937697291296
850855,-0.9614133225481467,-1.37737984730278
663526,-1.797972813629162,-1.5729465296780258
1862178,-4.412805651470172,-2.318088275484559
2760357,-2.185128678711516,-1.92784258539834
3247350,-2.1385235203691617,-3.602443658717632
3073477,-1.9955205684571524,-1.4313999619607132
2784711,-3.2715684341124316,-1.9177146766783655
639092,-0.8668434587828504,-0.6095573654696745
563745,-1.8902178658680728,-1.3289696579484265
749947,-2.0369392541797584,-1.6352133887546108
685155,-0.7988340746824434,-0.49839052855404187
3011376,-1.0765096832299466,-0.8514833992788103
2711251,-0.5945042669504061,-0.8674384385801542
1233502,-1.2713230110336955,-1.6250789751402044
1853905,-1.9876126208245264,-2.8016021303866396
569968,-1.267383945614001,-0.9395894199989288
2188131,-2.177648652941345,-1.2268631154890905
2411715,-1.6666323309228992,-1.3388378053078271
370963,-1.5528472264887074,-1.924943770422249
1066958,-2.45170269240391,-4.763705911059117
516300,-1.9530063530050912,-1.3430182294959254
1166920,0.10669056988551795,0.30440846608096794
1207082,-1.5189970030875073,-3.0941887724579327
1205457,-1.9681970258670587,-2.678363659746664
549294,-0.8827015888180706,-0.45705448315042096
3169749,-1.3163658615746454,-1.7323323863292788
1740890,-1.6140240617249486,-4.461141360636251
3001526,-0.6781790046264685,-0.3347288196195848
3703970,-3.258430043531709,-2.1457146132515454
2808880,-1.1255551775836032,-1.5186634752536885
3122533,-0.5712681824958576,-0.8933326631349574
726782,-1.0043233799134395,-1.7963847213232345
3434876,-0.5397261677644773,-0.26270073792531023
1118734,-2.765961472104946,-2.6363806198280684
2916360,-1.4824065499698014,-0.7401209363581397
895104,-1.0799525884242305,-2.32637114454163
332793,-1.0857704366963616,-1.4578669806299032
873702,-1.3765741824388162,-2.095579106717075
3372647,-1.070490334611152,-0.6448432289435023
3085362,-1.9592952812322904,-1.398047073312644
761001,-0.9633899061595221,-0.7383636222083859
755889,-2.0473988017907954,-1.7806103222902316
3677254,-1.927249837230184,-2.9698881690414316
1330842,-2.714226482943347,-1.6015110526631833
585258,-0.7926668281305318,-0.4648723025154597
2625870,-3.366546987599155,-2.188490927821598
1204189,-2.7927396119217662,-2.1818058699165235
541849,-1.9676348205214929,-1.5419877148538434
1643174,-1.3073519148512809,-1.0303264850121137
2538778,-2.3045045091483884,-1.7432563012287419
2501750,-3.0473692997000783,-1.693515542266012
572114,-2.2346164092776832,-1.906821883662611
529475,-1.1731440808437685,-0.8124468220041132
3132352,-0.7762222833273603,-0.9855060717227229
1565691,-0.8178230922026303,-0.5608061812861449
3801649,-0.6292172743179636,-0.3624287948173998
2663250,-1.4868007692839982,-1.0611536636163486
3692024,-3.4795446204274447,-2.868610878422202
1572136,-1.6295810779500548,-1.0683328700304084
2689427,-0.7443057034843829,-0.47751722398381913
2439633,-2.4810594943839344,-1.53027395693168
3693491,-3.641300371498434,-2.463244311720877
3518550,-3.0931020224484325,-2.4821682804431897
1042827,-2.168453304386959,-2.5615616020570444
1683084,-1.5652440431851784,-2.623164361814917
1694098,1.187192532188759,1.1660727628320016
3526855,-1.399354261360009,-0.7309308360626187
2600942,-1.513773982277646,-2.1037157947927705
3845018,-0.7612014372741698,-1.0832659179132693
2567483,-0.9353100442264899,-0.7102837602753537
1527417,-1.6323208976949182,-1.1124020406408957
626467,-1.317782834771541,-1.0991203509672514
340583,-1.5016124251343885,-2.145872933060881
2145466,-1.6774863819877535,-2.7201247137990014
1710204,-0.9887595967093509,-0.6898053625323184
476557,-1.14447102674034,-0.6918098039546497
1851238,-1.696398631325478,-2.257436685889613
1167756,-0.2124394530287964,-0.01245505251718071
2211786,-0.5182684740667765,-0.27831467095599355
264468,-0.830353534393076,-1.2463200591477093
3235313,-3.403087973085377,-2.792154231080134
3086553,-1.7691169743554178,-1.2078687664357715
1090507,-3.3217774983720285,-2.7108437563667858
894266,-2.509665463925963,-1.8987317219207205
3461781,-1.3441139279885344,-1.119087644037398
2972916,-1.2068923483015086,-1.7968341608166334
1282005,-2.4160058550563255,-3.00594766757145
3375910,-1.2074859367828321,-0.8640357517759484
2970079,-1.633402186610406,-2.0751058271573064
949382,-0.7323678815072885,-0.5075472083221598
586405,-1.9991228804415804,-1.597397015016433
703602,-0.20252518672733388,-0.4861868698863262
1965837,-1.020324600384296,-0.5398464338930116
3344267,-1.4439615453122752,-0.8339734218031094
1878397,-2.1254839490157282,-1.5154958255065625
2521905,-2.841323884103166,-2.3886626613174755
456105,-2.688516313709773,-2.0200928884123828
1092490,-2.5282684480298467,-1.788331669970579
1683308,-1.8069355768152986,-4.4251346962136076
301411,-1.9188928229387185,-3.435697890737393
3172368,-1.489321460269498,-2.0336454797781407
1551477,-2.193290534275022,-3.6572106726234925
900536,-3.164002550571827,-2.5530688085665845
2703745,-0.5411099477741749,-0.3611353727908238
3491510,-0.6024768239321854,-0.3451907306190095
2029382,-1.0154451243343825,-0.7904188403832462
1331655,-3.8325162614523247,-1.7377988854667126
529008,-1.9042402375102763,-1.451579014724586
965409,-0.7196891816299751,-0.5252298509382052
1282790,-1.7295301652908814,-2.1712338058377822
1875419,-2.2297806902005792,-1.7074091787161119
2222158,-1.505873677718145,-1.1254857437850583
2999323,-2.2727502848358356,-1.9293000998289518
297018,-1.2840725389682042,-2.0788479968849947
3105412,-0.6754697627580727,-0.49549518777472157
468185,-2.4056410120449714,-1.2929255817648075
3437339,-1.138324230211335,-0.8715357507107713
758051,-0.774742693374068,-0.5174566000608921
2973436,-1.3366881297198263,-2.2373084960446534
428884,-2.815050399212396,-1.4611966417783298
1486340,-1.1617679375994805,-0.7813800036663937
1412691,-1.120167886177326,-1.4422323668164259
1749900,-2.075458211979199,-2.7856248458588047
1807797,-0.8933573556821132,-1.1302413835166927
2509140,-2.5059009084962587,-3.319890418058372
1479718,-1.2741514315550606,-0.872425566129913
3343044,-2.5684451130707915,-1.9584569895616255
1830632,-0.2770862044114798,-0.6308421685179886
475880,-3.5203881383083475,-2.407672708028184
2491781,-1.394916929527737,-2.1050835634073426
3536548,-2.1819822596904594,-1.6207340517708133
669392,-0.0514016122833687,0.12857296269998236
2998852,-1.2197556109940044,-0.9316693206619853
1093023,-1.4859372937055026,-3.061129063075928
1949361,-2.7047494304436777,-1.769948854721933
1171057,-0.45082613631224044,-0.19354004299906458
406258,-2.1464143021486346,-3.3928328582660345
1885927,-2.590265905100735,-1.7574696356054358
3391607,-1.1719115444366017,-0.7462644387689521
1535544,-0.37563002414327,-0.6485641957730182
3351747,-1.484100326076165,-1.1234030672365096
3917188,-1.4146930860888371,-0.8047049625796715
1815874,-1.5318558078245648,-2.094211372374306
1726419,-1.2955408207328984,-1.5684749923626464
2887350,-4.118042680954732,-2.02332530496912
1274511,-1.571440804129184,-1.8667156295707117
1764938,-4.570176104733588,-2.475458728747976
1371909,-2.1776139656300906,-1.5626260347970153
1692600,-3.455426322665078,-2.216201673235293
3492634,-0.275419294183696,-0.07543489367208028
2221797,-0.7672109264894713,-0.5004224469889076
2477828,-0.9972052755904145,-1.8978256419152415
3755115,-1.609111361656527,-2.199053174171652
2500530,-1.6297415547187524,-0.8898047766594847
2216138,-0.6827376136647166,-0.281011748239569
2694779,-0.7360572661554399,-0.46926878665487615
3445331,-1.2232805723916964,-0.9564920928911327
3377298,-1.8003687345915595,-1.37472162892391
2483107,-2.1340476491774893,-4.981164948088792
2465603,-1.7444749612139214,-2.2134039732574484
417121,-2.039270094500951,-3.6144618638713766
2750615,-1.1014591173221437,-0.8244336874829767
1139836,-0.8068239813693938,-0.5297985515302266
1040362,-0.8062560254910937,-1.199364323161179
227097,-1.702372739254295,-2.9561916527797982
482993,-0.9795029840502234,-0.5268417612645331
601989,-0.8861773038386793,-0.6091518739995122
3897728,-2.9006517223316273,-1.7879362920514639
1282138,-1.7012108664920573,-2.1545840429551273
3346665,-1.5597562042425208,-0.9497680807333551
2503606,-2.162148847494753,-1.4222120694354854
1471406,-2.644636274576303,-2.0833880666566564
541986,-1.3481459346264777,-1.0046957496195938
855522,-0.9495550679198699,-1.3655215926745032
3064436,-2.941687193135481,-1.5878334357014148
3226596,-2.101667880576646,-1.4932384005014796
905871,-1.4501617480925175,-2.9140818864409876
2477363,-0.8301661675455024,-1.271869808092403
3722227,-1.9014979400695209,-1.3815790830154984
2734399,-1.6046013899421714,-3.179793159312597
2741653,-5.253912914416807,-2.19833960251358
3849008,-1.0405935440216267,-1.5849175635302695
3369139,-1.8148549616085674,-1.253606753688921
356127,-1.8446040588541535,-3.308524197202624
1860323,-1.9590391927366886,-3.534230962107114
1079595,-2.1888536054797,-2.6597664982755584
2810953,-0.7380779637031571,-1.060142444342257
1015609,-1.4990305277374576,-1.1855128675088704
687574,-1.1541185685695527,-0.8968324752563768
1084900,-3.079779126826119,-2.4688453848208765
3375898,-1.292248794453536,-1.0041625041215168
337940,-2.1437123574307706,-2.787972865357263
3376498,-1.3648961723701285,-0.939249066702479
2929833,-2.0564528514856826,-1.5720586572614383
3665859,-2.939679285968398,-3.737742157589018
3133850,-1.299996727300352,-3.5367040509143344
2063983,-1.1280935008334136,-0.9030672168822775
2876440,-2.262694836534817,-1.5227580584755496
3714916,-3.069370393554471,-2.1185848561022165
2047737,-1.479034853022474,-1.9207384935693743
985520,-0.7630734654035292,-0.5231196622927463
2701068,-0.359550403674716,-0.15956600316310032
1528572,-1.5066810285792747,-1.1616925419232
3457636,-1.1702765346534156,-0.938027430623783
2452875,-1.160977307307409,-1.433911478937157
531703,-3.287325751640884,-2.454529482145585
2810474,-0.3104626568511871,-0.6325271374902868
1139775,-1.5375418476722307,-1.2494555573402115
1475450,-0.7560907323427272,-0.47906530250356005
690620,-0.5039705028018783,-0.30398610229026257
3867335,-1.8066644563593797,-4.653781755270682
2138401,-4.421361070092185,-2.285429391479572
3764864,-1.7877677745236,-3.034186330641
2257562,-0.9584285259357314,-2.2048470820531314
2201844,-0.8365897749839855,-0.49313958997710167
365142,-3.2166698507385276,-1.4432336531986325
430244,-3.2442601897649213,-4.0582496993270345
2276913,-1.0630610598063612,-1.9636814261311881
1592750,-1.3164858171885325,-1.7324523419431659
3952783,0.35754574827036967,0.45096358420292326
2193164,-1.3182008734787276,-0.8655396506930373
280533,-0.8221166346137401,-1.2638202751606407
702687,-0.9452140039789321,-1.2823725099446344
2787161,-4.189172316432602,-2.09445494044699
3160564,-0.9045621147164635,-1.2266265953555633
485526,-2.1341914245747757,-1.52420330106561
3941169,-1.1824074417330255,-0.9501583377033926
3776602,-2.7299237064625013,-1.6172082761823376
237799,-0.9523542983907457,-1.345462596060831
904576,-1.9919455474999195,-3.45586568584839
1876066,-1.3147876846429947,-0.9860361625950372
3802123,-1.673449660045197,-1.1890554658209527
1758083,-1.9760105400443546,-4.252431886675126
1519754,-0.7587948380893499,-0.35562262518914745
3382428,-1.3083943097312556,-1.0203080193992364
599696,-0.5104657176037904,-0.24367723810322672
2167145,-1.5932813010969429,-2.407270810659056
2491050,-3.132485153806347,-1.3590489562664518
1465121,-1.8933871006553464,-1.2833989771461807
632320,-0.33665077597642346,-0.06986229647585973
277275,-4.562376746736805,-2.4264450681241923
3948852,-1.7732063455830964,-1.4861530583689118
2195203,-1.9739844265331992,-1.6132871676935439
1739120,-1.7763921780395195,-2.3663339905546446
2397949,-2.5469057630000638,-5.394023061911366
1242635,-1.4939654069408632,-1.0105409852581204
1768451,-1.8196440773572007,-1.209655953848035
3910454,-1.604566177646763,-0.9945780541375973
3359088,-0.7786457824155184,-0.4179485235758631
2708883,-0.2965577049131629,-0.13294292639460928
1400524,0.031033384551041432,0.2110079595343925
2922528,-0.7195964503114914,-0.44257102047232433
1112833,-1.967814931428248,-1.3578268079190823
1105308,-1.7528362798541797,-1.2694118581714369
2481329,-1.0185480661547235,-1.390644610088265
3908302,-4.36028165447873,-1.3047083425755033
3378119,-1.2750089299332374,-0.7137607220135911
1144898,-1.869977042211521,-1.592951612372354
3073443,-4.652966775898796,-2.558249399913184
1148608,-0.9899410358806773,-0.805957837409776
493351,-2.030763465155906,-1.362340039858516
679206,-0.8231829191758477,-0.565896825862672
676527,-1.4192415323399028,-1.1942152483887667
703666,-2.473165423458596,-3.2679408813753863
2901083,-1.9005460402577103,-1.2905579167485448
3139245,-0.8670988658071197,-1.260207163477205
687860,-1.0778541783973652,-0.8528278944462289
667839,-0.9966064666288516,-0.6353753155262619
877627,-1.300804116039862,-2.5314888150723966
3321484,-2.0927854629674183,-1.6093610412846753
3136486,-0.28487205915527625,-0.6069365397943759
2753009,-0.8294091006084072,-0.51589144037982
983476,-1.4016407362754835,-1.0581905512685996
3059398,-1.77293508382142,-3.01935363993882
1139953,-1.9256573950000362,-1.5978628693849641
2529634,-2.5317788737231184,-1.580993336270864
836116,-0.9322687890894596,-1.2543332697285592
3537879,-0.8257814651289421,-0.548756035289775
3933413,-1.116755788047616,-0.8397303582084489
2198276,-3.908104743000938,-2.117049092687184
1989176,-0.6892316024636251,-1.011296083102725
3045151,-1.405608030187395,-1.9955498427025198
3738247,-0.8359760038256908,-0.6237239181090845
998696,-1.803071520437713,-1.2831526633836905
1564526,-2.2597941440417557,-1.64980602053259
2434869,-3.737666676682343,-2.559610616904786
2001192,-2.7270239545353667,-2.116090212530124
1394980,-0.9131643252144324,-0.6558782319012565
2851199,-2.109960316171698,-4.9570776150830005
544946,-2.212117877553707,-1.6508696696340606
1340725,-1.894890017828651,-1.4422287950429606
1959858,-4.865502616254216,-1.8099293043509892
2121377,-1.8882264538767943,-2.3936511661098883
1565909,-2.81153051834838,-1.6988150880682162
3862780,-2.6354554634127823,-2.9419642760803004
1197950,-2.4957828975962992,-4.807786116251506
1950770,-4.585442584252891,-1.8362562558225146
1168077,-0.7886743633379123,-0.6169513598879813
2045132,-2.0664835239051635,-2.482450048659797
2677540,-0.9444198588923097,-0.7044660557815269
3378258,-1.57305784253318,-1.1474107368655304
2489788,-0.8945901937336862,-1.5388507016601785
3446876,-0.4750389335114965,-0.30764875304386197
3047627,-2.077865204120882,-2.978485570445709
3674032,-0.7784372970592277,-1.3683791095743525
3333578,-1.1867706346652958,-0.8260733758256404
1022818,-0.3705376910118217,-0.19881468756189075
1704941,-0.9776566695583728,-0.5996660641140519
3293116,-2.5923325892555167,-1.2384788318214506
3436403,-0.853500285366132,-0.5399826251375446
757678,-0.06790855764197545,0.15711772630916077
1938496,-1.221480227205781,-1.769614421539941
1483961,-0.626108483742323,-0.3938593797126903
452511,-1.8205564030718067,-1.3371319813890639
2662135,-1.8764945951872358,-1.4508474895195862
3757362,-1.8953978250965777,-2.7960181914214046
2986525,-3.312624203139944,-2.134568143362387
3228022,-2.895604966139435,-5.7427222650507375
307166,-1.8076411070778249,-2.3975829195929497
3931394,-2.254082656887869,-1.7341637998338464
2208212,-2.132357974053053,-1.8553325442138862
3182221,-1.841177195762074,-2.4311190082771987
3959849,-1.1671439755499464,-0.9421176915988103
2510361,-1.247193064442343,-3.5236144110731145
410034,-3.19035237352988,-1.836498616095814
1291639,-0.8386690515276819,-1.8813073833389296
3879909,-1.9433332719686902,-3.4072534103171606
2929011,-1.663292399691033,-1.4310432956614
1858390,-2.6282269567821386,-1.2743731993480725
3897787,-2.1981021717863323,-1.0853867415061687
2174815,-2.6960341950753914,-1.7364558185038388
968192,-1.8111413821973545,-1.2498931742777082
3028174,-1.0768134382367145,-0.8968388632533634
2864613,-2.9254505014590135,-3.7394400110211268
1864817,-1.7238432458391932,-1.055419820541803
1265827,-0.9304736907710972,-1.2676321967367996
3500582,-0.6648424567699597,-1.1048049414362842
3258047,-1.4198508035087167,-1.9242175625521434
2401683,-1.181451607172405,-1.6858183662158317
3786993,-1.5001040867602797,-0.8901159632511141
2774927,-1.7453985980333298,-2.389659105959822
956871,-2.901188771822756,-2.771607919545878
3659623,-1.3833615749430082,-1.7764698726130934
3089804,-1.5172124484930511,-1.0915653428254015
3737394,-0.9254981849972537,-0.725513784485638
2751232,-1.4910860622139221,-1.2140606323747551
1857393,-3.155553822477165,-1.8017000650430988
557128,-1.5122196033162953,-1.1687694183094115
1274080,-1.4226866460874839,-1.9670106655961266
2865101,-3.388064654630521,-2.210008594852964
1850872,-1.223474669266653,-2.6873948076151235
1051424,-1.8499834314397496,-2.64475888935654
864152,-0.8439636251978073,-1.433905437712932
752243,-0.7171943231827511,-0.45040584368218733
3379117,-1.8424922163421689,-1.2812440084225225
219245,-0.9276497767369798,-1.1369335651323422
848700,-0.9606489862470171,-1.2978074922127196
2019333,-1.5883358468482063,-1.1626887411805567
3079545,-1.5790282105247928,-1.2183309516851375
3755354,-1.8805597970962138,-2.58609456159274
1293884,-1.4632761960593696,-4.310393494970672
1160755,-0.27634222450844276,-0.07635782399682706
2663639,-1.8399122893499646,-1.2786640814303183
863403,-1.5715662137547781,-3.883569432409985
569061,-2.072367921721469,-1.3300823081098074
1285854,-1.890212680717756,-2.3319163212646568
1346490,-1.664032717827364,-1.3033354589877084
3716672,-1.5775824819731041,-1.289496191641085
1226183,-0.7345036128727959,-0.5094773289216596
2652816,-2.831613820803737,-2.221625697294571
1411124,-0.3117528632846524,-0.5210366516800149
1880018,-2.0539288617297915,-1.4439407382206257
2996484,-2.169881572518148,-1.5598934490089826
1493940,-0.23777400742015542,-0.5598384880592551
1367581,-2.536602148379551,-1.703805878884252
476255,-2.1592867034381054,-1.4908632781407154
3769690,-2.733531927900261,-4.197452066248731
2664060,-1.698613115295712,-1.1373649073760657
3358166,-2.092433397160658,-1.7317361383210028
2043658,-0.20518132656594923,-0.4781154981956973
2262156,-2.414459394188671,-1.746035968891281
1677298,-2.4301439756814744,-2.6954384451757276
1087075,-1.7078146389107052,-2.954233195028105
3549162,-0.38914183792903434,-0.18915743741741864
605988,-0.8433385363869178,-0.5663131065477507
2013853,-1.9135822565603173,-1.3035941330511516
1829286,-1.4321359444738717,-1.8738395850207723
3519870,-1.020381092191653,-0.6930252227927336
3754902,-2.085688519270613,-4.39769173792582
2268957,-1.1419614695633782,-0.7402356041382306
1078310,-1.8704046841891784,-0.9236080643519088
374022,-3.899960929579868,-2.1265247320399725
1400454,-0.28025772561582024,-0.08027332510420454
2178771,-1.2218422631387087,-0.8420471620530965
2881377,-2.2039549247441665,-1.7205305030614237
1790449,-0.745467877875647,-0.5454834773640312
431998,-3.222173420969151,-2.109457990688987
2810805,-0.910133932349095,-1.3032422300191802
260610,-2.086991806443469,-2.8817672643602594
2675320,-0.5661775688672115,-0.2891521390280444
2874601,-4.800047841912853,-2.0508615134824772
871013,-1.85023185164831,-2.4401736641634346
2491912,-2.9262276289586198,-2.315293886953377
2546042,-1.6313511182628695,-1.2296252528377218
475892,-2.169069960596992,-1.2182844231447378
2686934,-0.7346884345573219,-0.40689390894224975
397405,-2.790749847942649,-2.179816105937406
3885744,-2.088626269556949,-3.552546407905419
242001,-0.553381157516937,-0.826315329146685
2222459,-1.4406819567327143,-1.1738934772321505
462718,-4.494384674764697,-2.3996672987790846
3846400,-0.7096911910172827,-0.9826253626470309
1934519,-0.6886295930198264,-1.0181478980725749
2476663,-1.5902577339239643,-1.944013698030473
3787621,-2.7632997084837307,-1.8125141710314767
2662421,-1.8572987847838722,-1.2473106612747065
1618316,-1.4146381809588664,-2.0588986888853587
3302363,-4.018392858701609,-1.9236754827159968
1666488,-1.7987059317288105,-2.5177108560070693
1615493,-3.1398664702760053,-1.9618104104984482
3929723,-2.0954115271767195,-1.6697644215090701
1239851,-2.337820759854658,-5.496783767006438
2652557,-1.4056322108398498,-0.7956440873306841
918678,-2.2929988928830585,-1.5530621148237909
1314915,-2.2095992046372537,-3.4560177607546536
1204816,-2.0567828899966925,-3.3032014461140924
1905038,-2.4699263332736106,-1.9855321390493663
1032786,-0.8395632319769826,-0.6145369480258464
540484,-1.622236183346821,-1.1965890776791714
3856294,-0.9326048385287478,-1.584063268415311
3793973,-2.0882570875702666,-1.6728879740009042
284364,-1.3244507314288598,-1.7661543719757604
2134477,-1.523704007736385,-2.068028027245028
1718141,-0.9265420069112273,-0.6504713048249959
3257532,-2.434557793464205,-3.898477931812675
2034071,-1.8355056003913874,-3.410697369761813
3902912,-3.450272022583315,-2.337556592303151
520532,-2.496805041246765,-1.5460195037945108
3345714,-1.6676700015781227,-1.057681878068957
2188183,-2.6227058124002394,-2.4931249601233616
3328046,-4.419226398799584,-2.324509022813972
1815545,-0.9102462231005416,-1.4545702426091842
3952422,-1.5504646069129322,-1.2500210607845308
2000407,-1.2966466651935795,-1.7675595579894376
3801249,-0.9512141454533628,-0.6844256659527991
946561,-1.2155952467314277,-0.8868437246834704
1486293,-0.7459316623169416,-0.36554372838385474
2527732,-2.67471415300915,-1.7239286155568958
1878499,-1.7287373830489492,-1.060313957751559
3197555,-0.547371519718536,-0.9890751602654366
1355593,-1.683057544546394,-1.3396073595395102
995205,-1.0392727083411422,-0.7114781827260699
900610,-2.93398281901681,-2.323049077011567
845285,-1.7327666238914143,-2.1487331486460475
2245211,-2.126157898980758,-1.5649096910611116
1050956,-1.6343963728522946,-2.1787203923609373
3855618,-0.6270363233738298,-1.1713603428824726
2745877,-1.5319989784985013,-0.970750770578855
2446269,-0.826146472100621,-0.5938973680709883
1046121,-1.14171712621551,-1.5348254238855952
1096761,-2.6055971969387492,-4.06951733528722
235588,-1.2917891971854454,-1.628947703151148
258115,-0.9931364706579665,-1.2660706422877146
1823936,-0.8551901115534459,-1.2089460756599548
242299,-1.5314176267656112,-1.9473841515202446
1531924,-0.3854971574253053,-0.12821106411212946
2040449,0.1495974437739186,-0.1875610621917838
3135602,-0.8275688945529045,-1.3329936067859984
2628653,-1.2405686865979155,-2.0326300280077105
961776,-2.7867944811548906,-2.426097222315235
1337531,-2.3586585892989644,-1.6902351640015745
1038195,-1.4764857815930452,-1.2965112066096942
1565675,-1.9510189099603714,-1.3410307864512057
3437342,-0.7737325992710874,-0.5414834952414547
3050765,-1.2097485045227885,-1.8540090124492807
1344199,-1.919421864963509,-1.309433741454343
3147554,-1.4507538438879783,-2.2455293018047686
3715064,-1.7315889083225484,-1.1216007848133827
3144144,-1.8555439376795855,-2.1927024436452878
3006572,-1.0080283991828725,-0.6802338735678004
1192419,-0.6522623719869926,-0.9743268526260922
2538636,-2.1773981810468794,-1.226612643594625
1377458,-1.481998554011577,-1.1385483690046931
1467326,-1.9946527613128469,-1.5792836477434844
2255706,-1.9071571258982523,-4.754274424809554
2723509,-1.7588825279878089,-2.3488243405029334
1884085,-0.8708333194609303,-0.41817209667524
2456122,-1.302481113637767,-1.5393651414723464
2708172,-0.21225806467667768,-0.04486788420904314
3243965,-1.2109170349011464,-1.921083668780752
2615159,-2.191487500781517,-3.437906056898917
836948,-0.5390711765358378,-0.8611356571749373
329729,-1.0419523439000145,-3.8890696428113167
1077481,-1.2800437333503445,-1.9243042412768367
536453,-1.5041583910765632,-1.1607082060696794
323313,-1.1662660556865778,-2.208904387497826
2420452,-0.6787222421026495,-0.9623839252616418
1666783,-2.1183376680466988,-3.3954750735636114
489372,-0.7454741791802286,-0.5206535059951
3399155,-1.4326306637945045,-1.1556052339553375
1000304,-2.30507235684868,-2.028046927009513
2106643,-1.3702633877619195,-1.81196702830882
907582,-1.0561074720077739,-2.5200276103562445
267679,-0.9327635706504422,-1.522705383165567
909300,-2.0694182779609847,-1.458484535955742
2966284,-1.0389963720711297,-1.454962896825763
3958026,-0.38838183746946964,-0.23839416245515072
548414,-1.2947637481555327,-0.8691166424878831
3524570,-1.74859549026772,-0.6358800599875565
1906680,-1.115173562870277,-0.6307793686460328
3862995,-1.648803788254154,-2.2387456007692785
1252585,-1.634579003586102,-2.0276873012561873
3911751,-4.951111476563883,-1.8955381646606562
681293,-0.4359530238751909,-0.2109267399240547
1517437,-1.7622594126668933,-1.32123085536089
2854091,-2.0946445503574385,-2.738905058283931
2521555,-2.2150249806805222,-1.762363757894832
2865036,-1.9635679993706798,-1.2236312213114124
2020617,-1.9070328070958142,-1.5053069416706668
900260,-3.463526873541463,-2.8525931315362203
2023831,-0.7128478664602833,-0.48059876243065064
2128613,-1.0679674019922538,-1.405125907957956
3139763,-0.656349334391831,-0.929283506021579
1091706,-3.123701242518444,-2.1641228659468914
3305878,-4.087999886541046,-1.9932825105554337
742073,-1.8793177680511202,-1.2693296445419544
933078,-2.661605654848213,-1.5488902245680496
2631098,-3.178994773201766,-2.000938713424209
3293903,-1.7160924441970542,-1.2126110364487326
2662339,-1.52835498886429,-1.1027078831966404
2860730,-1.5670864647352654,-3.0310066030837355
1476354,-1.7423404315962674,-1.4145459059811953
2729758,-1.1708842387372616,-2.4173027948546615
2559237,-0.7842379645394186,-0.4707203043108313
3878433,-1.4843034458372997,-2.5269417776485477
3872969,-2.229302607037304,-2.8735631149637966
2243010,-4.262030730335155,-2.1673133543495426
3739935,-0.5046864034188359,-0.30470200290722016
2758387,-1.2157123952334354,-0.9584263019202595
272075,-0.9074208243571898,-1.3491244649040903
3161855,-0.8338805586372897,-1.249847083391923
2777724,-1.3880824611056122,-2.634501017223012
249896,-0.2591949261868051,-0.5041014969711013
1029244,-1.2302628759435064,-1.0180107902269
544499,-2.263256398437213,-1.8376092927695633
3256433,-2.314991541154944,-1.7040577991497012
1638478,-0.6261670647263671,-0.3939179606967343
2990335,-2.5245898092367263,-1.4118743789565629
859775,-1.7023379951712687,-2.4971134530880588
3254991,-2.2136928665931106,-3.677613004941581
3307790,-2.205155495550391,-2.525184955645842
1700212,-0.9701817300934006,-0.6582867880933527
3367468,-2.2286569589458978,-1.3958606894505992
2833363,-1.2096205659586756,-1.9151553304552016
2243461,-2.651616625045577,-1.9831931997481866
3007085,-1.4683430376781097,-1.201554558177546
1163930,-0.7890746518986426,-0.5640483679475063
960443,-3.5419610756546374,-2.591175538202383
2560026,-1.067485865581472,-0.7396913399663999
3187218,-1.0960188426684085,-1.6859606551835333
943444,-2.862823259633323,-1.7501078293531596
238634,-1.8363156343432485,-2.4767957482389127
505614,-1.019399783730972,-0.4094116602218064
3005142,-0.29233351627587034,-0.052379713165087494
1436868,-0.4960332631660844,-1.20619989704569
3223090,-1.1473712131518803,-1.6182841059477384
934723,-1.6048891339513092,-1.1214647122685664
305939,-4.319370056720714,-2.183438378108101
1250768,-0.3522946364548267,-0.09500854314165086
1491003,-1.3584630182688047,-1.158478617757189
3309532,-1.5962040758258516,-0.9277806505284613
729525,-1.2717791883721605,-0.944423318973241
1914583,-0.960736816698549,-0.7607524161869335
1267499,-0.9967033845580788,-1.3338618905237811
3027450,-0.6354819034143269,-0.3686934239137632
3208540,-0.6268320226159672,-0.9805879867224758
1889709,-1.383843035915228,-1.0403928509083442
679525,-1.0298068525028197,-0.8298224519912039
3439216,-1.9103769350825002,-1.5968592748539128
700457,-0.6702676082183947,-0.9923320888574945
1049186,-1.3024383411221654,-1.9429184550178293
548264,-0.9082208742543995,-0.3469726663347531
1693499,-1.0459672177955441,-0.719947790072847
1248888,-1.2168978185856076,-0.9033801583570205
759804,-1.100878192726739,-0.9209036177433879
1045801,-1.0859379187130542,-2.8324920369821855
3545266,-0.4765156437562562,-0.2097271642556925
3324228,-2.1234401702132204,-1.6400157485304778
3309901,-2.3901319568557478,-2.7101614169511987
3688170,-3.8660058646368194,-2.0925696670969245
869444,-2.473512662181214,-4.785515880836421
3715567,-1.4288620685061324,-1.0854118834992488
1392831,-0.7153515806214902,-0.48310247659185745
3758671,-1.0767303053616724,-1.7209908132881648
3021992,-2.554957346102791,-3.368946855664904
2230299,-1.2277138062516613,-0.9704277129384853
3853533,-2.1146301022676743,-2.658954121776317
3495249,-0.9936499870971651,-0.6932064409687636
205182,-1.5057596342080435,-2.092551372035463
1170210,-0.7598253596891935,-0.5025392663760178
743747,-0.48434111278110215,-0.196254822449083
750931,-1.9478631570447962,-1.3378750335356304
565551,-0.731792188272399,-0.38834200326551527
514680,-0.8971920523081433,-0.6401751413916579
333712,-2.5817810141220163,-5.428898313033319
541773,-1.0711169039492563,-0.6454697982816067
2458943,-2.1126057933556517,-2.6180305055887456
3480867,-0.5381677646759169,-0.36644476122598585
3898739,-3.790963964288059,-2.437110206853993
2931698,-0.4986844090430391,-0.29302229164663607
2188229,-0.9469355636191945,-0.4942743408335042
820802,-1.381431527877723,-1.1566108546925944
3326205,-2.1905856477978642,-4.467006994428635
2207105,-1.2167974634821115,-0.8150715980569638
3120301,-1.2695213660661333,-1.7749460782992272
1949333,-4.870503972138558,-2.1213176437081827
1238525,-3.6946149923061977,-1.9211787947663028
1670031,-2.119943645263556,-3.749674440776818
1237077,-3.2128509265114387,-2.076762436019443
1316183,-3.386239323819321,-2.208183264041764
2426081,-2.734119476245874,-5.581236775157176
310869,-2.108438522078168,-4.955555820989471
2637478,-1.4002015583851144,-0.9167771367023716
1225205,-1.4726081808479161,-1.2058197013473524
3731061,-1.1823749861214108,-0.8688573258928235
1778483,-1.8654500826786098,-1.5884246528394428
2035027,-2.579015279118435,-1.4662998488382717
2109428,-1.2992881074143465,-2.874479876784772
3951791,-0.7723860239699489,-0.5724016234583332
3047219,-1.4512798225810282,-1.805035786687537
950694,-1.5362992750467441,-1.0836380522610538
2433126,-3.2058728942069057,-2.027816834429349
2421045,-1.8604165457698767,-2.27638307052451
2662839,-1.4196927840429259,-1.0589955252032706
672977,-0.6702104510128192,-0.43796134698318645
3497989,-1.1045175856824336,-1.6099422979155276
1096981,-3.7360854593415915,-2.5580293995640346
2724090,-2.1360216779471806,-3.1786600097584286
2853146,-4.2583857221475325,-2.4849495246076376
2982497,-2.0326922850841616,-2.9221641633523103
3446078,-0.44476255150980587,-0.21251344748017315
3797044,-2.558030198331284,-2.156304332906136
3033927,-0.8687258697758063,-1.2618341674458915
246574,-0.6961487688027947,-1.112115293557428
1602937,-2.1193049452764363,-4.966422244187738
2271792,-0.656479292370326,-0.3896908128697623
1767919,-1.154541546136187,-0.7018803233504967
1710948,-1.1941065888775455,-0.9379107848128276
1718143,-1.5244588210522185,-1.2852202528817096
2174065,-2.2327402945262143,-3.8079320638966396
829356,-1.0772352082464556,-1.3501693798762036
3462538,-0.6546665123159876,-0.39738041900281174
1731201,-1.612470281845154,-1.9496287878108565
572241,-1.6407789028273756,-1.239053037402228
3912635,-2.901238404326757,-1.9504528668745027
2778794,-1.781759838498784,-1.109202288386033
2700289,-1.261165802628371,-1.0361395186772346
945419,-3.9503552375731625,-1.8556378615875506
362296,-1.7534370856900203,-2.9998556418074203
2851756,-1.2180200282548554,-1.590116572188397
1233537,-2.0710700149883525,-2.661011827503477
2180096,-1.8994865203794509,-1.2310630950820607
3046870,-1.3117091359791049,-1.9016509484942297
2398426,-2.8353605862505504,-2.692584766652707
2855646,-2.0460939469323796,-2.6360357594475046
2861934,-1.1074935400020585,-2.3539120961194584
739959,-1.575971546272353,-1.1503244406047033
2559443,-2.23069190969807,-1.7462977154738255
2492145,-1.848647447604137,-2.492907955530629
374719,-2.4291797121259133,-3.675598268243313
2687612,-1.1584880945692912,-0.8916996150687275
2164884,-4.980529951604599,-1.6995520412544687
1451342,-1.8336762839406182,-2.153705744036069
526756,-1.653860525415072,-1.0926123174954256
1271321,-0.61552770873889,-0.8604342795231861
500038,-2.5693574070200893,-1.6185718695678353
3837042,-0.8826131707428122,-0.6158246912422485
3238932,-1.881184189514014,-3.3451043278624844
267439,-1.56659427102763,-2.467214637352457
504678,-1.1487673197890647,-0.8917504088725794
2011647,-2.4239866016217895,-1.7555631763243993
2520216,-4.11694128106477,-2.022223905079158
1562058,-2.693195530842836,-1.9532587527835688
1852822,-2.4143326068188324,-3.2283221163809457
2019541,-2.503607818835391,-1.6708115493400924
393433,-2.7745849155548443,-1.5965288557772874
3387833,-0.7070225001268082,-0.5125631694350383
1455872,-2.241279986346576,-1.572856561049186
3281020,-3.073896017537693,-1.720042260103627
3749145,-0.7217429525148603,-1.0589014584805627
3311026,-2.0044639075042077,-1.3360404822068175
627641,-0.15243594800552507,0.07981315602410766
3105560,-0.8240048138825737,-0.5989785299314375
306472,-1.3151842391035977,-2.3578225709148453
616261,-1.6021640207595056,-1.2217760868264187
1905025,-0.4177977111809994,-0.21213559378459634
3874199,-0.7738836444347277,-1.2447965372305858
3774258,-3.490167779911788,-2.136314022477722
3104176,-2.2179764083404416,-1.9511879288398777
3788400,-1.4192616427168732,-0.5864653732215743
860289,-1.2725215760906887,-1.9130016899863527
928918,-2.68743196579521,-1.5747165355150463
2623615,-2.8642587586328263,-5.068651019582135
2767290,-1.1652933957721845,-1.5812599205268179
3344374,-1.416859472691276,-0.8068713491821101
3481474,-0.9964349639745759,-0.7964505634629602
1614401,-2.692513198645455,-1.5144571388678982
3733136,-0.9953323603407059,-0.7285438808401422
1112778,-2.2135873617218853,-1.6035992382127193
2862545,-3.3845274232656735,-4.848447561614144
969788,-0.7835324586649193,-0.22228425074527292
1167657,-0.9530638063216096,-0.7530794058099939
1066362,-0.8975562766182335,-1.4874980891333582
2230500,-1.1208945770799688,-0.8636084837667928
210931,-0.6322801791642709,-0.9543446598033706
3129321,-1.6764527650703478,-2.069561062740433
512526,-2.6527582611427967,-1.7019727236905426
3352414,-1.5778552817013598,-0.967867158192194
1854085,-1.7449109004049046,-3.2088310387533747
1946412,-2.2669850129919578,-1.776117755846067
3366739,-1.508583935791474,-1.0829368301238245
1761318,-2.9837191350479264,-1.871003704767763
3455540,-0.41789019601625815,-0.18564109198662543
2779424,-2.0656690254468666,-3.529589163795337
1469431,-2.342574890539451,-1.5097786210441522
221352,-0.9178514662613755,-1.1271352546567381
2736834,-1.9312750753987171,-1.4478506537159743
2605600,-1.8956306465122275,-2.938268978323475
