sample_id,y0,y1
921025,-75.25649391715632,-76.6322132581509
1497403,-75.72999153498355,-77.10571087597813
1614204,-75.82879073387126,-77.20451007486584
991216,-75.50953245086107,-76.88525179185565
2838859,-75.81402041911579,-77.18973976011037
1864735,-69.45369218942892,-70.8294115304235
476944,-75.16467889744374,-76.54039823843831
2643121,-72.63504355183308,-74.01076289282766
2533903,-75.54836146557682,-76.9240808065714
3673130,-74.69028919531495,-76.06600853630952
1028992,-74.8778043730691,-76.25352371406368
2738982,-74.97922846301634,-76.35494780401092
3221840,-74.33003837177999,-75.70575771277457
1265487,-75.78093620023041,-77.15665554122499
2986419,-75.1204863250374,-76.49620566603197
2520993,-74.28245698773839,-75.65817632873296
3694459,-79.67507745520214,-81.05079679619672
1237538,-73.59259967279536,-74.96831901378994
508608,-74.69776454733534,-76.07348388832992
3250826,-75.72070305688688,-77.09642239788145
3280998,-74.5963050659262,-75.97202440692078
1042120,-69.06061498396303,-70.43633432495761
2778919,-75.4130445879121,-76.78876392890668
2638320,-75.2127068796193,-76.58842622061387
1408873,-75.09322909411905,-76.46894843511363
1635411,-77.0601608846587,-78.43588022565328
2904400,-77.06216646690655,-78.43788580790113
1276616,-331.4856129706999,-332.86133231169447
751595,-74.9571551753137,-76.33287451630828
1281148,-75.08286180769232,-76.45858114868689
1103242,-66.711018988947,-68.08673832994158
3535732,-75.02631119774077,-76.40203053873535
2645511,-75.12807034785922,-76.5037896888538
3050250,-75.84702723370509,-77.22274657469967
2151639,-76.08820405468394,-77.46392339567852
3465410,-74.8531491109449,-76.22886845193948
682542,-335.46590008300984,-336.8416194240044
2947623,-75.26063353022712,-76.6363528712217
1973305,-74.75608188920488,-76.13180123019946
1451387,-75.36857312826095,-76.74429246925553
3213280,-74.33227305043928,-75.70799239143386
575582,-75.52420528496265,-76.89992462595723
391567,-331.70676905628994,-333.0824883972845
3498775,-75.56931388443132,-76.9450332254259
1907460,-68.8428998206747,-70.21861916166928
2866007,-76.32014955597155,-77.69586889696613
1446560,-75.943275257715,-77.31899459870958
3020523,-75.32327388773724,-76.69899322873182
496144,-73.74087236334327,-75.11659170433785
1390851,-331.5713717083528,-332.94709104934736
554049,-75.83613501393268,-77.21185435492725
3794029,-78.14562617268408,-79.52134551367865
1524124,-74.55506603686105,-75.93078537785563
3865826,-77.36012218588463,-78.73584152687921
2962771,-74.60236711690622,-75.9780864579008
541849,-74.8394406889993,-76.21516002999388
1556760,-76.47921695647722,-77.85493629747178
631478,-75.4148489654846,-76.79056830647917
1519637,-76.01064889990177,-77.38636824089635
1822025,-68.10824588204522,-69.4839652230398
3242243,-74.97962377046355,-76.35534311145813
1705765,-75.42575973914225,-76.80147908013683
1543295,-76.71888789020095,-78.09460723119552
1860254,-68.81129522145193,-70.1870145624465
3237860,-76.86048893843986,-78.23620827943444
205387,-74.33989244273752,-75.7156117837321
2146802,-75.93125451180929,-77.30697385280386
909495,-75.44482561107029,-76.82054495206486
2129480,-76.2969200584335,-77.67263939942806
1901903,-67.82619956823963,-69.20191890923421
3856574,-75.91836273439654,-77.29408207539112
259638,-78.51518442325552,-79.8909037642501
3314214,-74.56296448950408,-75.93868383049866
1664378,-74.40247367476522,-75.7781930157598
3011765,-76.28488415729288,-77.66060349828746
657159,-74.90972263291603,-76.28544197391061
3661446,-330.10768181756686,-331.48340115856143
1161295,-67.88452720704323,-69.26024654803781
879211,-75.71005956359562,-77.0857789045902
404073,-74.15835484509003,-75.5340741860846
850289,-75.5751068436777,-76.95082618467228
3169905,-75.25782446441036,-76.63354380540494
2694854,-73.01479813662355,-74.39051747761813
2194423,-74.30903046693926,-75.68474980793384
1494650,-75.23924110824484,-76.61496044923942
3860217,-74.21113134547046,-75.58685068646504
1395599,-74.4304412901758,-75.80616063117039
3042285,-78.65423857426384,-80.02995791525842
1829210,-324.8821832792318,-326.2579026202264
1232512,-74.79682206283346,-76.17254140382803
1238556,-74.91131633849048,-76.28703567948506
2413578,-75.07598650607073,-76.45170584706531
2229093,-76.0676574863242,-77.44337682731877
2734004,-75.65361794027935,-77.02933728127392
1043411,-67.23177330113401,-68.60749264212859
3807098,-74.77432394527428,-76.15004328626885
413768,-75.18803025781696,-76.56374959881154
518123,-75.46678837693604,-76.84250771793062
1908151,-68.19998089000892,-69.5757002310035
2469729,-75.26135618996207,-76.63707553095665
2046984,-74.88207615168379,-76.25779549267837
3047610,-79.3760471356756,-80.75176647667018
970665,-75.06903379076009,-76.44475313175467
3450933,-74.50340139772501,-75.87912073871959
1695257,-75.1557130620996,-76.53143240309417
590208,-75.91228468664352,-77.2880040276381
3707444,-329.88113696127533,-331.2568563022699
2057219,-335.792413219584,-337.16813256057856
2849602,-75.59525672941926,-76.97097607041384
3304843,-75.9879514447789,-77.36367078577348
2031536,-75.74513976584377,-77.12085910683835
848315,-74.2914604742023,-75.66717981519687
229297,-75.23602844201972,-76.6117477830143
3652360,-74.96935943341775,-76.34507877441233
1057242,-327.5578048363189,-328.9335241773135
1240682,-75.82576057914015,-77.20147992013473
3674489,-74.83606068690996,-76.21178002790454
2848017,-74.81741021120119,-76.19312955219576
1682699,-78.59463403112069,-79.97035337211527
839723,-74.68338426844265,-76.05910360943723
3143310,-75.0496311624915,-76.42535050348607
386690,-75.62706647243296,-77.00278581342754
3666540,-74.7875782659399,-76.16329760693448
3799058,-75.19080924051042,-76.566528581505
430845,-74.93818705839007,-76.31390639938465
2492315,-74.69860401309408,-76.07432335408866
2136760,-74.66254466756425,-76.03826400855883
3489623,-75.36624265883077,-76.74196199982535
3123430,-74.83800759385954,-76.21372693485412
2054856,-74.87436147236546,-76.25008081336004
2575655,-73.83519477225201,-75.21091411324657
704857,-330.5599808560437,-331.9357001970383
1301767,-74.75322511194342,-76.128944452938
1787241,-73.47433109651394,-74.85005043750851
670897,-74.9142000787034,-76.28991941969797
1666687,-76.05798373221897,-77.43370307321355
435726,-76.90915742320628,-78.28487676420086
1791599,-74.2721051760006,-75.64782451699517
2743499,-74.9372955028397,-76.31301484383428
3537640,-76.3098817062118,-77.68560104720638
2945208,-76.76262998196317,-78.13834932295775
1255417,-74.64421743116263,-76.01993677215721
3835933,-74.21152702903683,-75.58724637003141
353663,-75.03425599959895,-76.40997534059353
1869343,-70.55133297168634,-71.92705231268091
1630274,-75.4907939364793,-76.86651327747389
1906721,-67.60457638732385,-68.98029572831842
910130,-75.68425039361132,-77.0599697346059
3540322,-74.07527793136379,-75.45099727235836
349025,-76.22632150281018,-77.60204084380476
535865,-75.02629129783737,-76.40201063883195
1713769,-78.60797031652083,-79.98368965751541
1559500,-73.77675698088387,-75.15247632187845
363925,-74.86125461999274,-76.23697396098731
3003536,-75.8626832498379,-77.23840259083248
3908572,-75.11014440932937,-76.48586375032394
2665762,-75.3618528207496,-76.73757216174418
3508952,-75.35794616918342,-76.733665510178
3761436,-75.15966926962638,-76.53538861062096
2712039,-75.66986462096833,-77.0455839619629
2624695,-330.5676413648651,-331.9433607058597
3108567,-75.03179140479787,-76.40751074579245
2534892,-76.46989152922045,-77.84561087021501
1074388,-325.0397085642834,-326.41542790527797
759946,-75.6027965609792,-76.97851590197378
3914785,-74.4047073381179,-75.78042667911247
1575343,-75.77875230995484,-77.1544716509494
1062033,-72.55002828990132,-73.9257476308959
3294593,-75.14959367198527,-76.52531301297985
614133,-74.77966938306096,-76.15538872405554
3224258,-74.76465426626612,-76.1403736072607
1908711,-70.94134041619134,-72.31705975718592
3057434,-75.17435018372616,-76.55006952472074
2556786,-74.99326431961241,-76.36898366060699
349003,-76.2085659416421,-77.58428528263669
999522,-74.9027063514435,-76.27842569243808
3845425,-75.39152902604181,-76.76724836703639
2632976,-75.92620802812993,-77.30192736912451
826323,-75.72116759239223,-77.09688693338681
891965,-75.72286519488807,-77.09858453588265
3408241,-76.66751421046584,-78.04323355146042
502285,-74.79772109258457,-76.17344043357915
1475339,-76.05352923352227,-77.42924857451685
2495111,-75.35846017356624,-76.73417951456082
2747265,-75.99410932073529,-77.36982866172987
1384162,-75.13587327826967,-76.51159261926425
3288745,-75.73195132424603,-77.1076706652406
2571626,-74.94609407092916,-76.32181341192374
2787423,-330.8266205150822,-332.2023398560768
1122407,-69.03024403384904,-70.40596337484362
1013077,-74.90103664213369,-76.27675598312827
2198560,-76.72685479039464,-78.10257413138922
3198724,-75.06427486118119,-76.43999420217577
1547060,-75.78564659129637,-77.16136593229095
1152535,-69.5036054017245,-70.87932474271906
963744,-75.33555401665384,-76.71127335764842
3204127,-74.92024048395122,-76.2959598249458
2671338,-76.46902699046922,-77.8447463314638
2059492,-74.09228457575256,-75.46800391674714
3146991,-75.53993570704488,-76.91565504803945
2111550,-74.39191465652385,-75.76763399751843
1917252,-68.0873976231921,-69.46311696418668
959596,-75.84834302203035,-77.22406236302493
1531509,-74.37683445622174,-75.75255379721632
323453,-77.64569742410687,-79.02141676510145
1944459,-77.17065928150542,-78.5463786225
2788014,-75.9903654022782,-77.36608474327278
2199495,-75.38186500608782,-76.7575843470824
899139,-75.51033570497223,-76.88605504596681
3045858,-73.81728045310905,-75.19299979410363
2650365,-330.40657577900936,-331.7822951200039
2858719,-75.34847819706579,-76.72419753806037
1038195,-75.3500477262251,-76.72576706721968
1106767,-69.61825918926101,-70.99397853025559
1665806,-76.04606973387806,-77.42178907487263
511011,-75.42920482781588,-76.80492416881046
1447333,-74.77384684391023,-76.14956618490481
359935,-74.96619144772701,-76.34191078872158
2755069,-76.14097011520327,-77.51668945619785
222391,-76.08277689018851,-77.45849623118309
3310790,-75.63247934176466,-77.00819868275924
3292030,-77.149658027578,-78.52537736857258
2109589,-75.07129985269655,-76.44701919369113
963151,-76.52143133469033,-77.89715067568491
3054582,-73.42398161087212,-74.7997009518667
1989338,-76.68736850517939,-78.06308784617397
691077,-75.51697369588985,-76.89269303688442
2016322,-74.99847972537727,-76.37419906637184
1061761,-68.55984283351697,-69.93556217451153
726495,-79.01735541581407,-80.39307475680864
1479068,-75.0162099129756,-76.39192925397018
2801228,-77.27906055131842,-78.654779892313
1201780,-76.52447609192025,-77.90019543291483
1612940,-74.71087561814662,-76.0865949591412
698711,-77.38688285170774,-78.76260219270232
513597,-75.51142647225389,-76.88714581324847
2249357,-73.82480223282482,-75.2005215738194
2515022,-75.29783333111429,-76.67355267210887
525852,-75.01620043888136,-76.39191977987593
969870,-75.40864252324563,-76.78436186424021
3400816,-74.92670702934515,-76.30242637033973
3671505,-76.02748781882848,-77.40320715982305
2407954,-76.14447084976656,-77.52019019076114
623418,-74.95631661802294,-76.33203595901752
3274163,-75.91954501121687,-77.29526435221145
2762554,-77.25189176287198,-78.62761110386656
583414,-75.24937233891268,-76.62509167990726
688062,-82.36412117047766,-83.73984051147224
350526,-336.82377760551503,-338.1994969465096
1586276,-77.96085940411686,-79.33657874511142
494507,-74.86799054813919,-76.24370988913377
2223453,-74.84981797223807,-76.22553731323265
2166458,-74.50185114937295,-75.87757049036753
374697,-74.58340577423753,-75.95912511523211
1023985,-74.65331662568721,-76.02903596668179
1406964,-75.2938735312687,-76.66959287226328
2538135,-75.61247242718592,-76.9881917681805
1511178,-75.22394365362044,-76.59966299461502
809831,-74.31672459797637,-75.69244393897095
2010633,-75.463347778939,-76.83906711993357
1036932,-75.53173597783255,-76.90745531882713
525747,-75.33491618155873,-76.7106355225533
2802540,-75.83293558214201,-77.20865492313659
1015973,-75.63840905588671,-77.01412839688129
635682,-75.34042118550423,-76.71614052649879
1454158,-74.83898459710062,-76.2147039380952
2771432,-75.43663221047206,-76.81235155146663
1724413,-75.72039274157314,-77.09611208256771
3430822,-77.44639783198184,-78.82211717297642
3116272,-73.989291124484,-75.36501046547858
3204773,-74.59296999894471,-75.96868933993927
2507648,-75.25272115632437,-76.62844049731895
3741784,-75.56579207157347,-76.94151141256805
390777,-75.49499576781804,-76.87071510881262
600406,-75.55501834593692,-76.9307376869315
3753839,-75.10732030716854,-76.48303964816311
1251974,-75.0778141685742,-76.45353350956879
252232,-76.39851268205078,-77.77423202304536
871928,-75.6157982309214,-76.99151757191598
1577902,-75.20525175161805,-76.58097109261263
2590036,-75.70996409980185,-77.08568344079643
639767,-74.90645855751582,-76.2821778985104
3496566,-74.90049455304163,-76.2762138940362
3727378,-75.01836301507322,-76.3940823560678
835294,-75.16459276402496,-76.54031210501954
888791,-74.88931690202283,-76.2650362430174
2846519,-74.99049525594066,-76.36621459693524
1699174,-75.3361590136573,-76.71187835465187
1205898,-75.31043365409975,-76.68615299509433
2677693,-75.22963088606933,-76.60535022706391
2003777,-76.98818427676723,-78.3639036177618
1428702,-75.39813444209858,-76.77385378309314
2871200,-77.87106887108334,-79.24678821207792
2573940,-77.84740787341477,-79.22312721440935
3783513,-75.69613385511212,-77.07185319610669
2754131,-74.7260139404437,-76.10173328143829
302676,-76.13064358671737,-77.50636292771195
448143,-74.18088030638098,-75.55659964737556
2172529,-75.49282108601756,-76.86854042701214
2856519,-74.50308524477661,-75.87880458577119
975451,-75.6126107464063,-76.98833008740088
1541091,-74.46389631579765,-75.83961565679222
2504071,-75.33011892016789,-76.70583826116247
451458,-74.8946319579974,-76.27035129899198
1680551,-75.38043232986695,-76.75615167086153
480157,-73.6111160375006,-74.98683537849517
1675467,-75.08408805234154,-76.45980739333612
2994613,-76.29453952789717,-77.67025886889175
1535923,-75.55202024751755,-76.92773958851213
2808517,-331.6263410075546,-333.00206034854915
842276,-74.99808500365116,-76.37380434464573
1483012,-75.23492996729863,-76.6106493082932
3481159,-75.60295587175031,-76.97867521274489
2441562,-75.02273455409997,-76.39845389509455
3279151,-75.01194841090016,-76.38766775189474
409237,-75.62772824567601,-77.00344758667059
3533916,-75.1600567056468,-76.53577604664136
3744900,-73.83247725617797,-75.20819659717255
3107126,-76.34782199874607,-77.72354133974065
3883590,-74.70424599798864,-76.07996533898321
1913367,-68.64753304837178,-70.02325238936636
2835609,-75.87497116220594,-77.25069050320052
1326652,-75.0426027744776,-76.41832211547218
3881763,-74.83015590905607,-76.20587525005065
3054964,-76.25581534853622,-77.6315346895308
3957589,-75.29092777387038,-76.66664711486496
709465,-76.27174207897323,-77.64746141996781
2594921,-77.38513076242823,-78.76085010342281
3723528,-75.4792117375144,-76.85493107850898
2620390,-78.22054684620473,-79.5962661871993
424002,-75.39112138240922,-76.7668407234038
1479275,-75.4721400134055,-76.84785935440007
1676637,-75.54189810749958,-76.91761744849416
3904557,-74.80713276888758,-76.18285210988216
2144466,-74.96219554916547,-76.33791489016005
1609763,-74.2160025523332,-75.59172189332777
597267,-75.98468881513331,-77.36040815612789
203398,-78.05312173621145,-79.42884107720603
543364,-75.3349051826015,-76.71062452359608
1738520,-76.00107953228373,-77.3767988732783
392551,-75.9846014864993,-77.36032082749388
989997,-73.93852312295672,-75.3142424639513
2474940,-74.76983129265317,-76.14555063364774
2045396,-76.12650483111365,-77.50222417210823
3540316,-74.79552123367503,-76.17124057466961
2917983,-76.15396695193846,-77.52968629293304
226356,-74.62401147472252,-75.9997308157171
326439,-76.08983846716785,-77.46555780816243
2743627,-75.94381985025603,-77.31953919125061
1817456,-67.8377590516686,-69.21347839266318
3665320,-75.56783709642893,-76.94355643742351
219236,-75.52371258015282,-76.8994319211474
2501439,-75.4607428234361,-76.83646216443069
369028,-74.79647465831269,-76.17219399930727
2152908,-74.37597802223483,-75.75169736322941
2967981,-74.6090397751261,-75.98475911612069
3785604,-75.05016107175129,-76.42588041274587
1251180,-75.32394161516032,-76.6996609561549
1781351,-335.1293114283724,-336.50503076936695
3066929,-75.11325237145418,-76.48897171244876
3109514,-75.36677177570911,-76.74249111670369
1680170,-74.62820659096259,-76.00392593195717
1064864,-324.9009595758674,-326.27667891686195
965166,-75.37315888185671,-76.74887822285129
2492350,-75.15720585648062,-76.5329251974752
1258208,-75.12692574598745,-76.50264508698203
2907901,-75.843465146639,-77.21918448763357
3050637,-335.23998790322264,-336.6157072442172
1168179,-328.3109416409059,-329.6866609819005
1031748,-75.87259814788578,-77.24831748888036
614883,-75.3267862252961,-76.70250556629068
3232761,-74.45945883251497,-75.83517817350955
1718404,-74.24863995610114,-75.62435929709572
711363,-74.75653713004976,-76.13225647104434
2463196,-75.89483665453466,-77.27055599552924
1918918,-68.02969028160105,-69.40540962259563
2058524,-75.32459628716822,-76.7003156281628
3014612,-74.73662199519569,-76.11234133619027
2484567,-337.57162771787,-338.9473470588646
2488152,-74.98059737307375,-76.35631671406833
2508550,-75.73781451132655,-77.11353385232113
3158160,-75.7288191857996,-77.10453852679416
2501904,-76.02653472803667,-77.40225406903124
3901109,-75.48601785212068,-76.86173719311526
532894,-74.02217393880979,-75.39789327980436
377392,-75.84281537080729,-77.21853471180187
3763988,-75.25033836317984,-76.62605770417441
2039124,-75.53550644353278,-76.91122578452736
2509140,-74.4291820930362,-75.80490143403078
2500530,-75.14927904985319,-76.52499839084777
3528018,-75.74328181290169,-77.11900115389626
2573664,-75.98400205058331,-77.35972139157789
3283662,-75.66260143877041,-77.03832077976499
230796,-75.42721697247963,-76.8029363134742
851653,-77.5694421298161,-78.94516147081067
2649412,-76.13904011846206,-77.51475945945663
2159216,-75.17626568261501,-76.55198502360959
3471058,-76.40289735097512,-77.77861669196969
2853001,-75.16327520798463,-76.53899454897919
1948569,-74.30467942192799,-75.68039876292256
2546717,-74.53181331344533,-75.9075326544399
2807574,-75.02826361483685,-76.40398295583142
198315,-75.44695497247544,-76.82267431347002
1111836,-68.9576125977655,-70.33333193876008
2526881,-73.80595129855197,-75.18167063954655
1903476,-68.29365145979068,-69.66937080078526
1703699,-333.91567119480305,-335.29139053579763
3061684,-72.7267359139851,-74.10245525497967
3715567,-74.7980831363432,-76.17380247733777
1313659,-82.01897856945709,-83.39469791045167
3095355,-74.82652588450046,-76.20224522549503
896557,-74.15520405706954,-75.53092339806412
1228915,-74.38426589150274,-75.75998523249731
1867410,-68.3793808778003,-69.75510021879488
500938,-75.75766072272064,-77.13338006371522
1940081,-75.42527341505429,-76.80099275604887
1831887,-68.81720598141308,-70.19292532240766
3287254,-74.36308656502776,-75.73880590602234
2240008,-75.9388727359207,-77.31459207691526
633372,-75.48351951266227,-76.85923885365685
2568634,-75.53969891870709,-76.91541825970167
1589750,-75.1903741055767,-76.56609344657126
3305049,-74.27028225032271,-75.64600159131729
2925316,-75.53812945577698,-76.91384879677156
1085378,-324.64747799828035,-326.02319733927493
2670663,-74.69574336357084,-76.07146270456542
202218,-74.63893793422135,-76.01465727521592
2218871,-75.39885682110534,-76.77457616209992
3092254,-76.35816817609444,-77.73388751708902
3714289,-76.42818209538605,-77.80390143638063
3915365,-74.53409979805794,-75.90981913905252
3171563,-75.04112675445275,-76.41684609544733
3327572,-72.87552952483101,-74.25124886582559
1222866,-75.76208748079225,-77.13780682178682
2110935,-75.84981953362174,-77.22553887461632
3446733,-74.5624871612958,-75.93820650229038
675877,-75.55625664255624,-76.9319759835508
574628,-74.12249745057873,-75.49821679157331
3362302,-74.83222395990786,-76.20794330090244
1810734,-69.46677822644546,-70.84249756744003
1898565,-69.98020986941965,-71.35592921041423
2046458,-74.45058307033077,-75.82630241132534
1435369,-76.23688677323499,-77.61260611422956
3801616,-330.21795294783993,-331.5936722888345
2495205,-75.3949372580761,-76.77065659907068
3528244,-75.87245033704177,-77.24816967803635
3544028,-75.81283655108327,-77.18855589207784
2183490,-75.12396083650141,-76.49968017749599
3274428,-75.15352441524671,-76.52924375624129
1942404,-75.49848070380969,-76.87420004480427
1443049,-75.28581947285397,-76.66153881384855
3805609,-75.6222307284662,-76.99795006946079
249799,-75.26508967725009,-76.64080901824467
1159970,-68.97207528077934,-70.3477946217739
319108,-74.33037464618067,-75.70609398717525
1356006,-76.0281559702828,-77.40387531127737
466330,-77.24808682142474,-78.62380616241931
1126805,-327.9900429943898,-329.3657623353844
436025,-76.10319686518928,-77.47891620618385
3880683,-74.58297068869841,-75.95869002969299
1979761,-74.90512027622174,-76.28083961721632
3508206,-74.90975361015416,-76.28547295114873
1902583,-68.62005338817784,-69.99577272917242
3354907,-74.54290468660433,-75.91862402759891
705299,-74.41401320934216,-75.78973255033672
1879999,-68.27690103135231,-69.65262037234689
977515,-78.94035791463645,-80.31607725563103
561430,-75.26505942501521,-76.64077876600979
1309516,-75.86302372170782,-77.2387430627024
3083621,-75.216063649035,-76.59178299002957
2656729,-77.69291091584117,-79.06863025683575
3423490,-75.27026234225953,-76.6459816832541
3334273,-75.38866581155936,-76.76438515255394
2938549,-79.13304131184489,-80.50876065283947
852652,-76.09376370073812,-77.4694830417327
2046284,-76.52377715628558,-77.89949649728015
1021325,-74.59561593852185,-75.97133527951642
3216282,-75.49346373360623,-76.86918307460081
3745617,-330.5745484272333,-331.9502677682279
1775904,-74.86994925521681,-76.24566859621139
827491,-330.74680492248785,-332.12252426348243
3123382,-74.16308317937266,-75.53880252036724
2942813,-331.6006387418325,-332.97635808282706
2236000,-75.54070091472097,-76.91642025571555
1710227,-76.35336910283051,-77.72908844382509
1863698,-68.31163344703407,-69.68735278802863
3022920,-73.94518124779422,-75.3209005887888
1133847,-327.9583653547459,-329.3340846957405
2450398,-335.20915761620637,-336.58487695720095
324600,-74.55689752500456,-75.93261686599914
3311311,-75.1318855921066,-76.50760493310118
1982067,-76.07300608475113,-77.4487254257457
579638,-74.9751776227739,-76.35089696376848
1946809,-75.8469000684585,-77.22261940945307
620343,-74.41283551245559,-75.78855485345017
671701,-76.42183977858292,-77.7975591195775
2270732,-72.5506950916659,-73.92641443266048
1120746,-68.66139998296406,-70.03711932395863
2212603,-75.43550719609019,-76.81122653708475
3185875,-75.4310434859865,-76.80676282698109
1409326,-334.7669291283758,-336.1426484693704
1347289,-74.78418760897223,-76.15990694996681
3653582,-77.11629097157727,-78.49201031257185
3878767,-76.3671530197777,-77.74287236077228
383076,-74.42695296991012,-75.8026723109047
644721,-76.33077867677785,-77.70649801777243
3508873,-74.03228004590548,-75.40799938690006
560887,-74.7035502170871,-76.07926955808166
3285180,-75.70726621407107,-77.08298555506565
3281564,-75.38784614640699,-76.76356548740156
2872920,-74.85926147404626,-76.23498081504084
1560432,-75.8024683137152,-77.17818765470977
549725,-81.68213719008584,-83.0578565310804
3516815,-75.68261445272248,-77.05833379371705
2411748,-75.16405319750463,-76.53977253849921
2669168,-76.13469733951264,-77.51041668050722
3240608,-74.69121188562877,-76.06693122662335
2503357,-74.36833444623656,-75.74405378723114
2924964,-332.9755396184506,-334.3512589594452
233453,-74.97500044963226,-76.35071979062684
2801058,-75.81360598070503,-77.18932532169961
2154414,-74.61808987766072,-75.9938092186553
1524578,-74.94281664139002,-76.3185359823846
2700217,-75.67480656428951,-77.05052590528409
2944110,-331.1908034525728,-332.5665227935674
1253643,-75.46362388034203,-76.8393432213366
2485024,-75.29472869447575,-76.67044803547033
2455983,-75.90785345380827,-77.28357279480285
3033041,-76.53522466665541,-77.91094400764999
3710968,-74.68316202200383,-76.05888136299839
3099613,-74.44613123680226,-75.82185057779684
2424577,-76.20380973333977,-77.57952907433435
2730037,-78.3763343113341,-79.75205365232868
3544684,-75.13734568280024,-76.51306502379482
254869,-78.92520478071353,-80.3009241217081
2548518,-75.37993222723401,-76.75565156822859
2920138,-75.61852995432453,-76.99424929531911
940967,-78.94038093608238,-80.31610027707696
961039,-75.91597319364314,-77.29169253463772
471365,-75.0387538102702,-76.41447315126477
1316519,-331.00245331320065,-332.3781726541952
3791947,-74.80640535348665,-76.18212469448123
1553941,-75.03073711994827,-76.40645646094285
947485,-77.05499898598961,-78.43071832698419
2766457,-75.38172301141404,-76.75744235240862
3268096,-74.99349631949879,-76.36921566049337
352386,-75.59891478669425,-76.97463412768883
1441559,-75.41494052800809,-76.79065986900267
3355089,-73.57545541230375,-74.95117475329833
3339390,-75.04902760186836,-76.42474694286294
3677187,-74.06367024708248,-75.43938958807706
2552955,-75.53046070710239,-76.90618004809697
1403431,-74.29106534621454,-75.66678468720912
1138596,-68.41149218850012,-69.7872115294947
2253515,-75.12925667732215,-76.50497601831673
1623148,-74.03192422902774,-75.40764357002232
3938625,-75.229736471746,-76.60545581274057
326578,-74.79765017268716,-76.17336951368173
3262651,-73.94125658806932,-75.3169759290639
888239,-74.46655506281967,-75.84227440381424
2152999,-75.92877264628702,-77.3044919872816
3398232,-75.5781048856014,-76.95382422659598
1004214,-75.9601740221195,-77.33589336311408
2537785,-75.83230319342081,-77.20802253441539
1597751,-73.65316054831047,-75.02887988930505
3883294,-73.73316367375827,-75.10888301475285
3537713,-74.94775877087146,-76.32347811186604
1559132,-75.17057250036346,-76.54629184135804
2210300,-74.8622141197985,-76.23793346079307
684515,-75.46530768927873,-76.84102703027331
1213136,-76.08275857716716,-77.45847791816173
214617,-74.52035989371433,-75.8960792347089
608878,-74.31992553746244,-75.69564487845702
3177762,-75.90917794799333,-77.2848972889879
1697300,-74.45283971522997,-75.82855905622455
595639,-75.04705118724901,-76.42277052824359
3162251,-74.74501331891051,-76.12073265990507
426631,-80.22092984704379,-81.59664918803837
1249114,-74.96579266073792,-76.3415120017325
3860594,-79.9499137220329,-81.32563306302748
2776323,-76.07379481460238,-77.44951415559696
977593,-76.15953923460366,-77.53525857559823
2506276,-75.8447850319947,-77.22050437298928
538573,-70.2676968562601,-71.64341619725468
3846320,-74.34270022562127,-75.71841956661585
912213,-75.35370709207777,-76.72942643307235
2814303,-77.9648999806893,-79.34061932168387
1118318,-67.64441937264313,-69.0201387136377
703039,-73.13225419434245,-74.50797353533703
491563,-75.45428883877321,-76.83000817976779
1979815,-75.82133608682032,-77.1970554278149
2907394,-77.70518766654105,-79.08090700753563
1726419,-324.19060556595673,-325.5663249069513
634348,-76.0472288403918,-77.42294818138637
1829431,-68.84728897392571,-70.22300831492029
201154,-76.00431715458593,-77.38003649558051
1160865,-67.37566625514367,-68.75138559613825
1378806,-75.64352527850639,-77.01924461950097
3378220,-74.45836396531055,-75.83408330630513
3031897,-76.02618936961993,-77.4019087106145
481197,-76.40157636850195,-77.77729570949653
1818524,-67.60748122399615,-68.98320056499072
247394,-74.0224364348555,-75.39815577585009
1029186,-75.29586315405109,-76.67158249504567
2980040,-75.01352691436527,-76.38924625535985
1051087,-327.59624246182403,-328.9719618028186
839300,-74.8080762302644,-76.18379557125897
1311518,-75.09618709992338,-76.47190644091796
2213735,-75.36578985318928,-76.74150919418386
3801173,-76.22766497552526,-77.60338431651984
3074190,-75.53465148517691,-76.91037082617149
3292593,-75.56447690291544,-76.94019624391002
243081,-76.15310919195252,-77.52882853294709
3269213,-75.5474672506396,-76.92318659163418
760518,-74.88449062687064,-76.26020996786522
2780836,-74.83299513992786,-76.20871448092244
2720203,-74.409083614504,-75.78480295549858
2015033,-75.89155227935599,-77.26727162035057
2522627,-75.7364972267148,-77.11221656770938
1871829,-69.21736873691154,-70.59308807790612
861632,-75.42321411645835,-76.79893345745293
3100400,-73.77222106095903,-75.1479404019536
2488640,-75.60014961171649,-76.97586895271107
253649,-75.92654842283366,-77.30226776382824
2454100,-74.86646792160022,-76.2421872625948
1254436,-74.90244803479385,-76.27816737578843
1774079,-74.07646465799087,-75.45218399898545
1023286,-73.98172915454118,-75.35744849553576
1919630,-68.82122913309956,-70.19694847409414
2717411,-74.72542598420574,-76.10114532520032
1572890,-77.38426337428227,-78.75998271527685
1850970,-69.8643830409246,-71.24010238191916
3078154,-75.33772432842716,-76.71344366942174
341716,-78.07659354173822,-79.4523128827328
1168261,-73.66623414905732,-75.0419534900519
1671535,-78.58219089822285,-79.95791023921743
3291881,-75.30805329534728,-76.68377263634186
3528136,-74.89403312210094,-76.26975246309551
388935,-74.41199399260228,-75.78771333359686
3737358,-75.35088094854996,-76.72660028954454
823858,-75.90546336384106,-77.28118270483564
3035984,-73.73530656548554,-75.11102590648012
3368178,-75.25827658649797,-76.63399592749255
380532,-75.84717550091193,-77.22289484190651
2614110,-74.95584498306823,-76.33156432406281
1961467,-330.21142041755587,-331.58713975855045
1562532,-73.94310916301343,-75.31882850400801
2811228,-73.37145410725816,-74.74717344825274
3318966,-77.12901926030301,-78.50473860129759
936286,-78.22042776203976,-79.59614710303434
3652574,-73.6849310983224,-75.06065043931697
242497,-74.40872704466574,-75.78444638566032
2029007,-76.52164194908305,-77.89736129007763
3376185,-75.87744241190612,-77.2531617529007
2675979,-74.43519465500731,-75.81091399600189
1740434,-75.42234343622738,-76.79806277722196
1023783,-74.87797476358001,-76.25369410457459
1078107,-327.9103530748919,-329.28607241588645
1076907,-331.57326088645794,-332.9489802274525
533224,-79.27364188641347,-80.64936122740805
526756,-74.81508229285942,-76.19080163385398
859360,-74.94713417888616,-76.32285351988074
1662490,-74.57461473905461,-75.95033408004919
2214458,-73.84799941685691,-75.22371875785149
2670298,-75.02095547394251,-76.39667481493709
1112653,-64.410747563739,-65.78646690473357
2451457,-74.244263363384,-75.61998270437857
2963640,-74.44078504722945,-75.81650438822403
2648692,-75.56098729740738,-76.93670663840196
3913357,-74.3470371659205,-75.72275650691508
3463185,-75.64569675339139,-77.02141609438597
1614809,-74.84823274598747,-76.22395208698204
1903653,-69.96622204414702,-71.3419413851416
2505969,-75.02545449218611,-76.40117383318069
1544340,-74.43573301203928,-75.81145235303386
1813061,-67.54987203210207,-68.92559137309665
593963,-74.70382828053943,-76.079547621534
3112583,-74.29479857214888,-75.67051791314346
3891451,-74.09543882110545,-75.47115816210002
3158791,-75.76192653099164,-77.13764587198622
2049441,-75.78120015748958,-77.15691949848416
2243830,-74.03778630783741,-75.41350564883199
1584583,-76.30650275266069,-77.68222209365527
1562762,-75.07159628569751,-76.44731562669209
3807935,-75.15774417755811,-76.5334635185527
1601175,-75.59128145794931,-76.96700079894389
2965878,-74.14671666417176,-75.52243600516634
3151729,-75.43676198694665,-76.81248132794123
2264244,-75.6444825996909,-77.02020194068548
2901680,-76.37531360518595,-77.75103294618053
2004946,-332.0258715568973,-333.4015908978919
1143495,-72.58742551898717,-73.96314485998175
3542462,-73.97498913000051,-75.35070847099509
3230399,-74.91728865103043,-76.29300799202501
3659185,-74.42478313459362,-75.8005024755882
3897287,-74.79958404472502,-76.1753033857196
3155754,-74.99752035989395,-76.37323970088853
1287540,-75.13334986933798,-76.50906921033256
685198,-74.48488827887881,-75.86060761987339
938422,-75.72877417853444,-77.10449351952902
1961682,-74.32708237167031,-75.7028017126649
1780481,-75.31990828446128,-76.69562762545586
3008139,-75.84547860815975,-77.22119794915433
2261020,-75.49186305851875,-76.86758239951332
1004733,-332.4667620199863,-333.84248136098086
484813,-74.0610176498771,-75.43673699087168
2763272,-81.76709035995525,-83.14280970094983
822443,-75.53439186565627,-76.91011120665085
1864223,-323.95167438477114,-325.3273937257657
1489880,-75.81534432909228,-77.19106367008686
2836460,-75.84925887208873,-77.2249782130833
634159,-75.94322893069963,-77.31894827169421
3908578,-75.59566421932031,-76.97138356031489
2803123,-77.8702708412751,-79.24599018226968
272347,-76.0409397214272,-77.41665906242177
1556013,-74.81023809057547,-76.18595743157005
3011748,-75.34522930990543,-76.72094865090001
850914,-323.91020477962155,-325.28592412061613
936405,-76.53413469876142,-77.909854039756
3783520,-331.30862020024375,-332.68433954123833
756487,-74.76160350344522,-76.13732284443978
2639285,-74.74283610709469,-76.11855544808927
2181314,-74.43169877269364,-75.80741811368821
1911614,-69.09349816949498,-70.46921751048954
2910106,-78.41123712826976,-79.78695646926434
2466200,-75.32222615637099,-76.69794549736557
3073756,-71.17675424323123,-72.5524735842258
1341361,-74.77319029659027,-76.14890963758485
3833872,-75.07899163139253,-76.4547109723871
3255019,-75.43880005347889,-76.81451939447346
854215,-74.41809152044681,-75.79381086144139
1063118,-67.89083521639103,-69.2665545573856
335100,-76.17250173279164,-77.54822107378622
3438070,-74.60164812209364,-75.97736746308821
926390,-75.99059713462262,-77.3663164756172
681740,-80.00849215062276,-81.38421149161734
2906765,-331.65224484539846,-333.02796418639304
3700102,-75.58748602688641,-76.96320536788099
2405401,-75.63706679422506,-77.01278613521964
1544666,-76.20311038271296,-77.57882972370754
576910,-75.48320503902694,-76.85892438002152
2574585,-75.3661504741183,-76.74186981511288
1336010,-78.35456248976493,-79.73028183075951
263501,-74.686909728217,-76.06262906921158
3932042,-75.01895829129546,-76.39467763229004
1376792,-74.95793344158285,-76.33365278257743
1903698,-68.56188441768649,-69.93760375868106
587074,-74.84989602457841,-76.22561536557298
3699052,-75.77889453165972,-77.1546138726543
3078982,-337.73536102608574,-339.1110803670803
715683,-75.61783937732105,-76.99355871831563
1249656,-75.36085815891256,-76.73657749990714
2168442,-75.51930973651355,-76.89502907750813
2834492,-75.88285028945886,-77.25856963045344
1225641,-75.43684891185323,-76.81256825284781
1763705,-74.21494852973004,-75.59066787072462
2251887,-75.49027911052471,-76.86599845151929
1500229,-75.24387613197524,-76.61959547296982
1869905,-68.38172992365175,-69.75744926464633
2158281,-77.14448967673425,-78.52020901772883
412164,-74.90370056288523,-76.27941990387981
2505948,-75.36624730326943,-76.74196664426401
2682772,-75.3154758256367,-76.69119516663126
3504631,-75.7512609903441,-77.12698033133867
2572777,-75.8268207505937,-77.20254009158828
873918,-77.16467685359156,-78.54039619458614
1201480,-76.52593841926621,-77.90165776026079
330543,-74.39703027072322,-75.7727496117178
579535,-75.69712945967068,-77.07284880066526
1147957,-68.17452655879566,-69.55024589979024
602565,-75.80516729328352,-77.1808866342781
2609325,-75.0312912243184,-76.40701056531297
2610659,-75.13010678603332,-76.5058261270279
1544207,-74.47543602859805,-75.85115536959263
2397735,-76.45427235157214,-77.82999169256672
2390949,-75.07606464765473,-76.45178398864931
723172,-76.11157607747751,-77.48729541847209
3077441,-332.50724179918785,-333.88296114018243
3654603,-74.97148814154795,-76.34720748254253
2668772,-75.93034037188693,-77.30605971288149
1684633,-79.24935746657448,-80.62507680756906
1956706,-75.82510933147701,-77.20082867247159
3738475,-75.00948547441826,-76.38520481541283
1712235,-76.16514290641453,-77.54086224740911
3225843,-75.34139828813345,-76.71711762912803
1555696,-75.08170438749376,-76.45742372848834
340267,-75.04795891009906,-76.42367825109363
2218331,-75.20268006183103,-76.57839940282561
1241230,-74.87793925501552,-76.2536585960101
3046610,-75.09582126390391,-76.4715406048985
1314431,-75.23111770127285,-76.60683704226743
3208804,-75.4429324125204,-76.81865175351497
1833851,-68.1100206834118,-69.48574002440638
3331819,-73.55067758669345,-74.92639692768803
401045,-76.06520346998714,-77.44092281098172
3015555,-75.63389956589305,-77.00961890688762
1779335,-75.35599888914146,-76.73171823013604
3198725,-76.905065170571,-78.28078451156559
2925140,-75.67450263623154,-77.05022197722612
3121397,-75.30000635411238,-76.67572569510696
472272,-75.11885143241719,-76.49457077341175
2896859,-79.21153919330175,-80.58725853429632
1666296,-75.00340418603474,-76.37912352702932
1789041,-75.54424472646926,-76.91996406746384
1613067,-76.72116271196319,-78.09688205295777
2471140,-74.96184964648403,-76.3375689874786
1115043,-328.38177483747137,-329.75749417846595
2021370,-74.50770143070895,-75.88342077170353
1860026,-69.0241603420405,-70.39987968303508
2024461,-75.7283098476447,-77.10402918863927
3526157,-75.52526930075352,-76.90098864174809
2924856,-75.59583073170793,-76.97155007270251
2700703,-76.90317780649872,-78.2788971474933
1241032,-73.92577249398484,-75.30149183497942
3512728,-76.32249211263516,-77.69821145362974
1873697,-68.5451540899597,-69.92087343095427
3309400,-74.53392918244111,-75.90964852343569
711872,-74.84281121236926,-76.21853055336383
517376,-75.43844613542244,-76.81416547641702
1882684,-67.3016163096009,-68.67733565059548
724976,-75.29609211797555,-76.67181145897013
913354,-75.91328374900328,-77.28900308999786
1091856,-72.99421373843873,-74.36993307943331
491615,-74.71927970765589,-76.09499904865046
1614401,-75.03091753422217,-76.40663687521675
1581163,-76.93988814322013,-78.31560748421471
2428029,-74.43330390423269,-75.80902324522727
3057776,-79.92961786892391,-81.30533720991849
1809237,-68.1035516626602,-69.47927100365477
2726135,-75.23365225479924,-76.60937159579382
2907396,-78.01538341165893,-79.39110275265351
573687,-74.18982357883431,-75.56554291982889
1126993,-68.67671364104626,-70.05243298204084
1089775,-71.419366435536,-72.79508577653057
2064354,-76.42067954859363,-77.7963988895882
2468708,-75.20197692166708,-76.57769626266166
2278171,-331.23895354810435,-332.6146728890989
2009640,-75.29544685512175,-76.67116619611633
2609890,-73.84114195471014,-75.21686129570472
2488122,-75.15682462238034,-76.53254396337492
2732209,-75.56214135444121,-76.93786069543579
1094412,-327.51200683785606,-328.88772617885064
3744068,-73.57193346538043,-74.947652806375
2732774,-75.22204120875715,-76.59776054975173
401134,-82.05727988185417,-83.43299922284874
2823715,-74.48101050161769,-75.85672984261227
1100951,-323.96558833737697,-325.34130767837155
1748068,-75.87437237668534,-77.25009171767992
1945748,-75.48541417113158,-76.86113351212616
2692382,-76.16480922436585,-77.54052856536043
753462,-75.61328783821847,-76.98900717921305
1743631,-75.98781371309437,-77.36353305408895
3152675,-74.05081515117955,-75.42653449217413
2492138,-75.7549753808895,-77.13069472188408
3699937,-74.9851188255081,-76.36083816650267
2500698,-334.6992242125828,-336.0749435535774
3734039,-73.79984593486824,-75.17556527586282
1088576,-69.42132110716861,-70.79704044816319
1758256,-75.59559899309154,-76.97131833408612
2597172,-75.16354908591262,-76.5392684269072
268363,-75.00604978791925,-76.38176912891383
2735890,-73.51104899902323,-74.88676834001781
1639521,-75.1877532062577,-76.56347254725227
3650680,-75.88605931801787,-77.26177865901245
1094414,-70.93703159008014,-72.31275093107472
2927618,-74.66083812128232,-76.0365574622769
239172,-74.8621326929641,-76.23785203395867
2565908,-74.99182970309116,-76.36754904408573
2473546,-75.17560969594032,-76.55132903693489
3100093,-75.80959622070253,-77.18531556169711
648161,-78.14833314515982,-79.5240524861544
2209994,-74.40343415347249,-75.77915349446707
3487969,-76.53334407499248,-77.90906341598706
669813,-75.45836231164549,-76.83408165264007
3394141,-74.41223053218461,-75.78794987317919
3907626,-74.51213017331347,-75.88784951430804
2668733,-74.07262476378908,-75.44834410478366
1810404,-69.12630563058532,-70.5020249715799
3373062,-75.0839225009662,-76.45964184196077
757812,-75.54892170856368,-76.92464104955826
1474829,-75.1029247018994,-76.47864404289398
3843808,-74.74945459021785,-76.12517393121242
1154976,-69.39085321214431,-70.76657255313889
3150046,-75.84131294413308,-77.21703228512766
1074443,-68.48473315843036,-69.86045249942494
1746232,-75.19982183704226,-76.57554117803684
379212,-74.75893984137481,-76.13465918236939
943714,-74.68143714398545,-76.05715648498003
2855469,-74.48872321229085,-75.86444255328543
2766406,-74.68220208220808,-76.05792142320266
657677,-74.25672517436038,-75.63244451535496
459524,-75.24175669667703,-76.61747603767161
2493829,-81.0699626959229,-82.44568203691747
2795228,-75.38866811374692,-76.7643874547415
1010508,-76.29369709831693,-77.6694164393115
1036183,-75.89799282953729,-77.27371217053187
1772477,-78.7768430568966,-80.15256239789117
628599,-74.9454783108927,-76.32119765188726
570639,-74.20416316363053,-75.5798825046251
735700,-75.46748337934932,-76.8432027203439
1534435,-75.79758580567409,-77.17330514666867
194191,-77.36599933060756,-78.74171867160214
2774029,-73.81096523662478,-75.18668457761936
1518924,-75.1236493898002,-76.49936873079479
272867,-74.51349882425988,-75.88921816525445
1256009,-74.07391548049837,-75.44963482149295
1195848,-74.36175825030705,-75.73747759130163
1136449,-64.92754319878648,-66.30326253978106
911969,-74.74714198577317,-76.12286132676775
2710986,-76.29960305173448,-77.67532239272906
1145092,-68.45648182149615,-69.83220116249073
1945990,-74.40694885900812,-75.7826682000027
623136,-78.19810909487961,-79.57382843587419
3479272,-76.79630059666238,-78.17201993765696
3464906,-74.35813067038526,-75.73385001137984
1195706,-74.2767175918432,-75.65243693283777
1907272,-67.66154757898428,-69.03726691997886
2626452,-76.16757525170745,-77.54329459270203
3947465,-75.46795035674678,-76.84366969774136
2461584,-74.14614099210695,-75.52186033310153
3319150,-74.6906184333931,-76.06633777438768
2746823,-74.05249196288047,-75.42821130387505
2710719,-74.69685916059935,-76.07257850159392
1904304,-68.03940705144078,-69.41512639243535
3853502,-75.77964399855328,-77.15536333954786
379255,-75.36130031682858,-76.73701965782315
1089662,-331.78465918834286,-333.16037852933744
2967764,-75.3557968759708,-76.73151621696537
2834445,-74.77448178570278,-76.15020112669735
3229037,-75.83123874730481,-77.20695808829939
3673153,-74.44484517762017,-75.82056451861474
577031,-74.90736269805902,-76.2830820390536
2978454,-75.20191269510474,-76.57763203609932
705591,-76.24897078684084,-77.62469012783542
219847,-75.89343294360775,-77.26915228460233
1107008,-70.33919316791781,-71.71491250891239
1710486,-78.36417493087347,-79.73989427186805
621360,-75.13780821213157,-76.51352755312615
1404820,-75.92594901613953,-77.3016683571341
3662338,-75.36756762529349,-76.74328696628805
1714103,-76.05011076545262,-77.4258301064472
1982499,-75.30031275354426,-76.67603209453884
3735393,-76.16190574740335,-77.53762508839793
2451431,-75.05786815331861,-76.43358749431319
3057423,-76.65158976898154,-78.02730910997612
705518,-74.57401240083999,-75.94973174183457
834119,-74.40805946979329,-75.78377881078787
2509428,-74.40349617922514,-75.77921552021972
2686481,-75.29885399078218,-76.67457333177676
1209966,-77.29071873423074,-78.66643807522532
2595937,-75.78807932897665,-77.16379866997123
1084643,-68.05614569433375,-69.43186503532833
3143406,-76.48773562540485,-77.86345496639943
3911864,-74.59708697671785,-75.97280631771243
2634238,-75.87082413068592,-77.2465434716805
532915,-75.0717357387149,-76.44745507970948
2534324,-75.0592193001349,-76.43493864112948
238120,-75.85333195362219,-77.22905129461677
3384095,-75.06054905657385,-76.43626839756843
3161008,-74.7568145710753,-76.13253391206987
2865112,-78.82179738837746,-80.19751672937204
3880452,-75.87399677137732,-77.2497161123719
2005902,-75.12152821432362,-76.49724755531818
3940092,-75.99482045105295,-77.37053979204752
1520927,-75.00068216334189,-76.37640150433647
366458,-76.52704314629496,-77.90276248728954
1541150,-74.5543621698603,-75.93008151085488
1887827,-67.47988944895127,-68.85560878994585
3176394,-74.82786985919061,-76.20358920018519
678935,-75.93281236677086,-77.30853170776544
1722731,-75.23541992387898,-76.61113926487356
1598112,-75.31074810800214,-76.68646744899672
370889,-77.68543193774752,-79.06115127874209
3831817,-75.660819866174,-77.03653920716857
901218,-75.62846575626546,-77.00418509726003
3719757,-74.58367105497658,-75.95939039597116
2503564,-73.8027134477519,-75.17843278874648
2674740,-75.64597034876013,-77.02168968975471
227765,-76.8875591193559,-78.26327846035048
2971293,-74.4921142821334,-75.86783362312798
2520114,-76.37865423106197,-77.75437357205655
2932154,-74.55490013246475,-75.93061947345933
2851845,-73.23308189405638,-74.60880123505096
2462804,-74.80436410514436,-76.18008344613894
1446966,-76.21835385393221,-77.59407319492679
550721,-337.5178300994412,-338.8935494404358
2460468,-76.02908776874195,-77.40480710973652
1349899,-74.91923005072475,-76.29494939171933
2854755,-76.0953376616542,-77.47105700264878
610440,-75.79726117898171,-77.17298051997629
839518,-74.29745196337129,-75.67317130436587
3942968,-74.88884616494884,-76.26456550594342
2393241,-75.94017147297056,-77.31589081396514
1874589,-68.89375784608544,-70.26947718708001
2276775,-75.20476592700533,-76.5804852679999
489718,-74.42345647009309,-75.79917581108765
3944126,-75.98138136005224,-77.35710070104682
2856476,-76.0782309368805,-77.45395027787508
1718085,-74.69474789228447,-76.07046723327905
2748671,-331.5953615525183,-332.97108089351286
