sample_id,y0,y1
1715258,6.498308401277774,7.206938718409691
1461661,12.305116875385506,13.70468122304257
2263212,8.006567343573204,8.89984203660478
1309040,4.2695264469624625,4.742462532235298
684230,23.816383140140722,26.487680952127697
1026457,17.623127299371436,19.61901477234151
801704,3.2937035882407586,3.713251133075723
1434260,4.3908848235123275,4.896651362669233
1452216,6.5086114295345725,7.233620877248687
443562,11.404913000029845,12.711192604066381
1142613,0.03059831328483275,0.03060134059668459
2941797,18.33152783464869,20.394750348533083
2547770,12.855913674694582,14.31636735495392
965489,1.4494240331353798,1.6326479583661653
3878476,2.9460623534974566,3.2631189918632937
3270032,1.3187555096400934,1.4527403543191753
1479275,6.881612230727094,7.638975648637662
290064,8.928720627337313,9.928498422327515
3424057,9.879397781816017,10.98915569778354
2770146,5.8427368662805925,6.497105557548472
3776229,3.0699430909438137,3.4064178219158343
264098,-0.13425536908994318,-0.1342551953433048
1046061,0.13418287213615834,0.13418395716679787
822374,3.6808378320352753,4.103776956573896
1792294,-0.15830069344638542,-0.1583006879159824
2969348,2.1144609330571074,2.351074250624266
580264,19.871171760132405,22.116210039080254
1121805,0.039536964988572725,0.03953734484433625
2800800,13.259707765466645,14.757196175427124
1069150,9.378694855191878,10.404522404400666
1281002,9.102440754905706,10.118559663812878
711919,5.07853153411819,5.610725824898923
267640,7.0130147007133115,7.78704111166194
2005081,4.9475576095588085,5.50927927857119
2264691,10.012241458449513,11.132702455425
1715706,12.269871188530463,13.656632663818423
1226100,-0.05293665631586609,-0.05293588858339255
2482054,4.98929297558279,5.524979973314067
2601120,7.067656296967487,7.87313930766405
2888774,-0.10711457648232288,-0.10711407165904542
1409884,1.798136980436516,1.9932534554268533
1604410,-0.22061172478369076,-0.22060842123933957
605988,12.154553572377498,13.523784348000646
2496330,6.628080653173953,7.347308361366181
2231657,18.2102467747963,20.30443097387159
893102,4.566417314270656,5.081657840644763
2448927,-0.18810817757416584,-0.1881079266707493
1107192,11.264597889290748,12.544568456870808
1855909,0.17115603395260623,0.17115661785956005
359146,1.8838737019951255,2.1221036644221436
538654,6.317190136275812,7.019935717469621
2571837,4.228919973526281,4.708717413050948
2160437,7.430208868421429,8.252072909432073
1516795,13.103067926712438,14.578204153799346
1712439,12.9201952686082,14.355613656978402
252771,2.5287210486288565,2.834625294388568
1881343,7.416437034940072,8.235373329544416
1673944,6.279025502728191,6.983855281321019
1844555,7.181685295412387,7.996192998750972
1728340,5.200469757422811,5.776174865838729
932427,13.654421608221607,15.172199848264254
229636,3.8562751944913445,4.291678841884012
1970684,0.36109538454786105,0.40912822070841237
1706436,16.605294703647314,18.47454078885305
1961017,9.68627933364632,10.772557141949976
2400783,12.65834896346211,14.073240959292699
1693203,11.46712815005255,12.769367414359689
2720943,2.0058840598177676,2.2441583981034907
1247471,13.441388354566717,14.967145956279138
2714035,9.217899945341575,10.2808955829124
1313497,5.649032970807973,6.30575472999705
3744822,1.2654164159684778,1.3805224586034663
645826,5.07579452757395,5.63180868508374
916632,8.352947981727972,9.28060901976912
2772800,3.735696291070736,4.165209587387604
2971317,-0.031836049197092264,-0.031835106701367785
3434826,7.766893784049512,8.651545691129511
1038066,10.397688640624143,11.604058291231206
1834615,4.9058613586472495,5.45579239113189
394008,6.134509937578311,6.82050060628997
1501393,5.36920295247294,6.001040562396522
384054,15.030130770251445,16.725589691155232
681382,0.09665331951901669,0.09665755574981702
1883045,-0.264817681327195,-0.2648174358803491
1293590,8.407885087920338,9.394357384517244
3097573,7.312571048315589,8.134837455493981
3845202,4.500795194154042,5.01517677218334
463435,8.923959764417928,9.888073180711174
2254044,5.585574884479417,6.243710213668592
1134005,30.640291008891076,34.15315718143973
1283096,5.004123594999058,5.585660637685036
428710,4.771424416861648,5.358097994290098
354545,1.7483099503647184,1.9465789278360308
2978428,3.690062209946147,4.123366805103153
1780045,0.6943954412401518,0.7419027686647857
2463057,4.624378618152459,5.1535625141812
3916146,0.028034584953144825,0.028035714356024546
2837903,6.832483129408788,7.591782097464917
242633,4.328808913757933,4.81251605632954
3808142,16.101005137536262,17.93423779087417
1076369,0.1281891861132564,0.13746089188730573
1132899,29.88126345438257,33.24878082179975
1787349,-0.014646945620139002,-0.01464605148748411
3352513,-0.006124564047880735,-0.006124260441723862
3870041,-0.21212375327194052,-0.2121221667547458
3308830,-0.2254897074005546,-0.22548952780627018
898430,0.03134825954959208,0.03134833836532623
1614591,7.82268370079366,8.703334497365958
974619,8.442875252633364,9.41500619971282
1432413,5.609168565670798,6.232255298854733
3345799,8.348497166073162,9.279994581492836
344429,4.235488393944057,4.718490417092331
3907562,10.336781483231192,11.494065031101094
2036040,9.471205007770164,10.539068799493615
2155442,7.895631819975545,8.770251167302613
3117783,1.2779910206447795,1.4564931044364546
1640662,9.655043286119957,10.7416510827569
1161618,-0.03804358009161835,-0.03804264346461239
3418309,10.806249305411146,11.99600440800382
2442543,7.78961980302907,8.673798936121386
2493824,6.008152122661407,6.707790593235354
3065356,-0.04869212158362946,-0.04869137206247459
3938001,10.554933047708511,11.75733422104745
1785317,20.662912117087497,22.993260216677296
2407083,19.540289589131955,21.73070589061554
1257804,7.389486670057946,8.218043192195717
1158097,13.319978816132412,14.856682050567299
2260831,7.493207018077918,8.355722521199429
2804999,12.653909495583841,14.077547262587027
1280323,3.184411273413503,3.5327201856170056
1151639,19.369793093709145,21.548365302094485
3523922,5.886152623227668,6.528303672602277
352848,0.2742747916488843,0.2742758805561838
1390461,18.016292151736998,20.04999358650634
1423621,1.5342269117264908,1.7115430626186054
1329927,20.396899777621243,22.705514702466132
3696147,4.978542561554136,5.5096786867520375
3233765,0.022648673051284797,0.02264971907918767
2999913,14.715894198545696,16.35288792750113
397665,7.646548279227343,8.50630920933271
2455132,0.40567460494123536,0.4056755957145711
261557,6.764626863343486,7.483647508218867
3674906,-0.20250590652385198,-0.20250099469983035
3495788,5.113420746020325,5.711895831390128
3918477,5.175434276908516,5.772312902712132
3731795,13.44301423141565,14.937196605611337
1557503,7.420603482370071,8.246472917815197
1941323,6.351913288422246,7.091494760832314
3538762,9.20443679116671,10.239386193689489
2723920,4.512530754072578,5.035553649869821
3072558,0.6077538972442347,0.669382586847212
1072832,-0.08755375470761755,-0.08755245544809738
311210,4.399879639236747,4.886622458601344
2415783,0.10514008258690322,0.10514550902536682
883711,7.077124983102019,7.852489013811691
3413602,7.476216301837238,8.32627100551722
3663186,2.256628810563983,2.5238368916208143
3666359,3.9246426713368363,4.365805729884174
3890255,0.021191894585002615,0.021192103468309357
3866649,5.589504325786989,6.2146264658976476
3030982,-0.05127557326573491,-0.05127490370533278
3411556,15.968800570871549,17.762217480767518
479658,3.8516524991390417,4.270654161346734
3678477,4.889474325980322,5.448881422364303
3403416,3.157165900442741,3.4978942251099023
2758948,16.41179969545213,18.269755273420614
3810519,14.88467797588769,16.574918392137324
536414,16.441092197626183,18.289228204554107
3944126,14.807719260842283,16.504788547061985
1676952,7.558264727048706,8.450906198888825
2062096,14.397814917169272,16.017046789497563
3755804,0.33389507230757104,0.333896367113738
1091075,-0.22581737517582848,-0.22581582367242792
1793814,0.5123318332950869,0.5658426644240986
624623,15.813154156396006,17.585258265195147
3733126,24.68586459083078,27.46567517843743
3794979,0.12525245352275235,0.12525428744696643
1616751,-0.33131614478203153,-0.3313144023035978
3496532,18.62634580607247,20.7015556147915
3132378,3.956244010043212,4.410356319403844
940565,14.064126900016047,15.62847530376186
3734748,13.903471513455143,15.468441331054859
2023232,19.240961523192283,21.410739548121512
3706914,7.698562325406756,8.563004104674874
2592272,3.518169383865644,3.918506346268728
2695993,14.19153747595188,15.774815623069271
1419026,7.296385420445991,8.098017894016671
2411986,17.068703207637103,18.991448973473013
3378687,33.27820136607337,37.02202475467064
905122,6.6948878997073535,7.44300583779516
1820799,5.730237232258342,6.37676942323357
399428,3.7599761461611108,4.175041434419945
258707,13.337519490797936,14.834242836464883
1480852,-0.4947378847682091,-0.49473462842452015
757491,10.687987317485844,11.896250035882574
424319,-0.1752629395870181,-0.17526106976507047
1821240,5.165920466771121,5.773325200171786
3832167,-0.127373356567386,-0.12737174251279534
3267617,-0.24977607055042558,-0.24977566047940516
2023207,0.08751265935827199,0.09305128811397484
637312,10.849985240904308,12.111292809718744
2916357,8.587896500307805,9.60153901209421
3889476,5.262714704867408,5.890595637068147
1672169,9.238674921083788,10.240929491816136
3019134,0.1888954993223901,0.18889765685575607
646176,7.962792338503081,8.878494660520234
968115,17.14806180032398,19.10106628741302
1163065,0.4364936714989862,0.49527262722955134
1248701,11.488084627638653,12.789523685707689
3446551,14.165612430798888,15.760708617545916
3423416,10.283597741012867,11.428623643754722
2616189,10.242040064403378,11.399641412020568
1815742,4.049655952102807,4.513769032696411
3200662,5.6536298114101164,6.264220134937619
2601150,7.768668648145371,8.66525452848353
3403970,-0.013657637485788767,-0.013657276778541037
3237791,3.557053695565865,3.991208377389168
424460,4.35760971165841,4.863963379107905
2435297,9.252609983581674,10.30510732799413
266135,5.368529135010114,5.977733733892797
3251922,0.1448000551143742,0.14480202881902382
1014221,15.373553390418293,17.116869329274312
1164826,23.39456353897348,26.033086694434118
3435466,-0.29779967545398306,-0.29779904807241125
1296159,6.772996959059154,7.5298445369054505
1734200,10.49876262177191,11.68519106420127
1057082,-0.18604758494554088,-0.18604662610952655
1288503,5.850958866617678,6.495164978591203
2901815,-0.05496450853880279,-0.0549621209232791
459395,11.63288055905395,12.97499796370956
2903920,0.5236522851991975,0.591800304798274
2746757,10.213719799131551,11.379591931390113
1937274,4.979336801942362,5.546730279248803
3434714,12.753629419458992,14.203698906791065
1216022,-0.044295720254031765,-0.04429447700395613
3540086,9.682895323122754,10.761067353394548
2763398,2.4200686879230395,2.7345558149062756
1000157,14.947383850474464,16.627026558700436
3454382,0.17479821449731336,0.17480314735367244
1735434,5.9653901565540055,6.621184002199932
2846586,1.3117059251199303,1.46225386770201
1605978,0.23599788451870551,0.2360002454616136
1075389,12.880099867768946,14.326382248196113
457144,3.8441330025080256,4.2433800148407785
1446351,0.1507835706421322,0.15078536841040913
1623427,12.00322021893244,13.355390081505972
2245627,8.745376802366373,9.696229926211338
2674102,0.07574831737439,0.07575176935513502
2400912,6.581233209598221,7.30551230195349
1636078,16.085907148429623,17.908945147264212
2859054,6.658664833191089,7.404196967832922
477134,8.863374508178781,9.87613973764559
664103,18.595402613409373,20.704141860414786
3300064,-0.05027168361741864,-0.05027008632662699
3881888,10.634367528811797,11.831522010234055
3196329,1.9629887767471583,2.1612196207335064
1514202,7.854001107549974,8.741811699780367
3376715,8.009952512805102,8.910498629968636
2778126,8.142130465043588,9.081641026955044
3123626,2.9139224022141095,3.246017258115627
1559560,11.260796753455812,12.54246016732094
1897354,11.697414751765871,13.037525353710487
1215115,-0.007883285777150122,-0.007882985026330433
3654688,7.674082659214214,8.573258568864487
2468996,5.980107731053169,6.663206005586654
621355,18.37515289861273,20.454773453543286
3141821,6.358839386964684,7.07306931097384
2476352,1.717597712170821,1.906414506457244
1863215,10.029622623784993,11.15350146277372
1078709,15.17679548309364,16.89342050446979
3356596,12.717162178936727,14.12257314235401
729329,9.686280031453876,10.775855005816469
3726696,13.006193416676796,14.442013018676956
2621365,0.0439021959475375,0.0439050482911459
3674477,3.7266935210639804,4.175036302055075
680292,17.306732875965277,19.25186049195736
3240428,4.566475709211391,5.070755630024945
3528643,6.745011893699454,7.465155483663766
1485030,17.574852424928476,19.53892007653422
2155399,8.361614529495448,9.314133969389264
1220288,0.09048115690525975,0.09048295355683932
1055874,4.1151979989102605,4.58649224448205
2932190,14.62194192557784,16.248867815780628
1729028,-0.060349413308306635,-0.049495785561477434
2902145,0.018463517785647254,0.018465934297068727
1342971,14.313685109830503,15.961617449164008
370257,6.091731816405278,6.788258727071284
1881700,5.708943727405034,6.347309117902493
656880,31.099261827834347,34.63462789948894
1898522,9.232501092219193,10.317900063042718
2756815,0.037054071323605255,0.037057668959884334
3143593,2.1187355369168555,2.3272947004518305
1229439,0.14443941603290775,0.14444259333528528
3701067,0.4301697568840581,0.4670866302958308
270388,4.642007607781333,5.155526381630577
2757263,0.021651240740980304,0.021653493005135863
3068883,9.790708524232764,10.907981714319089
2620876,6.641517749564586,7.408205388683005
3298072,12.601787350202624,14.017032856571628
363021,8.269961867078997,9.20251831201713
545414,8.24306302191165,9.164081653206006
1288718,7.109497322956068,7.9599585013101795
1369921,21.256854892768736,23.6669563225991
1854646,5.717019070527882,6.37854401035346
3844643,4.413991813210321,4.919920853613144
2970858,6.398714219986495,7.130319240299185
645407,13.702399987358056,15.260763702429468
3097161,12.423293869315046,13.881334501912729
3852616,-0.13415088968285432,-0.1341493635419423
1399542,0.06785129323087437,0.06785145156263162
3541651,11.672991281153136,13.011076447314743
3462589,13.43796088647226,15.000695681389162
3084813,11.949741336993231,13.323194836115649
1488681,11.798939043045985,13.127921605129767
3465357,20.642483859218324,22.954142756470635
3270162,-0.0017464399835491805,-0.0017450696296896083
1595765,3.627282215823775,4.031239398861371
1872401,9.54909498493103,10.642060153143404
1015943,23.47111227660071,26.105095986256412
3430822,9.499495332919754,10.589900377089878
533430,2.895554186149369,3.199424402246058
1198065,5.04833267440136,5.6637496563347
2496855,-0.10684119082084073,-0.10683971945048262
1644135,9.305906589991634,10.345054319652336
3713069,-0.1253882731721543,-0.12538768288853702
2576435,12.064951337114884,13.441036872939573
2962151,-0.18059077756567515,-0.180590120362553
2902061,0.20094281308188075,0.200943141916944
2573484,8.315457512760561,9.224748158879024
278085,4.625316462543918,5.1030931018520125
3450910,11.175297333728501,12.455041765101855
3926053,-0.043395161479136427,-0.04339327495932532
2062691,0.11872231746161085,0.11872728558344826
2038245,13.328728397327174,14.844349005028663
2468733,4.7482185753847315,5.292022700208675
2469822,7.584705022694312,8.428479043771222
903935,5.109820062758041,5.698691555717111
3266187,7.025205633649839,7.788148863600595
584425,6.83962446307262,7.598523025587365
2234225,26.38190432299519,29.36924778161873
3314012,9.791454439196084,10.89279709869079
2200058,9.877641550788542,11.009045096305337
2722530,3.03105366645733,3.398977912983729
3770699,0.046474255780932054,0.04647488687848632
3882205,16.982153305021292,18.888072588166608
3083072,7.522696327416343,8.3891189178311
469521,0.029327111036404174,0.029329021788121017
1003254,0.3085688288653455,0.36113008730888635
1536829,4.174335197821937,4.636295132655926
3912369,1.905598821464087,2.1160084019853347
379961,6.7974270082479045,7.572831521507592
860907,1.2784134773335418,1.4027009126618117
3253488,6.583487006843907,7.3467538089406395
961170,6.248918414860872,6.945078789995541
3852733,2.4024418026664773,2.695673403630265
611452,3.7819392351497285,4.180368091792406
1378839,14.619029571996203,16.25692823037354
3297807,-0.1365408972424,-0.13653801512949287
3751146,4.040587597204971,4.493292572569407
1478517,6.413989662852791,7.135954254345513
2224345,-0.13341171012761693,-0.13340709075755333
3147935,-0.20063910526671286,-0.20063849208825207
1609810,8.89299702990577,9.890733695510288
1022664,13.291232219399244,14.7574071960575
1672783,8.546665276651833,9.520046208735064
3311981,6.709312144676213,7.438353751006034
2559873,15.563370841428366,17.302987111941796
2464820,5.28529615345284,5.918663290316083
2459570,4.0391496543923155,4.4899429673213405
630975,8.172108071990131,9.108379739876508
259347,2.5833617320919298,2.87512116465678
1300072,3.4946827294078124,3.8920057645908934
1866547,7.9872047034358395,8.918727421509605
428994,7.036637741461464,7.815713464266913
2848404,7.9141866592890695,8.829778558841962
3677187,20.227907130786836,22.455285732671413
837103,2.846603515402798,3.1941152432581426
1832707,4.257103121365888,4.727099392187213
1724364,4.774254653591392,5.3261056863353975
2765915,0.09243707739601098,0.1087557052570286
3109475,12.930309006785723,14.40535286984014
333250,3.755452617599428,4.158768036567659
1423887,3.9633014703484246,4.415421901472952
3791947,12.275362794178054,13.655390332614083
303405,6.658767383696435,7.406500140183297
2427792,0.08874032484526775,0.11191931864062568
2491874,13.893574763254266,15.427092841847529
1945756,3.1694768324066414,3.5313316946870064
1955325,6.881674433352564,7.6336767025389145
1472694,17.60286366961513,19.57758711969203
600659,12.671286158762934,14.074765941648874
2785630,11.850863931485407,13.18677960523353
2683684,0.02447267866062741,0.02447273697951561
1830304,3.6058487433209447,4.014115542455675
470660,19.454560530410834,21.658193418477268
3222593,5.169381205813891,5.751089678712997
1746523,-0.0864413038516578,-0.08643928512407643
1303717,13.329365212790453,14.841865881704097
301863,1.5070590939603565,1.663946116983754
2739456,9.775766961938066,10.852107839736618
1129681,13.638427481991846,15.168647723418387
3950150,16.527707101590604,18.38955217975307
750564,0.38381367464176347,0.4271153036969135
576225,8.67667811636979,9.649579484293255
2445908,16.775988192289258,18.641693419997353
2875850,6.069465956563867,6.737191784736056
3194012,4.26205166252625,4.774128557953905
1332816,8.756480953741292,9.730195579455593
3186225,15.182662779277823,16.889590943128965
310135,4.667892952165998,5.184499346882522
2228928,0.1555008285944934,0.1555027800413333
1209319,3.0052900129978553,3.3267434533017166
3228858,-0.060716854264653196,-0.06071660510990336
1689569,0.1274877792801799,0.12748784708666414
2627394,12.359004618576497,13.758975591708607
1290118,7.484994149692486,8.325339569200192
3164140,5.602635317180028,6.196567561229165
3056532,10.110102559341017,11.257710515630587
451683,7.114115540784747,7.919345602854195
3839603,0.13840909324365477,0.13841004937786291
1015393,16.897982349502026,18.833715705134544
2495111,2.129873432994735,2.3686914933157417
1311356,6.302568574787351,7.018373198381958
1886315,7.676522975185052,8.53844796835169
2053906,-0.09778923659211995,-0.09617244409630123
2468643,6.993485351849165,7.769671205901595
2837892,4.058867914606602,4.486973335458293
3017597,4.074677389133971,4.529190004840437
1391155,13.869813265644948,15.46141675780559
1433417,6.038499569201164,6.720944318894487
2781842,-0.12353821322075809,-0.12353792149031524
2649500,-0.38271990679629536,-0.3827170311720598
2422660,3.820325058490491,4.299078384293791
1017914,3.7569135275263825,4.1787750464865425
1326304,14.240930570073067,15.831505068507745
3950378,-0.04098452647484773,-0.04098125856788012
870532,7.345431733170858,8.197807509166571
1352481,11.81279957954233,13.140488474416959
673452,-0.17717778730433462,-0.17717667246422425
3920560,0.029833502396679337,0.02983718656176758
666974,11.371896569137563,12.666673788630943
201284,4.046147931736774,4.482291808762925
3926323,18.800128288962235,20.947088941876316
3770237,10.0490831574175,11.152422405739427
1731420,6.252592944040731,6.963587929820006
1210599,5.218126570552563,5.820984944977478
3499866,5.85521572724233,6.505768716104089
1585128,8.682081867895997,9.681515966014919
3906976,7.949489842310429,8.850876443232465
3853339,4.889412178256916,5.418473964238161
3351774,-0.1953466199965582,-0.19534637813838113
3499639,4.2909948446451684,4.752599031538568
442776,4.374773839074331,4.877650085490379
3780708,-0.27898463695735753,-0.27898324455420365
3252837,6.441049656990548,7.149085970073925
1916787,0.017282600071753293,0.017284494985286968
3895980,14.12579634216248,15.732226538245548
1328035,12.098196804737732,13.46055984905554
2417940,-0.22132701768745813,-0.22132666129081807
2494270,7.637319960258699,8.484662903136089
581331,15.214118922287113,16.949835721767734
2735861,-0.1456926260324278,-0.14569228297865178
277006,9.79227033750128,10.857222172048722
3179568,0.12242001671836984,0.1224201533403419
3686521,8.022845300748047,8.943563842566787
2607491,-0.030392682233138596,-0.03039107910021916
956014,12.982335756177251,14.458230482511242
1350479,13.31389326009039,14.83767720993355
3534642,9.984694915902914,11.106026150593623
729314,5.827863483601567,6.492481263202447
1294718,8.520844170548788,9.477096068163986
915219,8.107747864538139,8.999835778568487
552811,7.4661516720636225,8.295615496915154
3368192,9.683212547928717,10.798947000348866
2555820,16.351628145280557,18.153367119672165
1237354,0.054427566405173544,0.05442855962375654
3260138,2.8813398270902733,3.242560824656136
2461136,2.0342419247275516,2.280745162699819
1439961,11.162910855411521,12.435904194807582
208927,4.445583901616646,4.936983486080136
1316224,-0.34841731676660215,-0.34841552069615234
3722104,14.453077349701521,16.075687969953385
422908,9.505762155563678,10.538226656041772
1015757,15.390997071673226,17.14301548535518
3264852,2.5663568268030894,2.8388721305385607
921184,-0.22868097825518233,-0.22867841740958617
2270732,0.03236280597751231,0.03236473476634024
2779432,9.004346757372472,10.023944943750335
876348,5.681251166660948,6.348783745699816
584480,9.435862227813018,10.52486247378446
525879,8.72712505493787,9.704887450295699
757472,14.393632256167095,16.022655876292138
2511289,5.983713348693564,6.641453207703096
3458304,28.474893108888836,31.647073569555797
2913244,12.526128112901729,13.957571158529367
2726927,1.4424324114109792,1.599805283286033
3198481,5.235359722560693,5.813313623853138
648261,3.463751222858824,3.906966706199434
371205,0.42727164913790816,0.4409532243593992
1232723,3.044144233904371,3.4109482366479456
581264,8.095055775032025,8.988656785514552
606767,18.878642073371473,21.010670046322144
1900975,8.544876033316502,9.49452177095451
1395896,12.224184436640789,13.631427951522948
271068,-0.13475014073722408,-0.13474885618940946
3503413,1.5231897541829558,1.7243589901748355
1337021,0.040519862548954594,0.040523402871797926
3066874,0.18867399524884085,0.1886742092759868
2508561,2.343615079946608,2.610706675544767
2628877,12.714340212464643,14.14277568811216
1058304,11.736842412451404,13.076376986800092
249914,5.291531142128429,5.8881862210454186
535108,10.600273112099982,11.781595136509091
1288778,3.681803784575088,4.096111183753761
1074377,-0.15057034280954035,-0.15056775676128029
731935,11.196100591569637,12.478518657000372
3517295,5.8456492810979235,6.465063423783046
755718,8.0476465946518,8.972002052326655
635765,10.020550210554894,11.17931958460577
1646783,12.092507927644832,13.437299958960933
3236500,4.338872563036973,4.841726102722084
3874886,1.7838491570160797,1.9705458487110636
1041231,5.479067770079504,6.131535131486703
544677,12.875248516150767,14.307346129953528
3363727,8.070476478363986,8.9844735667738
3089210,8.770156341381254,9.771466240775801
3917131,2.8078005736755833,3.1553164319254963
708377,9.10825005843621,10.159147440651942
1160689,67.58846247234098,75.23490593377957
1019223,0.21597236669000466,0.21597783737256002
1562197,5.191406338513146,5.812304324517786
2450079,16.78992046005981,18.642715174693894
3412037,6.419299222809776,7.175482127706666
3423498,12.495893504216905,13.886832078627284
2190899,6.985780887451253,7.756627640047796
1519361,3.660398611516032,4.059158754443067
2538516,0.13872986724729644,0.1387299358397751
2793187,16.73004885703225,18.59250066021517
873828,4.880846285121949,5.440325916990956
2782251,4.625716091986999,5.13622052750118
3094250,8.171180938454963,9.08160684546083
3679507,0.0668635886422044,0.066864301127897
3878769,3.6817952577509505,4.069804459255158
3059867,3.874835948616278,4.304017630106344
2748698,9.141536391438887,10.141459645266234
3109446,-0.07442839844182307,-0.07442502025205505
2635422,0.13544422394457165,0.13544606255447117
2240280,-0.10361328624810254,-0.10361061236332207
857398,5.415367370537818,5.999948089297488
352156,1.3682986923078138,1.5415564843898724
3123600,2.0137454813169615,2.2235728366964014
274540,5.843562585016868,6.464523806838463
3202438,6.497170472859878,7.219655514758613
431369,0.003320568759300971,0.0033209851466525038
2194014,10.418763987380883,11.572560445423184
2797089,4.044154784879683,4.504138601547955
1762068,14.31550576552887,15.954140078804365
1817145,3.0612132456579086,3.4088461033769173
2160209,15.21648366729416,16.940080076424035
1243667,8.509034597730306,9.486675560190454
2013729,0.049264773266155935,0.049264862470495614
2005305,4.163521646400565,4.638015078848967
898103,0.15300844427787388,0.1530099762996705
1335500,4.7008970112345025,5.191271449791636
291645,4.498894044349517,4.963862522739861
553744,6.306888840898988,7.044241196286639
1157362,0.7534803836272472,0.843227324194221
388748,11.274837262368967,12.553044204054164
3084492,0.2343947870832828,0.23439580692408601
474015,16.09859398203287,17.904732655557957
3758660,5.003177185420339,5.607765601803462
1317452,6.207578742034234,6.913355787962488
3006908,5.229474145282148,5.831653032435558
2272258,17.913584425375344,19.938018784522708
211402,2.6249111242418284,2.932760125166188
2057647,1.257772116561003,1.4009422701523373
2927858,12.330953029675841,13.725207867590413
225645,5.391374321031511,5.971138303213995
277879,7.847295053102895,8.728906519816556
3880296,14.840720097437838,16.508153107550516
1237718,3.433649364142687,3.8359484255393976
612194,9.161465012898486,10.18785929513709
3427148,10.757117272505601,11.9565787085795
3862440,5.49052326249896,6.0761147772167154
1371187,21.628990096079214,24.060697983756153
2694108,9.648577827544573,10.741443948428717
2169019,7.448739765978443,8.294328718899031
1755171,17.289052062245773,19.233345653366975
916330,-0.1116581436058028,-0.11133985146036891
2727696,5.680246136153834,6.34487050620939
1551391,4.393920778642516,4.92872576495046
1540370,2.312156316336485,2.560600436815612
2254073,5.3734683888229275,5.95474167488452
2554587,7.516853172076523,8.362651774089443
2195282,8.80224038106213,9.805997820241494
268794,-0.02839586876906198,-0.0283958486752944
3485289,-0.04459273389596232,-0.04458999691332069
1425608,-0.2362475518597592,-0.23624570170029197
3231502,4.882586144461016,5.432407474450827
212441,1.0894399287818664,1.2128507273934823
657706,13.242061941888387,14.767085072860656
2893505,0.22983825288252135,0.2298399370644275
1566482,5.096426435130504,5.660712372015712
1213614,12.337896070683467,13.721958896805981
933801,-0.13166590031280612,-0.13166440676342017
1398729,14.293086306960294,15.913768874083882
3674119,4.8978859110049875,5.440260961006111
3919999,-0.2007032544677093,-0.20070110254134949
3542462,9.92006523808603,11.033073316468558
3325223,-0.1479797728054645,-0.14797946958607341
1361753,12.37620430032986,13.765875280346492
3232402,7.0333886165427115,7.809925644414412
2910484,0.7238834863078782,0.7846675829306746
2666077,11.72477408225679,13.04816396716838
3412430,13.00995802656161,14.470049526796759
2651747,20.208920069500852,22.480454010986097
1405074,0.03560117662422788,0.03560675209585886
509416,7.6597171467868,8.551029120535752
801941,5.0698090036025505,5.640824134623478
2790618,6.889106903627073,7.682745475945603
987800,2.5244414708623273,2.839326933191277
2810879,6.932809631634972,7.717490145931428
1538753,2.276889998979604,2.526864185228527
2048121,3.5649672211870693,3.9764796489129113
1588566,5.342642390036181,5.9762232769641574
2808144,2.7010157859659727,3.0089746460053974
3006214,-0.2323582921614323,-0.2323571379802917
2113054,14.30389123169403,15.920671928209124
251854,1.115189946206232,1.260960905817104
1089432,7.983120757627761,8.829085292949323
859028,3.668787940918628,4.1025483808699255
2217952,10.587051331729688,11.784296720289747
339309,5.1429058631300455,5.7104145107485955
3733112,11.929355009881585,13.300033230589207
814096,3.7766767740294807,4.190229639091938
427993,8.133135698175314,9.015431347106356
2979382,4.290298947130009,4.782199954478835
2480311,3.2007144864812296,3.554280179172161
3901013,34.01104304081054,37.844434143145264
1966113,10.756954571265947,11.979735510437441
3668099,3.788429197410489,4.204881342683702
2796032,4.489660118046139,5.018713659651617
2213432,12.780489700275831,14.215469530569946
3674359,0.06859784665258163,0.06859888006933154
1763016,-0.08258780316459183,-0.08258650474794133
1916140,13.63183731837392,15.198963224044851
2583240,1.0637690693695456,1.1993491570736026
3908261,11.526217871693445,12.82267087904079
2454467,-0.3587001931830585,-0.35869914221130245
2654169,12.527908172955296,13.926663258748215
3046377,4.791362217563582,5.323501251585488
3353531,0.40757699071780196,0.4392082267038989
509651,5.256816512530842,5.8229750926087025
275836,4.406886132317876,4.902775153883482
1432086,12.62565657064988,14.040482710202545
1344892,-0.11117541998500087,-0.11117350021833038
401087,7.660336507091231,8.496112033917882
1557750,5.977073378669419,6.657762508316065
3686986,5.644062286577279,6.3144114716372055
2438794,9.094255005108925,10.124503515395194
747061,3.780883044239356,4.173050274329306
721582,3.8419913790704228,4.245206251892392
2514247,4.546570159096488,5.060218396696087
3043012,2.9364080239473407,3.2609221428554593
3743033,-0.13791039398841182,-0.13791017854196605
1491927,45.82834821193993,50.96813452390309
2269296,7.055389917357283,7.852633072045024
3341290,11.838056492462094,13.151937343543825
2274578,4.517987194182641,5.025314729256438
2417556,4.233886535001164,4.675752136081589
3050363,4.58236966349434,5.12924487451373
1276241,0.17673620537326845,0.17673688358554432
693607,7.215095191699323,8.037414049611797
2135532,0.25055022707740215,0.2505522334210171
3208558,6.0742954210316435,6.740442709910804
3862283,8.703080714032327,9.704803823713124
398625,4.989549446598921,5.534122515769442
3367299,9.640217157107202,10.756064785322257
3527008,7.378436365394795,8.191582128195835
3879142,7.676689083752409,8.54477549388826
1380676,6.99467434410342,7.78139102213751
3862690,5.979397040529917,6.652903727162011
656729,5.300168080676932,5.905102186042588
3851525,0.09324811868860301,0.09324907547552522
1239842,6.187119595272387,6.879325226593394
2605123,0.20397325552978407,0.2039748338268084
2245161,11.438481316933874,12.725942954616407
3726444,0.3343606564779197,0.3606362689442815
2899931,14.457955685180343,16.129143125177286
3115142,-0.11397426146779698,-0.11397300464688274
579446,1.2106498367690524,1.362297388285814
3435628,25.721928851621684,28.592558134272085
445586,1.7466922518732328,1.9418040831675016
2034071,-0.03352223757777773,-0.03352196799067943
1133096,0.12254384719476534,0.12254460098992996
2774792,0.23777962572274808,0.26063905727552245
3381630,7.26390165463451,8.070648991289417
3173946,5.5598648129658015,6.166693240623053
1695202,20.012251888744427,22.276084087737054
1540776,5.324821044959948,5.923780104843522
1898025,10.845612270626738,12.066941771779979
1957178,7.3188997337807065,8.197777848227052
3152366,7.9972069144725655,8.895914656017583
2995249,11.19034716248012,12.422193805354445
1291257,6.430979368323682,7.171361805819497
1109008,8.100164939864825,8.992572661439535
953420,0.42653933421690376,0.46599041062841307
1678701,2.5097167463066916,2.782639464985439
2533015,23.868906990892786,26.56578414081431
263002,5.197653732018662,5.823607868683045
1701039,11.591878742652478,12.894731185041966
817302,5.1550013226367675,5.75906264478342
3726857,11.908683093719144,13.259855970629145
2014897,8.204926778120665,9.136894752615975
2700949,0.5139973953507337,0.5728441677571581
291759,7.216241324094963,8.013609388931709
2964045,2.5624632202794313,2.894833056918505
926051,8.683094754399619,9.662307001898348
3874426,7.160254896993209,7.932610799462782
355769,-0.06255598417127912,-0.06255520953896634
2239077,6.9863903921391,7.782522837666999
3193840,0.01675212054185839,0.016752641254662227
3439297,7.779744949338976,8.669105721670627
1519134,9.202032658048413,10.209942431189422
3850259,5.227078125901036,5.816205586166829
2640643,18.200792168657987,20.275473555748583
533269,4.15929203147316,4.6606046941529895
1547507,5.089577943370207,5.647987306235395
1915183,14.296227777038391,15.93916467945383
857562,-0.005219628804869542,-0.005218859284998269
3950618,10.06900635695723,11.217523737578572
2521605,5.185605302041421,5.785133169407779
323614,24.440694619920166,27.207082126704634
2756180,10.046705211144523,11.16230769230092
2054334,8.126235939859106,9.073082453478936
430667,10.87264181394368,12.108207609550433
229595,0.9414684509515654,1.0904166509198499
210223,4.956514264546627,5.502261856000205
2830023,2.6345196711249272,2.955413675484067
1851515,6.310718015016002,6.992590910041266
1405870,22.810277002268215,25.37440071547975
715076,5.894906580700152,6.537276151752469
1083450,23.77014209420953,26.419067232784954
431815,10.117393880195193,11.256609696085784
3014672,7.2905517197816865,8.10998373338906
1361393,12.646532613464867,14.065494538103477
1870911,-0.012380438129592393,-0.012380438120154274
739586,11.802260425706308,13.159725441827248
1907222,9.909037508487078,11.014631638683044
359127,-0.05745917396546357,-0.03022210728562763
3533258,10.798818044571046,11.993100073223518
1451110,7.931218844496543,8.839582509416028
299584,3.0224328364711117,3.3999837952713463
3097876,10.794181815867669,12.029541370991254
3166593,0.9992434514681587,1.1640567882267747
3040849,3.5488096235967874,3.9545353598423665
1843548,-0.17298943442621847,-0.17298923656814846
2932785,10.202012264861937,11.367509591709853
225154,3.6913429225597745,4.092700901091084
1311003,-0.0698024784901194,-0.06980204662852545
1220828,-0.0578501115918628,-0.057850043978943194
3003714,-0.23559693765497688,-0.23559408185311814
1666244,3.9688837483041204,4.411162952246527
2541839,16.024055786844634,17.846993017979525
285983,6.347168905721043,7.032448361585534
3277860,4.557861656348955,5.061792912369094
3137567,4.197222553223463,4.674665583244547
3072044,7.868449927772629,8.758371095939152
2453576,1.7939588522573202,2.005498441338795
2666070,33.451556859910454,37.24545272776186
1458078,11.01087420244235,12.233781168849143
2663032,9.680487761673822,10.76754980156802
1166545,0.00017843240012690488,0.0001813231009026823
696512,3.124210432573186,3.464878371016974
916556,-0.11480296786663616,-0.11480296742335883
687383,16.37445299409451,18.200015291278028
1354340,12.096879683822866,13.459298998177468
1377690,13.052803139489038,14.556992868991207
1851103,0.2943720220484875,0.29437386993408166
3675822,4.39053782824143,4.881985169139057
909481,7.012778008423518,7.788302856299739
3214661,6.976772162824869,7.798847570881236
993821,13.41279122338263,14.897939768397299
726855,5.144624945137662,5.727438401671255
2477689,0.3717555686356595,0.37837054908238843
2807762,-0.22058860386837392,-0.22058839978380224
1382607,0.03949227899279765,0.039494242117698385
2741583,3.823599507178459,4.245360840306741
1988112,3.3543103380789674,3.7416583029688932
2925553,0.05493425501597002,0.05493472062726179
2552897,7.704017923192288,8.555293072980328
1607069,0.25235177415982635,0.252352762770148
3797824,-0.034365274261027756,-0.03436450003389429
1323059,5.825183714357496,6.493572616648442
1756508,36.22383450267497,40.296617126584195
1101941,7.46507210201196,8.338757833771984
3770725,2.3289995469725002,2.5961706480326106
1113165,6.527330689743985,7.2750307487218
2182978,10.071052541151555,11.200515161410973
234867,4.664304013729006,5.181154934354756
924681,-0.08687337420759447,-0.08687299138473199
2460864,4.1642989863141855,4.6208755616048265
1553802,7.805965017395306,8.663172469554965
1413043,0.24947927784711088,0.249479619189753
1084583,6.158757992387118,6.822157072669624
300003,0.4768631272475787,0.4908196028861759
853924,2.1625471277044435,2.369872190035413
3486037,6.170444131451493,6.884612636874516
423214,0.018527766710187566,0.01852870170161364
3751029,0.12749137414316863,0.14077483983340006
2174065,7.909171527710051,8.820044813858464
2821861,0.8200311119286691,0.9715194298910527
3947345,0.4831707716346272,0.5333175053540092
1514800,0.35605328580615325,0.38181877395375985
3028866,0.207269446658738,0.20727026427622308
231263,1.3831487260248365,1.4998510096158253
288844,7.6009940497858075,8.46050291278848
317547,3.58050044835495,3.966613489321837
3256457,0.06623829800403454,0.06623974870947473
227875,1.4152195423561502,1.6159033046490048
2242499,-0.15242067846187723,-0.15241831183771992
209860,1.3759893732345554,1.5411345892651362
3705955,8.351245535413785,9.3012198090624
1169724,22.140805053957013,24.65257165725438
3058364,5.645781681404753,6.278599254798768
3404561,9.902809286601059,11.051738067607294
982199,0.1539972498822482,0.15399969756285692
920317,4.166882871271979,4.6323730524814675
2881216,10.050036667871488,11.189206038261837
2543216,9.878757242450407,10.986325346930721
2662352,23.66962814927923,26.343781419586612
3274898,1.6595071069552088,1.8531481349980359
3667729,-0.0756451483851157,-0.07564428640771395
2802062,10.581819447154487,11.75116744841554
3542985,12.66836583151424,14.05843285781408
3268732,0.00713196749226035,0.007133235858634905
1889387,-0.04192560825385848,-0.04192310274018992
1466831,9.34895925724634,10.409698123169166
858911,0.12891115916080664,0.12891230776012572
293964,0.22690546012767604,0.2515986056953917
1163198,0.017144804103782652,0.017154451420840558
1348102,13.25023532258344,14.716745570663504
1305060,6.016170696761444,6.705207445404913
1307502,5.195799755289577,5.769034628956555
1411919,-0.2313511135157621,-0.23134979340982675
978142,20.936912987788563,23.29115567213897
3230595,6.505745830848017,7.2390724510300535
2475609,4.136962617411949,4.589223623410828
3441637,6.959902219986787,7.762742093228844
3332477,0.3675328452107584,0.36753505177289875
3012375,13.732258105472223,15.282485706498864
2425540,5.030235941270117,5.608835798269015
1266565,2.67279617230779,3.002692959746715
3453940,16.06011837653219,17.86187830445397
1622066,-0.010470856553383886,-0.010468414845920749
260608,16.60740815745579,18.456460609032682
3700290,5.430103376165897,6.0421230940474375
3081554,7.727063755046556,8.610921341253485
470373,7.050074354747987,7.821848496246327
2985929,5.2859081276143405,5.877251937358655
3799590,0.00495370116507595,0.004957662684748343
3005952,10.381974732491908,11.530801850999902
1007547,7.416766046872989,8.238739246180169
1094992,9.414715118793389,10.479034027228174
823142,0.2292732738440114,0.2292740917912701
3509782,5.407527738139115,5.9982436141013435
929486,0.09830066944858443,0.09830284118831437
646646,0.29814338477898755,0.29814425589426735
2645431,11.33775079211053,12.627176428533291
256920,4.772510848883048,5.347110012555022
2491121,7.317125414975937,8.149223553881766
3874772,5.268439581602118,5.865217582421582
842506,3.66080868072696,4.075148473026629
3519406,6.9334763758351645,7.704366595201741
2686568,30.601750946045627,34.05045001314499
2524311,14.934282494527622,16.6367457487004
2461987,2.859082526911325,3.220980290719826
216669,1.3808663074984764,1.5251516735086639
840035,4.691498439950078,5.184070434529598
724774,7.291497673956925,8.117049326677456
1049412,-0.07864329180603531,-0.07854583143042676
2571422,10.422137280485078,11.608996301298756
3467515,-0.012789363153170443,-0.012787200921207447
2567708,16.962017577525025,18.892310280421672
250183,-0.0907873124803418,-0.09078728138582133
281013,6.489112245130083,7.236046206734845
939476,8.296915206424169,9.194051597531598
1340886,11.306225496193901,12.601927624867901
2117536,5.510353577823558,6.144527645845974
3918023,4.447154382402412,4.98375866863268
2949285,14.062635487508603,15.61188000700076
1354893,5.625299483811829,6.237623272627671
999295,12.891098651711145,14.359277619957115
328063,8.10142047891961,8.983177280128563
197995,3.7857918952061964,4.200747099930272
328078,4.492624497375169,5.030496649248731
2444641,-0.11218493758657767,-0.11218295477943471
2684707,26.37876820134701,29.350009831158633
1872248,4.71955442528008,5.268695983895939
1005143,15.22944506700086,16.919701207664758
2504591,9.12960149900017,10.14956312472499
1862145,7.941239145270255,8.816792381555539
761623,20.34932540686976,22.67179825768018
913097,6.499437934199212,7.238709787145978
1193674,3.6383815826167965,4.039393592843855
1421634,2.725866906164442,3.047252923173164
1950034,8.036424616445654,8.889631898735232
2508178,4.184739981427964,4.631663104181692
1445292,-0.14715744652211774,-0.14715564542083148
902373,6.675639193944659,7.464412218094569
2177031,8.294393364797353,9.23656774802047
1148210,0.18118324482027004,0.1815923909448192
1962334,7.876489332764223,8.758175238925917
1161593,0.17482234400842123,0.17482723293545518
3529350,4.532946576121697,5.016930027673952
3057369,0.5013970768653772,0.5188295470004373
2263959,8.078809325330038,9.026017353413145
403314,0.20040121576743708,0.20040379236821554
678347,0.2157820071746625,0.2157820929684066
3047610,0.08613749587151896,0.1066297211687746
3748148,0.3245917960233529,0.3245928280751403
1367824,17.387458340134355,19.35177026326631
3057250,0.05118776334765921,0.05118794143607366
506084,0.05940368173053997,0.05940458910015661
3783573,-0.23596513789620266,-0.23596321764392902
3461378,17.041534847429837,18.981686732222133
3481476,0.11720552496299634,0.11720596225629683
1007129,17.554054028107032,19.545375795742235
1755310,3.8771462894390725,4.331280292751674
917684,9.288565399658486,10.365210153278452
3833524,4.2652197319185055,4.75922525461704
342018,3.748559953231761,4.179610765689597
2591220,5.676943220417214,6.343392911118819
1447215,9.94186474609289,11.091898065795412
396698,6.442606856192006,7.146357802869058
3095482,0.19394745271453437,0.19394912101268164
2775696,5.1357487935136055,5.724099669712009
3953434,9.446169573575402,10.522269578753896
1216472,6.859442280274084,7.6192528462950895
1210356,-0.12436117080660171,-0.12435964524412994
3469697,12.976092683674969,14.427105639476752
919121,9.19837018004076,10.26078977519809
2767645,-0.1268051829479784,-0.12680493656189612
1432582,-0.16313845719363548,-0.1631382671532913
662518,42.239591637093476,47.03923733930344
920518,6.07818207226593,6.737919833499186
439771,1.6151923002546282,1.797055074438961
936723,8.298415958434429,9.218020428920507
2925946,15.312927579377547,17.06055815907159
1094076,-0.22411550877345726,-0.2241154714998054
1124214,5.013708119427795,5.55265555317172
735574,-0.0890785581288969,-0.08907832949229139
3412238,9.133843658778051,10.181920294966663
1672943,9.396295019209388,10.44275109529559
1007190,16.768162012049135,18.678966388237637
2713146,4.907850653635548,5.446931262174755
2859823,5.844380306192897,6.5248660309933
2978726,0.08223011431913078,0.08223161067458873
310966,4.598211814001265,5.105536743621205
1704600,-0.06866741164338376,-0.06866659773961421
1967303,17.725488899339922,19.747919286356712
1144777,-0.18877977870540089,-0.18877953511632958
1741163,7.030547998938148,7.820856453462214
3210904,3.763431376871367,4.173559457175373
3135107,0.36766073703195223,0.36766196700839177
2511953,7.638109846457394,8.508185694664935
3843434,-0.003042974135056359,-0.0030425438680470535
1939398,13.196588566003205,14.697904304139469
392671,3.345246207194026,3.7017971863181125
3084297,-0.15434767912805625,-0.15434667784282044
811654,0.1921109984065798,0.24869398709900187
3164301,1.7780621117303357,1.9930678529837722
1898707,8.3476355164954,9.272510951922351
2948742,12.716261225229793,14.15841363178641
380424,0.1860883619208179,0.1999325633373243
250139,5.433851826514049,6.045146456993514
1411178,3.6794283140642046,4.071619953478508
663418,11.583318412252682,12.870191040358907
314157,3.3652235273106923,3.7292114793684776
2771805,3.622614055106624,4.0206612054831
3743433,0.3671818407106472,0.3671823134898327
1825229,7.500681153293957,8.364319118464072
1858422,8.265623099788076,9.182300120254677
2186989,-0.2267231626280051,-0.22672073694714603
1406487,43.911116320641334,48.83095116600267
2126629,1.1989124996681855,1.3415739856019833
1838442,4.331975460400249,4.826901923800535
2278644,6.4087865138006155,7.130325689448971
2983707,6.4607279237670125,7.188050355118432
877359,11.545141944799182,12.810747790720837
922465,4.713695372653488,5.278320515436495
3854321,0.08672306154502374,0.0867241135922198
2042893,4.382229796464222,4.846843646532504
1789650,27.25759091080122,30.333059073357543
2141473,0.14329836730061554,0.14329859427286337
3901405,5.6190807158183675,6.226314214994409
3501708,0.15670929172799994,0.15671056136308933
1979697,17.711047745474197,19.694717967334583
1553547,5.068845243781019,5.651705600306227
903301,0.09166011351999961,0.0916601538026548
