sample_id,z,y
847161,0,10.018274065608958
2660252,0,35.4264155546858
2973715,0,49.59058273812625
3201668,0,13.89973319637386
560576,0,7.800664115187807
2781205,0,15.392278475689416
1229592,1,7.487515168692935
2881438,0,3.9537390426303474
3912635,0,29.694601409797137
2856740,1,4.801666323037438
3127997,1,2.910434795259031
3692731,0,16.861219097839218
1858014,1,6.361835298994649
2701435,0,7.417314511882373
2119604,1,2.1597152558656783
1457177,1,3.911383270785823
3835231,0,8.479704689196145
1059583,0,2.2233028215303765
379518,0,31.687986665867754
1353393,0,23.37623374966763
3686396,0,10.81114153526746
1428896,0,8.992438249025332
3252085,0,3.7547743355514176
1293673,1,0.6763136512137405
2677897,1,5.430760834557727
526632,1,0.9096957818008283
552811,1,1.4600299052275678
1874815,1,2.445659759461482
409880,0,3.193713440947686
1396293,0,4.43089200730908
2496314,1,3.704979769944024
1130933,0,14.507103645286232
1378526,0,17.900293559611182
970467,0,19.491689663091964
465648,0,9.485878575929716
3053104,0,22.304384021056226
1282456,1,3.6069766899410856
1218850,1,3.1189224520319865
1968771,1,4.555221141769717
3440400,0,16.64850047904378
2664584,1,0.7972407769636325
800523,1,2.253474448176801
3728618,1,1.716188503203036
1733287,0,6.354788643093055
605823,0,2.1769733188451443
1540681,1,2.05828725958589
1142189,0,12.420808823058039
345596,1,4.9836804646635695
3670995,1,6.106199943522063
2511654,0,24.06032436671468
3137858,0,19.31555391946169
3179924,1,1.2896634196693626
3719298,0,3.923524619408872
3223306,0,6.538041614117918
3929794,0,15.539432872866847
3351788,0,6.246059522644863
612194,1,0.8459854315083408
3472639,1,1.5838954941159489
1554558,1,0.3192855951017033
3080640,1,3.713430303512556
2225038,0,3.9097660721765832
2765100,1,7.532123998334566
3370401,1,7.060072382255081
555463,0,12.504547854370216
1826416,1,6.501143263309195
3220053,0,8.507517823498747
3072611,0,33.84360931336348
1106552,0,16.25334970375477
2735586,1,11.058986804658334
2721150,1,5.635933484574965
2563936,1,1.0378650403744036
3875936,0,47.03358248985253
2181010,0,4.281478281948814
1725557,0,6.404979048037063
3920818,0,26.47147521057736
2792579,0,12.225074570199077
2762478,1,2.136561066338911
1469970,0,6.1283891785651
1621047,0,31.508673695309934
1682849,0,2.594015227815114
3655437,1,5.260148302267432
1196130,0,3.971847087177049
3404749,0,5.008421129374658
2664814,1,3.122138733096988
989663,1,1.4683873600453923
3162347,0,7.229404323944577
1249567,1,4.724563192103286
3868401,0,10.72472455415628
605414,0,6.713786447273443
1389756,1,1.4579654874360337
2225047,0,2.952914742635897
3054964,1,2.532119959955962
2929551,1,2.496732556436465
913246,1,1.6569948327786148
1349562,1,6.60791284013624
3404437,1,3.50383395350206
1036785,0,4.669166851540281
3328851,1,2.6532871293813773
2789373,1,2.127602443189348
2916584,1,3.6766975319860387
3337774,1,12.577597506755614
3198905,0,39.2941204249395
1426059,1,2.469387135034267
2205026,0,21.251302130007637
2585980,1,1.0468493889469754
2168137,1,1.784394796682005
1516970,1,12.421651065830158
1283743,0,5.730634813892078
2594235,0,5.749423296987737
3061811,1,0.7216391070770891
3112510,1,3.4025340717108365
1385641,0,10.278872248584522
2430549,0,7.598144927630835
3082654,1,0.8626664210322914
1873792,0,7.772073472151453
3732385,1,1.478556943689273
623275,0,9.419151534399075
1736804,1,8.288608311023394
1085690,0,13.984695161323247
2146820,1,8.854993369971936
2714439,1,5.619269287186058
677935,0,17.304738945192057
2580420,1,0.18549811139340905
2622881,1,1.7183589883100112
413311,1,4.110787000093499
1580051,0,9.585967371089573
1424006,0,14.856881434166441
1400454,0,11.238754731821516
3884225,0,12.648031380677565
1741475,0,5.573194985804183
1263783,1,3.2537366999441835
289691,0,15.237512157504352
3169334,1,3.5896036651367127
2658688,0,4.470937823860806
2283967,0,3.7259883986198084
429095,0,16.998102311900954
2605226,1,2.621817799037258
1008230,1,5.4374697658480455
3848102,0,11.069939615847373
1063878,1,3.1456903404364733
3204077,1,2.1338930704893295
1999513,0,11.376486992596167
2878382,1,4.328924657326859
1511458,1,8.143179516246462
847119,0,7.579414753047943
546129,0,58.504602179229636
2200895,1,9.01223684821609
3866197,1,2.042795645086191
3154295,1,1.0948462707453603
1741710,0,5.931290632221213
2931046,1,2.2976927461387286
718165,0,9.090028829412427
566174,0,11.66817759346301
3305419,0,10.064914168921705
844388,1,2.383184361183954
1093355,0,5.600201024017201
1288219,0,2.1138994341151527
746824,0,5.656582116444859
3095678,0,5.696199750878441
3532378,1,7.364169950868772
3056074,1,0.9537190895659073
1504810,1,1.4424589748289969
2499709,0,4.5167284982887965
3267572,1,3.750712272003473
1606264,0,21.1630098336145
923853,0,7.4761163416448895
2166763,0,7.656245001973935
3832800,0,19.323999471972968
1333843,0,43.67479808963133
2486147,1,4.807387530496661
3731336,1,0.9199001816196171
1088983,1,4.469313242267059
1536587,1,1.595408808455006
1672268,0,4.532398370503202
2867670,1,4.732584144326206
2918467,1,1.9240334269690256
3701570,0,7.03321057472616
3380575,1,12.319456985415323
2831684,1,16.63385743265157
2724301,1,3.3124546481681305
1124220,0,7.709714629828304
3916634,1,7.778387534266776
3347676,1,6.572647268203947
3212035,1,6.069873249072148
2690584,1,3.339527093620783
3679239,0,1.2804485771057588
2613149,0,1.029875200555283
2605515,1,3.0507459665123093
2544908,1,3.3210448725963326
1816642,0,15.380308964737415
1712166,1,1.3977120042588644
2228154,1,2.4462630577945843
2392306,1,1.2727658660564776
3753724,1,2.5027898417159347
236223,1,2.606750757825281
3096762,1,2.2432606809593034
2876808,0,2.6916034206398427
1206986,1,6.546463774776895
1428833,1,5.629971067060295
3706784,1,1.6551094421129466
736946,1,5.129124612285719
2203298,1,3.805969208074381
3925597,0,28.549832927891554
1855211,0,3.892295499336484
986796,0,28.697828737718094
3148866,1,2.034596510579558
351144,1,2.8910007898728605
3319894,1,1.9321853856654276
1228014,0,11.322129228345634
1150157,1,8.057934135608908
2396750,1,1.882550896391551
1734702,0,5.643314016555485
2879418,1,4.2296558820980135
3137516,1,2.2475037312740054
2916545,1,1.1968655901516687
2029531,1,3.176181897817849
3279692,0,17.651196254425784
494899,1,1.4140362171367746
707101,0,13.518236579528404
2605987,1,3.3314271223548024
999129,1,4.767428009059833
2636834,1,2.5605042103051323
3294608,1,3.1149979125857934
1592229,1,2.500553690995883
521042,0,13.689402857728725
417189,1,1.9640732844442725
593694,0,3.736891435034395
929985,1,4.223177160806296
1644947,1,1.4168755354109044
451578,0,12.604895849025022
3891574,1,8.044687883855422
397793,0,9.50349787793808
2552592,1,2.1704370133799777
2527792,0,32.78552533865474
3034188,0,13.254658408090188
3725853,1,2.1701742649405644
2454717,0,25.492169151594304
668744,0,11.154672725335315
964480,1,4.5026138512121285
2228928,1,3.6923003472086164
1079625,0,7.162812317837128
277413,1,15.294333672744596
2711206,1,6.276105874527986
2542165,1,3.49685728361286
3541378,1,4.442222252221197
1879552,0,6.143151800166819
3286763,1,1.1314718224854834
3800495,0,5.581244723881207
246303,0,11.3151328228508
1034064,1,4.936502184023304
3447660,1,9.374045169221018
3180958,1,7.21171545775338
3919012,1,2.3565024086903743
3223529,1,7.917166614569836
1366899,0,3.420762452381869
213479,1,1.6421995052433418
2896213,1,5.58445675310416
2164630,1,2.442160292539348
3273704,0,31.705040278144224
1628545,1,8.826833301541289
2406936,0,15.458435520773142
849112,0,4.582961006819506
2557180,0,14.202513169870594
1023347,1,0.6671169979011256
3350496,1,9.040859367876784
1564382,1,7.257331410553443
3362819,1,2.5558142983118284
3707447,1,10.193129341910428
1117744,1,5.392610375966731
2180685,0,44.30163907924886
2719949,1,2.1686302407815323
1750687,1,2.4798518775953045
3229211,0,10.34293631777866
825789,0,4.591625981687255
3183826,1,4.517398423474118
1578741,1,4.303804231417168
1256142,0,12.353255803588906
3653582,0,9.242361113095813
2608016,1,0.6695263829833643
1437123,0,8.064043757373199
2775723,0,1.5242959004554533
487697,1,2.8797405202608903
2407944,1,0.9937600682019454
3701718,1,4.25571352232848
3440377,0,6.785273879926438
3383195,1,6.540653540627244
987717,0,7.191034388793028
3704109,0,15.138177124353524
1564994,1,1.633252071989477
1697872,0,18.723933555577375
2547770,0,29.146948154833282
2006110,1,4.87886236465922
1467826,0,1.7598836509902034
2057617,0,4.9352093156019
2139186,1,1.6676892351065027
3751686,1,2.802368177946662
1525175,1,3.8591400546650396
363418,0,6.523901468350888
224332,1,4.096527770571784
406747,1,0.8181965947217551
2243548,0,10.027340887579701
3688909,0,4.817734283100285
1543045,1,4.421431126861448
2652374,1,7.289450648217431
1384471,1,1.527587904284755
3369725,0,2.4664000028467226
965103,1,8.760237988022183
3482087,0,15.55124845198584
2152365,1,1.0366328534736884
3475487,1,2.9096994777905496
242153,0,2.878228220257823
3055508,0,9.698080205304484
1594600,0,2.7056056561753743
3919050,1,2.9723513653283886
3033191,1,4.8708991129341355
3433665,1,3.9201196767920568
1082283,1,0.7557685174988873
820802,1,1.9500395124005057
2469515,1,5.130151446276398
480157,0,13.391136347092841
212197,0,11.689506700997843
321984,1,4.002536119314303
3326047,1,1.3976553600712458
1832267,1,7.8013781608820665
668767,1,7.499912388912242
3763815,0,7.732120436809196
1974469,1,4.002626014996444
1492922,0,30.73638926794946
3831896,1,5.372140664389843
3285049,0,8.75057380711422
3666987,0,10.781702881043547
304152,1,3.4256594262566766
1868802,1,2.9645019588857546
3489623,0,9.007467949128522
3349451,0,10.153127919525303
3762190,0,17.5058243321155
388290,0,10.38482096770247
3912329,0,14.73917933590896
2517468,0,3.8596269668856675
2796327,1,1.1589332828436028
1343988,1,2.1877370500931512
1267380,1,5.316424475722224
2624196,1,1.2685359733604769
2548061,1,3.353659098354583
3511252,0,28.775111029166084
2731283,1,3.4049443315325254
1401077,0,16.691994606782405
3429400,0,32.4179434666041
3051208,0,11.031736668329343
438322,1,2.0038444396562207
598317,0,6.9325013712424015
927477,1,8.934557912976276
600647,0,33.2349976005912
1082703,0,5.399046789065987
1577753,1,1.4452689689900775
2052686,0,4.2368135651686805
2848522,0,19.539026947459426
2415519,0,4.906324962026311
3030501,1,2.6979680026617254
3051613,0,6.081977081242954
1534822,1,4.673046002045771
2419829,1,0.9763310522193454
2620791,1,1.5945674800349587
2426081,0,7.179226951396463
3327488,1,1.9119793741945807
2705666,1,2.0213903117093674
1774479,1,9.3490220485131
1912147,1,2.013774259570503
2633018,1,0.8151114956747829
3163611,1,7.3728825904110735
757268,1,3.8862254076421787
3447407,1,7.900529309259891
587888,0,4.894425661350554
1727898,1,5.473019156999718
3357652,1,5.0402028718003145
2626380,0,11.71168166483483
1529225,0,4.817571956932921
2042571,0,6.806430126497524
2667522,1,6.718425006227383
1242079,1,6.687016299899874
1633878,1,2.0584478984220045
1705487,1,2.6232936388366084
2704912,1,1.700674385791422
1073248,0,1.5757417478484734
2512471,1,18.846661777898575
741494,1,8.298538444888036
3203814,0,9.495119705853854
2544770,0,9.455165145126946
2700864,1,0.726787894939922
806978,1,2.88914125907623
2558064,0,16.92297408084072
1012929,1,2.2485215390515565
626362,0,2.7116086719831483
510938,0,4.050635482172606
2713210,1,2.5139948580365434
1874215,1,8.430449647773866
3172949,1,5.991925909074302
3087239,0,5.720652267177505
3197132,1,1.605599968154286
1424039,0,12.268175871491344
3352630,1,8.357485869046476
1332597,1,3.2669720311058694
310889,1,12.550161228546163
231332,0,8.336731273009299
1361223,0,21.00555877505688
1355839,1,5.832420402507493
517563,0,23.68219163150462
1905241,0,12.192185252449644
3230104,0,25.417450189824596
1427610,0,8.432337782485128
3056167,0,2.65858233126903
3509191,0,23.167683201641356
2573815,0,6.842654756479006
712928,1,6.245574449591839
1553663,1,5.738273732943754
2829223,1,4.382610032058982
473465,0,2.6630001465339133
603643,0,12.053405431746503
3291289,0,17.561511506219126
1124787,0,13.52191501894988
753465,0,4.001011384265991
651847,0,6.509213322526855
3905913,1,2.465701159088111
963345,1,6.259211596385525
1102864,1,1.3217551687441977
3795521,0,32.9629177546055
1829097,1,3.9564117120169735
3806961,1,1.0037817184208935
1296298,0,4.567844315756112
855870,0,8.122995312716
2777265,1,2.876773158182508
620530,0,6.881205505087794
3240543,1,2.1197481448349236
3351862,1,1.1680881912258079
2875154,0,20.302363577031425
3078189,1,4.47057298330176
992364,1,1.397735396412365
2720743,1,5.729620996505226
1983208,0,14.533519971111362
1865914,0,14.18148239200126
1548096,1,5.449067639755462
510978,1,4.091369575445939
334292,1,1.4456286415160033
1885462,0,6.407679176736196
1426823,1,3.6636053620093696
1412175,0,9.579148616150167
3382491,1,1.2881135389370748
1342145,1,2.948959206236401
354112,1,9.384388851750431
2690675,1,4.828853410940125
1328914,0,9.811310387600201
3678026,0,8.781627251954975
1025301,0,15.92627559807951
948227,0,3.4920261972986015
194205,0,8.71897132383195
232169,0,5.218638587299695
1579692,1,3.6751425204148167
538690,0,36.922807942458995
906851,1,4.086782161550174
3860338,1,4.794516248696606
2281861,0,4.66836287961322
1785716,0,2.135484372519066
1011732,0,33.963803307528735
589060,0,14.807699591625727
1452687,1,5.738655423042607
361043,0,21.222785426426935
2014566,1,3.7106897122146143
232421,0,10.98645519747479
3460921,1,2.7111498422043208
1355816,0,9.696929914836092
3043626,1,1.653269781451165
679246,1,2.689037883785946
1165674,1,9.443472138168218
813565,1,2.090368780749302
2817291,1,3.986640400713401
3833768,1,3.178891595474016
3379103,1,4.766669955540801
3211785,1,10.035291767477775
469918,0,29.34969575174436
2704284,0,10.276162999063365
1888290,0,5.9237615617704655
3707073,1,11.46099262536955
1355360,1,1.0606091799415187
1270974,1,8.453437393356975
2479436,0,28.41339057426849
2948647,1,4.159462728561246
425911,0,13.055300830286342
1151584,1,4.3352033702450035
1011020,0,8.533651352254946
1269105,1,4.057517335622607
2492099,1,6.525861132954335
580623,1,2.577356051957924
2571511,1,5.62185043522389
949267,1,3.3834373205503816
2758715,0,15.136837212168466
1570141,1,2.638531245801374
893360,1,1.3154917306728517
2430940,1,2.3230212623863133
1619208,1,2.3734378075300016
1877046,1,7.00254639874411
3107126,1,3.1552723449702262
3760042,0,2.5903098618597067
2285598,0,10.10239784484525
3943667,1,6.878830771746399
1276843,1,2.9268491107242953
2609753,1,5.089723504935206
1214352,0,4.093952522435602
3077752,1,3.6733268692241983
1895756,0,18.231770367796017
574520,0,1.4942277190587163
1867440,1,2.188499941686925
1771345,0,11.605964766839467
866489,0,49.57753050443302
473811,1,4.786886267486833
3688977,1,1.4984677457550188
3005830,0,17.39116947749104
389848,0,3.091352665636195
1620711,1,4.235260200784801
3879488,1,10.613252503093152
3288497,1,4.232411265503235
530421,0,6.088432362539681
544936,0,6.085471042652936
611207,1,1.6659681331881904
398354,0,19.591112980322556
800019,0,7.643075781327122
3395574,0,5.488131263779634
352307,1,4.141157842129894
1310069,0,22.122903547798646
2412779,0,12.113738546635014
3000656,0,17.630834736321304
3367722,0,9.971547336074803
306121,1,2.7664864669671534
3313076,1,13.48474944546801
1301631,1,11.00675743458228
2578420,1,2.4442730111609503
605403,1,1.127005483732831
2623346,0,2.7308661671627874
3798710,0,3.979268670756625
3457848,1,3.1879230928471762
950289,1,2.201899701001204
395022,1,5.362153346625831
3115386,1,2.7965891719432356
1913196,1,3.0226884844026123
1346095,1,2.8029232302578264
2583652,0,13.086341408480441
1602836,0,8.484223002859443
1245245,0,16.06092467866761
2841084,0,17.76903443110063
3687774,1,3.2271852400373024
605735,0,6.204070595812777
2991210,1,3.4848307814505866
1790268,1,10.885879909836877
750234,1,6.21895991497309
1444378,0,6.58877079087081
2207952,1,10.666983918142687
1271422,1,7.574392621380339
343231,0,9.136515063569204
2210943,0,16.410802618622434
545410,0,7.128657718365188
1087058,1,1.0980071263200377
1946896,0,4.086482177604123
286178,0,9.065961385151603
2691452,0,3.721255941417253
2450452,0,1.3732254916263353
2185637,0,11.846640686124427
2151058,1,3.5323803627978463
2540518,1,1.786160000227929
2677468,1,1.5648818479035067
2121963,0,6.418575803888003
1363495,0,15.049982532241073
2910424,0,5.842903805887345
3864394,0,23.064312585938612
3195312,1,4.8395675858584175
2607780,1,1.8426085571257627
1062704,0,6.441335173657288
2931716,0,10.154396649792082
2010998,1,4.601844338971635
1471049,0,11.687419363881862
1404673,1,4.07969211505597
1689874,0,6.286748026774548
2437414,1,3.194679617974351
3206534,0,20.66471411291147
1375685,0,5.207548666612489
1890725,1,9.331864263244784
596016,0,9.67819080173128
3928772,0,16.165261846590273
2145613,1,7.186600080969847
3930489,1,18.400993787119045
1205237,1,2.917222746667486
1393228,1,1.7528445564832797
1898107,0,9.471184097562348
528123,1,4.1857765919311065
3060153,1,0.820687227607076
2577209,0,2.8831300623372105
1813313,0,13.679262051775371
1556593,0,12.202881513252844
3008139,1,3.371511133404757
1614566,0,27.893070565307795
926373,1,2.7494140166471484
1936716,0,15.156415065941005
2286196,0,8.815902566730484
2232006,1,1.3301837831084282
1352049,0,8.021664023762735
3309303,1,1.617753794045623
1544631,1,0.7666385880319009
1408270,1,2.661944278617406
1010453,1,3.06786546535049
3935574,0,23.915348901758456
1883112,0,1.3741576884045503
1641012,0,6.22451879642455
3016733,1,3.2732728491232015
1709936,0,23.212925267136473
534681,0,5.1003204788354335
3401682,1,10.135970597585649
3759153,0,5.01169188547399
3850672,0,33.92793664917834
3446238,1,3.388498304231714
2894485,0,14.847804742257326
2442850,1,10.973623802037327
1735455,0,6.358448647646136
1756824,1,8.982460482391335
3842128,0,3.987237930633169
1621924,1,3.8879163969510855
1017388,0,8.59880096033895
1015203,1,6.2631820098647415
2665911,0,3.1974619501396586
206703,0,5.140305616209118
2776472,1,4.130717599837859
2433962,0,14.023464591857183
1429896,0,3.1913702233579726
1580038,1,12.141806504666196
3877157,0,14.89023265092301
724402,1,2.575804733168843
3296888,0,15.286636973695316
365209,0,11.07091572921801
1723304,0,7.278142849193343
1494687,0,5.096047481968688
1261970,0,9.462039230614202
3205276,1,4.896204011144317
933172,1,6.824742589381036
2792703,0,10.839625608132394
1352177,0,17.68671338752387
2834156,1,7.519448512090609
333045,0,8.34140717629207
2434234,1,1.2829386453428553
3373461,1,4.268710111845218
291881,1,1.8710835838186834
240337,1,6.212321892747837
339246,0,14.931730126453804
1114591,1,1.933737462234426
238860,0,23.679039585459037
431976,1,2.166594969086258
1689307,0,3.169362815259165
3526697,1,8.510388962629593
3216745,0,21.821604300979278
2948648,1,5.406251318982743
1588754,1,2.601809164116568
870453,0,4.184265296485266
2874609,0,12.575116432074706
3809452,0,3.062099446400933
3876691,1,3.992915495899035
3374437,0,22.87487855402258
2865140,1,2.7889663540430276
973336,1,4.771511209498079
658821,0,23.985216033622443
3542857,0,4.310872143838503
3481694,1,0.6230806839863982
3202741,1,7.188290185721325
1732559,0,8.421192039938253
1869881,1,0.9437988591261842
2618734,0,6.195500809633939
1618708,0,4.717538190432493
2260674,1,5.410384651263296
1997482,1,1.8942069201527305
3205960,0,4.123538964695291
3314083,0,3.1485386407044476
2442311,0,18.43465131862453
1863625,1,2.0531732334345967
2531578,0,13.983489623676798
2464219,1,1.4291847811653366
3774391,0,4.783116817139715
570392,1,0.868769435391611
2894914,1,2.2134465926222253
3439163,0,17.944737037323396
1463633,1,2.5986262773127877
2799448,0,22.325874852429727
1750961,0,10.386375058776244
2566402,1,11.056824230398759
2550094,0,12.339984912542988
3890334,0,23.824550481066126
1866940,0,8.139627251095499
1253769,1,5.160583393436015
753340,0,11.847008417012033
2154512,1,4.43250042584271
541116,0,7.934547001599044
1560023,0,4.107926934556512
2638880,1,2.8097891562808583
2507681,0,4.614757377159026
2110781,0,3.495413133586088
3106739,0,3.1587517483650496
909584,0,14.098808727919858
509529,0,10.435720306156911
1360963,1,2.496250594699495
2670376,0,2.436524819781658
566023,0,4.544310463558718
2988018,0,5.1396952598092405
2793356,0,12.89819665922661
3391217,0,14.427475591797347
2146005,0,6.288064784600911
2033088,1,6.631445787991034
3477391,0,11.193326781082668
3339091,0,6.289916700616129
2180039,1,1.986573616136388
1209320,1,4.475782090599427
557151,1,2.761182373429538
2457411,0,1.5952421611184107
1630305,1,12.191881129277926
1411452,0,22.466214177936504
1563007,1,2.3796154973315278
2195869,1,5.718082397654198
2998983,0,22.483854999693484
1808964,1,8.750737936617414
2838713,1,6.742539742181249
427686,1,9.060494713266513
1303486,0,23.89633091874789
2017794,1,0.3864452499974501
3182806,1,12.799214468321171
329625,0,5.69526370712958
522793,0,2.464895396040975
1771896,0,2.2311920497562965
564199,1,4.50370504337575
3109830,0,3.293593321423195
2765827,1,2.2387926598422654
3792619,1,8.942657931116
2424986,1,7.142525253909733
266496,1,25.392831807629697
2883964,0,15.235270101300749
3531793,0,3.8258885789523482
3713536,0,18.965075539136816
2006739,1,5.243687328444155
3939968,1,11.866251353633373
314996,0,15.193373055984981
2034440,0,4.3549600810284685
3394665,0,9.733891397556285
2004189,0,21.321560761952142
1097050,1,1.444192272310539
2249198,1,6.441782095592789
1094760,0,10.081328226680816
3129275,0,8.466072656491136
380532,0,2.1385359446662635
2741529,0,7.08725387679213
3955415,1,2.5336852797931515
1404375,1,7.435121814066717
451683,1,1.72216965352147
3523263,0,10.92940155697222
1414927,0,12.065118759850453
2847831,1,2.567892391726911
3265581,0,35.900310451256935
2836777,1,4.94917658632531
3883681,1,23.981836571361356
3686611,1,0.5403979970216531
2408037,1,4.300072610770717
589946,1,10.155382683355386
1442166,0,15.267691761217522
2144323,1,4.526986375002035
3462137,0,25.977203818681932
2015012,1,4.690820669106769
262059,0,7.019683104308763
2010099,1,0.6778510144215724
2576813,0,26.783207030089113
320711,1,7.122663687375038
2997770,1,1.6814949530213474
329025,0,14.352741885166537
2415693,0,7.076726367640717
2491917,0,9.48861741475646
1547204,1,0.753290848265423
1625816,0,1.3266832025270905
2982682,0,23.829395867515604
832659,1,4.615353001897439
3413863,0,4.989679801449612
511630,0,4.185251708934259
921475,1,7.203780517570845
1992736,1,2.487011373828036
2556786,1,8.58491497152132
485714,0,23.645525328781588
3419319,0,4.2111330149917965
2438620,0,1.8711798516749034
1093339,1,19.17527345150769
2656315,0,17.380238393338036
203561,0,5.775967065318007
200195,1,9.294561638463597
2607075,1,3.316013484489373
724952,0,16.668260351037162
318038,0,14.528893065444413
503929,0,16.125726434780496
2785664,0,11.843802490644963
619630,0,15.107742497837942
2912816,1,5.216390108985987
2578075,0,8.995500722166552
2911801,0,4.224826899667923
568234,0,8.485775903973101
1412658,0,6.283866714054173
1863646,1,7.50735327272542
3121450,1,3.8466147751480366
259518,1,5.5392706914621215
2420461,0,1.9222970807284812
1105436,0,7.504523396514957
2494625,0,13.251569856688635
3395830,1,2.3362250672239524
2748670,1,7.779126118439602
1249008,0,2.99681443662087
1205466,0,9.800698696146718
2217449,0,8.307032604790445
1366094,1,2.263491714738754
3960655,0,5.251202012261362
2493012,1,2.717844711144769
3546488,0,5.2523538552980025
3676348,0,10.42651629679694
3874656,0,7.986315461873874
1214479,1,4.028887686717432
3511944,0,9.462858826089073
201950,1,3.881874097092708
3097140,1,8.97186000527612
3951061,0,14.416132145710291
3387250,0,3.8599128398145397
3120014,1,2.428923546936635
1055874,0,22.69690506671795
333708,0,11.496199217756494
195040,1,8.121596142764245
812338,1,1.9181055004939052
1752956,0,5.153508771038384
3456860,1,8.848674222031766
1852257,0,4.3587528976636145
3870554,1,10.178801532550906
2483929,1,2.1360887461656195
324676,0,6.266411639721982
1456105,0,6.638847126645327
3954023,1,13.439477989987951
660697,1,5.858844675917368
1948679,1,2.734757620985518
681153,0,5.672492494720158
1035270,1,3.653561520459168
3696508,1,4.694433034961337
3650812,1,6.3709893779304165
1672239,0,7.102238742167163
2870743,1,3.231278579892761
3502392,1,10.24467670857737
1704863,1,2.237356118221411
3938985,0,12.668561477120818
1309666,0,3.6565267952070726
1361730,0,11.239635946595538
2405554,0,17.808012241649898
1950763,1,1.1715958894679621
273379,0,6.738525995594504
1723322,0,4.375146365335718
2104547,1,6.369590198955832
1115651,1,2.8930695063914538
991278,0,10.363804054857862
220322,0,24.766279676355477
837993,0,11.678699200978077
1694899,0,13.748663326871393
2496373,0,7.561841991033878
481858,1,3.3639223885893657
2673880,0,25.088860360359426
378272,0,8.696516307210029
1919655,0,5.5652711795698675
876358,0,25.60238629934308
202255,0,9.434990214154412
3096923,0,9.245124029877035
3765475,0,19.771568440851194
723502,1,2.9385626151767634
1821064,0,19.907705624175897
3148745,0,20.390428296450427
212335,0,2.7453019569799118
547475,1,2.0338089296968946
1455892,1,8.707988944872982
875799,0,5.8839052812961965
2755346,0,11.623489336407584
2196597,0,71.15844911178446
1037316,0,29.56760151501443
579804,0,6.247749187447346
3262268,0,8.263081959750583
3158772,1,16.255086800148472
2944243,0,4.878237030413022
1620382,1,10.914219976245041
1062369,0,6.817694499198917
2193155,1,3.5010805448773876
234687,0,16.052195566210536
3090693,1,1.6645115931620427
1270949,1,5.388481651271422
2672951,0,22.024566790033226
971902,0,20.94110288807882
3302651,1,2.001682030404839
1203083,1,4.473767958668919
1736082,1,4.245619368713395
351325,1,1.0570933661881647
469421,0,6.808449909007948
1846433,0,13.186166271001627
1741301,1,11.454938259794108
1432101,1,0.9888034891005494
1279478,1,5.2275157841115645
2170957,1,7.934820861736196
3273447,0,10.479419924929449
474622,0,31.56259185054489
1756742,1,6.841805137626072
3915059,0,4.3412691943540676
3522807,1,3.2314792300467254
677398,1,9.99124205887781
3029939,0,55.63553809241023
530474,0,38.06343759287983
1839677,0,31.045524988175067
1532448,1,1.9344013694657212
294427,1,4.588013105461927
640643,1,2.123026573665499
850297,1,3.730246402328896
987213,0,11.0960645087536
1329906,0,9.273531364599883
1377261,1,3.48904169184871
3493086,0,13.05497223690383
2018892,1,0.6994983317451497
1002571,1,16.72832597919973
226537,1,1.1799625739318713
1008665,1,0.7890790239926477
404681,1,1.5073851833414023
3208756,0,17.89439673795785
199027,0,16.420274217956614
1073665,1,1.48078093798516
1345914,1,5.729285845115113
907419,0,7.211054264873104
2725017,1,3.0809863332817695
3505167,1,7.870313889811672
1204341,0,23.346697704405702
3912342,0,4.441566528175511
972120,1,1.4067714752815914
3756412,0,7.3304696252097425
3443494,0,47.2574086754367
3839126,0,14.789884867168148
744410,1,4.275695128628137
1103933,0,21.484438452841783
1373425,1,2.8134383341332554
3248003,1,6.667352099973757
1773159,1,2.739401688887209
2053520,1,10.602831940346409
1009525,1,1.5495383834533851
2025162,0,26.793428461799998
3355451,0,12.30515341269841
3533258,1,3.229483498904187
3923011,1,6.075511161889895
1447435,1,2.70841061450546
3741289,1,8.297735349865796
3367215,0,12.331446960392263
352744,1,1.4200030137024935
3281615,0,15.986735305412193
3382428,0,2.9726260463971097
2862373,1,0.4700355728235572
3452832,1,2.638252081302531
1915151,0,10.355621811353489
999318,0,11.988931716229034
335060,1,7.0046036004457966
2532446,0,8.501959472450274
1076033,0,8.937014133456564
520221,0,3.9443906055256863
3294510,0,13.434812522814322
1750453,1,4.435620206376732
3809265,1,2.825307995977809
2200932,1,4.2630654096969876
2146125,0,3.18401268412202
3386283,1,6.466249190696606
2908327,1,2.482729108601622
3960530,1,4.698716232446489
3928249,1,21.288340276767567
990099,1,6.27555531819474
1458727,0,17.537005518967884
2898740,1,3.298489001092774
3401123,1,7.512230608509357
953423,1,9.997580543597323
2130470,1,2.0828833702457916
984673,0,18.597271711527362
3672661,0,5.476803536276266
1502275,1,7.771667877459034
736334,0,12.340366517532676
1159319,1,0.4712867436666109
3871923,0,35.43154881784717
3806726,0,4.478303834435476
2269480,1,3.6510578058900984
1399571,0,9.313398827149925
2235788,0,13.957817792433874
1408641,1,1.9646488622101501
1979363,1,1.611700811371338
244609,1,2.6997746443478485
1153737,0,4.454772212327245
1729495,0,13.106055436051683
2452312,0,16.50217901505187
2875574,0,10.837868070264596
2604728,1,1.2864453345501283
729314,0,15.598609904891452
1968295,0,12.01244884146932
2250963,0,11.066521856441387
988944,0,6.95776657261685
2045900,0,8.234610437604584
3268234,1,9.709504241641806
1234100,0,9.110780838523468
2262091,0,5.795231500995209
1231105,1,5.746100252375061
3050055,0,10.444142089460897
3548728,1,6.137283238562778
1340329,1,3.0706178495444525
1947572,1,1.8108858130039032
2632146,1,3.4129697965476735
2779060,1,1.5602353618468583
1869693,1,0.8600752871018316
3911969,0,8.532854836839775
1022604,0,13.620988466206102
3353901,0,6.090563259890824
521418,1,0.8189983371702039
3731928,1,2.331686434528722
2133823,1,0.45378773612831613
2032868,1,1.0462814498801045
1363507,0,9.35844880920298
1291587,0,5.575099681110414
3487089,1,4.361009932638504
357683,0,10.165117203323934
525451,0,3.7439340130990857
3282578,1,5.963339244029685
3170059,0,4.863405264548293
1962412,0,6.98056745543439
1097873,1,1.7572002338805117
3201849,1,1.5940257610987272
960245,0,23.037211491655363
2878485,0,13.811438432250084
3880738,1,4.258324068779341
3203238,0,7.738739848374732
326830,1,3.3785220286572524
422202,1,1.902559365284498
1049160,1,7.217573317690621
1214517,1,2.5326164609257313
3703659,0,17.17214253459257
3432791,1,2.0108204457090793
1218197,1,5.659959006685756
2648421,1,2.1967778536613163
3943412,0,9.505498561584282
2942846,1,1.890361500724648
1648897,1,2.9409018896062107
3351349,1,4.249645582164725
848833,0,17.56284212200677
551328,0,14.648589956141624
1157150,1,7.964910057274492
1532520,1,4.187464334149369
1355295,1,3.6979839785369366
3942403,0,5.221110387901641
3744790,1,2.2244780254090264
1014706,0,35.30031176011504
3773007,0,6.782678983438308
1505295,1,2.173210433910951
3068496,1,2.050664832355406
615391,1,6.556871802928929
3260588,0,7.6883474991989855
474497,0,9.047139572061841
3492358,0,8.44877418589951
1702153,1,8.145384806387062
237409,1,8.214582321276021
2613988,0,6.921834918330609
1193912,1,1.1556953606452387
686697,0,10.991422569167453
3791904,0,3.8528323235697153
1675643,1,4.952631552069507
2665586,0,2.066138067566854
252771,1,2.775015675484886
3898921,0,5.753324041695098
1155051,1,3.7369899387133048
3443978,1,13.61383049494987
353896,1,5.002874057107434
2258165,1,6.295246053526762
3147497,1,2.288303502922227
1276191,0,16.673396776400672
1210065,0,2.4597758869313573
1660146,1,1.6098107926777119
2398460,1,4.2480023119017165
1391076,0,14.763521975978573
922122,0,28.441586563707812
673693,1,5.626674278769456
2736581,1,2.3679712943909217
2673467,1,1.4969032511647606
3793319,0,3.998577322424174
2039682,1,8.463318686917033
453031,0,15.335197136803082
1597999,0,7.313215133629124
1957742,1,4.039565641407213
3664016,0,1.464762221786243
3203418,0,20.505521994348555
3699255,1,3.8513580077090595
2500574,0,5.3296979311179085
1278239,1,0.6778873786664025
3889242,1,1.4936234383209994
697408,1,6.699103371037583
3172798,0,5.643004818026276
2129480,0,8.436806295886292
408263,1,5.7279260493016775
3744292,1,2.2317329729007715
3410332,0,9.37129104792987
3693046,0,5.1800888725923375
299232,0,3.1510494274821976
1762222,1,8.401210712792667
3508398,1,4.619265852553602
1556458,0,6.06384697559852
942269,1,2.3858965084383668
2153170,0,9.223327350922236
1079882,1,3.484266332515406
560133,0,12.234290571898308
841306,1,9.647671712402454
3368384,0,4.189707607627905
1721021,0,9.701191753177662
3883389,0,0.4992595447382411
2449936,0,7.105062193607832
2978067,0,4.839321790759173
1148998,1,3.083385773058751
255423,0,16.574431542916084
3859292,0,5.923569103869206
865695,0,29.48931008891865
3147984,1,3.8803959480960764
1261070,0,4.250506866755376
3800673,1,4.6945349600242965
493357,0,9.124594277187411
1880581,1,7.07015829970783
3350493,1,1.793045729112452
3056774,0,10.756314913822203
2541657,0,9.358714272662006
732385,0,22.88441289834932
1074719,0,11.69675955278986
2505347,0,13.607938384044548
3855176,0,4.4790699939410805
1844207,1,3.467787263655098
552568,0,9.088025344212534
3497754,1,2.008096796324803
2573231,1,0.27762081092953306
862554,1,2.4489907624017624
575868,0,128.4148006471336
2488383,0,20.849299898778447
576263,0,8.614982000760815
697303,1,7.603687295986121
355118,0,10.534547849233736
3124933,1,3.6337661350365114
2230790,0,10.117514556629914
2707421,0,13.913434763152605
1151752,1,6.031838554898181
1103710,1,0.35978091990189576
3264378,1,4.4365713716028035
2283850,1,9.6930624279452
1274571,0,8.651147248927467
3255758,0,11.122317404789465
723980,1,0.6375151300489783
683386,1,5.334159190228831
1534895,0,14.411935701049089
2511913,1,8.999500696348372
2717141,1,3.745899006996851
1233035,0,10.50253012441046
3907380,0,7.134103051788926
2477402,0,8.541726483041646
740565,0,36.23205596304446
888534,1,1.1338898654305463
3895808,1,24.56511732420662
450615,1,4.674947882929168
813983,1,2.511535839021874
2120345,0,15.847250731258937
3145946,0,33.89299172872805
2145102,0,5.561010487624324
427104,1,5.134564248012615
651721,0,9.591393985474273
833911,1,1.038772121706829
317128,0,11.520826984021626
914395,1,3.373828094842762
2211074,1,0.8969219743854121
2488262,0,7.247301258485372
1386645,1,8.458621616178684
2633393,0,4.728304221060091
759839,1,1.4002081368846526
1396386,0,21.258137457904997
1821484,1,0.44181520144622505
354200,1,1.7590420754816887
348685,0,11.9607460497968
3159213,0,13.866264389801628
517988,0,20.465541973283827
895104,1,2.9697010614182044
3858392,0,6.0903874143045424
2503913,0,5.098843555240675
603108,1,2.52168852687365
2180949,1,8.95657718253318
201426,0,153.18188008673698
1677375,1,3.948253554469029
1908730,0,3.2599020781861667
855551,0,2.4518302402477596
3765441,0,10.52321329669831
379255,1,3.6667001132366925
3456476,1,5.304079270051011
348074,1,1.3977846697192637
393367,1,1.8233471736646873
3441968,0,3.647089340772921
3479028,1,1.7995637912594968
909355,0,15.19417898205963
942221,0,15.587344110293385
2732537,0,4.489483902713479
3847359,1,1.7680029566678528
2646346,1,3.2063668587963523
2286659,0,5.765638765947232
2617548,0,2.964242920416207
2701806,0,3.2429791578825253
3703077,0,15.15024569398969
1482351,1,7.316361067621262
2473548,0,8.817628165071127
3179474,1,10.237664870208432
323313,1,9.261326565231194
3851068,0,8.035034966473175
3378795,1,2.37204447691476
1750766,0,13.241082996618646
1555843,0,7.691738833187131
1276202,0,8.587437818578811
645141,0,3.484620924525056
3700710,1,6.811526255660616
1544053,1,2.7165895195793577
3356678,1,1.729313020283134
2054864,0,11.96490137717889
2026426,1,3.4836725973721343
1306737,0,28.496114746682434
518545,1,2.1387949792744654
617208,0,5.415460995094818
1781097,1,1.3496799495752496
3854502,0,114.30428064512184
1899264,1,1.7397192769325431
1768567,0,5.035232071117072
1558636,1,3.824046378071377
2969419,1,1.875819154283083
949880,1,4.7607625934672955
3514639,1,3.5408466434201156
3342678,1,4.392412109767983
2683853,0,4.758175217022053
586045,1,11.664851537043477
1578505,1,7.40201385103099
3949440,0,11.355708908023114
3507148,1,3.8501210027350523
1500566,1,14.864531434648319
1736726,1,5.39096093420266
3922166,0,17.949350612507363
3209340,0,17.830163396530743
3880839,1,4.950554886338087
1316894,0,11.12743417528533
2801836,1,5.759318620651989
2782579,1,3.476351591991503
2888207,1,1.9471246076234927
3195408,0,15.131207336060946
1036993,0,30.718676354927872
1125117,0,3.9746425577715283
263067,0,5.688502046000855
3765872,0,4.895026135745053
3294197,1,5.114258712093482
1150901,0,11.477518993417654
3073477,1,1.370998824428858
1556406,1,6.928808437869243
1195628,1,2.87137625110527
1575538,0,4.0669923435779225
958246,1,2.808990402444901
3184100,1,2.739621226619645
3735346,0,8.661124754967846
2210597,1,4.883429643942567
1838915,1,1.3243180094003948
3715825,0,27.142558496850477
2619406,0,6.94925090540506
2971941,1,3.320369657234362
410558,1,5.201559778830325
2702615,0,9.020622272094084
3391200,1,11.162619441146525
3857343,1,3.2093527968879405
3049774,0,11.139496206415444
3080082,0,19.233375130544314
2523588,0,10.557975835222717
569968,0,15.768796489782334
2140959,0,24.757256188124355
3163526,0,3.6619042561681785
1752466,0,11.537053063667717
3331977,0,6.798981817644503
3531266,0,13.528772559009603
2876187,0,3.2840830721892997
1458510,0,17.84773086151376
2913853,0,11.616609483286243
1583673,0,19.619815111402254
3146618,0,14.674469928923292
858774,0,37.60545284415021
3933434,0,26.993692689010103
3462238,0,11.004842501572744
880611,1,5.40882012570325
3130693,1,2.680858271616564
3772190,1,1.0884395185223494
1539856,1,0.7546955429855224
1412810,1,1.1996216853101536
2852914,0,6.113738135746784
2968482,1,6.287286822848809
1256323,1,6.219963688366152
575582,1,6.0570707446704
1768372,0,13.253875950011341
3155240,1,3.6420952748305355
241306,0,6.456308169276543
1054498,1,1.415563371139375
568671,1,4.846266592724913
2169353,0,6.559394584289737
1631545,0,17.785982775918626
839518,1,1.9579586817464107
1974568,0,3.7688008630500005
3363717,0,9.538757986279848
3944228,0,28.057504783616345
1910886,1,1.6316696697859034
3730633,1,6.419459052496687
1326783,0,5.330489016135361
1286417,0,19.64214968900142
2864839,1,4.355288678081064
2533824,0,1.7290727007856428
1989743,0,10.714513274634122
3423385,0,10.458230996286078
237774,0,46.93328321562368
698629,1,3.4210754746604115
1248638,1,2.7208543218487673
3234901,1,6.867596997333248
2266342,1,2.778406360886071
3086406,1,1.733143430812064
516990,0,2.9497605167580407
2109613,1,1.509406290593506
3357343,1,3.2936032422345187
1291497,0,10.126462589868558
3256593,0,14.690973031310634
636220,1,2.6465409697218414
3743433,1,1.6734973922761731
3527220,0,28.895409802085673
484140,0,5.6233999242851915
1101303,1,3.655522910310838
3668063,1,1.6721291243689613
1229392,0,2.89872138390333
1958448,1,7.003868542582571
591565,1,4.792938237528587
1063676,1,11.89516334002914
614470,0,27.1667830909664
3085883,0,10.400250170744748
3230862,1,3.950114662042932
1727840,0,3.46538092403514
735875,0,14.237583193010341
1634931,0,15.509310316342622
3526147,0,31.001646141852955
3899555,0,16.429464765537354
3701289,0,30.651900597806595
2394865,1,4.028027548027753
506194,1,7.714933034768551
528374,1,3.3505137079366367
339157,0,14.916702120497924
3502520,0,10.13141481295807
2676512,0,8.426778808584553
743171,0,10.9273255197829
1985998,0,18.162351622512723
3916783,1,6.334226874459881
3418257,0,40.79369282395514
3470140,1,4.886183976905621
2994361,1,4.414288197193931
2228925,1,2.840013407724718
1750988,0,9.099205645266824
998691,0,5.245809232319232
2851808,0,13.423083182936965
3918128,0,33.86301222723079
1588136,1,6.401290054767717
2155229,0,15.668695847556226
1331695,0,4.734708837611477
1699984,0,27.221297073365342
2800372,0,24.83709534532556
2022641,1,5.566449706588793
3087165,0,8.682875753998436
3778598,1,5.089602877643974
1843150,0,4.533448009783509
903466,0,9.830828472743438
366980,0,19.485299849427292
3130925,1,2.4413569919913414
679790,0,27.412355255374553
2747329,0,2.121535881475032
3304720,0,13.423887116371906
3232761,1,33.692070168084584
1160140,0,9.097791213692227
937739,0,4.689444677958381
1608261,1,7.842487265979329
3263757,0,15.613563581800161
2556281,1,5.927349278877114
2697749,1,2.2254792326706
685680,1,4.245514637147642
3027404,1,5.122994574960813
3805902,0,6.84396470435627
2701093,1,4.672748998651387
3722527,0,5.02138992495404
1023518,0,6.40694421849098
1015164,0,6.130793116013141
3141834,0,17.9909213140298
3258342,0,16.929535840311367
304569,1,12.040495256446366
2671560,0,3.557640743499454
815993,1,2.728393592080032
1460076,1,4.425985040753993
3114323,0,8.669851462533089
1886577,0,6.934180802924345
2564514,1,2.4244360721689255
1382733,1,0.9621086196508781
687213,0,1.6651799141528905
3395925,1,9.309731534823927
1870911,1,0.5468273761472717
1423175,1,2.6463652200095127
3224504,0,19.70022220948449
971161,1,3.2430409290192297
2994961,0,10.726648581335278
995788,1,2.018430857295623
562270,1,9.540730533565705
1300921,0,12.805735903616453
2845044,1,0.6626224049348993
2771368,1,2.6723539881937866
696474,0,18.45735534748698
2685846,0,8.7189616379433
2941436,0,16.264306542069733
2700797,0,28.185656587140606
423423,0,14.94514086534285
662688,1,1.143289990750775
3487304,1,3.9921481310385376
825988,1,0.7949920688880403
988413,1,4.529230948490187
1201786,1,4.509345917264151
660752,0,4.0780455235823725
353730,1,1.0697811492391758
2010296,1,1.1633250782080242
2554676,1,2.2252080226514437
2695462,1,2.408100011827591
304329,1,2.8423243265839657
751189,1,7.683796344160708
1057064,0,8.978795108248447
2883707,1,3.1193080488954408
2897761,1,3.6186618002180198
2255117,1,8.347368649247114
3757581,1,2.186434322706474
745183,1,9.31630944439189
3886668,0,19.478789703370605
454607,0,6.37308103502567
2543021,0,12.6695484799065
319823,1,4.6066095648133345
2639300,1,10.34148062938654
2542197,0,7.604169057130649
1111459,0,3.163126528222055
1148885,0,20.474381754905735
2583202,1,1.0735095114306574
2859159,1,4.577375783728264
873961,1,4.719654773303573
2548349,0,5.760843268532572
574423,0,2.4854658704333525
1946798,0,3.8078404950873965
2214324,1,3.9840743261014957
2971549,1,2.4597078709743654
3335543,1,6.0686482045796195
2758465,0,37.4305535112862
2407384,1,9.005756839586809
3854830,1,5.179112650664367
222064,0,9.870307724409425
2258008,0,19.750158972041827
2938042,1,3.061311281554508
2236559,1,3.5294107232346787
3445549,0,4.797255579560474
3207215,1,2.953216864049708
3892930,1,2.6752820379379907
2063774,1,1.723849077874569
512840,0,3.5004390269736274
3426098,0,6.207557979081803
2179193,1,0.9910787015515388
2669108,1,1.5921051758065479
1409854,1,2.393751448923396
3453990,0,6.602641715883491
3176418,1,9.259680196157593
1362792,1,2.504067816464142
3721968,1,1.9811919109316936
2973641,1,3.514940066473198
3455592,0,47.902501133662355
882955,1,2.0356614444941785
2126317,1,2.04733112403202
1908101,0,6.775943365950978
2874721,0,6.29950947582394
2155399,1,7.889394659679062
1564937,1,9.163897076692193
3529570,1,3.7171017460943117
2193641,0,10.438521853200772
507402,1,2.6092847516252187
2180843,0,11.728459641141836
886213,1,1.7029739716806498
1040224,1,4.866494525297922
2163981,1,3.741510146209043
1140679,1,2.464358589710085
3018000,1,0.7155166390461833
2008967,0,28.91850438451839
966603,1,0.6673063446674374
3719402,0,12.672960044038387
3013054,0,9.36940331603382
1866700,0,3.818873794211575
3035980,0,7.801910897973034
2215426,0,11.716853030102607
650063,1,1.27546092686367
1553901,1,7.932751797176613
2792245,1,10.303882492000321
410003,1,2.98484832215657
1506813,1,3.107012714128771
1519134,1,3.3759302592177147
1539872,1,6.848575453177036
640460,0,1.9273557472033167
3510165,0,15.155787910479825
1423306,0,8.82721292405931
3271368,1,5.142022925948866
2989370,1,3.025170226664685
654445,1,4.03836696581574
1367842,1,3.433460041243816
1878653,1,1.4143451447081379
2872233,0,5.110314512629885
1667634,0,11.47483860770199
3527290,0,9.00121435771829
1517358,1,0.9043222318267365
1616200,1,3.8294967871372707
1718337,0,14.835340167251221
510561,0,5.789513780547196
1386496,0,18.265045715203616
682074,0,19.2583775062658
3140452,1,13.38891145146481
3952783,1,1.1593553240560248
404998,0,11.76221971841626
2573068,1,4.635030734852222
366553,1,7.400230703928738
1431543,0,9.342895253522293
3125117,0,9.883627687533659
1831081,0,2.521643799240108
404232,1,4.238565098965646
2791252,1,7.057475529182738
350525,1,1.4913750597004205
209092,0,9.82470977220815
483728,1,3.601743950863461
295823,1,5.416554725901741
2250054,0,10.584585746731982
3149039,0,14.024492775295515
2855203,0,5.4102147809080305
1645185,0,7.039380728184968
3241274,1,7.072548487465234
975451,1,4.347264302905544
3167250,1,0.8691316099075452
2194516,0,16.528836672307584
1259074,0,2.9247253901147623
2933875,0,12.69198860064963
2126486,0,4.614203324832002
1758405,0,16.08908014576275
2571574,0,4.122024640614158
877202,0,6.004385600387291
1012907,0,13.478426417783673
1451857,1,0.6692162473137138
3166246,1,2.515125616741618
3236506,0,3.6644427568417517
3329419,1,1.940085385690408
2109257,1,3.9224131501554105
1343474,0,13.129014106547466
1115043,1,1.7146310604638708
1512723,1,4.891549396824589
931484,0,4.7194564007694595
733368,1,3.9501333127608547
3008892,0,11.411384426073514
479658,1,7.775198444622032
3944080,0,5.737119910281528
2660533,0,34.030467201386955
3252364,1,6.847470839422573
679005,1,4.383147797433788
3736101,1,8.520988129184152
3657919,1,1.378109592696078
3325986,1,7.413524255970052
1021953,0,7.83708308430367
3771700,1,3.5264186915761924
3688542,1,4.357478775723589
1145441,1,3.7584323106266626
3296327,0,6.861723285706403
560211,0,6.772085440162582
3144774,1,2.9277351688735522
1331848,1,3.0211388478003083
1476068,0,11.633888545339552
1883063,0,15.213962470183867
1139210,1,4.020560645465921
890365,0,3.6656821318413164
944839,1,4.047473393789024
2800461,1,1.5923600457388638
747483,1,6.047971709941468
2472755,0,10.985281226122245
2892682,1,1.455722148660254
3479936,1,18.788439766837225
1914984,0,6.617785184438772
1569450,0,8.738728754387624
3105290,1,1.5136198088717894
972355,1,5.0550034598120535
3497100,0,11.993247287355855
3918176,0,6.438713589755295
1779780,1,12.337019201256977
1071122,1,1.261434914055932
2252737,0,4.7969276125073055
1630680,0,10.688662487062405
3422416,0,2.996355340432702
1076482,1,0.6845743401275292
3131551,1,12.42071611708509
2967654,1,25.17029905511442
1766365,0,7.772351174260555
1788289,0,11.948082653610474
3299584,1,11.90096152860705
1982121,1,2.732504892184899
3763828,1,2.3910161377908086
2654234,1,8.249236794503114
2853543,1,4.534932530597222
2623796,0,15.203564614893592
2635604,1,3.9454719980178377
1892622,1,1.8959899019726367
3875755,0,43.838254204475376
1052025,1,6.234564913821956
1470367,0,28.695704501037767
635639,0,19.999299280019397
1050550,0,16.50529101501504
349039,1,1.4811773570374385
2837624,0,12.031033886993159
2619039,1,4.292174588057258
1582083,1,2.4977895656724045
2021555,0,32.72617808800668
3115940,0,17.24044800245027
2421495,1,5.9852014044780235
1814416,0,4.913095867760387
1353465,1,1.0821580014664347
1288498,0,4.299120389019768
2714288,1,2.4327044412868695
229502,0,27.378608252235015
1611037,0,5.972740033097855
380270,1,2.2671099863459805
1157782,1,3.2274341575077976
1059678,1,0.7124780648642971
3454477,1,8.888482749764854
2844913,0,6.69395216518022
1143513,1,3.3917171984488546
1605453,0,3.0135565525608725
3028463,0,16.705353575234902
1886820,0,11.548102481999752
364846,1,1.7652221144439688
253346,0,2.884177402289881
633551,1,1.718766433058651
3166165,1,4.107540131248039
984186,1,2.0534743269428555
1536502,0,24.07723709376035
2194608,1,2.129587589827942
658403,1,8.682632080811716
1903897,0,12.575875633569867
1028843,0,16.80977832165391
3236018,1,8.23262081358001
3755256,0,17.566095770734314
3118110,0,10.330565324678915
539356,1,1.6250638532122734
909186,0,9.243050956242325
227212,0,6.552075892847686
2875332,1,1.8669839631595562
578721,0,12.225436007148701
2904584,1,1.0663559025577158
2708638,1,1.9474442669788716
3526799,0,4.591201269757064
3310479,1,2.0988628361702477
1251815,1,0.6569267837878806
3005570,1,2.607215500350418
3023951,0,10.848214559648156
2001178,0,9.145451854476534
692831,1,4.0870604671736155
1612762,1,8.850609261764346
1322698,0,7.687875295648358
3709476,0,46.5585495814265
1906874,0,18.077881264529125
528168,0,8.491416734164073
851172,1,2.980112357088453
361373,0,3.243139759735953
3394296,1,3.2293640102145913
2660019,0,12.568957118800284
2220192,0,6.962405822974685
225521,1,5.166803060163127
3001311,1,2.7793413195347476
1941098,0,10.123501424755682
1891933,0,3.0304473031967643
238411,1,6.0235639034977595
471361,0,19.115936305732916
3257014,0,12.364614398193368
1959192,1,9.101134148541595
3521112,1,7.0976822358278975
2923312,1,2.6559830133641915
3764747,0,8.93535284363906
1624314,0,4.581073153610563
2784463,1,1.431913416795336
857777,0,43.4436632742019
1074812,0,3.6915901746107496
2120945,1,2.449840416438222
2715564,1,3.462789815857847
647509,0,5.81897598724905
2550801,0,10.012570742648476
1674992,1,5.323849931002451
560523,1,4.322490503029885
2663500,0,10.590276469579297
3096210,0,5.348702295114615
3094118,1,0.742640168289376
3759146,0,2.192884739074494
1024317,1,3.1742353493024287
3932854,1,2.4652866095266583
3204651,0,7.900637758965153
1333540,0,8.198385944650765
466349,0,10.344764064670024
933375,1,1.0542624873489155
1463117,0,1.8946402417863535
2820548,0,17.78241838338964
688340,0,7.645835522467756
3703881,1,10.503103998733684
2935697,0,9.278786376869888
2632900,1,3.035804247541577
1715700,0,9.060114560046436
919187,0,25.303828135456317
1001601,1,2.7568325805234055
1483961,0,7.461484594708421
814806,0,23.198580947113847
1484803,1,2.0316336520433635
1684916,0,46.385284269123126
3930017,0,5.6632495901033275
2153084,1,2.3810174836558793
3189985,1,4.3495134472393
2538979,1,3.19287991898676
1381039,0,1.689767557823788
822706,1,2.621584437780366
2876454,1,1.8675708980766488
294459,1,1.8960364217165577
1967512,0,41.137514639654995
2171305,1,3.0700826742669918
2430073,1,1.9376959668841618
3540645,0,7.795317911496035
1285038,0,8.911719408364558
1326877,1,2.612509871423151
3010882,0,8.411837105344782
3726781,1,3.9588823168474097
2187718,0,2.3045401647007813
690754,0,8.050688695437012
713663,1,9.771726912069965
551207,1,1.6004299200349905
2514680,1,2.8932948205569993
3403498,0,31.490822829897944
2600096,0,20.600315510822465
2531934,1,4.234371418712172
576091,1,8.26373187497276
3262760,0,10.877999934651097
1848198,1,2.249613343820243
1919693,1,4.720238706583774
967971,0,29.907290383149114
2140766,1,2.7634963113297406
3696679,0,1.9808208791561088
3685676,0,5.489635667393517
2177343,0,11.76413788180349
3933479,0,8.4267051391466
2728278,1,4.871914018639006
2795000,1,6.179731090920311
3794784,1,6.759633944998695
2756822,1,4.138354456725167
839913,0,12.483488832349405
1192137,1,3.1831826947763258
746556,1,3.575832973367747
3249054,0,20.361422879262058
593824,0,1.8874044204939189
3793380,1,2.4454396222364787
2464137,0,4.488718816773828
1034200,0,23.182054278548655
3006626,0,20.637564614974238
1592098,1,3.9195751786270243
1915181,1,1.3933101814777396
593428,0,3.156816556877937
2033803,1,8.508797766918166
3097451,1,8.210927893760694
294008,0,3.8143400817936506
984132,0,22.876786616822375
2721321,0,4.9106245845588905
3742204,0,15.263912891524509
1305054,1,3.0981668373426894
739586,0,45.533820570393296
2509043,0,12.337701676272507
2965361,1,3.5517520279563586
3449111,0,8.302712694751815
703587,0,5.921257901062959
589827,1,1.9990246163204999
1102473,0,4.643153891630053
2773564,0,8.821394636508376
3419139,0,17.36751442856069
2829973,1,8.969755639531975
846408,1,1.399585290424784
1472791,1,8.247682744998901
1339760,1,4.668339916052217
1046885,1,2.427231414242628
1272530,0,2.2827716810600864
2003623,1,1.4843134547572783
3944708,1,1.0803124376210056
3194178,0,13.952862856925847
339227,0,17.50085551910257
1717586,1,27.247249712165484
1999187,1,1.73694445692728
3265242,0,20.976417632691202
947485,0,12.08694474323645
2036883,0,2.7824647592469245
1049834,1,0.8274331711811285
2211957,1,1.7390929171361984
3241460,0,13.310424457935989
3807780,0,7.241394143015823
1893849,0,4.412634927963933
3368508,1,0.9887939676278666
3727457,1,7.5251420188506515
2399517,1,2.987337377275827
940565,1,4.127756610052477
3161099,1,1.7723791485496276
243302,1,3.0883823790997154
2901049,1,12.507700773028114
3534280,1,6.409802038701289
3005876,1,4.36243282276128
3201954,0,8.017019858594095
2934749,1,1.4015374613198543
2496100,1,3.7870829821459577
1580699,1,0.5417823709922163
664343,1,2.389951435061477
1198731,1,1.2589724412658403
1565268,0,15.29621501926663
3164611,1,2.797497893013367
375938,0,2.5933282459322697
3746930,1,2.144124514622721
709326,0,11.499500549315165
3455591,1,2.126663429124476
2197767,1,2.7510236402778045
344691,0,14.300336086835221
1948625,1,3.2775964396081188
1424186,0,3.9902169443029254
1569262,0,3.68856515823777
1500016,0,5.923734791940161
2739966,1,3.3730749183241344
3252923,0,8.161411165182873
3671247,1,0.7296658383789213
954175,0,70.82013983371068
431081,1,4.045491461241039
368187,0,5.336478507171438
2487531,1,2.6268220916260923
1786923,1,9.090459513016972
3449015,0,13.148389766993148
810538,1,0.9874199033448069
571663,0,9.290875205698672
412643,0,10.829194120918299
1632042,0,6.310822049622924
3753820,0,6.337860798004848
2441844,0,28.535045951082793
3353168,0,6.052737700864587
2586506,1,9.65668873602406
2898758,0,6.9019589921276445
892267,0,4.157210232435988
1203492,1,1.0536502783807224
904641,0,27.08129956687185
2811739,0,60.00088072860624
2113224,1,10.678866174781477
2737353,0,3.175235243103472
849042,1,1.046429818328428
3889010,1,4.935844936628039
1282995,1,3.9982430765629267
1964617,0,5.680381922011734
933078,0,3.8996249115959607
3235261,1,6.928172205708038
1303426,1,4.836689175862014
3454824,1,4.522667346204787
2634912,0,9.729695397872737
3760272,1,6.553237370719371
2761579,1,6.745525566845006
626668,1,2.4651886794469213
693699,1,0.9250052430516961
2113046,1,1.9356927255617427
1699227,0,-0.005495725074072255
2624092,1,0.804214343338032
2279935,0,5.666865973670402
565551,0,7.819510728354318
3663864,1,1.831289000815913
3528770,0,28.19591455984524
747939,1,2.3149183145194376
851153,0,6.7544481752639935
1556152,1,8.170730357685166
3848801,1,1.6836290344707578
747169,1,1.2603179465721313
3885551,0,13.443114842401982
2782285,1,3.4404315675087536
2913531,1,3.265157687700196
999073,1,5.721487388937643
1793632,0,13.663025341348655
2884647,1,0.9854649088710248
2624932,0,5.740921901087435
1748031,0,14.025591706410552
2225945,1,9.176739603741483
2977961,1,2.6904449759522784
1408255,1,4.888377575734493
1263220,1,6.030370146969594
3808142,1,3.04981709254919
3137899,1,3.006614426594173
1913215,1,2.438582920644523
1419476,0,8.629894956183408
1957239,1,13.760771220183422
1062465,0,40.022024098347345
824644,1,7.150964522818958
2499159,0,20.907003669809537
3763100,1,2.2980395212947187
1762714,0,31.724304972807996
3085454,1,2.927233414699418
2994138,0,2.370822119836206
947977,1,3.4141539786846913
3387826,0,3.783784416540198
1608978,0,32.24221844335563
3721773,1,1.1801152904337044
1229935,1,3.429321009904736
252870,1,4.018154374314372
2696642,0,13.602757834492182
3546244,0,8.940607099134075
1035984,0,12.359173793291394
1056258,1,3.9148703939449625
1821951,1,4.120972241624173
2570288,0,2.8435726013185314
3344540,0,22.261498094420155
1896324,1,0.7152199337817092
2146731,0,15.630594381336957
1616467,0,20.50018647972317
2669324,1,3.5569368342338366
1493655,0,13.113838163377599
3400372,0,30.0812303781095
2170269,0,3.8116982578533802
1881288,1,4.506943765686544
1096981,1,1.9282599287431765
1683926,1,3.1841610545209433
712849,0,15.955375598763963
3370405,1,1.273503258862589
2662421,1,1.6942885352381127
1440018,0,11.21734904057285
1257016,1,6.690145786744802
2503624,0,20.15140436738524
933185,1,2.741321615723112
461303,1,7.246556518344186
2456477,1,3.6334623254274954
239830,0,5.045731191599396
2835806,0,6.379848738921825
480618,0,3.514296245242592
1566050,1,2.9188582964099474
2796032,1,1.8634486285550709
2152999,0,40.71854818602687
2532671,1,4.682088077748594
2206835,0,5.039283544306804
3069139,0,3.9689720007850284
2415440,1,12.162003156870824
2916454,1,8.247549862484666
2778399,1,2.0143864241800116
761474,1,3.9012606235968583
1989338,1,2.1499368611272502
1737290,1,9.791887033185395
2275329,0,11.553781935754225
1935124,0,10.823070440751048
991548,0,10.258991557303561
573019,0,22.97025881806647
1389855,1,2.8321650536748235
1722762,0,16.711898460152437
1832901,0,14.492874458697388
403227,0,5.23173582274529
3835465,0,4.7460824992332435
2607345,0,9.241737554812095
1709856,1,17.42172064578872
2196849,0,21.11449456729268
1538921,1,2.9148788568054553
1777362,0,5.527651531116291
3305866,1,6.410451424485533
2745505,0,8.181930201234358
698924,0,30.415402004690137
1484024,1,1.870377863484358
885178,1,6.561305780445665
1998070,1,4.534640547648088
615648,0,5.505697172806354
1754701,0,27.58143545818426
3753088,0,8.56434563135298
1702024,0,6.931769067661756
3269043,0,11.103096491208193
2117310,0,8.701719187271584
424683,1,3.662032820472223
3781493,0,13.550065582796186
3431368,1,4.443763720212696
3950755,0,5.1942024169779595
1619754,1,1.7924872542139862
2156250,0,6.021267610932817
2466839,0,4.1011666760898935
2790618,1,5.112571401437407
3446339,1,0.7231995300228865
2836375,0,2.5043443914656063
3448970,1,5.012997768400259
3444536,1,15.866605959182943
2261184,1,11.02706060397446
884429,1,3.916764573271827
1481167,0,6.208059967683314
1590938,0,2.3049652031617742
621864,1,3.837691818699454
2413578,1,4.795003278765879
953438,0,22.83184504530182
3482127,1,2.0804369804145373
3901723,1,3.1787325245345115
1279444,1,7.437611043108016
201467,0,1.9422182449537666
1615229,1,3.1687902721763765
515007,1,4.892160844024437
3843083,0,10.668160801895727
2251182,0,32.66723478847219
513286,0,4.190645505468251
3782938,0,7.734171135745355
288310,1,2.879894998402312
1900205,1,0.459741883780097
806591,0,16.246775814936896
665598,0,16.851783447298317
2002249,1,1.8119545868440843
3239204,1,5.679774631602112
1710407,0,16.657587668855886
2232957,0,4.175181901846869
2973305,1,1.522269625107349
1017354,1,0.8371758780873351
949723,1,3.5636096787599043
232514,1,8.86485962720015
845285,1,7.363391309985669
1914579,1,11.143037025352724
2921109,0,3.5135735916143798
2009934,1,3.056359950186277
366410,0,55.49089588417337
1136171,0,0.9994176593370772
2876540,1,7.860518289093309
680292,0,11.461260283872106
1517489,1,13.470019731586028
362946,1,6.3690938284131
2221875,1,0.9161034210836878
1026499,0,17.599385549278495
1477690,1,2.5186999999177093
3287269,1,10.721428819039273
1287236,0,16.3422933123015
664632,1,5.073035320130207
1028116,0,19.575101499051595
3923765,1,0.9524898915483836
3173758,0,6.854368894361958
559951,1,1.7496295526416776
1252787,1,1.1358183273435905
3668906,1,7.578861670906795
2676318,1,1.6878903181901763
403021,0,6.074044569335946
2053949,0,51.31664128469319
2521120,0,8.50873007168669
395228,0,14.079799034208705
313180,0,7.80659531474582
2153230,1,1.774313881306575
2618840,0,11.504563421029404
1320854,0,3.4002329559515485
3075589,1,3.6013445920892297
2980459,0,3.954165949996131
3369544,0,28.345609541027642
2214483,0,10.773093984394201
2120493,0,7.452210441482282
2655293,0,9.44301559582984
1433851,1,1.6568057497275643
2129024,1,8.419975393543776
2220719,0,5.2196720822936395
386996,1,3.2783649793815
654806,1,8.6098616270666
1617618,1,4.510557768218567
1243674,1,8.521662029277772
1330502,0,1.9053905791166414
1479005,0,25.83306297162992
3780370,1,1.6575436069767826
2117567,0,6.596789020746215
3918706,0,17.45254319297217
2128056,0,12.969759394109815
3100094,1,1.8753761092190904
3664768,1,14.227974229907002
2158281,1,1.0786415738496475
566265,0,6.125451603470189
1389544,0,10.312345015586411
666246,0,10.746454848820264
2245081,1,3.9788820902280784
3160534,1,4.766767219056899
1128017,1,0.900611057104909
3269403,0,14.122533213137995
2941358,1,6.752465066161398
3055198,0,5.935889355102511
1945690,1,1.9935947121368995
3444329,1,8.867852173307364
2803011,1,5.873195817725625
3315446,0,71.5234491462307
3779800,0,72.11093370946661
1349984,1,2.545737489751648
1741337,1,3.3189039959889475
1162193,1,5.262779005899679
3227463,1,1.046003746612553
352769,1,3.9712654960746723
3268732,1,2.7493417729817513
736491,1,4.667992394088784
3696131,0,13.258391594023204
3849113,0,24.122775466130804
3103569,1,3.8236844125046217
404642,1,2.7435205652916737
1603408,1,2.2774922707796117
3299093,1,1.5480145668043876
586376,0,1.8282379014304784
3850100,0,6.334252252583785
925968,1,1.4427410645873184
2239082,1,7.9516996094903964
1223904,0,7.172049490300777
3112755,1,5.365293685303337
670498,0,10.53430305142964
1483470,0,4.495811025935433
2454765,0,14.863433607253084
3535142,1,10.469933044577848
1293050,1,7.091175071565243
1156377,1,7.035819007168595
490434,0,4.456616696927118
305640,0,6.1217902206986645
431998,1,9.55604607525162
459631,0,7.017386991515031
1661909,0,10.834216498915563
2999986,1,9.197919896031516
2603727,1,5.2070264586175234
1271274,0,7.286305165784293
1840432,0,3.543424327096441
1560341,0,31.50543543277251
1450970,1,2.592042276136902
547985,1,5.463663251340395
1853029,0,11.52990267347627
2926418,0,16.99266653664632
1008938,1,2.541797255286308
2801300,1,4.368495308243106
2543873,1,2.371777775694516
3318066,1,1.142326480717149
1388216,1,5.809145325295669
410714,1,9.77870195165918
2874378,1,4.088364657152914
2482373,0,23.954262631246305
1365330,1,1.4005605385168627
437804,0,7.603532139195743
2111550,0,14.876012362986136
3034178,0,13.730714663571494
3308138,0,11.317009176562857
1380488,0,6.623978103141234
3183673,0,4.239423844952285
3762150,0,7.677597876252502
3680796,1,4.781733294868385
1170257,1,13.165603345901095
1888032,0,9.463264258804257
1632465,1,2.5197225517280635
3205799,1,4.309445546976552
3375077,0,1.748248324949896
934723,1,4.20220813525358
3704190,0,5.206012124630386
761588,0,6.997436672450197
403896,1,3.159129706329366
1753048,0,3.858292635617557
1486186,1,2.4370814065177973
1091861,0,11.233896269849408
3057834,1,7.05442786999752
3505501,0,4.566216984054488
3665545,1,2.388443312003773
3034348,1,2.693498325691
3319773,0,14.75866085270496
2182742,1,3.163643841201924
711378,0,11.675022517856421
1275673,1,1.5159467933629485
1952803,0,12.1474044760641
2265079,0,7.891998928866501
1231602,1,7.278896225223925
3889482,1,6.617638166746846
635855,1,2.4167251800816203
2150145,0,10.583203887375376
1886400,1,5.692573516635023
2623531,1,4.022244003180689
2276773,0,12.177670109826062
3188838,0,3.9336887577525426
1329512,0,8.597442421420702
210223,1,0.9684403792039837
1468049,1,1.3487090987095836
2609939,1,2.2662736639469085
1844497,1,3.640071496673439
2814196,0,16.023368651972483
510375,1,1.8162814369642049
2143469,1,2.5826435109465278
2481026,1,2.494140020900754
569267,0,10.571935982568545
2739358,0,23.56304641291445
3732416,1,1.7557297115330517
967024,0,13.810878599876947
3923233,1,14.680320828644549
737528,0,59.045663395428626
1293306,0,12.459996073823602
3108356,1,5.9310590209541925
2051413,0,44.688262876452505
1812899,1,2.6871608157827653
873131,1,2.175084980824657
3072065,1,1.3818555512615365
3237746,0,9.847434214776587
2252703,0,55.9601637607782
1513750,0,23.000412258663854
2772063,0,14.11866366423811
1624403,1,5.334033889714674
737373,0,19.80186776805243
2196168,0,2.1109654211703734
3071299,1,3.1728292778808957
1322965,1,2.9901824352890443
2001960,1,6.292693229288133
3710268,0,3.976572863424194
3407853,1,1.694864711844304
1126657,0,2.345852012996798
1238811,1,4.7085253514058385
445086,0,70.02168875818782
1156451,1,5.677818846905145
2877670,0,1.3730866925216867
3876037,0,20.54494826097248
3106970,0,4.4523077174555885
1206461,1,0.9063916595455628
689794,0,7.8508068557937625
386697,1,1.0921158125558903
1314648,0,9.607913314072453
476376,1,1.4304211946709615
2235221,1,0.6850324683719441
2486155,0,10.723714338204081
1344370,0,17.664356660065028
3192643,0,5.256371411302939
2420463,0,2.8665504603151164
1485649,1,6.379686401729463
2642128,1,1.9290658878433986
2154776,1,13.294963440195435
3048250,0,10.92225836449312
3184372,0,17.91688159598942
2464781,1,2.326494537894993
2024461,1,2.238611885416133
1635070,0,4.490809968500659
3490767,1,7.605324323905372
2439303,0,12.41199945160956
2006517,1,2.6446634986244524
3005952,1,6.699241130740972
1791301,0,6.4902125479381425
461293,0,5.422076591699378
2409330,0,6.260717773667216
1244790,1,7.828358621596592
2420858,1,6.18011761272431
229297,0,10.667323615848744
494507,0,3.9916023137555188
3481162,1,2.639393800661592
933767,0,8.442517533513112
3261783,0,15.749653773155115
2686972,0,3.061186970250752
1005983,0,5.361929881837019
807826,0,13.90416221553589
2752079,1,6.697339889303514
3419550,1,33.815624384457
3368074,1,6.004110587123296
405992,0,2.941802225961944
3013236,1,2.1889244116764695
2767632,1,3.598151053957002
1569692,0,5.542200317174951
1738707,1,2.4540828728476454
3464769,1,2.8421368331796186
298829,0,27.32822733781092
1039310,1,2.825233046998645
3360759,1,3.1372062007168426
2409080,0,13.410240983702165
2408231,0,40.855075996251664
3036308,1,2.0082689675469236
1987114,0,8.772989276742917
596575,0,6.319269511057795
538726,0,2.456653704456424
3178397,0,5.587742703253044
887791,1,2.824302066898335
3477719,1,11.312290306614662
3273991,0,23.475248704152385
861160,1,1.8126038276837992
317169,1,0.8597619197826276
254881,1,4.8646286947126764
1869764,1,5.222406526409961
724366,1,4.3496862544588355
1858139,0,15.255801110979908
2684267,1,3.28772351076946
2656267,1,10.848017019895632
3225760,0,8.42938381761284
2410217,0,3.869460954332591
2236558,1,3.6711026871693297
2621131,1,2.9669695456335905
3036941,0,1.86671417781687
3115465,1,1.1508532466646475
214233,1,2.035690423822926
1145974,0,9.16773811228345
2128587,1,5.151526363485418
1037968,1,10.69278360634308
274755,0,8.681451948416136
2198366,0,5.127466359577384
3339992,1,1.5216189814433223
2703273,1,5.442398575710914
3377977,0,26.928031771238153
410918,1,2.1081676792056414
3408372,1,4.698851666251691
1365162,0,6.286463816050757
3119249,1,1.1916338829789943
3489862,1,5.041295629129925
1419969,0,4.940690630591901
2281452,1,3.5970546598322155
2890022,1,3.1406513809105103
1246210,1,2.1969980491804204
3764806,1,3.4620715063473044
1855085,1,4.048442224174444
416622,0,20.11705586012398
3327026,1,3.1429478661517267
3712206,0,5.583866548388362
3465837,1,8.722200938446989
1168471,1,3.123209730419352
3415237,0,11.145924427535688
2499783,0,9.306109770152869
2768242,1,3.310339153426496
2845496,0,11.342860490004023
3911046,1,4.9598003134797075
3380030,1,3.2892322138944654
2649972,0,18.52718555721998
2848019,0,17.076593901501607
420123,0,11.745025045954458
3102047,1,4.55066785721523
274585,0,20.848454350127483
2195100,0,6.141455224681932
3391935,1,3.5796190979770564
1138253,1,1.0094316389006983
1666837,1,6.261822758178942
3489136,0,13.29398598177666
3759975,1,3.344407273067154
482999,0,4.328104873928202
1706827,1,1.3797636220124132
3239068,1,4.503706365336422
674416,1,1.397260837985403
2800003,1,2.1016154112356826
3265631,1,5.341595572053714
813130,1,3.2435241217121074
2552671,0,9.251472648181007
1442276,1,2.934819227249036
3468606,0,43.067080476861236
1520946,0,7.699625583544312
1636538,1,3.88164890467209
2218323,0,8.583087119732825
1375418,0,26.132666943007223
3479037,1,4.533736821935774
3695039,0,14.403909783216807
1223173,1,1.30827988679469
3093074,0,13.650671915474184
3849587,0,4.6390539242874285
370024,0,13.564013420228513
2744103,1,4.820414426843398
2535215,1,2.9730835321388307
2532363,1,1.6124420217685822
3547600,0,14.622068307466428
3479869,1,5.698284982775695
491687,0,47.46097164243211
643852,1,7.092668105005234
1767737,0,5.693461611682572
2916658,0,5.199747291071269
638488,1,2.6874676452884834
883740,1,4.070315038721784
2537823,0,1.646084405013081
1948843,1,2.02428340641739
2168038,1,4.801356711888964
1151163,0,22.23759160507067
3794979,0,12.697603993314901
1003926,1,6.848451108143146
3061831,1,1.3796671364562607
2901964,0,7.057321076853695
2703316,1,7.0925838868603455
952455,0,5.092963171583108
478208,0,7.321180718066156
1791274,0,8.942715618919014
3870772,0,17.749470789432955
1667596,1,3.4319112004842713
3520932,1,5.285930868659466
3460944,1,5.467921147695175
593908,1,1.6891700528448184
3741347,0,15.648367406610763
1610776,0,5.336938152287983
1409326,1,0.057551625849252885
535397,0,9.587353201642117
1819600,1,4.942252601919758
2272043,1,2.271337055640382
1681100,1,5.0370687349882965
2163763,1,1.7166962697428332
2188408,1,3.073908357408035
2749835,1,3.9092700807279828
3504441,0,15.314760913127042
915041,1,3.3955724550595727
3298504,1,4.879640020630002
476135,1,2.4088371109157696
2888793,0,18.393455942992986
382042,0,22.669614024472892
722731,0,52.32834011150018
2013032,1,1.3332923543986743
1209087,1,4.904215044924597
2278667,0,4.702395098904415
1470997,1,6.625612267261517
911913,0,34.431499866256004
2180972,0,3.468391854243064
936244,1,2.726324201243245
217844,0,11.426514359228378
3842454,1,10.036173586252383
2119569,0,63.43917360409553
3412940,0,6.941785894994284
1192009,0,1.0828120085242006
2214740,0,7.42871861238491
3009872,1,11.31068094779342
2803939,1,5.85463114712326
342376,0,9.251451056020505
3404630,1,5.479560723441777
1335945,1,5.688248736850939
1541771,0,8.06866035162005
1777159,1,6.031084400179754
2767389,0,10.417060297822841
2215663,1,1.8903542183557291
2445503,1,3.075382096699512
2583492,0,8.0046836306334
3886644,1,2.4918708012596986
2256409,1,2.194311236422028
3677791,1,3.9448040262032245
3494409,0,13.774719531649463
1268853,1,3.8870631967616993
3729218,0,7.279767385685655
2419848,0,7.682278325921557
2265256,1,3.0138923967412614
1088063,1,2.7193727104166685
943612,1,3.0906247944604592
3832201,1,2.619665503250655
3260033,1,3.6635649205638647
3696064,0,22.07161279642985
730479,0,7.455504912501358
3526588,0,14.762426464522932
3450844,0,7.403350863354429
2046155,1,2.9148010647598563
2231097,1,5.0292362433008035
1222204,0,10.392176640643891
956776,1,0.6664954317571274
1203250,0,11.814105225379402
1105731,0,31.529205786892668
1008311,0,13.579851505449636
1517127,0,12.749907476426506
1368151,0,32.393252723008274
1529531,0,9.447307143162321
2139429,0,4.205071394934678
2970520,0,10.071995223460599
3348709,0,15.903716145269883
3010228,1,1.1826703008913209
653205,0,9.127370144257313
2636289,1,0.9121919324765569
2616993,1,1.233208937335939
3791010,1,4.694908360988581
2789136,0,10.348740615853098
724961,1,5.783302207610439
1759631,1,6.327738856671626
1910894,0,9.549720849574925
306291,0,6.926715739703765
1486515,1,1.9098276076154554
1868560,1,0.9278023456037011
1091815,1,4.906470300192546
3915018,0,12.474990847141989
709369,0,7.840085427650028
1463700,1,7.954605128845974
395512,1,0.33799668072362266
325208,0,9.97440779271387
2248779,0,4.380717976671077
328987,1,10.916966209237428
1048815,1,2.6714544641549067
2829772,1,2.546827704668008
1536413,0,112.53286749270748
728618,1,4.755594401339988
3107862,1,10.47201972108502
2820822,1,2.3143643451610374
1643289,0,6.179056346446561
715863,1,2.0885258766879202
2855453,0,23.58073241581625
3176394,1,3.6028740098030356
1135989,1,3.8928351067564324
322060,0,9.22998209464702
3211441,1,0.7308282686830831
645808,1,6.5790254521832345
1811712,1,2.4641153208217585
3173014,0,26.951891258574943
569150,0,2.7863234786791797
1844338,0,11.059564828982666
2228581,0,7.859221552011618
823590,0,5.7442980806885275
1261326,0,11.676561368809281
1521208,0,8.546331367107078
2732436,0,42.52040889469643
2225144,0,14.698148119567458
2826749,0,8.955574608450112
1466240,0,5.888745192454444
3104607,1,2.114579481795941
1401004,1,2.779660985206143
2569563,0,8.101222627374597
541914,0,12.324248977218407
622570,1,4.131598264984742
1694702,1,3.7715066355276106
2121188,0,3.487969894040698
2638355,1,2.930348309164503
2048428,1,1.872045428047787
1819112,1,0.9890000246974511
