sample_id,z,y
924274,1,17.29142557245095
3103430,0,16.987255448674986
3216699,1,16.780961259647206
3927016,0,17.11662225940633
2677956,0,17.094351485202008
3435797,0,17.24846906056563
1624748,1,16.093818080443
3809837,0,17.143417152184334
1697475,1,18.720509157166962
2172968,1,17.260386704345304
1968866,1,18.228389691470912
1484132,0,17.614837777711994
1862890,1,18.015790464686354
3853024,0,17.038233109597268
3020021,0,17.653492447131274
508918,1,17.12205074000274
2720880,0,17.209092150560032
3918495,1,17.71559563069158
2709497,1,17.87370910085944
839537,1,17.843814010667856
3103829,1,16.856594851924136
3425702,0,17.3665611232956
725330,1,17.597234102426558
3953155,1,16.976123775195013
2548930,0,17.361793093318408
2616993,1,16.91477687818454
481858,1,16.933152712156346
3453466,0,17.84723514477473
3542048,1,17.235405934590716
2698683,0,17.160585177019367
2414269,0,17.646807923019285
1003331,1,16.954284378981125
729362,1,17.154534587479063
2927485,0,17.566183872793466
1198595,1,17.128521520348208
1706707,1,18.32625284750705
2184801,1,17.80568057144943
1568471,0,17.46462498569442
2225132,1,17.76960267665525
3089390,0,16.558745120655217
3541507,0,16.945935696632517
2126555,1,17.02412845609516
3541102,1,17.172349663466875
3140452,1,16.663180634126824
1400857,1,16.714302200090188
3757094,1,17.248524434560945
3780907,0,16.777660423733003
2688353,1,16.992309856475355
1903897,0,17.710596800782554
974718,1,17.15047331092515
521298,1,17.73469151802176
259178,0,18.003594491501822
2979176,0,17.22895196388512
2137319,1,16.942961366994925
2897446,1,17.21628648407732
231005,1,17.453342455702412
2802320,0,17.400281871913002
2275788,1,17.898420530749906
580726,1,16.74189205691559
1421545,1,17.419798227702987
1339906,1,17.051927192587485
2921383,1,17.305176043542566
1208085,0,16.973543903006835
1314431,1,16.768005709921898
3667728,0,16.682896892511586
3136188,0,17.543389779227667
1759327,0,17.2416120396999
2599599,0,17.596246328980065
2555881,0,17.66880757739082
332594,1,16.870992290999194
3732073,1,17.633962536693094
964930,0,17.659709036640145
686409,1,17.32125164332986
3091392,0,17.385306686846167
1286360,1,17.625882846691365
1638955,1,17.77902431985637
1460791,0,17.794990621004548
1868156,1,17.246289271802027
249772,0,17.576128154083307
3364059,1,16.99055058324225
1319638,0,17.538236577697276
1515422,0,17.825365378079603
2924114,0,17.59519982921669
255056,1,17.511016085518893
2886235,1,17.470656465468412
1474968,0,16.861305011822207
3875454,0,17.62793405942568
3503295,1,17.818767939001415
2996592,1,17.56512400784179
3319305,0,17.814441571955292
2118558,0,17.794570950263672
3215647,1,16.92500866954097
3303799,0,16.880005918571925
883043,0,17.136776840345192
1700906,1,19.268520244311944
3908977,1,16.242558441475307
338052,0,17.924832671391425
983438,0,17.620650764614783
3870460,0,17.75231711123318
3499979,1,17.546087533002858
734913,0,18.060215582504675
3759784,0,17.56266733951199
2131116,1,17.681398036553293
2116672,0,17.214425574000515
2617854,0,17.373445903704237
953107,1,17.250730916660427
713514,1,17.02271597067774
1496515,0,17.768105420173878
3288038,1,16.68299941782936
1130719,0,17.70114992934467
2164762,1,16.603338582635576
3334544,1,16.752067598957197
3018355,1,17.415013363729415
3099096,0,17.050580430664024
817012,1,18.086074959235805
1272493,1,17.370448006696606
1503396,1,18.015740700643907
2212723,1,17.384178770704136
3653113,0,17.405647999313935
836587,1,16.815146237344415
690964,1,17.836714811537572
2215084,0,17.103098983230115
3450308,0,17.666480155233028
2526832,0,16.998470075535263
2811268,1,17.59274191443207
528542,0,17.308087796127083
3740393,0,17.14512216048867
857720,1,17.797937855704408
2862053,0,17.463006443736074
3078555,1,16.974372137029977
2930720,0,17.98074291262077
605443,1,16.994011195615002
1144035,1,17.48660932830461
2016750,1,17.837543011883675
303405,0,17.288480212197793
3331803,0,17.238267868222042
3742920,0,17.66306717251014
3770012,1,17.35505434505926
861734,0,17.55023504392565
3835908,1,17.063559969516476
3208737,0,17.3202524877646
757187,0,17.34123183970048
2811706,0,17.594469388608342
1128937,1,17.712223785702356
1979792,1,18.221338452043014
2705474,0,17.061892762478923
3924156,1,17.320020466516166
1242388,1,17.101011507062537
3537628,1,16.673377311347043
1726972,0,17.661527420792908
2901162,1,17.254384334575814
3904568,1,17.03139292658111
1154447,0,18.012488269852565
635327,0,17.277335018508715
3530222,1,16.944349321104358
2560953,1,17.228161950011895
1486909,0,17.208775604142602
3742002,1,17.45703488922701
1739438,1,17.52558485394627
2025646,1,16.84953712357387
1755775,1,17.061359111561657
3098919,0,17.26873661407566
2689934,1,17.718529432439222
3678389,0,16.92310748640705
970172,1,17.74026458604051
1870389,0,17.667867239925414
1585660,1,17.692564488591312
2563936,0,17.48655884294398
265785,0,17.070816936896588
3697938,0,17.694879561159706
1224352,1,17.42056179245174
3671651,1,16.944458003375782
977018,1,16.9429530649731
1109280,1,17.215108863593013
1980910,1,18.506163541133954
3768748,1,17.080954684989475
1087608,1,16.697895517536814
3125714,0,17.135717227038747
2751309,1,16.97342103715679
1425792,1,17.681377668854257
1624534,0,17.283130601729383
2835427,0,17.233686363645315
2390656,0,17.367499717279095
1287402,0,17.334163191121206
421758,0,17.090257582305327
3686209,0,17.363225739819537
3728190,0,17.569998638590132
3125026,1,18.129773940359637
2479047,1,17.386512925527416
2410782,0,17.068529576514425
3375252,1,17.695938369979373
1971646,1,18.553077969456133
3121633,1,17.287113286088882
2278497,1,16.855012415962605
2484851,1,17.39734079735087
2518088,1,17.179521652158705
1622296,0,17.835600178193978
2411175,0,17.144702813037743
2944243,0,17.1373618033589
1249000,0,17.34320614794349
2504247,1,17.49701523360441
243302,1,16.568882672839216
3942968,1,17.263733882372396
3408400,1,16.96148002750173
1097952,1,17.165407739479104
3172489,1,17.09700229146253
3408622,1,16.870316924529966
2480913,0,17.39026667470691
3041798,1,17.313149761447036
456462,1,17.145925657531407
3865598,0,16.875697780667977
2629859,0,16.831248100299256
1764229,0,16.64585614144438
548119,0,17.65643467300959
2528949,0,18.01443679914952
1880306,0,18.161110091268615
2167456,0,16.834867439401435
3839777,0,17.121806626182188
3390189,0,17.567935384038343
2042031,1,17.605442628579187
747600,1,16.79631461926752
576525,0,16.66693379833628
838587,0,17.69126976798827
3686387,1,17.01530483224237
3097720,1,17.46793628594039
3518482,0,17.023906360348736
2975799,0,17.11247513130024
280336,0,17.155857103919246
2795896,0,17.46264309622117
3185246,1,16.966245339614357
637418,1,16.999281198671465
3179721,0,17.40157345365627
3377026,0,17.3291177238203
1271620,0,18.03350591360781
1427172,0,17.833982094705892
1315151,1,16.838609965376122
594309,1,17.661814221768832
3447660,0,17.29784421950913
2906144,0,17.474913212774545
1403483,1,17.825344194367652
2558128,0,16.932095745901012
2856308,0,17.029783831906798
235557,0,17.156212577136756
1838525,1,17.345442728371715
3740039,0,17.046800293687152
3939836,1,17.060875417523366
1748710,1,17.04903778468034
1388277,0,17.072000019743733
1069924,0,16.928936376386865
3010610,1,16.8524798711381
3709292,0,17.307820086799182
1950516,1,18.203031548454323
2748214,1,16.71759552271305
382249,1,17.959235205343756
403473,0,17.100999312691272
1234541,1,17.810054793827383
3801703,1,17.386281823666476
2934412,1,17.36382304381315
3879811,1,17.206308094729728
873399,0,16.549941239531364
2541316,0,16.982730671506406
1364927,1,17.01675546403841
1574067,1,17.698727877099337
2280578,1,16.889688600179124
1310777,1,17.763459745170817
753981,0,17.25468876731215
1783407,1,18.52921263047423
2583274,0,17.32487259962265
409779,1,17.464664623728368
1664206,1,18.83607536234767
1588917,1,17.293458789100413
675041,1,17.35725368611956
644436,0,17.620169532313344
3944783,1,17.296438692175986
2039656,1,17.363302725239432
1603755,0,17.306019571551317
1333775,0,17.332436222329193
2662473,1,16.5928532794662
3164158,1,18.12460492181357
950070,0,16.8680685498059
1446171,0,17.69200422800959
1081834,1,16.938181628295226
1660653,1,19.1554163363772
257698,1,17.2528990683839
1086917,1,17.34800651384765
1891399,1,17.4454577837181
2922558,0,17.66561947221481
3726097,0,17.05710809639705
2642488,0,16.842296676706667
708010,1,17.77478459727748
2793181,1,17.0746632303029
2193950,0,16.796152331136213
3158980,1,17.22316441061484
2978033,1,17.48842059774506
2135330,0,17.3847983697886
731424,1,17.792377326729664
2876808,1,17.002699358203227
1960080,1,18.323939771860687
3107277,1,17.185341998741567
2783238,0,16.650953211140568
3876549,1,17.160804684144182
361375,0,17.910863995177042
2898333,0,17.55720922915453
2255626,0,16.879172828511127
3351931,1,16.606818731030327
1526131,0,16.950886917535005
577389,1,16.75529252286772
495002,0,17.254951016372495
3035566,1,18.60835073912237
1320039,1,17.044202026330606
3531070,1,17.25578647409473
3026603,0,17.15935041964466
935984,1,17.37118238863322
214884,0,16.56848697515793
200084,0,16.81700802048083
1695347,1,19.073379746568403
2928389,1,18.084010073537346
2155512,0,17.070814704122554
2435285,1,18.031253193770613
2473365,0,17.28757222072302
3021327,0,17.815256077764992
549270,1,17.548766776057956
1912969,1,17.454473731705193
1200522,0,16.85374716130998
3959440,1,16.757247671756193
980877,1,17.163901250486592
1491447,0,17.56681898345996
565775,0,17.83050897325143
449333,0,17.665851908718803
3851820,1,17.075339216355058
2549147,1,17.106950443098317
3022708,0,17.20303320929581
3873669,1,17.53419590459563
3075311,0,17.29259370766021
3171464,0,17.453828997354915
1605194,1,17.28074068429476
1545008,0,17.248144494564766
2437513,1,16.97259539264665
3257157,0,17.58351710655172
381908,0,17.43021367105246
1013306,0,17.613430771496184
479835,0,17.68824665557401
1664252,0,17.05740145202462
2050141,1,16.765789750626805
1401118,0,17.717267488193762
3257532,0,16.93503774899777
429643,1,16.90570258360351
1770079,0,17.013197505831336
2980565,1,17.341297290116405
888394,1,17.563858530112174
2444157,0,16.96647769207959
2226340,1,17.097478733804657
662518,0,17.444326461461564
454797,1,16.907036982214475
630095,1,17.147462067580765
3367860,1,16.64889716958792
3759371,1,17.592492267730268
568775,1,17.151562387646806
890862,1,16.980405656916925
872701,0,17.46469278842321
1737925,1,17.48280443100395
2402317,1,16.9326647573734
2434834,0,17.375620039705584
3713015,0,17.914661661767745
714006,1,16.89589153768594
2572353,0,16.779753596623458
724738,1,17.44249448539962
814828,1,17.93812281511106
524662,1,17.466378906790187
826987,1,18.11308926459179
2059026,0,17.094116028974128
3548483,1,17.178825564479773
877202,1,16.908901338012086
1039769,1,17.12650269132306
257435,0,16.45074330936485
592603,0,17.696273876094395
266602,0,16.294304951820287
545681,0,16.899066855261587
1574118,0,17.610583516849545
863050,0,17.426999031442197
3335257,1,17.471483313830692
3038112,1,17.79100120547845
465929,0,17.953791643794517
1400552,0,17.54237694590832
1583561,1,17.57890264240322
652816,0,17.32551764955154
1687423,1,18.421369508133083
3928542,1,17.30304800048678
1029901,0,16.865486318976238
583269,1,16.483208921732377
1047585,1,16.813882375911895
2063774,1,17.75351390839381
1298473,1,17.429195957890258
2038933,1,17.081432974336522
588771,1,16.81650478980853
3869572,0,16.860844103329757
216296,1,17.344495326925408
3309703,0,16.96680236937376
2526171,0,16.301650857492096
3179987,1,16.769254789236452
862746,0,17.164153160221616
1540656,0,16.924784030439877
1338684,1,17.14007180917677
2864443,0,17.648436654014375
1593999,0,16.642125521050946
1465624,0,17.725310827859765
3416753,0,17.471418959570006
3362443,1,18.015101767019054
2872265,1,17.039845487967895
3713771,0,16.689539734309136
380638,0,17.197086631511468
3960092,0,16.954885867790104
2928093,1,17.186438699211582
2768636,0,17.1147850068109
1538322,1,17.36117949442554
3096842,1,17.211441986184013
1504753,1,17.200508977447623
2982467,0,17.321460984662192
1105703,0,17.56876410145637
1335123,0,16.639118704656116
505822,0,17.185813312027978
3380543,0,17.616799181854994
2925657,0,16.72897985238534
2707835,1,17.400491872003787
884230,0,17.219870322499325
3100074,1,18.72377301453678
2794645,1,17.190391442731915
3106101,0,17.20040029751066
1339388,0,17.060307570428673
3939968,1,17.642023760646094
277242,1,17.23924739793471
3189099,0,17.766699385280816
673531,0,17.051936469416447
3080802,0,17.062757969320014
1208927,1,17.62920131552342
3255610,1,18.021741275113776
331876,1,17.130472930474223
3739757,1,17.429306364568497
1396172,1,17.768001234035715
3057870,0,17.012272838449633
553875,0,17.11101352385303
295930,1,17.43429472322178
451831,1,17.57149412920481
2413465,0,17.088699564664164
2863121,1,16.962445103988347
2272914,0,17.669477283213137
2948262,1,16.718239274238517
3220880,1,16.889138122531744
2282641,1,17.346114418870624
458755,1,17.827207003092216
972355,1,17.287822714229247
861163,1,16.982068332503317
2791560,0,17.07359265590683
2199877,0,17.388626175902303
2773319,1,17.33117343427594
3775961,1,16.96154952706604
2241637,0,17.51105212502176
979506,0,17.46902024844942
244365,0,17.236366968872428
720317,1,17.819741057338046
1114252,1,17.079202211022753
3172433,1,17.708361904708326
1998856,0,17.532125826316644
1072832,0,17.37879222434455
1482945,0,17.77073242642265
1482349,0,17.036710520100222
563897,1,16.8959937566986
593767,0,17.620526947266075
1642378,0,17.437687701307254
2504186,0,17.034047904663797
522802,1,17.14064130118821
3110789,1,16.89468024149253
2629750,1,16.655272244589067
1742869,1,17.674912296617507
3042728,0,16.945897812439284
3424841,0,17.267330124593773
1889419,0,16.94981722463959
2649133,0,17.55919932311827
2772024,0,17.464812123975573
3688212,0,17.218018255894947
1949064,1,18.511743319428874
3388364,1,16.680090047611557
2124224,0,16.871358935135827
1539032,1,17.74822042311632
2122253,0,17.93598682403028
969567,0,17.16907695259225
2627575,0,17.102912734466884
3295226,1,17.59519388615596
3206858,0,17.160033606155434
3525054,1,17.792573342617278
223079,1,17.345900577154516
1292798,0,17.17477320126229
1273262,0,17.647598719314207
3388062,1,16.809436401155626
978604,0,17.147900902703313
1093427,0,17.134292134102207
281714,1,17.316795689376136
3508952,0,16.729777779348638
2714131,0,17.16934204536169
1547554,1,17.658922491966546
3411778,1,17.272771746675552
3851657,1,17.243601215177634
2722993,1,17.384749038169943
2777724,1,17.24836086614233
3461822,0,16.92002382225373
424713,1,18.05412662054631
3161898,0,16.764144071528925
1270105,1,16.648173245543767
2011307,0,18.094508214132915
2473475,0,17.181536842227725
1524594,1,17.28391119948278
3313795,1,17.38829077461266
707541,0,17.53354501200291
2150851,0,16.754564137042866
653573,0,17.62889893765451
1870272,0,16.844924598283857
371049,0,16.970197014278227
3888551,1,16.93586974118557
1784845,0,16.94154035951565
1637169,1,16.770453986375536
3527997,1,16.945072064853868
2822202,1,17.680648142519154
1912036,0,16.845636292515696
982938,1,16.91392643852479
1935330,1,18.761421635524865
263074,1,17.53380194365859
2201037,0,17.695039636782447
305802,0,16.952333722493428
1417865,1,17.862149864597395
269327,0,17.146650034565432
1287540,1,17.319759281799257
3045646,1,17.234806130715846
3399773,0,17.685322662553364
2565226,1,17.37919428945434
2632286,1,17.40277259314932
1040984,0,17.57683927596603
3409771,1,17.662302887960927
1197950,0,16.902472105820944
2826396,1,17.861964193189984
3803441,0,17.48423699205315
528164,1,17.52204891927974
2229526,1,17.751490563122072
1576201,0,17.18859107069251
3466796,1,17.06625723816992
2885487,1,16.90292631149047
2211074,1,16.952731646063917
1645295,0,17.03251822128679
436099,1,17.7086530400715
835499,0,16.97734271039469
2752116,0,17.804607880616135
420659,0,17.279528993151164
3169749,1,17.190230824339434
1291840,1,17.61114665097654
3409178,1,17.54149901966242
1594633,1,17.266045621681243
2476889,0,17.66220214841298
3320370,0,16.8271996339173
980592,1,17.000612323368863
2236558,1,17.418857265919403
2740705,1,17.091612086661975
3261043,0,17.055807214788693
2909354,0,17.07660010215444
3366142,1,17.79359280324898
2451052,1,17.447043974709477
922399,0,17.32854574103174
1449869,0,16.927390980300235
3708315,1,17.183459524860545
3343183,1,16.845006925217106
2445944,0,17.90404432836229
1791167,0,17.419780398506877
611019,1,17.62353231159525
3448610,1,17.240802643448053
2874492,1,17.19235847342946
1099238,0,16.75841675750737
2655606,1,16.989443047147557
3095355,0,17.275719844749258
3257125,1,17.189393881332496
1368708,1,17.461454895863163
3473850,1,17.48895306029402
3068032,1,16.94562509397554
2256740,1,17.050577652769647
2740385,0,17.331333608668473
2558535,1,17.312239690715256
3041941,0,17.633097481119968
2889524,0,17.463374280609575
2669005,1,17.480469102040956
1676586,1,18.540532789619643
1504828,0,17.48982413450045
2252758,0,17.85219604433909
2169699,1,17.959491681496974
415120,1,17.353449546218958
3936960,0,17.684751864157732
430644,1,16.933763028542447
802987,0,17.437687714611364
1454150,1,17.250384371990126
2418477,0,17.29679451730829
1671581,1,18.563701966690573
3733173,0,17.310157730810012
1847639,1,17.269065618566465
921974,0,17.61193917826662
2433942,0,17.634025609737346
287604,0,17.523380664490997
1761952,0,17.827679092002885
2036739,0,17.38164734904247
3048820,0,17.764422689518426
709867,1,17.624368396456926
627641,0,17.925595614325076
3440884,1,16.846265255935197
469911,0,17.555926102834952
504064,1,17.419023890798396
758714,1,17.245308173557156
3219038,1,16.99843442033296
638612,1,17.185214862225006
962176,0,17.345198422824904
597610,1,17.16509952754864
842144,0,17.116384726616584
1897932,1,16.770872151225955
3026736,0,16.775787746232663
2639090,1,17.403936712944212
582223,0,17.17290929883291
3043220,0,17.25469961575403
2234674,0,16.93242397367343
2693567,1,16.985728688287185
422202,0,17.162658732046953
1822025,0,16.77395357487734
1666421,1,17.565474448802767
3416146,1,17.097267339901666
2562314,0,16.90621794852896
1890290,0,17.697715285733207
1256808,0,17.2515943735671
3098935,0,16.69903255682017
3177439,0,16.47502621840941
3401204,1,17.580260584652112
2686877,0,17.577659703766823
489053,0,16.792357129125175
1025893,1,17.333949789555454
3748165,0,16.90518810684197
3898734,0,17.79354959515935
496518,1,17.346480052491803
1710604,1,18.466786334208994
2218266,0,17.340448617528704
3859849,1,17.428525838086028
3687148,1,17.22081789086125
881729,1,16.6229319977087
3181178,0,17.178900040159263
3480898,1,17.642148887748853
2674079,0,17.055325373523225
3086203,0,16.981701286821803
1166435,1,17.15063712032704
1975318,1,18.483220650076962
1019899,1,17.187312204325647
2414827,0,16.225915806701686
1672595,1,18.04192683561381
2467711,0,17.242032132149923
1749156,0,17.158455133519602
3265024,0,17.67597083860925
3536299,1,17.485492209617057
2632976,0,16.741747935187774
1989176,1,17.310295839441505
235252,0,17.455739528871998
1481135,1,17.54417381985456
748175,0,17.288124502221553
2664257,1,17.44923046577358
2642286,1,17.159142063121294
863295,1,17.306328584330462
2863683,1,17.220122990302265
3785768,1,17.476671195026917
2554152,0,17.12801607005974
1412549,1,17.39959977879533
2763960,1,17.218148488374403
3158256,0,16.55104993486045
1769175,0,17.003548394956734
1500566,1,17.251060205523004
1319305,1,17.482908091739787
1193912,1,17.49710167573752
1230019,0,17.538155768193818
1108483,0,16.980530102914166
978253,0,16.78454482104238
3546047,0,17.094345340105754
2142348,0,17.640076786703343
2176729,1,17.366507317216506
2838968,0,17.440754743462172
3116392,1,17.322333902014698
1313961,0,18.190683778738272
1660390,1,16.574670761389637
741425,1,17.217890969691663
3143406,1,17.102291558374027
469513,0,17.504444105278377
1480463,0,16.866902869968687
1368546,0,16.800333058402153
1232111,0,17.34084400402218
1577656,1,16.893878533508285
1534978,0,17.43559225679202
1422373,1,16.80480163046571
2803851,1,17.287398984809286
1841918,1,17.730622832966617
1129868,1,17.406670701585412
578862,1,17.05354941691275
823858,1,18.240222147255107
3335621,0,17.622482783231565
3166748,1,17.16231852923327
244391,0,16.987537087832383
716068,0,17.110767150681056
1150354,0,17.572057711521648
2732253,0,17.568298296498103
3137017,1,16.739158999721994
855116,1,17.378358433095322
1978645,1,17.74783972144728
2857648,1,17.06738549508013
3652594,0,17.778536760296735
358928,0,17.320019625548994
600125,0,18.014882623759778
989997,1,17.15200227266615
1642059,1,17.313483969085816
540164,0,16.99085506966356
2427466,1,17.570342474911147
1889103,0,17.321782828130676
1226801,1,17.221593677514818
1437723,0,16.97920640745164
1096299,0,17.337334924865775
2587802,1,16.38005512390731
1254676,1,17.378508032475022
3002644,1,17.134122785652508
3457313,0,17.439550118498346
806077,1,18.57680126195518
646360,0,17.265930305798566
3776886,0,17.861618851022204
383272,0,17.466810797331462
374551,1,17.37089578218478
2933413,1,16.796894718731295
1271865,1,17.37957631020952
864232,0,17.15500849496838
2224462,0,16.52716301938413
1980479,0,17.506586359033435
2680708,0,17.467057671252118
1903681,0,17.322754320187958
3180957,0,16.841124198428023
1770499,0,17.262784788823375
2536557,0,17.207981192194474
1704195,1,18.027413427367375
642884,0,16.656127985002062
2220470,0,17.421687251893275
2658532,0,17.136649734177208
3187822,1,17.0783959425742
3410317,1,17.206517171519515
2849583,1,17.057823972598133
956745,0,17.372346478207582
1789753,0,17.42397074684403
3223585,1,17.77878054242434
2182886,0,17.371357620619747
646311,1,17.30163388737472
657751,0,17.00055984698677
2208507,0,17.323958283311768
1946896,1,18.395478138846173
3348216,0,17.15777910415251
475119,0,17.38777788511692
2037762,0,17.518658424556023
2014523,0,17.350628049559475
2184590,0,17.157065358622283
3939064,0,16.614160469936376
554461,0,17.091188629943815
1974580,1,19.089878925253377
936495,0,17.040278535622793
625651,0,17.282459961553336
448830,0,16.759296094357488
1553512,0,17.37656806845332
757812,0,17.240454390861245
3184890,0,17.64865879623188
3462216,0,17.596891776249926
3936641,1,17.602547479995028
2979620,0,17.482836776581387
3862623,0,17.227019665167823
3043768,0,17.0932352307873
1056903,1,17.923510433747527
1642221,0,17.558549834911105
374719,0,17.445585295902546
294949,0,18.05460070555699
3806187,0,17.167893159413676
252456,0,18.309357508088606
1748454,1,17.250835231879524
2671756,0,16.654630269378362
363494,1,17.980408436989883
371699,1,17.06532208908386
3942235,1,17.293506189168767
1563933,1,17.245810366732535
3472993,1,17.36145752431487
1008519,1,17.605164415310192
1266909,1,17.56256312421415
1728838,0,17.094981707281722
1392140,0,16.95052286596805
3744386,0,17.020342512347742
3695050,0,17.32579239554596
366410,0,17.052196974366137
1255123,0,17.403983382048597
2433003,1,17.745210214631165
3164889,1,16.90106563819826
443562,1,17.473591754486897
1262738,1,16.518836468578584
293554,0,17.076884260595104
2626583,0,17.09678489427784
1511525,0,16.973948102814727
494357,0,17.30017323159816
3027802,1,18.749691084393092
3675735,0,17.078841079731077
2237733,0,17.41931307155627
410459,0,17.03223761222138
3214794,1,16.995885665643108
3145295,0,17.42735059693948
1033080,1,17.30723709607402
1627884,1,17.2797434915641
3776513,0,16.992223232416194
929410,1,16.58881819915063
1434761,1,17.272250269768353
1064354,1,16.952787465695465
1943456,1,18.99159045334736
1873812,0,17.443888551268568
217028,1,17.016494899967327
287519,0,16.819423177209003
2196753,1,17.079900054338523
432465,0,17.2179577542038
1092368,0,17.83772690392821
842710,0,17.667134120712365
2197279,0,17.24524992538021
2726155,0,17.945944566448606
1009609,1,16.74007178475425
575121,1,17.10868306805442
2286118,0,16.63527167998
2408092,1,16.714514458973458
915041,0,17.60584657856844
2173704,1,16.782758636370662
1124037,1,17.405956274644705
2228681,1,17.524001575025643
718168,0,17.269928289699692
2405710,1,17.43580954200578
3312127,1,17.27941254912403
2669187,1,17.621420021231845
2689172,0,17.589587034838686
1253661,1,17.171038919399447
835956,1,17.604048789341768
3023306,1,17.44853541418583
207198,0,17.825836351873434
3367308,0,17.195111068678393
747507,1,17.105527761863318
2462141,1,17.572394819990784
1116030,1,16.554108902214157
1527380,1,17.298511659632467
1246019,1,17.154943523157446
3347481,1,17.16091466510312
2582000,0,16.50221212570093
3533710,0,17.528195233569864
470599,0,17.501829689942575
559536,1,17.295917650466773
3176340,1,17.400846254820145
3760902,1,17.019712212230885
461293,0,16.482948260179377
1248936,0,17.01873345526139
1684803,1,18.325586527863997
3917222,0,16.834391439055427
1137709,0,18.050422843251507
878647,0,17.440532232187863
1617769,1,16.998009572082086
510215,0,17.387885640960913
609668,1,17.26225935849975
1306737,1,17.593563877718434
3497007,1,17.257646013995732
2514725,1,17.664801709324976
3138437,0,17.092826174242532
2500789,1,17.140192580495825
2026532,1,16.939548238676608
2629543,0,17.72607323908452
545662,0,17.001201058235328
2753520,1,17.34697304154696
1870911,0,17.05343835327242
1047992,0,17.319717996543474
1018800,1,17.595419176749818
2869911,0,17.57255536809852
1814921,0,16.879951775348616
2019541,0,17.24787586066989
3333494,0,17.58460400024652
3259129,0,16.7476129538709
2504512,1,17.881852589409878
1069333,1,17.299633577475753
744644,1,17.721372702393253
872847,1,17.649003419837026
2881661,0,17.1067954167816
2034001,1,17.224897626679464
3657499,0,17.894299601725933
2702757,0,17.09834836382177
365504,1,17.643938529591235
3113896,1,17.484673931781757
1724440,0,16.816423204306304
1958774,1,18.335521431445475
1506396,1,17.024287878494373
1892736,0,16.908361826087425
2167245,1,17.525361591248398
3740686,0,16.880358768961276
3502288,0,17.992642395787446
1024326,0,16.781965148385
632578,0,16.945935654645922
2586653,1,17.56975627221608
535328,0,17.322355217123274
803353,1,18.87661688781313
1171201,1,17.477361475950463
310784,1,16.993025990383302
197588,1,17.18167388555487
527378,0,17.28776369957453
3753839,0,17.059942536191272
3714280,1,17.14306865882233
2037543,1,17.74046772852443
2620122,1,17.661131283704478
1479133,1,17.39301226188852
3297502,0,18.150356650545028
949778,0,17.123867374149793
3453660,1,17.33297761337304
602126,1,17.391990708287288
3249176,1,16.612342157069975
3467549,0,17.255289456444952
3538491,0,17.333277621339526
2518083,1,17.725120408066832
1348102,1,17.807835782647714
937454,1,16.956885409612504
2988701,1,18.02436417250881
211128,1,17.731522991103166
3472415,1,16.863718157864238
3757939,1,17.635017597583943
601537,0,17.004089222539026
3129321,1,17.490034397125847
1914905,1,17.638424131634174
3071424,0,17.107888506574785
2965031,1,16.917476274330454
3528136,1,17.384854393358122
1151584,0,16.85734506789742
2112814,0,17.267439900584158
3462900,1,16.949574309551426
1329744,1,17.037166748138596
690522,0,16.89760166523592
512888,0,17.39600339181949
3202186,1,17.25175328045823
1614120,1,16.906728717560068
3527517,1,17.524343169081632
984122,0,16.89695506714628
2171607,0,17.05702411434682
503981,0,17.907680789047625
689442,0,17.072007506931516
2927159,1,16.708498571121332
961356,1,17.190819452270624
1268853,0,16.685091432895877
3358537,0,16.883655664445726
663502,1,17.283376247570757
1999608,0,17.904733968630982
415804,1,17.52918474951838
1146074,1,17.18640532636084
3454757,0,17.372785622220068
1504547,1,17.396064997519584
2669779,1,17.31103414879007
974366,1,17.554747933614898
1334762,0,17.66990933295258
1679771,1,18.78620717702617
2464678,0,18.026770201079483
2791828,0,16.827066752554025
3790012,0,17.15008765440457
487620,0,17.93228593776397
961170,0,17.090163134643326
1520678,1,17.03054147900343
1060488,1,17.672334902517353
2522166,0,17.35806839023111
212799,0,17.675266765121016
3292883,0,17.499268129927273
2823760,0,16.630586828975066
1366753,1,17.849244051750564
1487839,0,17.253110412112367
2566854,0,16.633926726554325
3793472,1,17.103948211732
491428,1,17.398005793156003
1942846,1,19.06214867076654
3744451,1,17.039606358663804
263281,0,17.66710574488192
1348054,0,16.991510023995026
3744515,0,17.181331958514576
1385211,1,17.42514613967535
581069,1,17.591279715020452
1644055,0,17.16373928215179
2683582,1,16.85794812194603
2852893,1,17.23650805920839
245320,0,17.143424594934277
3455404,0,16.824992853500458
3264451,0,17.301603772608036
3699446,1,17.396241151105585
697917,1,17.636672934276856
1495340,1,16.8013589232915
1819418,0,17.139882809341497
2002181,1,17.54153233257229
2035305,0,17.892916457321125
1194785,0,16.42717229087559
1569949,0,17.204367722834082
3767328,0,16.796008249405176
2198090,0,17.675468445900123
3876172,1,17.332519831570767
1333037,1,17.674259797472306
2161299,1,17.620513562855187
2879550,0,16.920127571047423
3666158,0,17.00186607886737
3897855,0,17.046149067454447
1529005,1,17.724862898079756
3135240,1,16.831428624893285
2759513,1,17.521941705340602
2938533,1,17.84621359233859
3260672,1,16.417750927975987
305384,0,17.123161492087934
1023347,1,17.438643373520726
3256956,0,17.684738171001968
842023,1,17.95415153723917
2883453,1,17.29077706427044
2008280,1,16.71981723445515
436816,1,17.523897457296364
1936733,1,18.39098472269784
469464,1,16.78761321558917
2654992,1,17.40859220807306
630190,1,16.714499276817637
2851290,0,16.946209989460726
1047694,0,16.68842243301691
824511,1,18.28157596734869
1824845,1,16.97683256595247
3770711,0,16.974000735752185
3497841,0,16.89337737021186
1147770,0,17.19327361513956
406358,1,17.492932439592273
1331159,0,17.222246417184763
621709,0,17.481662720554663
2495044,1,17.338492287246165
1934780,1,18.664072614328838
590340,1,19.046604777070446
2537064,1,17.18167239643462
3545237,1,16.85674738946733
1817435,1,17.490838368102242
3944728,0,17.20287156241303
2447258,0,18.015847125528403
2986872,0,17.434885108633274
466364,0,17.52569143105997
3784640,1,16.566906878335253
1354627,1,17.08000977212402
983811,0,17.47053211239949
884236,0,16.646481441846785
694663,1,17.451345673303674
2281443,1,17.211355539611663
2644871,0,17.71973600102403
1945909,1,17.80488471478642
2277052,0,17.607138057048417
1411124,1,17.088224768699742
2672951,1,16.995308608176288
1298012,1,16.75950348108602
2180325,1,17.387060404876255
3493333,0,17.258317300788512
3388324,0,17.510165701296554
661373,0,17.061982455237093
3488879,0,16.852275769455094
1421702,0,17.497577030230154
3714774,0,16.867680530461655
1044735,0,17.23875433406229
3411478,1,17.13832321929828
3893422,0,17.06602515933558
1424389,0,17.273601658864937
3018173,1,18.41022748652917
1788210,0,17.634093829663712
1906758,0,17.467639037975975
3874188,1,17.821764984431272
3730439,0,17.010020925413407
1464306,1,17.185551703422025
482932,1,17.543705518684394
3057552,0,17.216190605191994
3471757,1,16.796485160984915
655348,0,16.500284416936566
1698500,1,18.50753703315638
2924710,0,17.753043180238173
398809,1,17.62580018247645
3908929,1,17.699248082007514
2933037,1,16.829492542077894
1030886,1,17.338325146129893
476852,0,17.89858736640239
3101564,0,17.405605046659947
1736680,1,16.782000927342605
971341,0,17.31418140009729
2431458,1,16.852284279336786
1958132,1,18.703121384018733
3056601,0,17.289626356103597
1044446,1,17.20796782301841
759831,0,17.286980583640425
1396837,0,17.298493989917443
2030709,0,17.06233286327422
3670173,1,17.448369102125838
1808267,1,17.48107688942881
1464876,0,17.35009586995404
1631718,0,17.532249500929137
1446351,1,17.372577665155436
1396572,0,16.955262215235432
3866499,0,17.16243397403741
705892,1,17.26100057653731
3718524,0,17.63277866224662
2132949,0,16.78522753529236
367550,0,16.855440125866195
3231855,0,17.342842806062972
3278679,0,17.02788912864292
1102473,1,17.50295123351768
3176220,1,17.02970749466132
2055700,0,17.776593401951857
2997309,0,17.00115579736439
235174,1,17.297830375503942
1046061,0,17.43054406138904
3373839,0,16.902000742072723
758608,1,17.66563155182209
2874636,1,16.652846120048668
2879240,1,16.82593269880219
1858726,1,17.075558287844363
2614345,0,16.945967804751383
2975505,1,17.38794455420809
1077060,1,16.759986084917504
3959300,0,17.284722485699447
3898739,1,16.96764464835216
665982,1,17.204494902691692
3779694,1,16.51531412773197
678963,0,17.316071664586858
3833159,0,17.044127283701744
2710583,0,17.080204592509293
3851345,0,17.320976273883705
1569855,1,17.430040451552273
1962199,1,18.542581993175393
689916,0,17.180819766280987
2878273,0,17.43373468105314
2234226,0,17.036003245540815
1557477,1,17.539425111771255
362763,0,16.40040049279748
641429,1,17.548680930906038
1265719,1,17.100382730154873
1696083,1,18.901192022068862
633465,0,17.4966464449971
214941,1,17.688439234718942
1334362,1,17.251252264580618
2669410,0,17.26895431597386
1321041,0,17.464669545638127
1122336,1,17.44112832265474
1873817,0,16.660413419945296
3455587,1,17.266060175430752
3799070,0,17.695125749101944
2699203,0,16.87305252366625
3089382,0,17.209970169179606
3945078,1,18.0463999965328
2154057,1,17.13705763508298
3669215,0,17.514379991037153
3477999,0,17.309325994633422
756882,1,17.387905906573707
1709132,1,19.035267664031952
2618565,1,17.438002236454214
2187255,1,17.150512153420078
3465543,0,17.149508826280563
3855731,1,17.618832574187117
2914723,1,17.67439206583739
290871,1,17.5262757574281
449913,0,17.419189437911147
2942368,1,17.496305848080368
3732521,0,18.285821041159917
2852498,1,17.45507409447119
987183,0,17.798593246008014
3314827,0,17.17077884306781
2886825,0,17.519261975666936
559539,1,17.438867956323577
513152,0,17.741086826804448
3105880,1,17.628934023466254
3960293,1,17.433653310068845
2635001,1,17.422737084784508
1511764,1,16.976006153128697
506064,1,16.989992141768823
2142863,0,18.03132398848802
1664940,0,18.843054400911978
1413413,1,16.890134838063958
1002202,0,16.53719564827562
2840999,0,17.714492672179766
2027227,1,16.996941402274533
485183,0,16.959381046963255
1228873,1,16.81272667295482
2843850,0,17.501515797964565
2897171,1,17.668528181150222
1897870,0,17.27839603547912
1633707,1,17.385438163776982
2692303,0,17.61336674567918
1264652,1,17.32028567212769
3335881,1,17.26309416035633
3020815,0,17.36730879592431
1081517,0,17.243990035415745
3762159,1,17.56471150108888
3225201,0,17.938709975063983
1764838,0,17.50793664926366
1502680,1,17.048333601352947
345255,1,17.86958299503099
3321068,0,16.87684543582821
1966977,1,18.08823727808147
3048818,1,17.053509424029468
2465282,0,17.296197786427513
1569243,0,17.660713735005338
680503,1,16.57956929750382
2240729,0,16.448928506306174
569980,1,17.595662095313916
1717658,1,18.46312296486786
2912635,0,16.89363048079347
3110231,1,17.15329377390803
1898025,1,17.23536584796083
2602828,0,17.37464858781392
3957300,0,16.825826420431653
1669799,1,17.772846361931624
2144207,1,16.75131783060227
655568,0,17.599284743992268
1345337,1,16.86763321772564
2970804,1,17.574964444897322
3304720,1,17.139134363885947
3037491,1,18.513654965003145
2062455,1,18.007170870739785
1204918,0,17.854415117284162
3505276,1,17.326124880034087
3081449,0,17.012064043501823
2854549,0,17.077302492012397
3292754,0,17.696786422482752
1825689,1,17.014862020940424
2553405,1,16.39107248332252
2197278,0,16.519666060739617
2579771,1,17.462040495012232
1276619,0,17.57337264508317
479646,1,17.5286801204307
3912908,0,17.040491089586904
2646198,1,16.750453564295924
606321,1,17.062721356321227
324544,0,16.488431382239117
3750753,1,17.900088510816467
3872832,0,17.072205858394444
289238,0,17.956885328245598
1266952,1,17.100974156302357
1479115,0,17.322097154986327
3004823,1,17.092420390833247
2260680,1,17.088947577751224
3234814,1,17.26849558737732
386602,1,17.1783217916123
2128598,1,17.1125596438692
1582856,1,17.276295025443954
1340886,1,17.217159368547556
1549861,1,17.275936086451413
2696857,1,17.113708390762138
1863530,1,17.781507248130165
3306803,1,16.757781004401625
3471760,1,16.72667773119222
2491027,1,17.018755517467383
1230600,0,17.247151516108143
2654694,0,17.738506860697672
817704,1,18.0975028943704
1445131,1,17.179338308567505
1844934,1,17.216014978181025
1859444,0,17.37374995493977
3148839,1,17.436308453822026
2554984,0,17.786541942784343
483602,0,17.397935961577133
2972157,1,17.267113401625892
3957875,1,17.713584459230013
3327835,0,17.41461407802458
580787,1,16.72217859992124
727750,1,17.28778686745188
629922,0,17.272345760534787
478299,0,16.93741075906006
1908375,0,17.4500520863285
3001645,0,17.101777681984277
741471,1,16.84244795892195
1892400,0,17.19557314419292
3462648,0,17.263973767537514
3417693,1,16.817869745427906
3720000,0,17.013202451151745
338718,0,17.464233183784874
1115442,1,17.519066213989873
494881,0,17.834324737918063
1743840,1,17.60874726346146
2498781,1,17.152311876763587
2615462,0,17.661663424536844
3910324,0,17.479588296894722
2668596,1,18.06811756492901
3732201,0,17.62488193260659
1277047,1,17.795557554388523
3294450,0,17.001315055914876
2764392,1,16.44592729885019
2966354,0,16.496265303279518
392725,1,16.936609914223784
1826208,1,17.062267955921588
332619,0,17.737030484229095
1162063,1,17.12223468680347
452283,0,17.584346806153686
927440,1,16.84297600425069
1093656,0,16.70940571095307
365720,0,17.337129614786207
1947419,1,17.937107784899936
3320590,0,17.36370033763938
330706,0,17.288011173631592
1875213,1,17.65303124453857
1107713,0,17.08880417568109
1902895,1,17.4700262213637
1216760,1,17.649550357643257
982841,1,16.90428496810889
3745685,1,17.177393543235244
2159739,0,18.040834180616677
251028,0,17.14252074914513
3724695,1,17.195653545305397
313771,1,16.841191938962865
606448,0,17.917887294269836
2511953,1,17.33605113523631
1093866,1,16.775094745021974
3069587,1,16.612043605756156
2403443,1,17.57305577000327
1615848,1,17.337338677495396
2174725,1,17.07986891218937
2397444,1,16.865296855346003
3332510,1,17.22058518303838
3783937,0,17.07569384973619
2875389,1,17.67562703913815
2015355,0,17.279724775653563
1759875,1,17.370876729990147
1758121,0,17.11147942443262
1860254,0,16.63654007140927
345676,0,17.662082958179884
2998304,0,17.10272035587091
706453,1,16.60961638500797
279310,0,16.869519871849512
443868,1,17.835446441666576
2635283,0,17.26424001722868
1460210,1,17.284259719020383
1896875,0,17.065412195411678
3767707,0,17.42830345159682
2135574,1,17.511556840515482
856758,0,17.04362151335368
3873150,1,17.0657551337166
3426631,1,17.253834692927004
2764201,0,17.021831452584117
2153865,0,18.147063987726675
379523,1,17.361746306836462
3414564,1,17.345199484819673
1302175,1,17.84131166567625
2866534,0,16.64768872756649
1518431,1,17.452173693700402
2679024,1,16.891906446012833
3259706,1,16.783148387641788
3782410,0,17.146233728417748
1259538,0,17.065082206586837
3658822,0,17.081949313779052
1303621,0,17.223368703331186
1463801,1,17.096158145466745
2057249,1,17.01889307990965
449360,0,16.999883507619888
3359063,0,17.366380714141883
1272813,0,17.597217841887016
3084888,0,17.266899576376282
1551405,0,17.362567528457134
1508248,0,16.920301440765176
2488492,1,17.627143331606245
1743040,1,17.16590169937168
3311311,1,17.021458145071193
3847890,1,17.51660921992092
3099801,1,17.16609467058519
2539384,0,17.41848656896669
1375801,1,17.14568851991217
1811119,1,17.055996310118704
869266,0,16.726825619765478
607532,1,17.697289324834433
1961002,1,18.292950550394806
2106369,1,16.986973652733457
3710015,0,17.38080270167959
3424467,1,16.18781337748021
2144552,1,17.691380342763374
551208,0,17.41538484275584
1045533,0,17.522105601347956
2623982,1,16.938042870496165
3235022,0,17.18681258588839
2931198,0,16.945818682761626
2526633,0,16.889199741856864
2001757,1,17.153753793558177
1482991,0,16.693105320242136
2604982,1,16.596801257823635
414927,1,17.216692176148197
3653582,0,17.318996352736878
3313356,0,17.572377715423617
2006146,0,16.76001988253045
479227,0,17.794574068423973
1728783,1,17.344409293241316
1403563,0,16.94749723930671
1170053,0,17.49840841814419
1278480,0,17.106106625284074
1617568,1,17.2807240979594
2626624,0,17.8509956480822
292091,0,16.597215695328806
1237354,0,17.145791113210397
2637373,0,17.222408006345635
3470090,1,16.66316555299345
1671661,1,18.583052393804447
1705388,0,18.620603104643752
1544472,0,17.422393024713774
3749124,0,17.729317253709475
501926,1,17.51715265319805
1972692,1,17.93957749088245
1046681,1,17.10356298588588
409442,0,16.8661625883396
1235777,1,17.00938278354429
3191521,1,18.344015180544286
490259,0,16.642636885036065
3008766,1,17.159413572918268
292381,1,17.11516858603744
1588445,1,17.732441674745786
362461,0,17.202792432794855
2721918,1,17.13042186619235
3296672,0,16.726199167116885
1389756,1,17.17383335423393
3499978,0,17.390066505565326
209348,0,17.435402244464225
311683,0,17.208840315618556
3911134,0,16.90216084196797
3331409,1,17.35935345417407
1120269,1,17.511104207456487
3349643,1,16.986034912306227
3236723,1,16.951915125611627
2261088,0,17.309980699573686
2132672,1,17.443205400817114
372063,0,16.847283747712197
810808,0,17.274629778074836
338191,0,17.68088759075962
3910454,0,17.620090078925948
1570944,0,17.709343153154784
2287059,1,17.182098646823093
1970972,1,18.42433127648099
2941907,0,17.404487496193
2527307,1,16.962231741597424
573520,1,17.777293087020727
3118931,1,17.430013382547948
994990,0,17.651251405929983
1153737,1,17.389910624846493
2428639,0,17.342238676807025
3522019,1,17.437141059278243
699306,1,17.045948644454906
442836,0,17.814480122031913
692474,0,16.4725183408497
682458,0,17.042803581322797
407429,1,17.329196237241433
1642347,1,17.29016146909349
733911,0,17.444115426544492
1412742,0,18.11728029747567
305353,1,17.54635493228647
3098908,0,17.573009938329264
1302516,0,16.98967801257601
1155592,0,17.650987109247385
214943,0,16.934920643865517
3278268,1,16.93276547541435
475464,1,17.756048815829583
731647,1,17.025728241436855
3744538,0,17.82550161327869
3441042,0,17.526348354472102
2987324,1,16.623466331077307
3477798,0,17.173920589188974
1873819,1,16.50860596047352
271294,1,18.013456174643743
2790215,0,17.282435205828676
1237824,1,17.190149267040557
600723,0,17.628363659601217
2683354,1,17.219819780239277
3399568,0,17.10409429004306
3200711,1,17.06920080554479
3304754,1,17.542661745730637
2109815,1,16.65175664972276
1077686,1,18.326802262216237
2804703,0,17.68116435809656
618981,0,17.041222826802244
2128248,0,17.218562739280518
1793816,1,17.121828477324833
3885558,0,16.876463366596628
1088389,0,17.448697107014922
2488530,0,17.199619888271407
898234,1,17.263305497750093
2670919,0,17.280644578469136
2796335,0,17.39527606843869
3127904,1,17.54381219747283
2651653,1,17.13088693684308
2733807,0,17.69468976809043
418244,1,17.437510619459296
2925097,0,17.030884359959018
3424632,1,17.544343629256772
840215,0,17.04768045952957
2487614,1,17.61534145137595
2427182,1,18.156223822360595
3440111,1,16.859927410037844
1990852,1,17.750131082257703
1544261,0,17.461747903620388
2672953,1,17.621932451343906
221399,0,17.120898645739565
2198580,0,17.653254200039175
731366,1,17.28717415287659
628843,0,17.65317579904058
751081,0,17.30998439543275
1678619,1,18.384126064373163
3312185,1,17.446025157992317
3746714,1,16.56599658540828
1881647,1,17.060170135147338
1383322,0,17.03879351480342
3436844,0,17.355962319997204
3224143,1,17.115095587608693
3700564,1,17.15204185812237
3296941,1,17.625889088802772
3911903,1,16.92112800663415
3532456,0,17.63551010376049
586140,1,17.517454284245368
3311717,0,17.764237592923962
3145397,1,17.48788034258088
977726,0,16.98456405639284
2419254,0,17.278594804229606
1778254,1,16.99037453200124
2670892,0,17.836435482020047
2874378,1,16.706913675803687
2623796,1,18.150807399033933
828557,0,17.47920381581737
2727015,1,17.429646195839833
317803,1,17.363155708967366
2062957,1,17.212814011229366
2178007,1,17.171233873292476
1236233,1,16.53496106780747
1810466,1,17.411995535717043
1115947,0,17.509626647745097
1462708,1,17.339490181669095
968243,1,17.520490561721864
3143593,0,17.297622179630785
2850624,1,17.52249441444999
441470,0,17.41046833360404
1455797,1,17.090898439258396
1851228,0,17.06064253651717
805071,0,16.762148058695054
1998122,1,17.24302789178882
1240700,1,17.675482595807683
2940747,1,17.589803076475288
2501891,0,16.921742004364056
3737272,0,17.051795294535797
2974238,0,16.925793618580567
1412967,0,17.494331524984492
3454824,0,17.085962325900052
514114,0,17.483413466809925
1728282,0,16.20852221086132
3798728,0,17.414858402072305
380497,1,17.423099397486887
932962,1,16.928236680097633
3443376,0,17.562923681451576
1809294,0,17.337139824935953
1284413,1,16.744532342751388
473204,1,17.180453297538268
335091,0,17.13871670549671
2156734,1,16.67016555060617
977432,1,17.446489693921905
3683648,0,17.442278279237396
1063396,0,17.30655434493463
1540767,0,18.274511125166278
3435957,1,17.22257649419098
2676103,1,17.286035445499557
3428676,1,17.43079985415098
2647759,0,17.41577802455394
3937655,1,17.391286537369798
3081234,0,17.080325257145724
2144844,0,17.635466975897387
1514800,0,17.146323267243403
832145,0,17.483141937031338
864691,0,17.831796753027827
285536,1,16.5719673432205
725673,1,17.01271335458962
933185,1,17.443390267418952
3227294,1,17.68467217929146
2011474,0,17.687467924424062
2662081,0,16.924626402556925
1350417,1,16.875338970659637
2937200,1,16.934393877061037
3265078,0,16.68493736146873
294573,1,17.205404901509603
1286403,1,17.39577890873209
2864228,1,17.018202880401823
650428,0,16.791644392897286
3912001,0,17.578360068304118
1103710,0,17.80290651118431
1645401,1,16.685963266296525
976168,0,17.475968894115237
3908579,1,17.30188342282806
3952748,0,16.594378552124134
3908572,1,17.094795373094176
2842765,0,17.453069030178334
2893494,1,17.180501573573586
3183522,1,17.4444352274454
1439132,1,17.3412934173339
492162,0,17.122385402726092
3804961,1,17.575961843158854
1406424,0,17.53311665986229
585856,0,17.387562405948714
943051,0,17.27215800668301
1785177,0,17.490633633761934
2475468,1,17.27339761454324
195102,1,17.105007641190582
1258148,1,17.336045341426807
2870359,0,17.659765018486844
1852611,0,17.29485657540367
2509545,1,17.03976896091446
486106,0,17.459991761750242
1527935,1,17.525516913524758
2408120,0,17.176177663395457
1086258,0,17.39629164618767
2410558,0,17.806308999398492
1109286,0,17.679550915520128
1311713,1,17.193982164032317
3951874,1,17.304200267492497
401774,1,17.66407503068126
838454,1,17.16069271964177
2496184,0,17.303521475267548
2046456,0,17.12569105352636
2671889,1,16.651696050074207
698502,0,17.530055234566227
3299046,0,17.385441873984092
1209992,0,17.057503392869943
648088,0,17.09537437615065
2857235,1,17.954201406935134
824162,1,17.82317954950698
2921666,0,17.10178593632019
3377241,1,17.412895328132844
3370552,1,17.299398812104386
2481339,1,17.107777239001184
3694479,1,17.070357486230584
339508,1,16.99154949682274
3114260,1,17.4151454000444
1387731,0,17.488844269949276
1419243,0,16.850690801610206
3340307,0,16.969186370477015
3751452,0,17.008014921853174
3092526,0,17.568065272282997
2130841,0,16.65984472736576
946322,1,17.064010291185323
3264482,0,17.429145401572423
3183110,1,17.47657394095548
914760,0,17.897936560654387
246945,1,17.835038514090105
2854266,0,17.318562902457494
1298346,1,17.010407702649854
2789851,0,17.822273759577634
392551,0,17.58046770554608
277992,1,17.058383452814102
3210687,0,17.37989415141239
3477582,1,17.419729833256735
3726253,0,17.447874351866606
993157,1,18.09307605836461
2548694,1,17.52535870935173
3108320,1,17.008373197833713
3659029,1,16.912129872147705
1857501,0,17.69510766779099
2151249,0,16.644207869629696
1898184,1,16.69410613580794
225391,1,16.578570993832646
3152638,1,17.58031910521234
3157483,1,17.24623948090792
2740068,1,17.39265508266078
2214324,1,17.15995736831099
222249,0,17.177338605197658
2705664,1,16.80211219631999
661376,0,17.55128534767731
533633,0,18.133533247511064
985379,0,17.15803659122272
923683,0,17.270902195070317
1714301,1,18.225599871507434
3271111,1,17.34018221521974
619954,0,17.493768962620305
1461365,1,17.24648640667176
3095204,0,16.87146682475187
870475,0,17.853713134860037
1915709,1,17.34137564492734
1327857,1,16.854985479843222
2026406,0,18.22066545718629
881402,0,17.85224448422286
2133193,1,17.34379266838763
693607,0,17.423215403173696
2183427,0,17.0639448956449
3084271,1,17.668845649539403
1581246,1,16.58467839691135
930736,1,18.02379821972371
3715447,0,17.828756783332885
361642,1,17.151836130165727
331626,1,17.08297999126113
1146394,1,17.9707734807676
1874648,1,16.339162287133625
3932772,0,17.199233731415188
2835124,1,17.075465912494124
3443691,1,17.0761444724332
1889624,0,18.132052933643383
522578,0,17.45233216769246
1592204,1,16.545704459417184
418818,1,17.58366762357048
2712777,0,17.38728454584682
2638880,1,17.760305032156293
1444014,0,17.227564214246335
3855215,1,17.191484067014155
2438794,1,17.36274410530418
838809,1,17.587317795107836
3742449,0,17.80861779565675
2844987,0,16.868772591773
1381437,0,17.009332432206065
3254821,1,17.71943158716617
2429212,1,16.89678583528126
3695244,1,16.960468058154426
2736466,0,17.861430991202738
2450504,1,16.16618801961409
1012141,0,17.488432616039226
3511231,0,17.02944098891881
1824127,1,17.04857330483591
1358077,0,16.35075924929242
2519943,1,17.251651047999577
259893,0,17.258186166471997
2485551,0,17.05153612197201
3369349,1,18.49922752549182
1100806,0,17.707683129761502
2116293,0,17.50905812293601
1344797,1,16.485126378546454
2502965,0,17.941656144607478
1157559,1,18.689119431751553
1086009,1,17.14992268903015
3767510,0,16.621126861871872
3490539,1,17.157157688224153
1706038,1,18.684051555635182
412876,1,16.945664987198956
1461259,1,17.03924341336762
3025242,1,17.905955342617013
2266528,0,17.061271970009035
1419026,0,17.790078278893716
419841,1,17.0312404979782
2039029,1,17.477468804055043
2659077,0,17.08776441889318
1811458,1,16.833233722008785
2207672,1,17.778387254308786
3177635,0,16.967006805902308
1775805,0,17.407918170142477
2800496,1,17.160313807887615
1955986,0,18.730101787559725
3273800,1,17.585748224236546
252787,0,17.094892126382877
2743995,1,17.18852724094026
3441840,1,18.653721014058128
3398599,1,17.28333590610339
2945487,0,17.29526228823051
1482449,1,17.174679793714567
1591455,0,16.81322601649706
953102,0,17.37408511763949
947041,0,17.31647853430681
973482,0,16.702276666339234
1502495,0,17.363407253879057
503929,1,17.291268264977546
1148210,0,17.733369307445695
2484372,1,17.651836104018987
1524262,1,17.35606209649492
2285641,0,17.868728503824254
1028843,1,17.6334638622726
1289032,1,16.85719769926104
2928386,1,17.362347612298898
3408589,0,16.458478415733545
1444323,0,17.404271272191433
2561113,1,17.807519051467715
422142,1,17.437043781063096
3845637,0,17.972787149570138
3066670,0,17.36187417885575
2702445,1,17.351594166861464
501032,1,17.521780507164816
954195,0,17.215619418539646
2995577,1,17.37895709149468
3866786,0,18.420219137835833
2163040,0,17.038892349612485
2618669,0,17.068465397596352
1850453,0,16.756347784791274
1838442,1,17.46921014638372
1064612,0,17.2726901643297
2474616,1,17.477169310234316
1529122,0,16.86934185055626
335370,1,17.460058155628378
3247228,0,16.68542693675384
2809737,0,16.742661627629662
300585,1,17.254249646567974
1614591,1,17.030912838768458
3073880,1,17.399601681939608
2580420,1,17.371653653414633
3500569,0,17.131016215760155
2257678,0,17.392854174260435
1596876,0,17.233261143552568
232458,0,16.823262457404166
1495756,0,17.07967461402457
3921124,0,16.954259405447218
2727592,1,17.473349910976633
2048906,0,17.105694230832423
1888585,0,16.44081878577884
2248357,0,17.416548676521852
291863,0,16.433556054229893
3785438,1,17.139274079561595
2218197,0,16.75128310471402
3455558,0,16.928792129815665
2989270,0,16.92010094874349
2178250,0,17.547971759923236
3533960,0,17.438237242717253
2416041,0,17.094960139888954
1820524,1,18.437681245096993
1239032,1,17.687428932259923
1209744,0,17.206068527339237
1483216,0,17.071955438899035
326405,1,17.35627937516797
681325,1,16.91486258804799
3664277,0,17.44312455828197
3832723,1,16.890201175279167
3277587,0,16.856500358528912
3293555,1,16.927738586830312
1254383,0,17.52312065849506
1913230,0,17.26045410993981
283883,0,17.565032608318806
3518351,1,17.3510599116125
2918128,0,16.979144141655304
3203263,1,17.07901235219968
415045,1,17.391764549792608
694274,1,17.614034921523913
311038,1,17.85019233669195
472043,1,17.965266191213672
1388500,0,17.45719003999781
2909704,1,16.959965637751804
2042791,0,17.05026791075621
3111465,0,17.249252764816266
216669,1,16.709869605768123
3090117,1,17.447757718180625
2271792,0,17.064076814188645
741843,1,17.167587825525448
2821385,0,17.77529053916873
2609325,1,17.878048539226903
448661,1,16.862098723841545
1885792,1,16.760388702906706
391709,1,17.556567929774285
2915487,0,17.016580039233844
2974117,0,17.76451685632767
2200450,0,17.408103986360345
2825608,0,17.74664105801791
3530374,0,17.042727418711223
2846760,0,17.119783318980396
2695201,0,17.901882823256113
2439356,0,17.29162683065974
2899693,1,17.534112251019522
382809,0,16.650851024083813
1397215,1,16.808520291308977
2512757,1,16.8549242012621
1014753,0,17.31053861623394
2033906,0,17.454080036424074
296625,0,17.521777697868917
2908849,0,17.253004358367612
2051759,1,17.304964220616878
1193673,0,17.259028579381795
900888,1,17.22502954005519
1786423,1,17.249494694070126
1267310,1,17.61156134573956
3121476,0,17.4935424778863
2987833,1,16.957436758304265
3354338,1,17.565506036715323
1263650,1,17.639069505133765
2505169,1,17.515048727403975
277413,1,17.165274194112456
2256822,1,16.880474570823534
309444,1,17.14731751775113
1424970,1,17.085042802689255
3952310,0,17.19131974850065
1506510,1,17.144456682366915
1990807,1,17.12042916434113
3960732,0,16.574714047812414
1732421,1,17.527274533549367
524824,1,17.34627031301284
2537202,0,17.305131189956466
500134,0,17.411038055844873
2704767,0,17.383189596005337
681525,0,17.029724986837017
936168,1,17.020974179990937
1743027,1,18.65569718069711
918250,0,16.84160451612086
901292,1,17.71135303142015
1394235,0,16.47283373913551
1864147,0,17.23659708007898
729240,1,17.31697861778762
3164078,1,16.873980179573692
3922793,1,16.978866974856253
345230,1,18.379824465394925
1444467,0,17.83234522010025
1895971,0,17.15235721632916
2019698,1,16.871828001839678
1394457,0,17.601410139865113
1767026,1,17.695758011643363
3332349,1,17.272071188517767
371337,0,17.574039040867444
1147216,1,17.570698057596125
3376715,0,17.333235062205578
3441194,0,17.248058295783018
1987567,1,18.210802544626073
3892923,0,17.005700620253222
878868,0,17.36490520001199
509971,0,17.325726207234304
1910468,1,17.42505866720935
647550,1,17.404913573749525
1708690,1,18.320230050156802
1154642,1,17.252807190825674
1157357,1,17.07669559609133
259291,1,16.58027761374655
3330613,1,16.89849604981917
1081801,0,17.126177319183185
556828,1,16.59367519415461
1681352,1,18.707235957784874
3175944,0,17.31470333498052
1950034,1,18.56314848312017
3427195,0,17.811931884813724
213092,1,17.0163286698462
1351743,1,17.57037971752884
3862297,1,17.228782798828355
305472,1,17.399996020450686
558801,1,16.723459854739186
3878903,0,17.811945297797728
1408270,1,17.220140385785182
3716775,1,17.3497172635154
2900129,0,16.975385691232628
2445340,0,17.121223591422464
2614720,0,17.120650893222823
3016602,0,17.440006988332097
1484024,1,17.642470467140274
3204318,1,16.886577787941757
832225,1,17.99419945321742
404952,1,17.423599011069093
2472342,1,17.350036474035363
3138756,0,16.906979347198703
339802,1,17.004290018208472
1681727,1,17.95733992368879
1916625,1,16.925259939668628
3469597,1,16.980090374029103
1455872,0,16.480864992218134
2834288,0,17.0075130162962
1634552,1,17.600474628874704
2555681,0,17.750202778971335
1347549,1,17.4441671720389
2768760,0,17.13049211771742
3445056,1,17.55223565827204
2495730,0,17.608314281823986
2110930,0,18.097697915275802
1808139,1,16.864748393968128
1614753,0,17.581665187677835
3207325,1,17.20197670668121
984880,1,16.99151667318679
410414,1,18.178616551092
3685404,0,17.2070894338116
2820158,1,16.79971504955704
2608365,0,17.85405780863546
880653,1,17.051308226031423
2933461,1,18.351962570267045
3528637,0,18.00829072214702
2448874,1,17.271825844518453
2540952,1,17.72219562096799
1373661,1,16.787111643193317
3368411,0,16.93506926479188
569437,0,17.293063780276317
381870,1,16.749245282065615
1888882,1,16.901560239791035
718757,0,17.111519430607093
3777131,1,18.006640048938344
3177080,0,17.892862236713526
3905367,1,17.48392793673908
3303330,1,17.095218450396256
3887483,1,16.938036834405768
3380528,0,16.91635524888163
2474120,1,17.471238146630903
224017,0,17.691035803350058
1750319,0,17.380547123805524
2175000,0,17.089433239282528
1222811,0,17.30680200165832
2197514,0,17.73017470301534
3443441,0,16.802556743040864
727478,0,17.918461383125514
3480189,1,17.174876439883214
1693846,1,18.39340721211082
3313818,0,17.035830015895595
1603408,1,17.47190858210317
2037107,1,17.836639108781874
1614704,0,17.780521727585803
3662514,1,17.28396377672847
2403200,1,17.44810133152488
3166262,0,17.220082195600227
1891719,0,17.124070790104543
1497403,0,17.2487293651145
352145,0,17.353634675221034
218088,0,17.13826616428108
1395962,0,16.874503916685768
2449139,0,18.210477323135695
1041091,1,17.53038451524022
1606841,0,17.377643330478055
1218913,0,16.93814451669489
2514481,0,17.55509262084357
1741492,1,17.86741909435809
436512,1,17.241523455690697
2434705,0,17.19360529467444
2603141,1,17.231670008981798
398393,1,16.724239525693264
531041,0,17.01599111695536
3896395,1,16.390330467931523
1055186,0,17.321025364066223
2142954,0,17.82327543521019
989175,1,18.57358017712593
2494631,1,17.892797920636806
683535,0,16.921116374962438
3887485,0,17.030317193458206
3361074,1,17.53423147508415
1983093,1,18.85839211407267
1160161,1,17.18485004100056
2638608,0,17.661000213903097
3132978,0,17.50046030444155
2652972,1,17.207763530860646
2167824,0,17.04384676646093
2891524,0,17.33304319509973
330686,1,17.441623628045335
2452174,1,17.142987855356328
1835292,0,17.336017724474402
2798277,0,17.902311183757213
3213083,1,18.317298316162976
686944,0,17.51894749309306
590774,0,16.477522487632243
2441890,0,16.98663852377886
2499868,1,17.245957148656753
420737,0,17.375828405777202
3215924,0,17.346252749505112
3779544,1,16.80555084973029
1876872,0,17.66178552679264
1960310,1,18.633310397330437
342317,0,17.26901491103867
734505,0,17.576736394826597
2577359,1,17.768355000444423
1146694,0,17.116308846146964
2520493,1,17.471540154390684
3797607,0,17.28889880408442
3711967,0,16.956650982972192
742209,0,17.160458777646827
749731,0,17.08367528232829
368916,0,17.173872480578527
1889679,0,17.077139330773846
3666972,0,17.31740016763076
1171981,1,16.86354722698596
1967704,1,18.761668161485222
3048858,0,17.54900493235693
1225001,1,17.555780169128198
1535001,0,16.81845006929549
3654303,1,17.390509360955303
2778005,0,16.952859851140794
470659,0,17.316867233943395
294937,1,17.712417449540972
1210356,1,16.747427570821472
3152831,1,17.56574080440625
690260,1,17.582216842578923
3491787,0,17.291792926355036
1551943,1,17.426053354544372
3053432,0,17.358456902210566
1441559,1,16.682762573008922
1243303,0,17.635327107296874
447822,1,16.925281675707286
690583,0,17.169934862301833
1774801,0,17.475455776415057
1608483,1,17.42570295329949
1878711,1,16.492497397882868
978094,1,17.625903405014405
2694054,1,17.46964254246222
1192320,1,16.238653540845593
2479299,1,16.70944023079346
2887235,0,17.486344173897816
2118300,1,17.160036111563294
339803,1,17.552829478763357
2137481,1,17.3733947385763
266300,0,17.7550207895859
3953106,0,17.78663644640067
3698505,1,17.783770146284105
802103,1,17.812592240303644
1011020,1,17.040608946417183
2772775,0,17.503783642617666
2500393,0,17.04724123088517
544185,1,17.096396335294227
1054592,0,17.261494627637344
2511656,0,17.307355407290736
2462804,0,17.072494791774684
2560123,0,17.08060875241603
3931399,0,17.317189334732422
1954110,1,18.48566756205256
3184379,0,17.472743133492568
433034,1,17.073719952060536
3039470,0,17.18193369324639
1322260,1,17.45894994031038
2528342,1,16.85468961406059
1401079,0,17.05721952768504
3320026,1,16.619247438775357
2902461,0,17.590432236931697
3849170,1,17.129813722493772
2130306,0,16.74783689888282
716701,1,17.283347819512827
663994,1,17.80355369884771
1661517,1,18.09169263656582
956875,0,17.039991643521144
1360311,0,17.423484065799894
3941205,0,16.9780241138586
2925267,0,17.08956245030678
1072756,0,16.73339670938154
3665143,1,16.238300457861346
1742805,0,16.84883491904171
1014154,1,17.877029502375514
1063555,1,17.011952505619288
2461987,0,17.862309600395882
1055671,1,17.476076904852047
535113,0,16.90194796826203
1406135,1,16.96977722402975
3841167,1,16.93694795530963
1462280,0,17.66295159624515
1062149,1,16.72826905983874
671034,1,17.723002231529293
1685487,1,18.5171580754778
3848928,0,16.886258027823956
1637819,1,16.67411003019454
1660329,1,18.342422149037297
3442352,1,17.296026317020402
2113133,0,16.784007714869276
872129,1,17.13682042100562
3711659,1,17.293535099693187
3138549,0,16.608469296896086
221619,0,16.75924043869442
2189060,1,17.350699764920343
2169631,0,16.91618761444117
3372181,1,17.168299387147687
3108158,1,17.252794827722884
1429146,1,16.99039108813801
1821115,0,16.934176368802586
1035957,1,17.55740827615324
3359088,0,16.793501326288336
1623922,0,17.31526632054312
605497,0,17.489122218724983
379602,1,17.11398838406159
2805472,1,17.73549485940211
1021567,1,17.055181735173704
1465796,1,17.052035575208325
1282950,1,17.629433653394265
382868,1,16.895911761997883
2186218,0,17.42412351236207
2868498,1,17.098442390226708
3909640,1,17.6951619760434
3184279,0,17.6341421945399
3686972,0,17.18709434795572
1547894,1,17.131407328898824
435723,0,17.502845036717932
879211,1,17.457173412304172
3042482,1,17.376496038678788
1366208,1,17.07564719652851
2212885,0,18.12361819136755
2594047,0,16.919397991160388
509612,0,17.561555211191692
380886,0,17.069596984659455
3461740,1,17.3212506118491
509635,1,16.87166458786901
2485642,1,17.21788347258105
3169642,0,17.454908556907572
1197043,0,16.883995035611065
1907539,0,17.09209510485258
304518,1,16.846354272962635
3272275,0,17.053170484226374
1432441,0,16.679281144027456
2466722,1,17.13345496587057
3747574,1,17.180100766652153
396617,1,17.09606915822734
301796,0,17.146813625850946
3468700,0,17.20193701205089
2623346,1,17.05876980649592
2397653,1,17.304013206908618
432206,0,17.28441803550239
2150484,0,17.304330099326375
1775928,0,16.889064474731413
1336136,0,16.929145913183063
1829959,0,17.39272139753501
1064275,0,17.124392228795536
3874282,1,17.100478670790054
3137242,1,17.02163702553225
3219056,0,17.370898218372496
2013853,0,17.89256525422291
1211590,0,17.55050486200666
2530916,1,17.36581893050557
2539282,1,16.88645267041708
982635,0,17.550937671911527
284273,0,17.40816439666999
517548,1,17.472012400599112
1599863,0,17.86665264217026
1122729,0,17.36947288095676
2272258,1,17.391987150150023
570994,0,17.07611703491867
1893893,0,17.044736248544137
2131080,1,17.289737246347773
1099817,1,16.598962421031523
588766,0,17.570846661665158
1378068,0,17.60716510008173
2471377,0,17.009789494007386
2442900,0,17.598099890266468
3019682,1,17.41757863803077
1992128,1,17.200931311998865
1375906,1,17.55661634105611
1000404,0,17.292575743032394
351995,1,16.540352828529894
1039796,1,17.718808070472296
867569,1,18.03364893449087
1554558,1,17.332359098294805
695085,1,18.039641496162133
860022,0,16.743907048674778
3658725,0,17.8318901326744
2897204,0,17.33463796383146
3942046,0,17.304143002245688
1376169,0,17.52165658746234
1563721,0,16.934286075215354
1788697,1,17.474785180422977
1689988,1,18.47009714419377
3042010,0,17.285764554726118
837225,1,17.189749837200722
718340,0,17.136027745786475
1917014,0,17.794411183407103
740936,1,17.53743028881711
2206835,0,17.611797508415414
2409161,1,17.308816908247945
750387,1,17.120505900207053
3043871,1,16.601553312955794
3781296,0,17.262297167917637
2027229,0,17.83065306746065
1213768,0,17.155618868408308
2564045,1,16.754693888333193
1465049,0,17.22644988020834
1203113,1,17.757759519224695
437270,0,17.37953722446348
1161810,0,16.809807316080185
2115667,0,17.271858084697907
3537793,1,17.74329485442102
1848751,1,17.33019895549745
3837706,1,18.050421104597927
3779361,1,17.147402045162625
258743,0,17.806024714717328
3956567,1,17.4062412274714
1373459,1,17.324706618451973
536139,1,16.772978978888272
2847644,0,17.78732932384861
2587840,1,16.939831944518172
3185460,1,17.329153797024002
1468320,1,17.12722154001597
1333843,0,16.803208770312306
508494,1,17.512724345893012
2458906,1,17.389171315254195
1902929,1,17.719250452500173
592440,1,17.058323068197367
1001316,0,17.549313915064438
3855781,1,17.58468165520497
3876578,0,17.266126501495734
2753092,0,17.44292844402126
1525268,0,18.11109433438883
1967512,1,18.445127627490887
3271818,1,16.973539604093112
2727900,0,17.101787872304797
1109662,1,17.6102654573501
1428538,0,17.049262685868925
681791,0,16.672723933106067
204938,0,16.63619171758705
636287,0,16.251613309994227
593550,0,17.18023260918062
3417297,1,17.38603144927804
900097,0,17.644895073817757
1911156,0,16.954976325753343
1567472,1,17.656143741899427
1936463,1,18.24655582933534
1584486,1,17.193876476418488
563616,1,16.942985535522695
3832800,0,16.819558957045764
508013,0,17.50253242700173
3467452,1,17.82970545197947
3433693,0,17.35608639597904
3957488,1,17.60738108237269
863330,0,16.91601197254519
3909424,0,17.410452192005394
1640078,1,16.977349968857805
3938067,0,17.121520409903525
3387448,1,17.557807231305283
1912552,1,17.308584509341966
3136315,0,16.969337364884268
3100425,0,16.844699036732596
315144,1,17.512709533875977
3831712,0,18.110943690500118
1137914,1,17.050866316232725
3789648,1,17.360528390026673
1626680,1,17.306192781611742
1689175,1,18.769577310822186
829886,1,16.827415633929537
2931208,0,17.647143039762636
3132918,0,17.014274671971144
340267,1,16.91115139079742
2443464,0,16.867651985353085
3681195,0,17.50905771033151
3692191,0,17.13175369466187
1713852,0,18.635359881945167
3831867,1,16.92512361598092
1792045,1,16.83383300970799
2237847,1,16.51402216190215
430828,1,17.714159717986142
3225806,1,17.607914741548512
206652,1,17.39616260060496
1953670,1,17.67926353177077
2037754,1,17.585515576604976
1791769,1,18.690540970532876
2642007,1,17.77588450881721
3293228,0,17.062916835438664
614317,1,17.078904533850494
242546,0,16.729359936246606
496395,0,16.811423901845583
558775,0,17.171867969507037
2570457,0,17.4454701149346
1718085,1,19.050286209249403
2519205,1,17.26553189149066
2114339,1,17.794809271068285
3394702,0,17.729592987429598
3472848,0,16.53274828885534
1591466,0,17.172003571684122
3079393,0,16.79759820909995
3139559,0,17.101510223734458
1667418,1,18.91205630881963
2997416,0,17.2383928976027
3482368,1,17.499079814117223
1305471,0,17.566770447575696
3789632,0,16.410409339652432
2448891,1,17.296098824755877
2244408,1,18.432216425628734
3005952,1,17.36158876368245
3663803,0,17.954448631343034
2513528,1,17.464248512490812
3770415,1,17.04249640175008
1622134,0,17.5183758427444
832545,1,17.703779121782606
1084511,0,17.189382718987083
282864,0,17.821882527777653
2010405,1,16.37305798445891
965687,0,16.85618610374593
1561464,0,17.460960973378526
420942,0,16.71101753093133
3286955,1,16.93294535012009
3224976,0,17.159887169157585
1327955,0,17.333857415425815
724728,1,17.477925565563343
490810,0,16.923071415193863
624287,0,16.915483053021028
2816705,0,17.866421738153193
303282,1,17.05702467455816
1433415,0,16.98486218858896
2835954,0,16.859059242398402
3038262,0,17.464462674941263
1094992,0,17.365316917693264
2736039,0,17.668222697286346
1240495,1,17.03075425569775
2646299,0,17.43170526650812
983979,1,17.123344479411355
3185195,1,17.43759783464458
3488550,1,18.82303953868176
2478537,1,17.177175297436534
1501221,1,17.004522932759645
428162,0,17.402620550984633
1318865,0,17.62312892333083
3454107,1,17.250755471582814
3449801,1,17.09939037639316
251571,0,17.368301893821563
1280711,1,17.319962119314894
814553,1,19.068996164226522
2683471,0,17.877526381282276
282441,1,17.173491248684744
1951088,1,18.232249113882762
320105,0,16.822923308352458
3182396,1,16.923775856271384
3213590,1,17.1249038438277
2446250,1,17.079833408789483
396138,0,16.97536187648337
3507419,1,17.14243702355841
833476,1,17.173850293379274
1830582,1,17.309366446350307
2585556,0,16.786735458233
2826421,1,16.915055100863427
431550,0,17.512106062778937
629444,0,16.652792189445663
844971,1,17.984407463069935
2894712,1,17.681908016800058
605918,1,17.230076591575674
2499659,1,17.092349213190953
1202038,0,17.529452295127484
831412,1,17.213560529576483
1864368,0,17.33891210955757
754513,0,17.411965403607272
363482,0,17.367174799546273
542673,0,17.71855986389748
1436188,1,17.21020778292035
2597824,1,16.86617673839069
2826843,1,17.373958123348363
2749585,1,16.931910746734122
212969,1,17.394222156390104
885001,1,16.705149448296844
2419198,0,17.475618957505414
2045386,0,17.387667216113925
2996975,0,16.727228360997614
1835009,1,16.974535907593967
1059252,0,17.568999812870278
3415540,1,17.231256864233256
1833131,0,17.20390438612877
2534964,1,17.41704848230456
3507928,1,17.355927142840184
2836055,0,17.658200598650176
360236,0,16.97631562912856
436188,0,17.181382398374687
3313587,1,17.22992313447499
740751,0,17.56077962362867
3791477,0,17.126273009348214
2988316,0,17.128780355951637
3340355,0,17.069125798728532
1406155,1,17.15907866548294
2675627,0,17.26197571773966
3672069,0,17.288256570801
3899932,0,17.366164222209182
1763947,1,17.094750082483337
3889175,1,17.432148593152412
2639855,0,16.8397027500736
875422,0,17.236249881353814
450791,1,17.43818462061698
3179302,0,17.393746804947693
1432451,1,16.77117500872885
1777980,0,17.203634181221084
3794979,1,17.199787467766523
2715141,0,17.740713334720798
2794704,1,17.21472643828309
3772066,1,16.992312132536693
1276617,0,17.627890561288346
2789587,0,16.73017997192836
2052045,0,16.55101789264539
1169724,1,17.003640255562246
3748300,0,17.364354550044055
2285826,1,16.976879199601346
1971568,1,18.007612718114313
1440961,0,16.763593642295803
1633155,1,17.489493355945193
477765,1,17.183397087789302
1339172,1,17.45986873858654
2665586,1,17.202366142564202
3779415,0,17.060706222793428
3384849,1,17.280956388768686
3779039,1,18.018939644324444
1119668,0,17.27065202686428
3417816,1,17.631023215333713
2543134,0,17.38691136305704
308727,1,17.70794431013009
1500715,0,17.58164073834663
1547908,0,17.130016367309814
1898050,1,17.418399600786184
1219688,0,17.426107478608635
3836502,0,17.621972332352737
3035710,0,17.217159803119817
3231397,0,17.268359946828273
2723135,1,16.99069832540862
1235348,0,17.069600188713792
1721496,1,18.701131823627414
1999219,0,17.65169029294088
558976,1,17.50489396692781
3943733,0,17.023068699542225
1567138,1,16.676127165185083
1673326,1,17.836590024127027
2019400,1,16.949991046087835
3845244,0,17.81552006510922
3305540,1,17.43427669484088
2121393,0,17.82761604536839
2663873,0,16.945828216102985
2122878,1,17.044449966684084
2252607,0,17.574166037907567
2862625,0,16.690800416815453
3348004,1,17.30499777054525
2517731,0,17.02114697616915
2199957,1,16.903950843677165
2503036,1,16.78800989055105
3479543,1,17.619408571143293
1632311,0,17.1727757556503
1782579,1,17.21982040957744
3729846,0,17.252565319694884
1557554,1,17.520812011155016
2780849,0,17.427676134576668
2483753,1,16.474428150874296
1618454,1,17.68164240824151
3683754,1,16.7452408224942
2140719,1,17.639356692613255
3239639,1,17.01839354622258
461303,1,17.309995075579213
1856268,1,17.90396830554293
1878535,1,17.44200414539017
1529164,0,16.42563778860144
1682425,1,18.644759890687002
3540282,0,16.94496956594713
533475,0,17.193363835607222
2492746,0,17.517443345196185
2046028,0,17.14042914376758
2622232,1,17.493461609842644
361866,0,17.733163783184974
2626372,0,17.317484423627093
499060,0,17.4537429386389
