sample_id,z,y
2128010,1,2.534659666766409
3726444,0,1.180310872000649
2940984,0,2.1194283063153483
1147640,0,2.7385250747144187
1721753,0,2.6547465567659065
3270054,1,2.4572452787506323
3153334,1,2.486570278555365
2584404,1,2.0957276164114638
1126246,0,3.6565639594231616
1553616,0,1.5203301017564397
1470644,0,1.7215295213210087
438495,0,2.3496379513055397
2663751,1,3.2564822501361053
289653,1,3.0484712947358696
587757,0,1.9938670883626657
3167571,1,1.9039548456812345
2974338,0,1.5163621040199906
2126965,0,3.3904880842111815
612875,1,1.9949454853968587
2586364,0,2.8313829010594636
3650776,1,2.07946546227846
2994575,1,2.643106607715547
1960934,1,2.3167884326718027
2504804,1,2.8057362795510716
1753991,1,2.221712478932714
2427300,0,3.7190110243548924
2146317,0,2.5253370963196637
3431648,0,2.7198265031671687
1967439,1,2.3283441681055166
438337,1,2.1011812412671182
3442738,0,1.0835586860013642
549252,0,2.3300634712097144
2520659,0,2.7035070902422036
1102668,0,2.4891001953557312
3292029,0,2.325518737609379
1034054,0,3.477862539334744
2633027,1,1.4195916668866024
1230146,1,2.8516986826766426
827433,0,2.179717367982196
278956,0,2.886685989503797
3060112,1,1.8226482503326868
2751630,0,3.029448236220613
1157934,0,2.578424153820335
3008683,0,1.579129745608383
249799,1,1.9107458774616302
1425840,1,1.3276956661912078
2561717,0,2.820308372820237
3300150,0,1.7881533858236258
3952486,0,1.8125035475112101
1437007,1,1.9154178293301716
3451287,0,2.8029605663240016
1907691,0,2.2391408123729795
1877287,0,1.8807046391610793
3012179,0,3.485054981275669
1228971,1,2.8994336553868267
2767675,0,2.0814915219885646
1780535,1,1.3801990214834186
3356295,0,2.3508062110206756
570037,0,2.143597252117761
2037968,1,2.5536605790191693
3911959,0,2.2120059788855753
986228,0,3.8621054630693283
2791137,1,2.196670811772892
3449429,0,1.991180078845689
535945,1,1.715390001732356
2424819,1,1.9217966966191735
3169665,1,2.0557891767358734
1874851,0,3.7098145192737393
980671,0,1.469509248664644
3015763,1,2.4329635663577776
690045,0,2.51762331919631
1471624,0,3.7111733395335476
2655369,1,1.9288820743989172
1204691,0,2.9359276845252347
1620491,1,1.2511901616482382
3440411,0,2.452088047059471
2584299,1,1.6213108847101547
404183,0,2.124408209686344
359901,0,1.8808734969746803
246948,1,2.403704327986528
2024820,0,1.8782416312988437
3203535,1,3.495848184608451
1221782,0,2.0387675238168534
3765716,1,2.050950614761629
2845044,1,3.3949439075876615
1816444,0,2.33952366773722
1145735,0,2.3582288499223676
2476746,1,1.8863209274785813
2524878,1,2.3996836925945306
2019363,0,1.9326981958961744
2945780,1,2.1861823941702703
3360554,1,2.2873228501972025
560781,1,2.1859722009197555
2871778,1,2.161047544446852
2117965,1,2.3201046161880283
2976036,1,3.5678595867475678
3931504,0,2.831992012561031
450724,1,1.6316460439688263
2574693,0,2.1027183850688584
2442766,0,1.388748851527805
1725673,1,2.231484292065073
691077,0,2.3973174793945495
3536858,1,2.290530547991156
2153645,1,2.711446138621191
865096,1,2.3361851499906083
1314077,1,1.6303665033355075
3739419,0,2.0882635478880593
449783,1,2.6603206431002304
3732340,0,3.0636081618707633
3299945,0,2.813040448578435
2978967,1,2.495872595661763
3379323,1,3.2109683060530054
373364,0,2.3671394145065436
415625,1,2.4379059438539716
2481875,0,2.0868911142345365
637825,0,2.5335850526788786
2228372,0,1.7669702938095344
1435725,0,1.7587025414626123
1060003,1,2.497283986745189
603924,0,2.743700935696502
3429265,1,2.4230057624903165
219273,1,1.6245664436190324
3033041,0,3.259808891695016
3177731,0,2.428467082571073
3678170,0,2.821602705958008
920805,1,2.1911054450529974
1597199,1,3.4569460896114355
3190675,0,2.5618467441685366
691243,1,2.017288924132592
2059675,1,3.192755245039897
1984521,1,2.9091088954480195
628834,0,1.704386989300955
342596,1,1.7273310854765382
1155422,0,0.5112981702120684
3097876,0,2.1843815228395336
961158,0,2.187603405657658
2527271,0,2.1877840214598048
3774028,0,2.6172202309374826
854512,1,3.1955461839316186
1629107,0,2.3506408028881376
3751343,0,2.9270188433950817
2921672,0,1.9037925333562002
3947057,0,2.2043539535769723
2934769,1,2.942447870622264
3285774,1,1.934643469007934
496529,0,3.1143791587728997
3238521,0,2.3687506315170612
3835455,1,2.446749502491288
3076911,0,2.0807526930619886
2577709,1,2.8900393656991166
3791778,0,2.7531118253745177
1890584,0,2.6181146837094698
3061028,0,1.623904375497721
451578,1,1.890288331687223
1134283,0,2.2169104972243026
539450,1,1.1644903283809414
1606707,0,3.1826267559927968
2525982,1,2.1313984905010663
3417294,0,2.273358468489468
3800790,0,2.2359714728275755
1389233,1,2.207081203806793
2246123,1,2.401175796609068
1353465,0,2.7202195677534773
3236610,1,3.291182896230737
534418,0,2.0481879220169956
3297834,0,3.070316832654225
2126088,0,2.8696175785829685
2712213,1,2.7300152889075315
3659116,0,1.7356796524364086
3764765,1,2.487564629148357
3943855,0,2.202332056375077
1412782,1,2.278971137346877
823142,0,2.2106124096181174
1043335,0,2.4826613583820207
973065,0,1.9323680237978573
927013,0,2.582674265690608
2775824,1,2.8205216020262944
1435674,1,3.019351755045908
841436,1,1.9084103511417005
3544532,0,2.06738445455823
1144253,0,2.471552873990993
1811513,0,2.391799970174609
1113406,0,3.202732319837741
2907801,0,2.485827681775396
1150340,1,1.9907261745417764
1088242,1,2.4448968249093292
2778126,1,3.042544180762584
299994,1,1.9186326282214066
3667092,1,2.298181347369434
2285128,1,1.4039863122233442
433452,0,2.8495338341387915
1114523,0,2.1409023496659048
3797280,0,2.269648780774912
2515345,0,2.034715999227121
3848043,0,2.7466722557734364
1609687,1,1.1827893291953697
800706,0,3.360543023614398
3154060,0,3.441781885010456
3759182,1,2.6476488448567532
614856,0,1.7937683633242547
1154642,0,2.2672849528083088
473204,1,2.1106627819037707
3337189,0,1.9243073809319928
2926010,0,3.949862982112527
1559737,0,2.126110206085917
2028276,0,2.4785861417522117
1670389,1,2.513041221215599
2501608,1,0.45969425007182385
3121304,0,3.549282874835217
1750119,0,2.05874177941176
622609,0,2.459808273724043
316349,1,2.519831611629238
3801747,1,2.9317711391997556
397811,1,2.0995363331183867
3306122,0,1.5420148810801544
3694853,0,1.3122543128440816
3044208,0,2.1373380337624512
807766,0,2.940175573764835
2278497,0,1.7917810516569084
3240986,0,2.2517817375514055
3257781,1,2.639351790522476
2898610,0,2.8393104114525234
3918413,1,2.6409333052239923
3225760,1,2.661270488033191
2791938,0,1.467225305792499
968885,1,2.121776861839127
1860323,0,2.031414147495836
1934552,0,2.1803799006236373
2598568,0,3.8518065627924685
1986523,0,2.8130605687196333
3875386,1,2.395840536719741
202922,1,2.4081181208088505
1248915,1,2.5010268779454283
2700252,1,2.0162165529231695
2216785,0,3.224327013782277
1132868,0,2.579929590525257
3140548,1,2.9843147720299426
1416320,1,2.543906409407646
2875173,1,1.3971490079498339
2828587,0,2.17510123855904
1128455,1,1.7757124573534293
2916175,0,2.5710652063896675
461272,0,2.067530788840891
1221623,1,2.384371495248701
2019220,0,1.949082041937608
3038988,0,2.8108048905577596
1770214,1,2.4955747422419927
646066,1,2.6153481001041716
338612,0,3.597064419889316
2799158,1,1.705884849589347
1455797,0,3.0713381097142376
869274,1,2.4657786734338982
1625760,0,2.6407678576903924
1016106,1,1.9596483869759793
1712454,1,2.058469214540228
588929,1,2.74571911870314
2988653,0,1.9477459928320986
3200625,0,1.9968936596915852
1897526,0,2.198496925458957
1844195,1,1.9760500671621986
3746913,1,2.659993176459218
2876362,1,2.0923448776527316
522888,0,2.4660261887085055
3279797,0,2.6730673006185306
2146125,1,2.2141269352816533
2609591,1,2.2798458798412358
378992,1,2.5717641291549644
869897,1,2.671128078537241
1411737,0,1.4557192816012576
1581147,0,1.6177953764780852
943018,1,3.0899089721438697
752748,1,1.5092495584114294
3175041,1,1.5969520774238954
2272043,1,3.1388883696526877
1117116,1,2.1452502003223404
1678809,0,2.343983136958502
1744989,1,1.1735940073820643
3871923,1,3.224513331152499
2577047,1,2.5057218973143858
3447829,1,1.8588295600615288
2284712,0,2.391256353160992
1665076,1,1.8359707646354217
746804,1,3.2441876935937066
1607514,1,2.0338614921204643
1540998,0,2.9991646758494483
3286901,0,2.157357818229567
577833,1,2.5824217898381763
2898953,0,3.528324986337596
2934203,1,2.7968663421424935
563452,1,2.106518045298885
1614584,0,3.3177542600233063
2151817,0,1.5773306431377203
738693,1,3.214614555389345
2519757,1,1.835741746966998
807890,0,1.6312173848489304
1723464,0,2.673555791980225
1005850,1,2.878357881829694
3505171,1,1.8165855888222964
1680591,0,1.7572412948505134
2445720,0,1.9669665621022432
3533720,1,2.6367688963362537
2272590,0,1.4646830700438325
605355,0,2.4702342423308687
1194510,1,2.528871998982229
3927267,0,2.4999590669035894
3461175,0,1.7764480163322716
2110558,0,2.0296984491322565
2755010,1,2.820442773336535
1350515,0,3.8057200182672988
2575070,0,3.953804373330805
3099969,0,2.9215758749615053
619144,1,1.7190573445873314
1547533,0,3.323706443948315
3789345,0,3.047187456809993
584493,0,2.611318901193365
3209582,1,2.3734915854860947
2150237,1,2.6308294053976367
1095223,1,2.452078205007785
3495508,1,2.4015440210755603
2551346,0,2.339909554799858
1721364,1,2.598406438114461
1479045,0,1.9691560923761566
3163798,1,2.069072267353095
2568811,1,2.4674087639721494
844855,1,2.595035118481814
2551179,1,2.550953628319204
2460446,0,1.6342562094537352
1535981,1,2.081238737051048
3687056,1,2.345695757489052
2761203,0,1.6222857466835978
1697154,1,2.6232190982423806
3112510,0,2.5185336526235282
588415,0,2.1735688862768816
1036200,0,1.725924382316241
1918899,1,1.69952116199204
2571285,0,2.293725355646549
600839,1,2.4782430487830847
3512895,0,2.2499529553716386
3090048,1,2.6387165092439164
428785,1,3.129833837349798
1995283,0,4.352362203881069
265569,1,2.3551751476247063
1788766,0,3.032951866086414
2436315,0,2.2613689128489525
1388194,0,2.4018605021020836
1193560,1,1.6630969841981682
3061684,1,2.0091064752066434
937105,0,0.7598983710908082
2136278,1,1.0852747327828753
1552098,0,2.817704708556537
2548836,0,2.061720871262991
3117983,0,1.887897878062471
3894767,1,2.6043437588380782
1079936,0,2.3556024853362767
2708069,1,1.998957870180546
1546069,1,2.3610198913286116
1024352,1,2.555475841446263
3096560,0,3.374654709039361
3301211,0,2.6775810559873365
1443811,1,1.5327247684255125
233832,1,2.5788923543178797
1098696,0,2.491522376638763
2253197,0,3.436653449949213
2760177,0,2.1680342301902917
638616,0,1.762256940904364
2561116,0,2.161652891555837
1749355,1,2.8950555890916223
3690940,0,2.726313103645926
736877,0,3.1427757173449415
482210,0,3.2630477835545304
2806201,0,2.504226734881507
3244649,1,2.8049388166175646
3452592,1,2.4251377558373806
2869735,1,1.9672101633617596
1478428,0,3.6795455394708503
2005305,0,2.1514344312565754
3103426,1,2.323239822527873
3354333,1,2.800512324873401
678659,0,1.5348138323934981
633885,1,2.6650769518678166
2397012,1,2.999317107991749
2020312,0,2.311878657004096
425441,1,1.6693210140774963
3236366,1,2.174166054983802
904733,1,2.1032597902548096
3188019,1,1.5900662514270114
3384459,1,2.1127828252980914
800633,1,1.910666961107081
3511901,1,2.017549242822199
628037,0,2.578716469456904
2888087,0,2.369266667304515
3172360,1,2.0033469854521697
2890946,0,1.9624498282546412
3500072,1,2.2161007425476713
1093315,0,2.8759445473672027
2205729,0,2.168657021377194
664343,0,1.8833414155680095
3844785,1,2.001974091890704
749572,0,3.0972714697289474
409545,0,1.2645807903672486
3240699,1,1.5507727246159906
3349904,0,1.5639817917266956
3883390,1,2.466169010082312
270946,1,1.6482951299895856
931472,1,2.1595464984941994
1951799,0,2.5962993568922057
1225695,0,1.8547529095642736
2980326,0,2.546558929898981
1672830,1,2.404614214476223
2940449,0,3.0080928498773014
671123,0,1.787904750500838
2567997,0,2.052024170744924
599799,1,2.700950470680612
643504,0,2.5732145989591464
3385278,0,2.6912653306107615
926051,1,1.9417752182190509
2878657,0,2.369650914561604
1162346,0,1.3849488174917075
2803234,1,1.68044769286106
3838672,0,2.8638035432289795
1006503,1,3.0842067344070854
545284,0,3.592164719996955
3390126,1,1.6916347282240547
313326,0,1.8967078132021615
1881769,1,2.51034867228542
940942,1,2.295648824454514
2497572,0,2.0295350467539373
3703325,0,2.1355649800471976
1583711,0,1.8946459816197065
3790887,1,2.249275822485732
817758,1,2.1834089148154074
582027,1,3.3625646140810126
544185,1,2.4278018317710384
1888291,1,1.708614100630371
1099793,0,3.038040552077462
2110426,1,2.5594360993561027
2056341,1,2.118044388982654
1693055,1,2.889306232600222
1868007,1,2.3370170677422344
560206,1,2.2393333132167017
204148,1,2.0133228472930798
1001266,0,1.232954096772205
1566467,0,3.099766291718489
3058427,0,1.6937894422578053
903926,1,2.3892388831272333
3661666,1,1.894923700095548
1836169,0,1.6944745271010655
1127583,1,2.1233562222338986
1951585,1,3.1877883571512484
3364219,1,2.8412469757760253
636046,1,2.23109656580209
680932,0,2.134706936136592
2443305,1,1.595942583876552
1682745,1,2.065755295139004
2020058,1,2.0558968650001272
701962,0,2.7145633442769586
635765,1,1.974423293743721
2993060,1,2.7792067721443194
3157472,0,2.852221398906916
1502298,1,2.2891014859016314
1410989,0,2.701280994672193
1951788,0,2.7472198583958134
223132,1,3.2635965732352243
2974641,0,3.1674571459473566
1051087,1,2.3438362882030024
3301367,0,2.620500991394642
2470200,1,2.350811855754178
1440751,0,2.545426628399344
3501177,0,3.964530896211259
2407755,1,2.615089431494911
2031832,0,1.5388323652019995
3023671,0,2.6710557333773433
2247548,0,3.646298345369414
2900902,0,0.529458945739562
353600,1,2.8747298647573682
2919348,0,3.1886769492218208
499427,0,2.5968539427720336
2809897,1,2.015326437558424
1613511,0,1.7062878361140807
1549263,0,3.0644846471014233
2145782,0,1.9758596745107484
3783937,1,2.589707956585316
1896219,1,2.7400914626286195
2785947,1,1.8888720824359129
1097746,0,1.7453480472417398
1871454,1,2.1025320558471017
3499756,1,1.965758151091987
547194,0,2.288948820685356
3256457,0,3.501850167235012
1274246,1,2.155937024622697
2425701,0,3.582929279461839
975915,1,2.752221142002142
1557485,0,1.1793263746745541
2422266,1,2.2928683902842857
1909474,1,1.4324942949162371
1154112,0,3.082700838179125
3469184,1,2.349757473551844
3752589,0,2.4437555875982486
2403092,1,2.5383009560222884
3280741,0,3.3466442853169593
2054912,1,1.997213798933799
1890088,1,3.325797264998432
534408,1,2.7697604108371183
2475661,1,1.498182654443803
1095714,0,2.0537274644535266
3243788,1,2.2300378110551065
1234321,1,2.3711127869886433
3439709,1,2.5908919503657297
3810495,0,1.836592434454553
1325693,0,2.73218062508681
681280,1,2.4825605560118995
3789811,0,2.636515286435691
818612,1,1.3778757934311017
953062,1,2.1209930166167283
2042893,0,2.5996356302131267
3527373,1,2.1733469694605505
2616108,1,3.1996365209305506
464500,1,2.7104304596696815
2013572,0,2.5532275813450447
2485037,1,2.607255474528859
2684668,1,2.8821183454294537
614494,0,1.9510969393631363
3010882,1,2.023853204916157
2111416,1,2.621280562454217
3652823,1,1.354319697642868
3495788,1,1.3920664549619965
3455758,0,2.395700641749211
1024972,1,1.793359632472173
1302311,0,2.4816620046099978
702468,1,2.4234366077203053
1292811,0,3.5464256862400347
3393445,0,2.6824484314524417
825431,1,1.9299420447726565
1938842,0,2.861386185233492
3681628,0,1.7573291179617265
3097573,1,2.3987238470283128
1248227,0,2.5831174360950824
876753,0,3.451476888864897
709465,1,2.75520827797413
1149212,0,2.2437863604149917
3204072,1,2.722612982255923
893646,1,2.0816638781035306
2755642,1,1.5699567251772164
1428401,1,2.019345778253835
2109421,1,1.985076080078615
888423,0,2.037679450303687
2444420,0,3.0135735275453155
1573945,1,2.410230046960986
3499812,0,2.0295959313287346
276946,0,1.95222246371645
2889741,1,0.9551727887406376
1308226,1,2.693342164989204
1564615,0,2.018220954932806
411059,0,2.2592807686400906
3689736,1,2.2566150049022555
812613,0,3.0072119502039567
2695357,0,2.3143385142872788
2705389,0,1.5326001480404643
3779901,0,2.665621410439489
1241277,1,2.2790237533263245
3211441,0,3.3208482633754137
3080640,1,1.7305169035211607
667445,1,2.739947399200111
384242,0,2.6107255145608903
2464234,1,2.6405186358390775
2899231,0,3.691610096228413
1422135,1,1.835554488900431
3458775,0,2.741677613198377
3917710,0,1.504905643295504
3036340,0,1.5448504138568877
1858447,0,1.9929897910507939
1472206,1,3.0753484854570026
3093933,0,2.6098733740240796
3392489,1,1.7451783065407027
3673416,1,2.101087873639759
2254992,1,2.2086280730456678
3185168,1,2.266248009282359
1521242,0,1.9474299457782018
1254823,1,1.8562687040637904
532423,0,2.269853792119725
2016965,0,1.9438827595796786
3757939,0,2.630608484014542
822443,0,2.2670791664305905
1760112,0,2.123422361382286
3832981,1,3.2188575124994254
1394985,0,1.834971966049185
3925697,1,2.056429357387318
3522421,0,2.411596398254312
2651090,0,3.868044153980148
3233486,1,2.0549844013355925
1307801,0,1.9216157576485917
3753135,0,2.1855307241980464
1831804,0,1.9831828206975524
2154701,0,2.8451730079469293
3054411,1,2.7995845658251346
1409092,1,2.3081526196069677
2013820,1,2.0965275338538665
1948207,1,3.0848212987169727
1436910,0,2.5316187493183477
1754190,1,1.659015359796315
850264,1,2.3612928346475783
431094,0,2.616255921393731
2565806,0,2.851122791513494
371964,1,2.34261742316224
1125137,0,1.4467163254103799
3228608,0,2.3028637169326167
3079822,0,3.528415849951003
2395362,1,2.3932621111265235
239489,0,2.1132651233786035
3294834,0,2.230690808830105
3405257,0,1.9038599912014478
3106897,0,2.1547210926254174
1085744,0,2.203058329618564
3153808,0,3.9181873973494312
2001856,0,2.1059320031022235
1873431,0,2.1981280410173265
1529122,0,2.1752290016907576
1284405,1,2.8868456120641985
3519016,0,1.7214242768735963
3461941,1,2.1478037610452505
1018024,1,2.837885706698942
468223,1,2.2717789858231807
1285394,1,1.936324502437461
1884823,0,2.276317426092327
582614,1,2.7580479668594484
3036255,1,1.848879350606895
3953692,0,3.1409074830557824
3445783,0,2.4293149683913313
1873926,1,2.3991362411752313
1224663,0,2.3272742044221975
2564382,1,2.2623181505966996
708017,1,2.196613829628244
3087470,0,1.6042747496171108
458948,0,3.6576791457315356
1315948,1,2.6621378777728033
2600329,1,1.3364271380849084
2236143,0,3.703094408348711
3885088,1,2.051582194293698
2176838,0,2.4967452120968425
579310,0,2.0216814919207375
3424896,1,2.6187557632503933
1202799,1,2.386024075366648
3859816,1,1.7977499126028325
2040178,1,2.2173304409147243
2667769,1,1.1648146526486307
376475,0,3.2147181922668153
1639629,0,3.7823347127009805
3202438,1,2.0346408422711684
2452227,1,2.695044831585951
471706,0,2.7524947966041777
2105076,1,3.2466354445913095
752421,0,1.9403717762095374
3384095,0,2.6213178435320073
3948950,1,2.773624644568433
3544453,0,1.585021356184262
2801983,0,2.3170760045004144
3089390,1,2.2188075757835684
3892508,1,2.3860912466634465
959419,0,2.631752417150398
1192009,0,2.8033182686026814
1680856,1,1.5999610177066124
3899555,1,2.4443780583725823
572784,1,2.9300313560772837
1211570,0,1.248712729148
3177439,0,2.6281871392649494
2246481,0,2.877859787487518
2836631,1,2.19762836570504
2139473,1,2.9365556141904814
2577586,1,1.5826403504542579
3197732,0,2.9016451246937214
2434614,0,1.9392513430198672
3377298,0,0.7746383616554264
2533610,0,2.342414125299589
2707009,1,1.9930510263494141
715731,1,2.9935517621360153
3011934,0,2.722727317846213
1166435,0,2.2325828053464725
2862650,0,3.7388485503823627
1991733,1,2.898048744656988
513450,1,2.737400993306055
862746,0,2.432287713715174
1505609,0,2.398024636905792
948274,1,3.3032047490918752
1519460,0,3.0740104552784118
2445832,0,1.2415779255459614
3529624,0,2.5547487508529936
2812904,1,2.363558480893754
3177074,0,3.182597842705966
2137482,1,1.3353121844288558
3355129,0,3.4932229723195114
1429866,1,1.9027476612486263
307695,0,1.2123947673232438
3318461,0,3.5058730734433916
1321394,0,3.8473881291761436
3948249,1,2.20406426352475
632549,0,2.600604785966673
2443702,1,2.9885120933152085
493453,0,2.0736084875903344
2542282,0,2.209758639159427
759080,1,2.5562567258787943
2038823,0,2.4315107861538072
456105,0,2.6933390692049457
2013886,1,2.6613187595281693
834811,0,3.72766528355047
451417,1,2.7228640623467264
532822,1,2.303161114022616
1790811,0,2.8995180349464134
2260269,1,2.2612314840178747
396986,1,2.4001569632930138
1063286,0,1.7317925641360137
3510794,0,3.925900476126562
1600945,0,1.8638820461185621
926722,0,3.1782152505179235
2592369,0,3.4541446849164097
3342470,1,1.7038143105706782
3052300,0,4.066958788319201
605605,1,2.245073818507255
1105567,0,1.0553251825772554
1628900,1,1.4714613753037282
1857711,0,2.838833420525585
2177315,1,1.7453075095967634
377962,1,1.3552805742952505
1035188,1,3.421623682103249
305848,0,3.00357826982552
1715912,0,2.3102667007879494
2046458,1,3.0640387988076245
1752292,1,1.5018542402429385
1915839,0,3.261535507192702
2767983,1,1.9945782902821856
2392423,0,2.5942026570607184
3414126,0,3.5576594014043055
3073894,0,2.9163589149377045
2968066,1,1.8965592845581982
722346,1,1.6704698198675487
2689172,0,2.6022115619891526
1408506,1,2.4374251509674933
1474973,0,1.9983265708397286
2877026,1,1.974929804012583
2419609,0,2.567032295045406
1746205,0,1.1319354693094048
2187986,1,2.263883391337611
1215739,1,2.5865125140690792
3905744,1,1.9812652384404261
2782986,0,1.8933403816580885
373049,0,3.429102133649244
1391637,1,3.151874256578398
666712,1,2.844979630737524
1679636,0,2.0421768655556414
3841591,1,2.1224209438190287
3157489,0,2.520772278757149
2872233,1,1.8429882819694519
2145586,0,2.216656704562396
831183,0,2.2542885476131413
1874248,0,3.189640268349668
2602784,1,2.3267052219364173
1638653,0,3.1297249107096468
3863124,1,2.470618873600094
960965,0,3.633738684776205
1565765,1,2.4760406806288975
1934343,1,2.2877171088509174
1391541,1,2.5165475565658926
2575670,1,2.503403140359496
239695,1,1.2222457586437276
3846150,1,2.1732683836782627
226203,1,2.604170184177981
1837434,0,1.6050852043210178
3095109,0,1.730033515789172
814819,1,2.7571059635358766
2486142,0,1.9283147383382833
3319386,1,1.7230418588046548
1049844,0,2.667926801502029
959635,1,2.7888646792221596
636687,0,1.8883352881047482
3476600,0,3.0963390417126195
1985462,0,2.3183348427720873
264923,1,2.386971782490243
3088311,0,1.5237013992418738
1905770,1,3.265456615613873
2150778,0,2.872745250061331
517711,0,2.6157359503316604
1830650,1,2.373422112981011
3777679,1,2.076999001268378
2645068,1,2.119135907600837
3798728,1,2.9388965479151032
2131401,1,2.804229232080063
2433915,1,2.9311057642050193
1809141,0,1.7699867780358076
1488323,0,2.6911832326975165
1640447,1,1.788023332201663
396542,0,3.292586889451398
2677142,1,-0.5603809063444609
3879202,1,1.8608164484883707
2611750,0,2.6604991224252847
2836948,1,2.2344540338102536
1013066,1,2.0918365004764987
3216342,0,2.3191206397937547
1248358,0,2.449207464821302
649554,0,2.1260913471813314
1560448,1,2.1461820297147125
1571750,0,2.113720478081516
3361191,1,1.5505996440750751
1065723,1,3.3202444162410227
2933293,0,0.8605739839775032
3260265,0,2.0231659299814546
1980568,0,2.721971726343726
3394290,1,2.750330204208472
1254908,1,2.6760007185831185
424552,1,2.133650295507779
3947465,0,2.691604030930573
1635344,0,1.6410179857902223
3258560,1,1.9936631762640458
3707995,1,2.6804288791310382
2514302,1,2.1150576823123455
2253664,1,2.525571534166147
583601,0,1.8577789221072318
2143776,1,2.3800048665720563
1305471,0,2.0696483454853674
1627203,0,2.6182310312966655
2235332,0,2.626068687509296
1749495,1,3.119433387423469
1436012,1,1.848827033612932
1963136,0,1.6526221124908123
1829957,1,2.631415243973472
3319587,1,2.141832116222665
2172293,1,2.615682720806176
2622033,1,3.131698277933813
3841103,1,2.642071785553291
697898,1,1.5546454290794576
1723258,0,2.47595350211533
1234263,0,2.9871589567268604
1662230,1,1.7253168572956308
1052846,0,2.8075790389089046
529882,1,1.9563129667561963
3786304,1,2.8967816318126847
2975241,1,2.0545529017391457
2981780,1,1.9346448209523643
3304963,1,1.5166743345557978
921350,1,2.02107442569216
436814,0,2.3263871956343385
395821,1,2.2712682980526155
354296,1,1.2124523456375074
2155771,1,2.002293934260875
1527578,1,1.6402300654403603
1386931,0,3.368775077357502
2728974,0,2.11125548962378
3907493,1,2.5535208556100155
488434,0,2.149530255990862
2625844,0,1.9399872315383817
1295328,0,1.567156306216304
3772398,1,2.0961443799292097
3299596,0,3.1815749237325517
826821,1,2.3565804623521482
3163814,0,1.374743305100737
2419198,1,2.9540987244801484
3218102,1,2.285335297920759
1037879,0,2.368986874734704
582333,1,2.2343744206370966
3048676,0,2.5008400008572416
1162637,0,1.4183022761500577
1851515,1,1.9694460262746103
950289,0,2.4800615489347875
1219656,0,1.5635582685443137
3190258,1,2.492001771706942
2936667,0,2.2955577736288753
812446,0,2.3265620349862903
1935895,1,2.7789368836745325
916185,1,1.5641207075961627
1089432,1,2.293963005704467
3653104,1,2.169132917374194
2402323,0,1.9330830164302586
3958684,0,2.831857406581568
1850714,0,3.796826862784169
2234109,0,2.2769670245102853
3399496,0,3.06868403759202
3033344,1,2.122050657579123
3906976,1,2.3262872107350097
1228865,1,2.6399409458625196
1625364,1,2.4835556717889156
1396306,1,2.1149305761411523
974592,1,2.2432534197811287
1615139,1,2.5053430290904024
2442292,0,2.6254144973856173
672792,0,1.8690699018662171
1109305,0,3.06204322580376
975310,0,2.018582183915547
2276426,1,2.6197620076669375
2837562,1,2.6248538785384947
2677157,0,2.6289799865376664
1635906,0,3.2364326592689943
928361,0,2.4363946751361802
2451646,1,1.9182706830925276
2808776,1,2.5201811905986915
220697,0,2.334921867918232
3174343,0,3.5089176307269283
3038650,1,2.574612356999799
863101,0,1.4395890783672767
2485647,1,1.4277282165302134
2587712,1,1.4715217229916848
2744569,0,2.4659729114414035
2969232,1,2.442602972738223
1718835,0,2.185896345880435
1910493,0,2.0417084830479726
3431585,1,2.0087334414664255
834974,1,1.903156895556727
637475,0,1.7552628807420345
676628,0,2.817140955534443
1516229,1,2.1278573346083154
1501948,0,2.388292688344309
3204947,1,2.2084089629026447
2626162,1,2.5837410522046973
975108,1,2.9326358268107864
401083,0,2.2172340772854375
3459961,0,1.969280189667938
1854751,0,2.393523753054829
3164845,0,2.1981078807682968
1806741,0,1.5627017604776219
1493655,1,2.7423247356488334
341422,0,2.042860168912705
3169149,1,1.9632762632837752
1170709,0,2.326577828358181
1499333,0,3.7066683296144887
2008748,1,1.743996700163144
1093634,0,1.3630265394814838
1822915,1,2.529648790736634
3526025,0,2.2746425516268625
1096798,1,1.1982497234341771
2504997,0,2.6438198535344357
1767954,0,2.322867328722769
2271618,1,1.8490665404230213
200450,1,3.2017989934104025
1045067,0,2.7334020015878226
1667214,1,2.833916153945299
1831386,0,2.420419590190956
305185,1,2.8306528464548255
1851143,0,1.8325952199212256
842506,1,2.008291183388127
1145467,0,1.5059925098841085
393070,1,2.84414420525439
3139681,1,2.2639977845412194
2723778,1,1.4479081987333748
1691469,1,2.571781025905802
2251341,1,2.074953735855965
3076034,1,2.8051644863002716
677068,0,2.37938653618179
3073640,1,2.795828502602254
3202292,1,1.685029119310704
3868960,0,2.185458998396699
1740161,0,3.3729321961521186
817847,1,2.741960106228831
3544943,0,2.189593360606641
2904326,1,2.8105229819008923
1106967,0,2.352397640807201
1168117,0,2.8225577841807907
1246205,0,1.9719810109354943
2157322,1,2.053184647361552
1045656,1,0.8950642250011577
2713868,1,2.1666880464307314
661376,0,1.6436840983308172
1915727,0,2.9468424995515066
1029367,0,1.5337946736100567
2281177,0,2.6308628370135025
2576295,1,3.1405931624989467
3696165,1,1.8720133304169342
927216,0,3.2964113864911835
1265157,1,1.9963561908499563
1139126,1,1.7185313915203086
1531592,1,2.399992602884944
696280,1,2.661161709949926
362329,1,2.4360183092900094
3038262,1,2.2402840319357624
2808901,1,2.1931097225462786
610130,0,2.321736981877816
672168,0,2.198151992700132
1034102,0,3.840685887356189
3236887,1,2.7926307350340522
1677028,0,1.7030095584000573
588739,0,2.4250776949903443
1366639,1,2.790490212285736
741856,1,2.335196648257113
990104,0,1.7544479214151774
2005295,0,1.7225039609308685
2565248,0,1.7835825586666607
2758984,0,1.803258114320126
2516281,1,2.687354837678003
1611609,0,2.4630778363343073
819006,1,2.639199983944589
1825674,1,3.0067849629898067
994566,1,2.3112578517543856
3501344,0,2.7056679852382124
2980910,0,2.459667696093159
526542,1,1.3128501682006162
3313000,0,2.2239760243133526
1436559,0,2.365188729089924
3783470,0,2.2076998505997505
405798,1,3.4719998735805526
2521960,1,3.2450673118692617
1156377,0,2.7860138277653728
1151793,1,2.1286432350439446
196322,1,3.0124400745593842
3667400,0,2.2097619481200055
842040,1,1.1189011183003372
3503417,0,1.998792813419919
2467031,0,2.523218571171701
3669701,1,2.692165237136123
1205091,0,2.2322416780612198
674872,0,2.4934049332011328
3414327,1,2.4739073672444585
867085,0,3.058064813003854
1683510,1,0.8963081876521919
2753311,0,3.566613877288354
960751,0,2.3994825136793523
3295323,1,2.950040724657368
1988547,1,2.7421969035791367
3941561,1,2.054822500310539
3090574,0,2.082675120187611
1140194,0,2.4418552757278493
562166,1,1.6957928792783201
2019438,0,1.7787201066212373
2933620,0,2.079378493592534
2514875,1,2.424253675992488
887997,1,2.5860887280442544
3514124,1,2.6952096010507938
2510503,1,2.2375304246184644
1575915,1,3.169807172763841
755838,1,1.3614830917246068
1367247,0,2.640672089860426
2424277,0,3.2756744223283496
594373,0,2.9832356024313995
3279993,0,2.0816926568127574
3225537,1,2.5561995557714967
2575014,1,2.237928952021695
2439995,1,2.3590712119156745
251006,0,1.9051371220926547
1118244,0,1.8920676899612698
1782170,0,1.1177637326790013
3653003,1,2.3670311652053946
347031,1,2.6636541553129427
622887,1,2.3101016863525055
751723,1,1.5916044925300068
2433962,1,1.9105367907690014
1321756,1,1.3529017463281339
979923,0,1.3527078707449278
824724,0,3.6513265069121177
3505582,1,1.4018879191217972
227974,0,2.3134346051916066
2129037,1,1.9292372678592815
705299,1,3.288365911334427
3890634,1,3.191501070386204
2457658,0,2.8920547904405662
2923078,0,2.493490648208595
515370,0,2.0706811639132825
3286788,0,3.2305246809196464
1988528,1,2.725308739561585
230876,1,2.5799022573366304
2535215,1,2.722207561182637
1204918,1,2.7677833080461447
1726559,1,2.3498384997184036
3259747,0,2.3814551228093666
3218434,0,3.093202826182518
1447156,1,2.2959353913268794
3318440,1,2.7879088439867203
3673627,1,1.9292883712091897
610437,1,2.0072867402987744
515775,1,2.7765071796102423
2770688,0,2.4686668491582604
2054526,0,3.435555838531152
306009,1,2.703687175436383
3086233,0,2.0884975911292316
2775184,0,2.876030587908101
963244,1,3.3043351126872915
976036,0,3.699124596496655
1441013,1,1.867190464379818
3734016,1,1.769170420339961
1911025,0,2.226715116953569
350560,0,3.5650104384534713
957691,1,2.3265258565991602
1578454,0,2.7184127602611414
2277506,1,1.354018037370377
1517925,0,3.0823416359333
3909596,0,2.120525619048608
868253,0,2.53362452116022
1461998,1,1.5102571928749342
3056414,1,1.3255774872954458
682663,0,2.6340053235216185
1267808,0,3.641400836116392
3271295,0,1.6805153518350133
1390974,0,2.8340496467761302
3493409,0,3.14048123527698
884756,1,1.6038924479777632
2679442,0,2.24346788220837
3678026,0,1.708086144848595
3943226,0,2.2050750463823454
267640,1,2.3961238925726236
2186061,1,2.253121187954381
1631087,0,1.54974709735697
3273704,0,1.8266230822175815
2145251,1,1.7692254235576852
3540709,0,1.4564826515191602
3666124,0,2.324685752314135
3704460,1,2.776031956831324
1031741,0,2.233798962947237
3834591,0,2.465956790828357
2773225,0,2.619078127772325
340096,1,2.348340655597796
2980321,1,1.6961255997167313
1146398,1,0.36948619805069916
1754396,1,2.170779028795424
1219056,1,2.432381296457622
2660147,0,3.48116612906488
946784,0,2.3574699188476127
2713420,0,4.260531410300366
379916,1,1.9026819829748205
1868560,0,3.2669197690768366
2277427,1,2.300039004585328
572559,0,1.4212502575492225
3923439,1,1.8186197681067062
1893566,0,2.9705821909173733
585921,1,2.2448866552257387
2901762,0,2.807433249139774
2948353,1,2.6434418551182572
2114960,0,2.7948484441011066
2477300,1,2.3830428502965653
3117661,0,3.399467265261278
572017,1,2.4884463701551183
2448661,1,2.862650533219104
3954648,0,2.3129508394809446
3267374,1,2.259883032957878
2662473,1,2.2154526429886787
2587461,1,2.2560969716525
2711167,1,2.5360084047045657
2543844,0,2.8449962547925773
1572796,1,2.129618838689111
1271443,1,2.39765220603601
2697920,1,2.574518044936173
3483660,0,3.4867918941958385
3016429,1,1.6618550914144983
1364556,0,2.1064713855584816
3380147,1,1.7923721196115887
2589900,1,2.5788918639033094
1939706,1,2.8039799520177064
1574118,1,2.999730680282398
3834365,1,2.8439642936968874
286402,0,2.1857264447341525
1642575,0,1.8528230202978602
3716499,0,2.4094059797143794
2450790,0,1.8175600175183524
1410779,1,2.489270797519558
3304192,0,1.762705231506099
452587,0,1.5637495733623274
1289581,1,2.951742725551248
2981484,1,2.322382430811979
3030467,1,2.776956796937134
2167473,0,3.2888730805849002
1140647,0,1.6681285253554619
2139449,0,1.4528754901056324
1953171,1,2.1298385318028608
2841125,0,2.9295851852006307
1464640,1,3.6423838440440965
399525,1,2.1124553679366174
2858168,1,2.44877455845989
2429738,1,2.155609285345166
3522998,1,2.604632805289653
1616380,0,2.9290274488416532
970130,0,3.24214521018429
2562956,0,3.2130086955187047
2486861,1,2.2958681676997585
3164970,0,1.7551475859326469
836587,1,1.8393488479262994
888394,0,3.0587514007395513
2499081,0,2.213278806946791
2746792,0,2.7260321585586618
1777689,1,1.111392847288147
3731582,0,2.0590005722451776
1360032,0,1.8328720532374627
2397240,0,3.3468813355402793
1331642,1,2.3915854131882477
2993972,0,2.46584695720143
3524154,0,2.186850315000239
2045396,0,2.4231384433583765
2053416,0,1.2138083422169774
2533171,1,1.8502700497189484
2397635,1,2.158602389210567
634547,1,2.3438037281106623
2913889,1,1.4345616612347176
633328,1,2.3459708475054626
3365790,1,2.6738804159931018
3426631,0,2.693822712620806
3730899,0,3.248145231696933
3218710,0,2.5244878291530557
1742679,1,2.575606073418278
1220408,1,2.658547048039186
880366,1,2.4320598009602485
1606614,0,3.159369488712276
995367,1,2.5588759712040714
3070442,0,2.318134263489906
3408266,0,1.6530862217544509
3199568,1,3.057355948827632
1427611,0,2.069979822110898
1490614,1,2.2298842210384113
3938161,1,2.587870816387537
372202,1,2.729785916104845
737506,0,2.1378524920567674
2156771,0,2.3442291295396727
1218399,0,2.366266981666385
832248,1,2.6584878911434666
2421611,1,1.574928169057817
1606188,1,2.391927159892509
1710093,0,1.8191617411313523
3154295,0,3.007523393045883
1523863,1,1.59704958363477
971170,1,2.559381740388719
1296976,1,2.1219114001961072
476135,0,2.5519311208061617
2503624,0,2.6147793128157675
687253,0,2.772451117786944
877738,0,3.6712645725383477
302145,0,1.8339116142100345
2896563,0,2.7174209631609827
2556665,0,2.870228800297744
1815165,0,2.0373022057812618
1207017,0,3.505717553468085
228133,1,2.1518865734836834
2020778,0,1.2177586873092259
1714515,0,2.8023571354996433
1094242,1,3.826973130483669
1723782,0,2.828770480639441
1284178,0,2.5183113372319026
1568772,0,2.7089986227063028
2573068,1,2.2956523648965903
605933,1,2.3657249679939905
2887422,0,1.9266970707724502
3166430,1,2.491324954550965
948821,1,2.437477574660555
3304678,0,3.114334684174358
3007225,0,1.841823966838406
3371092,0,2.573558631964161
2578916,1,2.527007251098193
1438495,0,2.3751867961587623
1880306,1,2.3480922894034335
2200073,0,1.2229564026001092
2431019,1,1.4690980701067182
1092445,1,2.580188705452682
2060558,0,2.092019023818481
2213989,0,1.887237051463842
673393,1,1.3925786570691372
2703175,0,2.3924249334536474
1792940,1,2.3083428102808923
1352247,1,1.9908111879287569
3944261,0,1.7598997085961128
199160,1,2.80552135061503
415557,1,2.2165285509696426
347681,0,3.6867245746187236
633068,1,2.03633813886733
2618297,0,1.547986665333766
1480046,0,2.201476166153271
3090908,0,4.207424037665494
234151,1,2.823344041040725
677707,1,2.7924357035451632
3466906,0,2.538212777894156
1277981,1,2.5083756061198086
3346146,0,2.92480372403513
3393517,1,2.2324038033838596
3370405,1,2.5341084238485214
3204242,1,3.008223018723383
1764894,0,2.3231287572697377
3839773,1,2.443055348195555
1743503,0,1.8355726376502923
739959,1,1.903834818880862
2893636,0,2.450490354664987
3284901,0,3.27147906893097
2739799,0,1.333718780348493
1819600,1,2.193516244375379
2038350,0,1.9734068684490298
1084555,1,2.115750613913862
3858070,1,2.208734572840536
406734,0,1.9780038474992252
1859141,0,2.7204671893121772
2731011,0,2.1636657493707507
3720798,1,2.853245702971172
1716160,1,0.2767762523774485
3448695,0,2.5506610613982725
1614401,0,2.647175087551873
1624940,0,1.8931875403428515
418414,0,1.486429930088975
2919453,1,2.1684985757748754
300828,1,2.032290558577943
3092998,0,2.4038680952483857
1129517,0,2.7160083235173134
3728299,1,2.712447471687804
3845419,1,2.2453923547199377
2062347,1,2.915734783157549
212003,1,1.7310661010479231
1247605,1,2.3085499162428267
280188,1,2.939156710231042
3266187,1,2.0826120619363095
1322168,1,1.861040262447931
3108841,0,3.2929373822279002
3439163,1,2.6889011410216197
579710,1,1.6338061462391713
2392222,1,2.344223528513499
3753834,0,1.6151461346377889
626879,1,2.3362713664155845
876260,0,3.132346810938555
1894969,0,3.2802417472998275
2404189,1,2.1690265834993943
2980346,1,2.2733943281031004
1513623,0,3.1019593288804064
3788763,0,2.2936636174397824
2877171,1,2.3347023747208295
362566,0,1.8653621330953283
2110167,0,1.9407332575008116
3537770,0,2.0539094647071856
3393419,1,2.1538061993954996
2418062,1,2.373909134556184
2527127,1,1.89395661307654
1676830,1,2.5772050272278526
1712439,1,2.455293101127734
2199518,0,2.365463610349407
422947,1,2.262083161179241
3097795,1,2.011775435043481
1451835,0,3.8590055801140895
1661518,1,1.7705025656490374
1489106,0,1.6732842425664365
1577718,1,2.0011423531757293
3097451,1,1.9085816846297792
3877737,1,2.428655844358931
2764832,1,2.692998367946979
743159,1,2.1850759394048693
1836400,1,2.0785617197518054
3017803,0,1.937227136117017
2150918,1,1.6832767862343898
2568156,0,2.3851314105259216
3009046,1,2.5475227103134235
3038985,0,3.4245500230117396
1119046,0,2.221891076521893
1732874,1,2.517947232447883
2579753,1,2.569962554204006
2963528,1,1.324804307529766
1625671,1,1.7995824394071878
657199,0,2.2233126739225377
3269934,0,2.8117871535450036
2194211,1,1.7120578929106858
2466484,1,1.983861051663997
3253054,1,1.7126454716733668
2496946,0,2.8792900870756495
1709933,0,2.1845525784026885
2855677,1,2.109271263810049
2893626,0,2.7709068140671276
2634178,1,2.3040457449435094
3872596,1,2.1663122142967577
1214509,0,1.8644420631657215
3770371,1,2.385456031869782
2562626,0,2.481451058541629
698502,0,3.3228006318472083
2721918,1,1.5896849776564057
1914795,0,1.7759267250132131
616172,0,2.627131196334666
1730690,0,2.8680322666432887
623829,1,2.8324247387026817
3893344,1,2.9012261550244287
418337,0,1.658597673296906
1261569,1,1.4679743862212495
925532,1,2.3504755919333444
802150,1,1.3031306854215647
1539804,0,2.2110445679999167
2506623,1,1.611176025542849
3211303,1,1.8758792448727188
2227198,1,3.0353811183522525
2672799,1,1.5452407130272012
1710407,0,2.6164302429708335
3688909,1,2.549786615851202
1595972,1,2.4819701868199324
665239,0,2.392076308524079
2757805,0,1.9256007452687136
3703459,1,2.1465336638718626
3912826,1,2.1035541679885563
3466015,0,2.460149675128196
2026678,0,2.6831407673302734
1483297,0,1.9309401973497753
1239847,1,2.7349718261862472
3159360,1,2.16354336997077
3527896,0,2.0934304932242087
2767341,1,2.4194762171165194
567555,1,2.3590684055290225
1889390,1,2.7749941656658015
2970465,0,3.093590300704927
3687647,0,1.8124060050066788
2193875,0,1.9417352413070723
3495923,1,1.458061212423748
347927,0,1.3290953932486218
2938787,1,2.0236345661684916
1813318,1,2.0225252178499566
1615924,0,2.746647006375366
2437732,0,2.382704858733005
1792650,0,2.2737369341525855
2211784,0,1.8219673151897775
456787,0,2.970848560994093
1715378,1,2.2829710902013893
337777,0,2.2890232716680385
3884225,1,2.910651965548788
3918706,1,3.089503899782174
1614165,1,2.6655059353951063
1450297,1,2.7639905948441115
564511,1,3.4101943225775524
3805038,1,3.2419022281712544
1500016,0,2.5041511293670538
751586,1,1.732561472896139
2623348,1,1.6387273335218393
723486,1,2.158380178371023
3342778,1,2.329193284948033
2842785,1,2.1629299198450997
1167985,0,2.5603645275450773
1787427,0,2.035442267847836
2247951,0,0.7690648549238507
2997700,1,2.654787806547361
1504594,1,2.2614223148735992
644721,1,3.721993761627799
2748128,1,3.281943937819027
2614345,1,1.370143332232024
1844708,1,2.4099325742662643
3869971,0,3.245681535177159
3702330,1,2.004910023283253
1262349,1,2.2582893567622238
544164,1,1.6851737728481648
747863,1,2.603359019118745
3736823,0,2.6821953811994557
2647987,0,2.441378398251002
2595277,0,3.94287290272175
3509782,1,2.3393482586645415
1782148,1,2.435339773922
1339085,0,3.2897280548528993
1948225,1,2.149127527146308
3338195,0,3.0454089923394005
3864492,1,3.699779631954197
3263327,1,2.997549150303983
3914975,1,3.364447734072039
3366070,1,2.596959233193009
989342,1,2.8064452471958674
3079579,1,2.2137988581146653
319961,1,1.847677174783259
3027450,0,2.3667792460466064
2263937,1,2.1663976120749053
3529975,1,2.2294041946314023
2620542,1,2.366124023936656
1467431,0,2.6121504954464636
3661130,0,2.565782591161719
830242,0,2.4100803760233487
1071317,1,1.8625175722517784
3394656,0,2.011084776526208
285415,1,2.2654515631012178
1373459,0,3.031243332095224
2932004,1,2.8609317096513447
347482,0,2.5495574152327642
2541861,0,2.170430797643708
1567812,0,1.8856335409318057
1613080,0,3.302739807632522
760668,1,2.3997504334333133
3707137,0,3.04720263087464
2153698,1,2.166242561336847
799961,1,2.2880878223083294
2561966,1,1.8915997380978358
389895,1,2.265066981800532
1679184,0,1.1555886770379729
3205769,1,1.9620156073412716
1035325,0,2.036982759510079
1280212,0,2.445435405098114
193574,1,2.1951085412431866
1605037,1,2.4675424133644643
3338256,0,3.47303614191857
244308,1,2.8798471183748564
996478,0,3.933929709813606
226291,0,2.699755899049794
1078321,0,1.9734226746042471
3789072,0,3.0417508097091455
2986710,1,2.0779130154560104
2397800,1,1.8758645837023116
1370235,0,1.671231130009085
493354,1,2.449995336702707
3385415,0,3.0320977765169292
944567,1,2.6331293313139197
3147154,1,2.4305362437039904
1727104,1,2.302685888975373
2225904,1,2.575366526936172
2753885,0,2.5568880580503706
3330259,1,1.4663286448242598
921292,0,4.14482477534523
461952,1,3.4438249572191655
2545577,1,2.6275770356921795
1946809,0,1.8047334523852951
2037461,1,2.381184425280152
2807033,1,0.12014446001140044
371049,0,2.3506223974345746
1314033,1,3.3570050748322133
2403443,0,3.340713561070558
3504542,1,2.085311292541797
485801,0,2.1611138484290446
2204872,1,2.8584372628165693
3709080,1,1.6595758952639257
1775302,1,2.737069771704747
2187771,1,2.362194360321086
3779264,0,2.8578001375771853
3793179,1,2.98633498414905
2779472,1,2.7966573596513347
563719,1,2.0716197202233846
3133811,1,2.385173367226596
3896038,0,2.7244897704272657
1710486,0,3.233218287981912
3452508,1,2.7403557701073717
2726331,0,3.2119845449953983
609348,1,2.314441862091132
1487607,0,2.535356517746222
1211674,1,2.0836902097617997
519010,0,2.699980941461721
1998070,0,2.389612402763589
673945,0,3.641682409132777
1432394,0,2.7807630913623185
2690091,1,2.3177459645401104
1241064,1,2.032480215621349
3675735,0,1.3983397009759266
1702410,0,1.7484729776986345
1169437,0,1.1983676053571164
2810004,0,2.6732410779017437
887053,1,1.9380997907777886
1731662,1,1.5668438905385553
2059814,0,1.6324480377652981
397243,0,2.4319809380568196
2176098,0,2.6509337994671602
485045,0,2.3197061864173016
3531820,0,1.758109138374888
2798315,0,2.388231447154976
3887745,0,2.037052260595889
2577457,1,2.5329474655849804
2935824,1,3.0967121300071576
1735962,0,3.4329701411563165
1008519,0,1.2247339939452395
3522264,0,2.836668498881391
1753048,0,3.065023549686472
3923582,1,2.5796397349457516
3913457,1,2.4200299293583885
1258009,1,1.911479981856709
3783745,1,1.7524867044483612
2801525,1,2.301670862480232
3724207,0,2.2862655548080832
2655396,0,2.1586826260645537
437046,0,2.444591416994079
688232,0,2.294439607728696
1397393,0,2.363177671470023
2153943,0,2.9045151697845193
2568647,0,1.9030478904082189
2186869,0,1.8545307477888766
1306668,0,1.865709676646883
1593704,1,2.6179836478026455
3475399,0,2.4053251406071645
2582847,0,3.6890648263451644
286234,1,2.0308970358149714
1495707,1,2.5450136668671464
1760429,0,2.529683788061548
401958,1,2.240221800307561
2202854,1,2.0815811179461807
3238660,0,2.278178777895569
2893414,0,2.9465162149528856
3294450,1,2.5947267781810783
2925267,0,2.90791844015259
1242475,0,2.786700664606273
538690,1,2.8649595587709653
1261754,1,1.8711124313270744
2725833,0,3.428873428314561
2392344,1,2.3182376172797032
1679227,1,2.1810824265445397
2626699,1,2.5328863238581327
3081468,1,1.0965272882674129
530843,0,2.9918506759424845
1724113,1,2.2113212098891073
1618838,0,3.654423964947274
2533962,1,2.6756611519227507
3433326,0,3.1233536689798047
3910200,0,1.8327677887665454
3912383,1,2.154288024300728
2260262,0,2.333293958136029
1219915,1,2.3795033404277164
2006581,1,1.97873468042719
574767,0,2.1232377769745714
2192545,1,2.5726852797022626
3866026,1,1.9325944137308215
522429,1,1.4735412103659207
1157924,0,2.1642524008569186
3901535,0,2.5599615999535352
2927723,0,2.070847442018304
541033,1,1.335889980029656
1560485,0,1.306682314005819
3739683,0,1.936692819082679
2833665,1,2.1660054580718704
1103153,0,0.5070936252752222
2853961,0,1.8792216083659836
2413368,0,2.1840048838527286
548604,0,2.0655371702883967
3152430,1,2.0660821241980263
1414190,0,1.8591136961977939
1034788,0,2.1242089061093723
2648684,0,3.7118225365309163
2691372,1,2.0785325166048887
2390932,0,2.245474635490251
2716860,1,2.4925921353881346
3293973,1,2.0601174821140806
3503295,1,2.760183330929345
1156137,0,2.514247321740439
3260802,1,3.1071969827166703
3213180,0,3.6763797607535333
2219749,1,1.9241061403135429
3781577,1,1.6954091135715097
238489,1,2.2235230788367106
2422721,1,2.6812117140693683
3707073,0,2.2885955181751894
3392708,0,1.4360125434483737
246539,0,1.6972759115530769
1744374,1,2.6115546538510475
2635422,0,3.185732226793448
2731645,1,1.3378575731573994
1230986,0,2.4898213009420367
820074,1,2.485408933625979
3462666,0,2.003105466202461
223736,1,1.9608737765998945
269145,1,2.5901482850239352
2144058,0,3.666155533853139
3878861,1,1.9103892093110633
1325965,1,1.6774300750331572
1907605,0,2.2709581405415227
1322687,1,2.3012144374490084
3279250,0,1.7313640351430284
3522717,0,2.6300103649513757
3082553,0,3.505897128944497
596184,0,2.912000941220297
3492032,0,2.261586110633518
2247686,0,2.590026798248201
681174,1,1.8873151237998878
580100,0,2.6091206573410917
2797443,1,2.0571516207700404
3512045,1,1.7659608280573167
257231,0,2.2173281726674445
1534261,0,1.7717500943736635
633404,1,2.818944765685183
483664,1,2.416768640469522
1401118,1,3.016394256331421
3755395,0,2.349584863756437
3918580,0,2.4717459264144894
2584913,1,2.5456228133045293
1341108,0,2.2570041132117624
1100806,0,2.619418992604525
1128937,0,1.737592710519674
2916653,0,2.7358504843304
412640,1,1.8051091064629874
1873969,1,2.3607033862887867
2843686,0,3.261307525977145
1195879,1,3.200789020984878
1401316,1,2.5107012546030636
3214450,0,4.043275264169331
3537389,0,2.7266632330410743
1245011,0,2.7135522162552617
2155598,1,1.98529338083085
1990040,1,1.9765622256421793
1641087,0,2.1308951547374537
1079092,0,1.8883997568014728
1012771,1,1.1578334560711783
2438843,1,2.9314965227717336
2525347,0,3.8246063458356785
1960538,1,2.0945491535963217
2917364,0,2.447608857204365
1275623,1,2.558075796487354
2741432,0,3.4300854217191428
689755,1,2.4252503817095845
1571117,0,2.968307469924925
2685274,0,2.3786616902419975
3156909,1,2.5181321851898546
1759631,0,0.14732221615837116
959750,1,2.443721642635763
2548518,0,2.713621919301486
1015164,1,2.4103125415785427
313678,1,2.137906922130087
2965238,0,3.64651461056847
1276240,1,2.9124428382322467
3162435,1,2.4620361766898218
1125661,0,1.541532944578884
920308,1,2.430838963581086
3842187,0,2.67688044782118
3741390,0,4.100233304727925
3651424,1,2.1043350748860066
3870236,0,3.300489531538914
3898132,0,2.139583591737416
3697979,0,2.3072623160884236
3925797,0,4.1218899393410044
1221701,1,2.3246800114804014
1495891,1,3.545063928975072
643339,0,3.24551481286844
3805854,0,2.2932047603982277
3740902,0,2.237443057232292
346009,1,2.542550166092965
3168201,1,3.3051317840059418
1919092,0,2.675215914212056
626101,1,3.2386663525602186
1980647,0,2.702878602779563
3790885,1,2.52933051420764
3019617,1,2.1001160603664966
2807150,1,2.122686254712922
3133748,0,1.787352231396475
1864950,0,2.349363061123242
2285266,1,2.5182512627202263
3046787,0,2.2826739197192247
1751644,0,2.3174655241390143
3098335,0,3.3799794436414916
2403887,0,2.3690126199461057
643056,0,1.4800751491188313
1241472,1,2.65767897733798
432973,0,2.2640661526053725
3099096,0,2.3912163941547924
1064287,1,1.7353567773619574
2036000,0,3.0239406469671306
2929385,0,2.441251613378613
321997,1,1.976258515895418
1719502,1,2.533418722423026
3799502,0,2.121046118373046
655393,0,1.8140422435965124
203399,1,1.5740331750518122
3913641,1,2.5308024106026723
823858,1,2.6486690362397627
3029461,0,3.0234964605019456
205608,0,2.8240861622360462
2577954,1,1.9810999710874446
3482397,0,2.6550253592556965
627641,0,2.1246364062640843
2248865,0,3.52085252927957
3081970,0,3.472536228454333
1059038,0,2.8303445164280068
1694877,0,1.690923910956088
2413945,0,2.03739453580331
927509,1,2.516288231902784
1246849,0,1.7782190856906164
2872591,1,1.8236448107985743
2988514,0,2.0162085376413375
1708626,0,1.6650757875975462
3375436,0,2.210471303804791
3485592,0,2.587970984597502
2190754,1,2.652639491836623
747939,0,1.9749809101184272
2701705,0,1.9223004334973561
3874824,1,3.0271618637881494
230545,0,3.831248580391226
3419550,0,3.0272396216823663
2436310,0,3.347605539890063
1666860,0,2.6224012416147318
3876219,1,2.1155097333378663
2651916,0,3.047527953632655
535334,0,2.283698986959329
2216865,0,2.4195955838003025
2676226,0,2.3086003779815267
2748477,1,2.9415749623573535
3322653,0,2.9455116389411478
2672712,1,1.656526937883907
3453179,1,2.2775807593007813
2641456,1,2.6649411418112074
1601353,0,1.7839518942525783
1888645,0,0.9966341030843587
3658716,1,2.5424922660999707
1434524,1,1.8015083870600355
394687,1,2.5139027719524516
3523897,0,2.555721617415752
3236202,1,2.567944672622149
1228720,1,2.0708147769186436
823008,0,3.120851472387801
2603577,0,3.330771228314465
2456100,1,2.278841414417096
2195031,0,2.8177382330475638
2064404,1,3.792928418288936
630481,0,2.4801014152412346
1139271,0,0.6360553767971637
2592955,1,3.165421277918456
200863,0,2.5633605480036197
3183453,1,3.861814647380299
1265928,0,1.3884125173985604
1944503,0,1.7715370411728264
2741390,1,1.3728349642758695
2106608,1,2.4476312170559518
1960144,1,2.392146702379925
3781016,0,3.216807397641967
2673714,1,2.6420646707984217
553184,1,1.8890480826711888
3734135,0,1.8181349232561237
2981680,1,2.604023457665636
449549,1,1.881733447693704
3357161,0,1.5555760411623496
1846397,1,2.1262722940623875
1550157,0,2.3572869013491085
628580,0,2.7706975018072826
951357,0,1.8120856169472632
300548,0,2.253029446630598
562189,0,2.582463910480114
1277825,0,2.7595708867507955
1648547,1,2.33144085673896
2796693,0,2.3910245947361832
2406179,1,1.8708155939884958
1750094,1,2.1280344391283457
2470330,0,2.728983115951844
3029368,0,2.4007737376477927
2189125,0,2.187749531724409
1706550,1,2.320133784532143
3202839,1,3.1537089500539897
2897132,1,1.672006646415002
3790287,0,1.641155411481245
1878748,0,2.7219742178641337
1686008,0,2.4569055762794814
1937224,0,2.0573467670767087
2986819,0,2.7491765186350756
1438291,1,1.9235331854483713
1410079,1,3.496521998176165
3936058,0,3.3506245819534612
876419,1,1.6091882898876002
1647062,0,2.576017574992346
3781285,1,1.5466186052228938
288095,1,2.562531585856798
3235350,0,3.220893754013815
421330,0,2.229372965495959
1689011,1,3.1710281037776684
1670328,0,2.439724665945719
642884,1,1.6524947181479681
3354664,0,2.7008564491974165
3104674,0,3.2308368852240648
1326819,1,2.80843475692379
469464,1,2.459533265562001
3417076,0,2.5250734398550203
2468618,0,3.1746197457769894
1602343,1,1.4995890931813727
2802748,0,3.777124672510657
1887234,0,2.0659223628897063
1242255,1,2.1414950338170526
1865655,1,2.5930117597549986
470456,0,2.2048230189094538
2705971,1,2.543254772429334
1752402,0,2.57317717948241
392551,0,2.455954111404223
501836,1,2.4311925896966318
339487,1,2.061908343609617
3331325,1,1.6787634387591113
3714057,1,2.45655872076013
1011882,0,2.6775805186527784
3304719,0,2.3073355403390887
489098,1,2.5633126412913816
218652,1,1.2597997114211523
253175,1,2.396258463362982
343743,1,1.9944473629720558
872673,0,2.516986121973801
2154022,1,1.6953555879100066
275903,1,2.0271126399932364
2702069,0,3.063360106517195
2152770,1,1.5403934597773543
1535958,0,2.2153519266409516
324357,0,3.300640632189677
1335156,1,1.8361989894988284
3764967,0,2.142402960759649
1293298,1,2.62958237753778
3795293,0,2.3047317426803207
1293017,1,2.0885592133560804
273033,1,2.675295591956974
3275870,1,2.357533530404492
2604270,0,3.7519836418540664
2154748,1,2.3046995383839914
3136907,1,2.3182051977565656
1554318,0,2.7045877987828404
1115389,0,2.58609683675759
1531708,0,2.533016954087227
646008,0,2.109355858553583
2243461,1,2.1596353709724476
607855,0,2.254043191885476
997786,0,1.0620201274571328
1916629,1,2.2521704498245643
1713253,1,1.9856999093486016
2739651,0,1.5137377452522527
1023825,1,2.8693259983256105
2465711,0,2.77902602940896
3471309,0,3.5542674321540693
1135962,0,3.2101446002246785
2577043,1,2.175866937891782
3690904,1,2.4714415852243286
3835544,0,2.945127578023774
2442091,0,2.1713491823923836
1338560,0,2.175971860583269
1030584,0,2.450675768093735
1825194,0,1.995201941707021
587602,1,1.8334849796837989
3000443,0,1.6905235535052814
745094,1,2.339105700475276
896077,1,2.562296175817709
1257304,1,2.65023809070722
3228743,0,3.612893943146452
2672828,1,2.500311543767325
3146445,0,2.2367205744498775
2276147,1,2.128665112144085
1560351,1,3.198573082114721
1882488,0,2.906628850172002
3214323,1,2.079792108423807
3846935,1,2.17092976359805
3063507,0,1.3225905533129807
2795447,1,1.79398147757722
1295931,0,3.7214087372010782
1597799,0,1.6675075717277381
1129596,0,2.6287885499211487
2492353,1,2.4796657091869294
1534822,1,2.179912153423371
3038239,1,3.104853677196134
1747858,1,2.1681877087805224
1713983,1,3.0972970575037424
2697804,0,2.1130026871507024
1064331,1,2.211630365716239
362646,0,2.3568144384709435
2628464,0,2.285028673459394
1754807,0,2.0040642270259257
876377,1,2.294594326262316
2420039,1,2.507639195696275
2837035,1,2.971593873993626
3674906,0,3.658530570245396
858534,0,1.9360926871219393
3264205,0,1.8682508226701597
3856124,1,2.8417521264539207
2988018,1,1.8233191665515276
2250544,1,2.6170264030492008
828268,1,2.7530777664777606
3229342,1,2.3546625802617704
2433490,0,2.3372362631304173
2427354,1,1.9073644436848727
1527380,1,1.9435167582299373
1734314,1,2.0602179977945423
1228166,1,1.8817867855691914
1869728,0,1.874591795196995
3224675,1,2.0796854076338627
3327350,0,2.2005152919455613
3048284,1,1.502254893366442
3749325,1,1.9055031288205604
395797,1,1.47275331075816
3511483,0,1.691866974609857
915009,1,2.5180952071046927
3287183,0,2.2227287581221327
3654956,0,2.4539854723904213
2733093,1,2.4463225396527686
1302443,1,3.0149151866436807
309873,1,2.387203222704622
1145724,0,1.7979372298587828
2896796,1,1.4668622402727436
1693146,1,2.2884690930031297
1164624,0,2.921274601413559
1332100,1,1.8743525270504036
1280711,0,2.4606415233937926
1205763,1,1.9868855794131597
2188103,0,2.8181250856158373
329519,1,1.5881104412152158
1905276,0,1.7884907656557898
1068700,0,3.189817412741739
2542402,0,2.4149389206591776
3684083,1,2.209841430018061
1166773,1,2.0324117659448557
303404,0,1.714493864621636
904913,0,2.0021438801568436
2105398,1,2.3125288529160892
2531741,1,2.846622770733408
3234647,1,2.7803033960618846
666246,0,1.9988280949348516
2860299,0,0.738442626769433
2023337,1,2.0531032239015663
3077559,1,2.687061160846882
1960545,1,1.86823171569033
1471597,1,1.5033100004759792
1460595,1,2.5379957842609278
849068,1,1.9135382947263002
2498824,0,3.3800033884205223
3039696,0,2.9619463107789934
1386205,1,2.219268793374005
842710,1,2.6750122364802515
1864042,0,2.2487686059281224
1868882,1,2.049362281694907
1918222,1,2.588856202576543
2398426,1,2.1553750014226054
3480007,1,1.2110949992569284
3732379,0,1.6960587394009545
1336891,1,2.1395552268667437
356207,0,4.634112629891651
974111,0,3.3854341727588197
1210956,0,1.764528044069342
2621832,1,2.2737602215937547
1990862,1,2.132012149277676
1890716,0,1.956080086197566
2410332,0,2.984346807088748
3958184,0,2.039847928239711
582478,1,1.9194696502038138
701327,1,2.2942299334908745
1347314,0,2.2571056910126464
3488595,1,2.219555404356706
3799339,0,2.6142684005970405
3192394,1,1.8664462720796886
2665240,0,1.998498244997324
2261451,1,2.008291718213737
856346,1,2.0923879143250756
2879421,1,2.7266271651453797
1934921,1,2.239166063049689
1294364,1,2.166104171029092
3508465,0,1.8654905893364186
1094826,0,3.0407505005239392
3921450,1,1.9252603885496833
1259761,1,2.4559781515508106
3321360,0,2.10494673863017
1259354,1,3.304171479160191
3521486,1,2.8298641965561226
507077,0,1.8417211882111817
321376,1,2.3325718826289195
1617542,0,2.098428375564781
997482,1,1.927851895386092
868069,1,1.2389155247617811
731524,1,1.980939771392454
390504,1,2.548191574608274
3395257,1,2.3400362439859546
2455620,0,3.0069056801029914
2818646,1,2.0008134722917963
971724,1,2.7392632233501044
390475,1,1.8814520340621845
1154401,0,2.509283634785519
970774,1,2.2888049848255347
2555881,0,2.3466937030206507
269936,1,2.2382533212067957
382260,0,3.4729500205849924
942019,1,2.353671425111606
553450,1,1.7453523723688678
3136593,1,2.791309927653276
3505497,1,1.9211778177363157
3064689,1,2.541456920681605
662647,1,2.737450866703126
1860026,1,1.952937715069129
2645204,0,2.646647884895997
2768362,1,1.8586467753998626
742758,0,2.1372561029039336
225303,0,2.6251718106819997
2963156,1,2.548969349576036
1879873,0,2.586915754636119
3494440,1,2.8569673938563005
2549192,1,2.7890844770083123
674724,0,2.195881862778575
255092,1,2.305124116818094
1816448,0,1.9970571358738383
2998628,1,1.4934445980487936
1004434,1,2.7316539492115957
2038766,0,3.139359691412508
3661837,0,1.9734252934795662
3539877,0,3.723676208973998
945100,1,2.8176247356519517
3679995,1,2.1336259328498004
1089895,0,2.056455642245534
692605,0,2.3495600798880827
3251194,1,2.2867758280170927
597704,0,2.0007494755265784
286790,1,2.317281519344248
1170034,1,2.405341746783838
2810231,1,2.1437872697624933
908176,0,2.6672490465788425
472592,1,1.7845353862350661
675142,0,1.9417684123722776
389484,0,1.4705324428965647
2869249,1,1.7834110583224114
1718175,0,2.960162916640143
2013729,0,2.6389205986165107
1159381,0,1.270404172470216
867808,1,2.0548854309912437
1505111,1,1.9275901687903323
1830438,0,2.057979533974164
2692458,1,1.8116450195130238
3026532,0,2.435882693890024
3006181,0,2.2148279545507625
716417,0,2.997229037408595
1093903,0,2.2323044708428736
1733441,0,2.8209466938035828
2545418,1,1.8947852923674895
3536506,0,3.0083490783706393
1897559,0,2.303635326646045
3924354,1,3.1308504067387766
1363607,1,2.322931505021587
2206591,1,1.7150075413781454
215362,1,2.382483917959688
888036,0,3.0727007333489302
3229650,1,1.959136946021736
479608,1,2.0085474054705794
1132961,1,1.8771080396575441
1448162,1,2.4282443194576255
3468494,0,1.98479015153039
3799781,0,2.768968995667081
3194899,1,3.002389587535558
3194034,1,0.8902987467456362
741342,0,1.9371408463190356
1064669,0,2.091785760264921
1596513,0,2.9765607041728117
3098373,1,2.5317425136027767
719692,0,2.026413265403225
1971153,0,1.936402102849489
3674172,0,2.7471221357034836
420071,1,2.4455256223957393
380762,0,2.0447617641929092
645661,0,2.3835761829254896
3535113,0,3.173043505722811
1513510,1,2.1706254557884446
400224,1,2.422942373175475
1221155,0,2.7975441959156715
1212339,1,2.2072016126608522
2872500,1,2.0869432867621764
3025404,0,1.9448180471265273
681516,0,2.9498784963720257
3015248,0,3.3832296303585627
1047372,0,2.275797253669176
490354,0,3.067991493798109
1322188,1,2.130006425898952
1141929,0,1.5388849476006787
2935152,0,2.117477779584261
592144,0,2.8755608818124037
986409,0,1.1220023322079493
2266320,1,3.131359259990316
2589142,0,1.7120409706681432
1333783,1,2.2306538136224474
1081682,0,2.7340020764514854
1043240,0,1.2497665247414098
424869,0,3.0786639983810016
3180225,0,2.352896843783108
379567,0,2.216346604573584
3680497,0,1.5839108251322116
456162,0,2.8671533563546276
1553802,0,2.2818262640179867
1603086,0,2.1651231558574118
491958,0,2.3793798362038254
2680538,0,1.7355639945398045
3787621,0,1.8897053235586279
2942254,0,2.2505263014925014
2760310,0,1.465396168157278
3257826,0,1.2474174312149342
2891956,1,3.1622309932254056
3836620,1,2.3193771819363094
2258231,1,2.14698524009186
1951608,0,1.8768640934903589
2051079,0,3.7106117496322426
3238866,1,2.107898763484318
213049,0,1.6412790083024413
883573,0,0.8769720708468397
1778054,1,2.4540476617254923
2196257,0,2.98822698174551
984880,0,2.615842111000712
2643750,0,1.4571489181555384
1419181,1,1.943293655478556
539603,0,2.9163975514108156
2483590,1,2.117028704062231
558998,1,1.8840625516891782
1094412,1,1.8681145792044518
842756,0,3.6296289548599114
2205554,1,2.436574111559961
1451378,0,2.4190938153605828
335560,1,2.010374228036588
1268655,0,2.5678486479812337
1359487,1,2.4543097809180456
1943178,0,2.170142082562325
953029,0,2.3773158336580233
3219020,1,2.9110730901680184
1307807,1,2.5518227551820942
3005577,0,3.4680972846994327
3198628,1,2.1278424079366536
2422559,0,2.732121159152274
593233,0,2.6083668352908935
1623521,0,3.151558855790218
1995342,1,2.506578318386192
1011694,0,1.6140064207825813
1670875,0,2.682215221212923
3087331,0,2.3197686265542563
1498559,0,2.033586645614406
1745665,1,2.8249532695205706
449732,0,2.4656029798623273
3462019,0,2.423290729643464
3203453,1,2.7590304983508123
2544427,0,2.528551715932897
1682747,1,2.823752519436929
987351,0,1.973840122643474
3341700,1,2.503951168922521
962185,0,2.0562663880212453
2758222,0,3.6112918597257284
2468162,0,2.6734210235271862
441453,0,2.2280316600817054
2891200,0,3.4183293527818965
2659528,1,2.570438489156138
1324411,0,1.616715964197578
3959347,0,2.0620652474003522
2481764,1,2.8349547827103487
1976722,1,1.19825389961355
1347787,1,2.7536704024929053
2898236,1,1.8466945972703972
2736314,0,1.9601430037504706
2718713,0,3.5296809077897096
504617,0,1.9292075346211792
3496506,0,1.710090172121325
715114,1,2.229643059730086
3310785,0,2.5087009397482896
2244008,0,2.8288318213677623
1357139,0,2.1328152836101064
924998,1,2.5055030301288532
1303318,0,0.9789973049933196
2259875,1,2.159963402746755
840419,1,2.3535792076685866
1249023,0,1.78770509706298
3340555,1,2.68793922488883
3936033,0,2.7559033276759903
1507250,1,1.7339708087065593
3670071,0,1.7803842738689883
293096,0,2.5462947802292626
1342499,1,1.0411831000520049
2847816,0,2.658603749084381
3239384,1,2.3858066372335336
2871836,0,2.0595278240709227
3320437,1,2.1891059172350245
3101175,1,1.3241351294473787
2149774,0,1.3193701164634168
3466818,0,1.962744011238515
2888793,0,1.9246699480573148
1603040,1,2.4598948321326772
689316,0,3.9308798619637364
1395689,0,2.8590968701740147
2855117,0,2.3894365563332998
3137030,1,1.740094549663018
1729181,1,2.5234174958501443
3535181,1,2.0350452667909242
3475869,0,2.368284722218422
3305529,1,2.388766484575764
1793028,1,2.63635031016493
2989948,1,2.20208680181164
2142765,1,2.8977996686593173
1940273,1,2.630582778091027
481508,0,2.453369711447182
1318126,0,2.880372454421222
2883960,1,1.7462084134937428
1753006,1,2.612284718849831
1000812,1,1.5599498669198497
1386469,1,2.9199222945501546
3253488,1,1.5948764346773974
1114988,0,2.80056038373412
2997086,1,1.8816304983281584
717095,0,2.9197063766577207
2219760,0,1.444575841965721
3024741,1,2.286491040024055
1210074,0,1.516329905322212
1226249,0,1.986947779669547
2425878,0,2.1302134628638445
586390,0,2.260204696461452
3063776,1,2.4322582585484627
1345124,1,2.723124694591467
1793816,1,2.8421464791147337
475559,1,2.5976978336468215
3518806,1,2.210066210487956
2981964,0,2.867621328810063
2820554,0,2.7515708057055903
2589338,1,2.6881549338579087
3956890,1,1.6601708172846812
3260067,0,2.189209720500574
423214,0,3.232295106505424
462733,1,1.7117129920791594
3896629,1,2.9073910190001544
3352862,1,2.2150526100779686
1005280,1,2.0248051942594167
1259171,0,3.1949236082990047
1014753,1,1.8085928701943446
1770435,1,2.333581429007455
2251065,0,1.8135776233407745
2212156,1,2.4148411885610663
1074457,0,2.967489803693744
993158,1,2.5476560050911474
2783276,0,2.2809972066491975
2608498,0,2.757800683368834
3427590,1,2.342264081193966
1540100,1,2.3881591095851413
2209490,0,1.6224073679017739
1120474,0,1.6878228594696987
1904631,0,1.864002510339424
3340119,1,1.9958173495572422
3316146,1,2.2632112499045136
1875249,0,3.4926867949563434
998338,1,3.0383403181750905
807950,0,2.4213544199178876
1792063,1,2.247134075623034
3231456,1,2.624685334536014
2112192,0,1.9295317397782834
3471058,0,1.997021146846199
1712945,0,2.4966038507657276
3265217,1,2.0696259737889315
3896676,0,2.224334420727711
508596,0,2.1301054648401965
343382,1,1.7987924790901206
2040720,0,4.450258065392178
3074310,0,2.2960233172831446
910487,1,2.5151615349198178
3479028,0,1.9693196458985889
413914,0,2.178595531876709
422638,1,1.3333664448048372
2416264,1,3.578035162155981
2870051,1,2.284713273109806
2591912,1,2.3922194425238947
1512882,0,2.293956795900415
1375265,1,2.754996552291493
3517710,0,3.0397391287785887
3876383,1,1.7319957062848679
1346370,1,1.9870266957792626
1592245,0,1.7937779627300647
3118061,1,1.696454289526143
1281584,1,2.1545797710637986
301818,1,2.382798065908313
2273613,1,2.2561329262230485
574520,1,2.062243322165493
300477,1,2.4577453554235538
2869538,1,2.4395573340790953
1762714,0,2.559318787432377
3151612,0,3.2348620052932526
3003310,1,1.7774443959674096
1492483,1,2.301715803624978
1953774,0,2.1166679677464306
2922895,0,2.89326686690866
659591,1,1.4277391542663518
3393787,1,2.056085940484245
1721021,1,2.4867687852740015
212863,1,2.2069477278957037
2064739,0,3.1834732735861944
452036,0,2.243559127805925
513339,1,2.1029927160918387
2833018,0,3.237438715793228
843494,1,2.5839165502499886
1517911,1,2.2375701825906695
2246399,1,1.64713554953642
2874033,0,0.40794292142330674
3938644,1,2.035314691847158
2564846,1,2.3316575726052404
3887798,0,2.2051847931946567
3346607,0,2.8396065078670234
1523589,0,3.164413732923708
2142247,0,1.9934219879745394
3415904,0,1.8163211261595211
3385132,0,1.89297046335524
3024764,1,2.90802565503375
2420356,0,3.1227270185081033
1473185,0,1.9100797309199593
2133115,1,1.3786586607835818
1289646,1,2.8457491365251353
942018,1,1.6174841347478481
1135418,1,2.532945430081095
411137,0,2.3974020377191927
2273806,0,2.3006303865445235
370908,0,2.6041324368090857
1351645,1,2.0385093495317657
921507,1,2.9264160025076302
3854321,0,3.10575704624108
551658,0,2.2688672750841947
1763956,0,2.075257478684312
3208540,1,2.5239972411629297
1522064,1,2.583893778189399
1074053,0,3.331141245531884
501058,0,3.2531368360938613
3248440,1,2.025385031325188
1045178,1,1.9114458626106052
2908295,1,2.0356376633261415
411078,0,2.716406651426281
2540040,1,2.915153313771672
2785230,0,2.1065479247664585
3130693,0,1.6661179567220123
3334420,1,1.529213949425534
491183,0,2.6091668065920137
1984865,1,2.181918489518388
2758717,1,2.788880899368609
387056,1,1.9525958158212324
2154776,0,2.5864403787262824
3419678,1,2.2629832824558433
1156254,1,2.002612676761866
1477585,1,2.5320354078189524
1060023,0,3.4207648232113876
3432386,0,1.110060291252248
3911864,0,2.5623822649510104
2402120,1,1.9243014114764212
1202228,1,1.787758545103125
2166735,0,2.3608148426805164
3521391,0,2.4311825966615648
2591578,0,3.2361538373673153
1370135,0,2.012190201950598
1304940,1,1.482284470531293
3311482,1,3.039790738326836
3528769,1,2.5988032929176814
3925163,1,2.1555284209302386
3380227,0,1.257675995640565
1781746,0,2.4238405164216448
1602610,1,1.8987919751867004
2604342,0,2.6731409160276343
2619406,0,3.8573821413826144
3392854,1,2.177326363764592
2620245,0,3.244993743911215
2003033,0,1.9930678169567826
607386,0,2.586269375505403
2987587,1,1.729924970454141
2849702,0,2.059781708497525
1854922,0,2.4888998184702302
2033594,0,1.9481891587142004
2268887,1,2.313185977791317
2420022,0,2.323165255218135
3259173,0,2.495158709536354
1217148,1,3.1518845167980194
1271105,1,2.30156027556233
1916675,0,2.618916863135092
1088063,0,2.7376590553199076
3952581,0,3.6593107854163476
3807461,1,2.7617897696604885
2550788,1,2.4239993859492865
1454583,1,2.351194241900278
1137598,0,2.064599476776827
2695600,1,2.431474078624365
475266,0,3.3495599587051244
2505722,1,3.1011253219914185
1536603,0,3.0141151577318883
3100635,0,3.686299113083568
3330746,0,3.6532002558275822
2779118,1,2.0778944856067705
688591,1,1.5319072284025528
3394141,0,2.9324677397634535
281258,0,2.053370523433549
3497210,0,1.5253712545983302
1583683,1,2.2772805684573276
2186316,0,2.9950004699739257
2465859,1,2.2258583724078442
1778425,1,3.0918559979129756
1102913,1,2.612915717574761
1852839,1,1.8894690018207179
217509,1,2.113521152070712
3405949,0,2.2771471669300234
2527383,1,3.1796651291667994
3143249,0,3.3833865464194792
2769305,1,2.1963132111119803
2542727,0,2.6195241794801203
991969,0,3.3813475401252546
2005786,1,1.3705388120230897
711546,1,2.9006785786282965
1622134,0,3.4106050119924083
1415591,1,1.2156742306606911
3360360,0,2.254337137164105
3102577,1,1.3331452310729817
835956,0,3.001261594104567
3929046,1,1.7414671314417607
1264879,1,2.5465798749800763
2125012,0,3.1202392502615375
207834,1,2.0962464380254744
2571486,0,2.537283205354484
1963116,0,3.992975486456361
2893331,0,3.4042047210394046
2224094,0,2.997125457924514
3533710,1,1.734761263574308
1100951,0,3.5598479602885806
2263998,1,2.3236357477723355
3077529,0,1.9542529049700872
915841,0,2.685422186174184
3692762,0,2.1005097946909466
1789814,0,1.8328217764945414
969606,0,1.6967319361039102
2724412,0,3.098436437835344
3295370,0,3.7745840165055875
3456074,1,2.0308183587267177
3128230,0,1.622804882847078
2449942,1,1.886737107012551
1730374,0,3.3226131492900626
1532367,0,1.7958178433079
2883707,1,1.9074924130334783
2938615,0,1.8425380112282996
1105235,1,1.9272042532675544
1616210,1,2.252279378126587
3403058,1,2.1823672968595416
3247300,1,2.526806609371808
1242688,1,2.2186385007057976
227402,1,2.6627215548134244
359153,0,1.7957888404841968
404232,1,2.0221914261506693
2203574,0,2.0401282628772606
1298117,1,1.76437965100366
2770174,0,2.335592752227825
957629,1,1.7894430308907365
2021148,0,3.232286428558842
2175001,1,2.5135521766607605
1072824,1,1.5372290099386032
388739,0,1.534545346123035
507026,1,1.9018262091756843
1641029,1,1.273939121276144
2597661,1,3.1248190332717614
2399241,1,2.6744032863094502
1632200,1,2.7395030469854613
670416,0,3.0963576564532955
3503701,1,2.167624113050066
3212397,0,3.5031283943428786
525879,1,1.5760990469654719
631019,1,2.3098020241221833
1569657,0,2.6176412474289052
3396487,1,2.9117327876509718
723763,1,1.3240943594644756
3210681,1,2.6673930626822715
2752008,0,1.5517947579170528
260991,0,3.1535386570482347
2263741,0,1.7004422969522457
