sample_id,z,y
3731795,0,1.3106195221278716
2587226,1,1.382926640072333
2625822,0,0.9955592616074209
3448236,0,0.75470280640432
3304719,0,1.2515500955467187
1781175,0,1.137322272734365
1707247,1,1.2466119970018605
2845439,1,1.1574555774104187
1731006,0,1.0363017205699163
3797232,1,1.185518877416043
921682,0,0.6170388587916078
1289626,0,1.0483212649863929
1283680,0,1.2714424790019068
930116,0,1.1110472328388308
2462346,1,1.2801327000964573
1892491,1,0.8141968992566894
1557884,0,1.5080298923961837
3174403,0,1.309764288440592
2759085,1,1.2689725164380647
2814079,0,0.9913758239856615
1664378,1,1.0099156137289658
2662859,0,1.1372964980096534
2674102,0,1.1402189391458044
1414926,0,1.1694151807647528
1011451,0,0.9175335860012792
980093,0,0.950763743226327
2535302,0,1.1634030147222991
1957365,0,1.1009157544275556
1369921,0,1.1204572359468112
3061240,0,0.9683115486001878
2994091,0,1.232954886991012
2983277,1,1.041691935367955
514948,0,1.1685253078342641
3271305,0,1.307284182945252
2563633,0,1.3163546537713648
2255214,0,1.3279567507318348
3833006,1,0.8864047626549709
424461,0,0.8950895030031174
654937,0,1.101353841031053
3463343,0,0.8773936796227687
3653881,0,1.3516537960430968
2544725,0,1.1033933847190063
2701962,0,0.7453233054129773
3734530,0,1.0977425680323996
3677000,0,0.8746689471774911
2601254,0,0.8900220898404327
1907272,0,0.5459854151247463
2196348,0,0.9220964489096783
1023836,1,0.6254960589355819
1347316,0,1.2747950296192125
1091693,0,0.9571271747325991
1033478,0,1.120516356648798
1945407,0,0.8825544377597002
3008683,0,0.9952574149629907
3674120,0,1.0336889932613864
2144014,0,1.0652094314807785
3382439,0,1.0754559269065869
3425848,0,1.3454769508411344
1106524,0,0.5273111077478851
407917,0,0.8591957791155526
3410672,0,1.1535499304931083
450992,0,1.1056142664164568
2142336,0,1.1794583655495032
2479900,1,1.0914331535646002
690022,0,1.074416417623492
1561443,0,1.2283143456159105
620340,0,1.1309559547958516
1934210,0,1.1416994668622333
2281673,0,1.0715697669919555
2520993,0,1.4021256451581972
1815874,1,0.6388572092168653
3001635,0,1.6113919681754627
2003595,0,1.421949725306987
1507151,0,1.132105814546421
947713,0,1.0087077504344226
2274578,0,0.9572813385584797
2241017,0,0.6908917745478349
3836550,0,1.1563906949502127
2227036,0,1.0690375067205147
1827146,0,0.8042833812305576
2430630,0,1.2278638010761949
1811374,1,1.0299804572476932
1756441,0,0.8058623952154617
1594025,0,0.9564557258154494
2825742,0,1.2642492151031977
3849142,0,1.287476349599383
1301767,0,0.9145631235377606
1597762,0,0.8620151376648497
2264260,0,0.9387700362786962
1694877,0,1.3456239320102772
3403779,1,0.8939238690282483
1231290,0,1.2626983030124872
3358704,0,1.18089373391083
1538471,0,1.4532776674194416
375902,0,1.1037720822355581
3533176,0,1.2694998087345095
2492746,0,1.197462840491502
1782170,0,1.1327150337907275
1648759,1,1.7718548194434387
1130443,0,0.7722789123880719
280032,0,1.2548590026355855
672708,0,1.2619281311621495
502460,0,1.1259999450046674
2686984,0,0.9684321143291212
1056612,0,0.8719253829178011
403227,0,1.3444622018188668
807918,0,1.0524024888031625
1884976,0,1.0326873448870715
2572932,0,1.1565133828319762
3296735,0,1.3841379992144898
1135238,0,0.6942952029398719
3398844,0,1.0767733866254168
2941916,0,1.5291413494773523
2947825,0,0.6648280118205394
1990507,0,1.3107024115025367
3095722,1,0.9605237491329456
595805,1,1.3124467567650253
257827,1,0.748408345837205
3252027,0,1.0006391163036943
326313,0,1.0367395057120328
3058601,1,1.0608333041924638
267355,0,1.2588268259432498
2843538,0,1.4355028325964492
1916327,1,0.6309651520801528
1844856,0,0.6589044043528313
1870411,0,0.954870571667253
3904723,0,1.288612887940309
580273,1,0.7306635361484036
3187218,0,1.1777221950230108
2781003,0,1.2954633872127141
1671645,1,1.0547404983070088
998691,0,0.9992330084923507
850851,0,1.1712783530617368
3800220,0,1.6804562264784446
418746,0,0.9330301816029785
551364,0,0.9314782430096952
1706707,0,1.050216101933525
522816,0,0.9358406591184718
1838190,0,0.8241246639325976
2762468,0,1.001767710609268
1598511,0,1.1008566832155877
3842350,0,1.043678587440519
1616395,1,1.071492493798378
2862486,1,0.8816351810678043
3488468,0,1.1647958243332108
204148,0,1.101487423868141
3847089,0,1.3091873046157132
2853779,0,1.2725987631917068
3201230,0,1.2249869187987505
2988010,0,1.1748736892999205
2669785,1,1.3234588235531537
859360,0,1.0961917765562987
2391657,1,1.1726717955642239
3289583,0,1.098543431058511
1698952,0,0.9822608746357464
2455909,0,1.0020893568713527
1031825,0,1.0497189718413567
1038708,1,1.1618892597064823
3878769,0,1.1304215665357045
832658,0,0.898338611154382
2562626,0,1.611173402022
1233720,1,0.9503261053961037
2151855,0,0.9064347891222374
2267502,0,1.3563132973791217
742470,0,0.9494048461094449
2738958,1,1.1324663788583578
430297,0,0.8401235609489761
375326,0,1.197725238623996
1148608,1,0.8980672282362748
3493725,0,1.3401131831897217
1073638,0,1.0762901547491375
864738,0,0.9259742873569824
1629891,0,0.9566193398052545
3788400,0,1.105331653415631
1134666,0,1.2797443987457804
1438755,1,1.1261854558450584
2412232,0,1.0270078053033957
1489021,0,0.9444292866997341
2648087,1,0.6538556940301492
2104031,1,1.3328143296875723
2468482,1,1.0349923699514303
2440056,0,1.1790169725944446
336330,1,1.2400546059006714
287641,0,1.0415765626817022
1111242,0,0.5745186375684457
1460753,0,1.0184998204451483
1098423,0,0.8465830183271408
1023973,0,1.09355772118018
2000881,0,1.4867215825178635
1838020,0,0.6656578619431252
589088,0,1.0156918005297233
3177224,1,1.1693386748414378
2859478,1,0.8601968773720267
1083794,1,0.8426028192479638
3003104,1,1.2452128133015226
1021381,0,0.8937452159937966
3930043,0,0.633237011187092
2962147,1,1.0509172459584792
3474387,0,0.8230405004617378
3860942,0,1.2916668814739516
269015,1,0.8416668659529718
1247605,0,0.8303964146322376
520355,0,1.1315045458302724
1160739,0,0.44638170847393327
3406982,1,1.1787478208076076
1913571,0,0.8242499458443759
1978057,0,1.2588663666168292
3499783,1,0.9922576624283249
494899,0,1.0477663666626187
947180,0,1.2857888266903257
993932,0,1.2349971764736853
2404339,0,0.8086828864149258
806605,0,1.1453627185413306
2171322,0,1.3005992292634823
2820454,0,1.2328122724085258
1391555,0,0.9917796390555128
209466,0,0.8055275680090761
2968075,0,1.2939413907544026
1691407,0,1.1949371829855118
2045396,0,1.521229172523308
1863956,0,0.5786261142567211
2998729,0,0.8200906081115505
894569,0,1.2188383747414335
1588810,0,0.9540191147855359
752625,0,1.2059414629356133
621815,0,1.4951065546696802
590864,0,0.5123132684489028
2149534,0,0.9957452330840951
3045025,0,1.1989372641575844
3790103,0,0.6076083805274807
338272,0,0.8974753855701012
3097140,0,1.116887925003467
3208960,0,1.2280644969647139
2267996,0,1.2153453413533861
1015476,0,1.0956167603330513
1899350,0,0.43812383083007533
3434824,0,1.1279004735680882
533971,0,1.0084488892878243
3365885,0,1.0365680469043868
1446327,0,0.8933156834594516
958660,1,0.9654126396712057
1040515,0,1.1327381821600535
3110609,0,1.0728458320261243
731524,0,1.0790521527978574
2756594,1,1.3279109924075037
1768567,0,0.9643257824656445
1717233,0,1.2132915484030005
3157286,0,0.9932064896670936
3452017,0,1.106809081128432
3942201,0,0.9597806989313771
1623716,0,0.9066383361047555
1109477,0,1.3198019859530046
2987911,1,1.1695945740129805
216544,1,1.0541602634930223
852762,0,1.1092697616293696
2901162,0,1.2061417259405582
1744833,0,0.7280641724983186
2220061,0,1.1177080187854649
3012187,1,1.121611537025414
3509857,0,0.9676060825543226
3491195,0,0.9473210960247597
735097,0,1.1643710357697032
1759631,0,1.0009147728598413
1405031,0,1.0661495123286735
2736394,0,1.0439967166762907
3949003,1,0.9454629296706699
1090969,0,0.8953892063830772
331113,0,1.172488313645838
2481832,0,1.1235401756417593
2680047,0,0.8412723160074538
1046973,1,0.9612025729699047
1875849,0,1.0006462865773056
1628131,0,1.1982094469667193
1172211,0,1.1333187060856877
2191750,0,1.3637001128499147
3144991,0,0.8283657472365382
2627212,0,0.8094676578413937
1312004,0,1.2444375804302221
2164731,0,1.0937195152982342
2789851,0,0.9953612806308851
3904569,0,1.4010868238263763
1497922,0,1.0597646073569884
2252048,0,1.1592502702436036
2015371,0,1.2831210459649225
2945487,0,1.2584776509348958
611066,0,1.3045789296821761
1025711,0,1.2018715122600765
1571782,1,1.0316058768618683
1986676,0,1.0191994804469302
495545,0,1.1244949548498742
1463169,0,1.0704363092980869
3232441,0,1.2978120354444929
963924,1,0.9375610935247845
1473332,0,1.0145867560787143
2762938,0,1.281049162457684
1636848,0,1.0418391296203098
3051588,0,1.3249068335851524
527380,0,1.2842523167364757
1081834,0,0.5236142834605272
461303,0,1.078675237083057
1905276,1,0.7715803644560904
1339172,0,1.1533908920619595
2604728,0,1.1059089103871373
1322749,0,1.0028633973020578
1521367,0,1.236680046465713
1423726,0,1.299107137124063
2575841,0,1.1612193634228245
322060,0,0.8430583580866471
3476354,0,1.0061838094688969
1820189,0,0.3319250832990935
3737544,0,0.9847368216210343
1417957,0,1.2902785968361987
996926,0,1.2339746026262204
399720,0,1.0309962139543227
3918413,0,1.1804484886995665
3953742,0,1.2875847435725434
3269907,1,0.8377783930300378
388997,0,1.0262786043404653
2499904,1,1.3431487424643134
885251,0,1.1918413255063671
3131684,0,1.3035883177985848
3131723,1,1.1813251976262673
3030138,0,0.978661618381697
1375685,0,0.9164852921078452
963058,0,1.2517274806598595
3522807,0,1.1283699944085217
3734016,0,1.365392332088474
318195,0,1.1961066036276744
1071565,1,0.9171780203574855
3714667,0,0.9911380340868793
2613402,0,1.2451788242421875
1777402,1,1.509459342381244
2913407,0,1.019007826751816
2764866,0,1.2005814016307264
414503,0,0.9796051350852983
3516192,0,1.4684891582618942
915009,0,1.4450354359003195
220692,0,1.5626893363709482
3167121,0,0.5184769885648628
3152841,0,0.8089739918349189
1162555,0,0.562581074224203
2399318,0,1.1712279326808999
1215303,0,0.7576264960586545
3153129,0,0.9010656241934054
505614,0,0.9616882146637679
1484581,0,1.1365204859960423
3308745,1,1.03660757899044
2642455,0,1.1409465014686484
3841797,0,1.2085244097352228
3057627,0,1.2122586224930167
1385057,0,0.7119055123295712
1539897,0,1.0008931511851047
1153737,0,0.5616828759942336
3707510,0,1.4349628808162072
1124214,0,0.5749683708828859
3126325,0,0.8092034358773095
3466740,0,1.1003160684655988
3339995,0,0.6861820418847906
3904246,1,1.2935216120810313
1053264,0,0.5924608850971372
1711235,0,1.2154171094569242
3093550,0,1.3301260310783314
1318097,1,1.110611282179802
1519023,0,1.5889964091751159
570713,0,0.7835747136426575
2481940,0,1.0821779926182247
3228791,0,0.9781330509782213
2893626,0,0.8136312769502225
3804577,0,1.1346557913716602
446727,0,0.9250010704893967
2413293,0,1.2716314426521043
2052104,0,1.079487295976737
2550347,0,0.9540167033993083
1649026,0,1.0262191281310875
2656159,0,0.8033954118373197
287179,0,1.2064410654424933
2558064,0,0.8526957477920778
1781729,1,1.053863854440708
476440,0,1.2054779582224944
371837,1,1.0237830238467773
193889,1,1.0402437675649365
1103085,0,0.925746314190472
2668262,0,0.9978761281052935
3960933,0,1.5264025387684916
268578,0,1.4334605536799807
614819,0,1.423440001148684
400490,0,1.483290862880642
2872395,0,1.3580204542910563
2032057,0,0.6567039434951216
3079635,0,1.6168879014956197
1707260,1,1.226206824543892
263281,1,1.11166973060635
1778835,0,0.8608549370274126
1314028,0,1.1377104185730982
2489924,0,1.067789407018521
3113260,0,1.139727918420157
376971,0,0.9206466254487755
3257822,0,1.2747348217696792
3492027,1,1.4324065099793757
506544,0,1.7441506130278785
1634862,0,1.0178646070446635
3845315,0,1.0065166414228746
1937451,1,0.8620213502103294
1966909,0,0.8896003393045332
1774369,0,1.2286237927034964
932836,0,1.150448841518223
1790227,1,1.4394506715886766
1372486,0,0.9488538636412764
3765663,0,1.1438540180189525
3454107,1,1.4385814444963256
1962561,0,1.575958170260893
3716357,0,1.0361815080271533
810571,0,1.178544644500779
923243,0,0.8736678622671278
1730446,0,0.9359445099020196
1067292,0,0.94760690972748
1507494,0,1.4092418904911546
3158496,1,1.1110664182538035
1426153,0,1.1133585504460901
1041867,0,0.34180620645968096
2782693,0,0.875316226899693
502814,0,1.0234772616104884
2986601,0,1.211005835361182
2528016,0,0.9855880418517866
366410,1,0.9775022764119212
1451175,0,1.1215858103346856
3100625,1,0.9495278926941119
2659587,1,1.0749305240004707
381705,0,1.1107868036199882
2795655,0,1.0802036626274603
856693,0,1.2488153487772617
1010771,0,0.9926956490734059
1767843,0,0.7994625684177539
977376,0,0.7356821814350343
1135786,0,0.9469027469672154
972936,0,0.9223101086527509
664343,0,1.2264457218707263
213950,0,0.46069513759581837
2449183,0,1.1509241790743592
3774682,0,1.1788035979405609
1291409,0,1.4572772241221787
1306328,0,1.2746513869256724
1019843,0,1.2010351494769802
3779431,0,0.6592191523043114
1625364,0,1.4317320234376898
2041040,0,1.474041726501107
1788786,1,1.174386865203317
459863,0,0.9786621239730156
1764460,0,1.0702102145336747
2963549,0,1.044049550602916
1155973,0,0.9278457176826785
3010503,0,0.7392412052103579
562287,0,0.9526635597482034
2211895,0,0.44715867864443903
3862084,0,0.9172314690110993
873131,0,1.238249565257849
639273,0,1.3759472246594107
708742,0,1.309380191503145
3304192,1,0.6923718139717151
3253134,1,1.6835531408326334
1814613,1,0.8250316043120821
3363119,0,0.8372162867134318
250208,0,0.6554003572027833
1663261,1,0.990277915192967
933234,1,0.9009684834757604
1202368,0,1.618505651812521
2835806,1,1.2213006301399412
1593203,0,0.6797774093276101
3346892,1,0.7043159751319776
229618,0,1.2683119090188701
1634723,0,1.0608171471677648
3289040,0,0.9233475505402422
303399,0,0.94325354737756
2224319,0,1.2618935617214269
224017,0,1.2157255782921608
2501816,0,1.178240836808562
2587975,0,1.053989433929977
3886941,0,1.4499787301810505
3706982,1,0.8363644134767526
429215,0,1.0728590585084659
1233641,0,1.2146748492939206
2107393,0,1.2447492946750283
3361103,0,1.1068520495346585
1428467,0,1.1951664929715233
3795081,0,1.0385926693051433
2506453,0,0.9791339894759203
375690,0,0.9947991045026809
3314811,0,0.9080331965316107
2606932,0,0.963103894206633
3309681,0,1.0700652905699588
532867,0,1.195441340345887
1767423,0,1.0845169689635095
1514722,0,1.3116385797319987
1860658,0,1.0714732960964066
2186896,0,1.2814599436199567
3937907,0,0.9413982553622838
3896572,0,1.0380865603218878
2729758,1,1.1244412829313624
3663391,0,1.207701367108088
600851,1,0.7282392924400259
258871,0,0.975664973295029
1078932,1,0.7517168897958189
1496751,1,0.7323062419167613
1646872,0,1.5364504391984213
1895511,0,0.8124988362743633
3256219,1,1.0183221466845382
1704080,0,1.1081893748784564
2893715,0,1.243850660889387
3450990,0,1.0615893311076663
3686986,0,1.1824552670091053
2798315,0,1.0726232623401093
2268887,0,1.2047526626425313
1620224,0,0.9671546098549646
600290,0,0.9774042360935148
3748055,0,0.939363821197005
1671545,1,1.1065029689365757
1300601,0,1.0233329104918092
396944,0,1.0324898498708184
447596,1,0.9418608035274565
2012404,0,1.1202781682419019
1446114,0,1.067625249396123
1753650,0,1.2230987279795689
2604654,0,1.0336322034844985
1661545,1,0.8338794021570464
233776,0,0.9500320960127638
2247598,0,1.2077126983211235
2842598,0,0.7292973369783939
221619,0,1.231637529996294
1723377,1,0.9462274680394358
714728,0,1.0610094948696371
1427611,0,1.008198061195981
2580572,0,1.1353199227840944
2489788,0,0.848637683357472
1959362,0,1.3166686623346517
312508,0,1.2367581343418275
2769502,0,1.4108080087049346
588929,0,0.9626267903333635
3449038,0,1.0596860043304586
1637733,1,0.9618677810260146
1678802,0,1.42879350616978
3754404,0,1.2436329936920172
2531603,0,1.1533390060603494
3069202,0,1.1933435726938917
560938,0,0.9011421508147474
1898665,0,0.7290875603158785
3407036,0,1.3456959333721672
2771157,0,1.0359288137960805
2252977,0,1.0524519901924012
3320051,1,0.9882263471534904
2219017,0,0.8810826747495586
1980995,0,1.1143651709071551
446531,0,0.9197919269450393
1772205,0,1.1339234581815631
489767,0,0.9050905909204727
1905770,0,0.6775915604117368
594309,0,0.6744313263913252
2232727,0,0.9470206426995924
1513052,0,1.1534659958870157
3169417,0,0.9378421043722049
3394633,0,0.8344298355595212
3717651,0,0.8559643016537124
1764894,0,0.8965481068771164
2199255,1,0.7179653009629445
1470121,0,1.185633464140232
2855728,0,1.1072590306665233
2409941,0,1.2676490273285093
608779,0,1.4504933385236103
3268250,0,0.9238458879057392
3095457,0,1.0391981136448973
3654502,0,0.9682142311581996
621164,1,0.8149156072169679
1856675,0,0.8171669778009407
3397732,0,1.3002188722614507
3152114,0,1.2464438890716332
2566419,0,1.0469134901473771
1416388,0,0.8340707262480004
521449,0,1.3984060497850133
1949490,0,1.1865824306479817
3779407,0,0.8770378661466578
3883526,0,1.3383701702217516
2260668,0,0.9473497505817295
3277466,0,0.8959113127108203
539115,0,1.1287355160613972
1622851,1,1.1422259466712132
424379,0,1.0704642651562934
872883,0,1.7029575755208843
1204530,0,1.101688814802532
3734074,1,0.8237319120214099
370860,0,1.034219812439783
2760059,0,0.6634481213253804
1319828,0,0.659241855802128
555032,0,1.3640734983563734
236978,1,1.3277199164120272
1395630,0,1.4532542556919896
954228,1,1.1184356346608084
333045,0,1.123414516380469
2439004,0,1.4711480569440063
821520,1,1.0096960191320217
2824127,0,1.9294951749917342
3324183,0,0.9096709362682214
3512763,0,0.9495042211933011
484150,0,0.8717548119102709
2204170,0,0.8346340641556775
1821574,0,0.5858522280142174
479950,0,1.5997439976893215
3513341,0,1.1915260120190436
3738190,0,0.9454565830416558
559951,0,1.3633000916650435
1723783,0,0.8014592006807828
3078154,0,0.967002334326088
2285860,0,1.0340491838703623
3031905,0,0.7703646122696459
339019,0,1.0871818359513215
1837547,0,0.4204041360837671
3072819,0,1.128099727556497
2908552,1,1.357055007587197
3395008,0,1.1026737532094022
3474533,0,1.3522537154343799
1589417,0,0.8968561067914511
2207780,1,0.4339719222468026
2420858,1,1.2428707253594415
1810157,1,0.7190877012752469
510401,0,1.2758419177966025
2849702,0,0.8714385059223662
3272814,0,1.3088137143910012
3450244,0,0.9593336771868273
3495896,1,1.1265430944214212
2482373,0,1.4133058328462824
2197403,0,1.0172745954087534
998622,0,1.245821195189576
1500122,0,1.2038587978491893
2821363,0,1.1796984253709073
2823864,0,0.7558428380734984
3701104,0,1.092990442695849
3494596,0,0.8142665620322748
2590469,0,1.0352727876815424
1692167,1,1.3003162312129393
3722042,0,1.008595527722423
2807125,1,1.0417969109476224
2268102,0,1.272237337915013
2820822,1,1.44209590050382
560523,0,1.0951366414366008
3759449,0,1.0502714437565652
1313794,0,1.0512387920766593
2510241,0,0.7625146437609845
2680738,0,1.0717144213377652
629137,0,1.3019336888012483
1544760,0,1.181848713018086
523240,0,0.7984411190010501
3391607,0,1.1635996212784399
2001943,1,1.0201663916964498
2997611,0,1.2245952039491634
1707234,1,0.9883220460943374
1019010,0,1.3784268026817745
3715378,0,1.162857760057705
3912893,0,1.2155509035171594
271126,1,0.7499449719349027
2063609,0,1.2762840025240894
912242,1,0.9784366964195403
1828613,0,0.9373096091201512
820821,0,1.3443533094561775
2442648,0,1.3869422921437298
375929,0,1.0157512824948682
2586001,0,0.9758490652714245
1663062,0,1.1448521370117364
3529101,1,1.2428819154473516
477101,0,1.0047945793875006
1890649,1,0.5363269082458189
1575078,0,0.8835894248549518
3804689,0,1.1749659774867376
1245578,0,1.0107183415595826
1071671,0,0.8664054475028558
1705974,0,1.0344234300808797
2508087,0,1.335565542304173
2242703,0,1.3296301950026221
3952973,0,0.9843547751437959
2781457,0,1.2360609344176283
2929598,0,0.9757878195135334
1419243,0,1.0228248419383277
1404583,0,1.1448119631446156
2581897,0,1.0300414860250402
3877955,0,0.7673005271828157
1859900,0,0.778505515511105
3765475,0,0.9706364781568311
3117540,0,1.003328386029143
3325896,0,1.111274549046057
383020,0,1.4625624250810838
284862,0,1.1181252216055066
953096,0,1.301306366774546
3853011,0,1.2776526653262172
1982410,0,1.3753491901368111
3923295,0,1.2006641926654469
3392290,0,1.4353457863811518
3810383,0,1.164196805476731
2848981,1,0.9310421167488476
459836,0,0.8075859600545479
2210525,1,0.8737677463357523
3925723,0,0.7543157468404164
2029382,0,0.7017306182991975
815807,0,1.0268517386543567
1027299,0,1.1932718573890861
328521,0,1.4112544826825177
1852679,1,0.7056912634227253
208516,1,1.2935687399753801
3261469,0,1.3556599342707287
2732372,0,0.3460810788031823
1212265,0,0.9238758155118422
1368151,0,1.225456135295063
3362302,0,1.0457275445393064
631780,0,1.3742611156526396
3161247,0,1.080303356321594
3335470,0,0.8688493647365108
1761952,0,1.4267380545838275
518262,0,1.075566547964486
1842324,0,0.36267086296453876
704687,0,0.822610392766059
2742017,0,1.2685667532436193
612768,0,1.190023263215475
3519366,1,0.9756720292140854
961932,0,1.1068534209579006
3664993,0,1.2050715828938867
1270828,0,0.9283767055135839
3020764,0,1.0353222784175462
905938,1,1.227153553918547
2988704,0,1.1820104509759553
3791148,0,1.1830277793058501
899302,0,0.8754124637223334
3418441,0,1.1086949321168182
2837325,0,0.673772313998817
884136,0,0.7988511417971896
316148,1,0.9132181573464898
3840830,0,1.0151495622633162
3097114,0,1.1664974305017755
686425,0,1.2733909936525192
1367282,0,1.1187520476574981
406747,0,0.9405894164035152
2898501,1,1.3393619101035128
1552707,0,1.1305228288944733
908128,1,0.9639345228217824
1210482,0,0.6725537899642156
3236121,0,1.3617193103594132
1162216,0,0.9572340013822465
2750509,0,1.4613813457893283
333930,0,0.8093446022027573
3777663,0,1.049573660306433
1427481,0,1.2961473000555948
1974807,0,1.0116533715920852
646292,0,1.119635304058107
2890027,0,0.9962730095234521
1833834,0,0.6683649013996087
1405025,1,0.6391217870785763
691603,0,0.840583579739787
441070,0,1.3223772926068407
1327727,0,1.0347591045757445
2498037,0,1.2385126890656735
240474,0,1.1824167965767505
3496915,1,0.5993887323083575
2595799,0,0.7940558600601215
2135466,1,1.0660087769643065
3257225,0,1.0058262398277429
1755907,0,1.0851693441320371
804839,0,1.1478559251010045
1311518,0,1.3318232576365587
1997755,0,0.8242816037918994
527780,1,1.551173040092391
2827160,0,1.0196054631913516
1413292,0,1.4245642593719239
351568,0,1.2029233915623112
1214737,0,0.8998587467026651
1346271,0,0.713126426021421
2479067,0,1.490496196700035
381606,1,0.7226154550989872
274769,0,1.0375441035296875
1077237,0,0.9229167329078125
503353,0,1.0213145303970121
609854,0,1.5702428509748674
3732500,0,0.9039771090124196
1503181,0,1.1482967098797852
3260059,0,0.9519776038075378
3691323,0,0.989173462459187
2229195,0,1.1108534214460528
2451457,0,1.0206562323838788
2908162,0,1.076266532340039
1627987,0,0.7670420771549982
978244,0,1.0494803091283482
3949144,0,1.201657502043695
2524069,0,1.0546629520844601
2494625,0,0.8494797608017981
1337944,1,1.1702474900238036
2505799,0,1.4209806503434195
3089700,0,1.0077627107042504
3752941,0,1.1720394130371743
942408,0,1.088888434750226
2995387,1,0.6150748781605073
2640614,0,1.2975317172740943
963890,0,1.0024284299418538
907850,0,1.1521118722757249
1321185,0,0.631863708384943
3297190,0,1.2637601490372687
1205803,0,1.2279354802479714
963562,1,1.1356115617734974
1125686,1,0.6243372526487858
876479,0,1.1792873949172082
742504,0,1.0192496277954728
842040,0,0.9843070064061654
371242,0,1.0505734879975188
1610212,0,1.4864289047273294
1488375,0,1.3822550490025431
248413,0,0.874271685771856
1568471,0,1.2273938610348145
600773,0,0.6807924299924997
953537,0,1.5209739184457112
1234987,0,1.0123051496549866
3922533,0,1.1740405668014497
2511953,0,1.2036424600633582
3458012,0,0.9271465305375576
1825036,0,0.8046312584337553
1540925,0,0.6712297914525776
674005,0,1.1173403826592072
1961002,0,1.2741632709107171
3847712,1,0.8594122422058901
1563714,0,1.1966376813227269
1562532,0,0.9846614429634473
3686921,0,0.8515252876707856
3460713,0,1.3944072991915781
1625937,0,1.2353769976344213
2200148,0,0.9886179996138817
549270,0,1.0509844447910213
1636927,1,0.9703296257872966
2256740,0,1.1494465302654175
3354326,0,1.0857769620361017
2116933,0,0.6734871704304157
301813,0,1.1851255153442846
1909702,0,0.2295065302697642
911416,0,1.0100657573757001
1534064,0,1.269184033412379
3843783,0,0.9942879949122114
247892,0,1.30127937007428
1586006,1,0.8765544509865255
3734039,0,1.2281108776357292
586521,0,1.2030301859059278
3895513,0,1.2738836980394008
2767071,0,1.1338517811965676
384551,0,1.1885088581998353
314652,0,1.370645676085016
2421941,0,1.0462526673152186
414409,0,0.8539901822460655
3282719,0,1.1018840503539362
1713800,0,1.105989948485472
2451928,1,1.178432709070931
3068309,0,1.1105406933641937
1193278,0,1.3233188323378897
427481,0,0.8727824539891577
318987,0,0.8773416961847829
457587,0,1.2009622119072645
206946,0,0.9149182862516347
1247195,0,1.0006519045167495
3090349,0,1.198243097276421
1091401,0,0.8781919775131724
3750823,0,1.1239919535620821
2626763,0,0.987495272103238
617926,0,1.2930197543527098
2032923,0,0.5120476203453482
1144494,0,0.612236727830177
3659741,0,1.084281756417146
572241,0,1.0918010616321723
2208122,1,1.1073435656117863
3863472,0,0.8389313696570337
3248169,0,0.972773432499119
1352328,0,1.1034551590197792
2974100,0,0.9951482052862327
210118,0,0.8783705369367276
907412,0,1.3926968558159385
3342470,0,1.459294129821229
1266937,0,0.8766956199577434
972517,0,1.1929658415992146
2829332,0,0.9574989220540985
1627961,0,1.184458391146706
1835205,0,0.5144036880162628
1203367,0,1.2448032344648814
1114523,1,0.9420246316634526
904199,0,1.2952325787798216
867390,0,1.3618318900876918
3539086,0,1.0648096420449937
2487534,0,0.837070733364897
3070125,0,1.0313726708941853
1481755,0,1.1359635300856932
3700990,0,1.355727036723049
3101652,1,1.0610594451115145
1268099,1,1.132251132091789
374527,0,0.6818087388902649
2684798,0,1.1299370463672684
3439462,0,1.2366305435145994
1328722,0,1.4408724057998459
1851514,1,0.7098355033246041
1777238,0,1.3580694586564304
3225417,0,1.5908625639288145
1093755,0,0.7074220827105142
2985929,0,1.101955721946792
1088636,0,0.2394225068024698
1391943,0,1.254549139040638
3850736,0,0.7978269098517617
2593735,0,0.7855259666657187
2777724,0,1.1230709724293022
1720052,1,1.3274421228911957
1727875,0,1.322042394697769
1825618,0,0.9087824424241508
467863,1,1.054189213402586
3066505,1,0.9950192934370466
2886561,0,0.9284163858204226
372366,0,1.3004727957895375
3249054,0,1.3583874059297647
3171537,1,0.6055868017979007
1111215,0,1.104801358452263
237838,0,1.1717554725871777
2969272,0,0.9256943743093153
1530599,1,0.8861529742039171
2942254,0,1.0770627389320766
1421126,0,0.9315236750178468
694145,1,1.0860589082837655
810646,0,1.1405344576166128
3195894,1,1.1410260702229795
528477,0,1.1509345093102008
707541,0,1.0432429754317976
896177,0,1.2105824595661305
2227253,0,1.2278040098860799
1701074,1,1.1776153321561775
1618885,1,1.3752648120320743
1057483,1,0.4590729953819756
2645938,0,1.0741134537152919
3783937,0,1.3516579608708863
1734493,0,1.0545753161990383
1250319,0,1.372772632775175
1491902,0,1.1522592455917449
920165,0,1.2439457699557472
1666865,0,0.752622973106414
1151786,0,0.4485831085792533
1261939,0,0.972112746353497
3216561,1,0.7785286708679504
3143359,0,1.2222361715079666
1438132,0,1.1907705444195988
2041044,1,0.9964572818083568
1523231,1,1.1916057672846847
3881077,0,0.9691925027525341
876101,0,0.8737753135002392
1434226,0,1.0793330842587883
371337,0,1.0996886609822518
3104189,0,1.1573146714824711
2419377,0,1.637933076342216
2155842,1,1.0809677400800013
556157,0,1.1725905745558651
1027018,0,1.1244635493888642
1742605,0,1.2228658971735076
1072501,1,0.7321012608817601
454797,0,0.9850264955220753
743677,0,0.8855046389346802
1554212,0,0.7650326451459759
981857,1,1.4239732391181967
1192566,0,1.2389502802622683
2394915,0,0.7845008561472273
3108361,0,1.2656685814060908
887605,0,1.043413609357097
279179,0,1.1075984787728794
2555301,0,1.3933246669598969
260747,0,1.059354406248057
1667202,1,1.0577147244190848
1292022,0,0.8610575480175826
466069,0,1.2365907138593797
1248580,0,1.3685442134350954
1382769,0,1.3374614395505038
310889,0,0.9864171101223556
3146618,1,1.1100090746103448
2207643,0,1.3317685423350283
2589763,0,0.7952529680128491
3892015,0,1.1164830561598562
3314500,1,1.080316290990259
2549546,1,1.2145324515701008
2672398,0,1.2587608010296514
594084,0,0.9954763298996434
2797374,1,0.9948887594357215
1152787,0,1.0861425257216164
1670601,0,0.898455229531093
2467490,0,1.0578375992558886
2639081,1,1.171592524420025
276709,0,1.4116138870546204
1494159,1,1.24824729336295
1135266,0,0.5318408484668756
3032371,0,0.9202725080598644
466364,0,0.8652956248888857
507563,0,0.8833952116523313
1379972,0,1.2377048457991597
446937,0,1.0839654334109692
3755737,0,1.2046213471477107
2614406,0,1.4814620841521933
284404,0,1.5217536671007355
2206313,0,0.9272466714427677
977224,0,1.5157733983266568
450567,0,0.9615548260209649
1917871,0,0.7260584462815758
2147680,0,1.1229933062681048
2194423,0,1.1161024333411826
1362034,0,1.283686096784054
742476,0,0.9488766982771195
638047,0,0.8215891477501451
3438683,0,1.1415763373396146
2993149,1,0.9053556992133726
3254304,0,1.1655210738609671
1219018,1,1.2591112311040826
557777,0,1.1913119781342743
1845661,0,0.9944868179575758
279075,0,0.8858556554673181
3755187,0,0.9892902669190912
662482,0,0.9320384227037698
3542752,0,0.7565554055754123
1433988,0,0.7416398604799275
2174368,1,1.307053506146226
1577672,1,0.8820349332873354
3542676,0,1.2500278998058536
1197925,0,1.09181018142773
1132944,1,0.6682351914199489
3517311,1,1.4415984522146028
2826198,0,1.3892149674572796
1355556,0,1.5290732625835401
3341406,0,0.8677891593847176
1666296,1,1.182008760421409
2154022,0,1.07936785993519
1569262,0,1.0585328604563666
2063144,0,0.9296371052151431
1290279,0,0.5668653153809375
1276619,0,1.1195284449464902
664824,0,1.1392358764443433
2209741,0,1.2803080203911992
2461681,0,1.6588673125411606
1816425,0,0.715530355034989
1991443,1,1.0618096009593525
2495355,0,1.2088691665548086
3355346,0,1.1894868004905654
1048766,0,1.1049131305663655
3775514,0,0.790115755946314
1171054,0,0.5845072220409795
2585773,0,1.097579554287386
473319,0,1.1241656303627465
724769,0,1.2643602297112626
3704923,0,1.400240650390154
1138048,0,1.0478802273210541
3931218,0,0.9658310159327634
2018105,0,0.8746518636122483
2271558,1,1.5496183963991454
2556991,0,1.1602341841513242
2822876,0,1.1349978464823307
2107813,1,0.7683282514779651
3205769,0,1.0931063143298045
806951,0,1.2412019915088006
2683424,1,1.191648332986331
1594161,1,0.9922452469630744
2521555,0,0.6822874778692183
3070314,0,1.4727085400810251
3846869,0,1.3942290256240641
2020058,1,1.1454002335168858
2899961,0,1.3475192297308505
1397812,1,1.085686799891843
204197,0,1.372313820358566
3479691,0,0.702591362479752
544176,1,1.1907757344564731
233825,0,1.1613648613909673
3942046,0,1.066973447004601
2274222,0,1.1330101122670526
844683,0,0.764969156902777
3707811,0,1.300201759465807
1089248,1,0.24505836751591803
1156017,1,0.9061705375571955
967157,1,1.1622609737534342
3053180,0,0.9896954677199128
3186144,0,0.9359326206050403
3273644,0,1.00641000944428
1678500,0,1.0524277279198715
1594166,0,0.8180067873664507
1365100,0,0.930261331007482
2166799,0,0.8178546751098643
848027,1,0.7595007519614461
864139,0,0.8735882937769893
2911647,0,1.2148263507264612
2665745,0,1.083878543502347
2742237,0,1.0554898555365273
1164291,0,0.8564272808919272
3099382,0,1.1190172290744513
1719031,0,1.0736500269506484
3372140,0,0.8514038687247747
1985765,1,1.4573367065481093
1811101,1,0.9505982587103643
1005001,0,0.7532453956404711
3066336,0,0.7499662285044202
286548,1,1.1323073285378522
3431799,0,0.9899806138166161
2849438,0,1.1718178425906616
1463851,0,0.7218338844701626
2855117,0,1.1700773302538718
2853859,0,1.0273703116029549
1326777,0,1.1457157336412065
1777037,0,1.075106225495383
1468036,0,1.4220131927062736
2592133,0,1.3990573541860463
3105177,0,1.2022648737921027
943112,0,0.8251321897035964
1282169,1,0.809083409572025
920177,0,1.2275738793388473
367610,1,0.8270834631333112
1506282,0,1.0788306089518203
3079329,0,1.0968099529778053
1569330,1,1.0785388881834594
281897,0,1.2477035158993566
490975,0,1.0312459632292674
2634230,0,0.9422877360629722
2279887,0,1.1770001459083876
535254,0,1.7250349549464383
3164625,1,1.4422809415809612
1067240,1,0.6306681359514433
985508,0,1.1993747959062508
1110229,1,0.5834725235051097
722015,0,1.1952134815280602
1811065,0,0.7148961203642656
496603,0,1.07661320384227
2847466,1,0.7123595932400646
3884021,0,1.2157350859065361
539021,0,1.061984325267214
1134139,0,0.5336250141021269
1979159,0,1.2094141726166203
2415270,1,1.5528415997126144
692141,0,1.1634555820244787
912006,0,0.8960182355987935
1408873,0,1.2159671011099382
3406496,0,1.012822172866166
3408033,1,1.1306074008668792
1168261,1,0.6935802931248568
2724293,0,1.1545309127994736
342018,1,0.8994890129859683
369673,0,0.9637681664161832
2252532,0,0.7068489252665526
2530312,0,0.9227518204107453
2274824,0,1.375862121138617
544326,0,0.8889873917164157
2912098,0,1.3341134223323325
3941597,0,1.275127813075718
1326452,1,0.8842499439903027
2250078,0,1.0352155317914051
2783417,0,1.4478938988606043
1372811,0,1.4753318240383453
2234226,0,1.107028183365126
1262593,0,1.4365173780190446
1565324,0,1.1776915898703895
694053,0,1.37620280678943
2611182,0,1.2306344721730793
1882627,0,0.9115482003384524
249382,0,1.2052191834510166
3525251,0,1.275849088406323
1873822,1,0.6947760464238314
827491,0,0.633333670143871
2763606,0,1.0750815561697928
2470219,0,1.0787734914690639
1951799,1,1.1606102352423011
2778158,1,1.328999307913344
402333,0,1.114505312716677
3229650,0,1.3910730561672375
1525899,0,0.8757431015658231
2986172,0,0.9128243227903552
2244374,0,0.7786100780774492
3173413,1,1.5488714592616155
943051,0,1.3679655412283527
3898202,0,1.1215806860636115
1726825,0,1.6093723308620906
3003729,0,1.0434415841479434
2783206,0,1.0228749392637964
425923,0,1.3772883424158504
576770,0,1.1024592106969697
2049979,1,1.36278407529113
2472477,1,1.0236647449334109
2780836,0,0.9725339927371315
1315758,0,1.2009596333372792
3683472,0,0.9245933896129651
2214972,0,1.065869788584703
3332970,0,1.197606891645132
1076932,0,1.0117780353165131
1870998,0,1.0548222187853806
3435015,0,1.1692215700225561
542599,0,0.9004042898914766
2730396,1,1.133524326268195
668487,1,1.3754850670512848
2199957,0,1.2950872978787733
1610404,1,0.9091505758227316
1864817,0,1.0987772315087614
1983555,0,1.1448439365967111
3394132,0,1.0706230469113578
2561966,0,1.1257865475180118
3053705,1,0.7633323299912109
2754741,0,0.9719817369950452
817663,0,1.1482011977760556
3503965,0,1.3664885432136773
290040,0,1.1122795863737927
2220389,1,1.2248648537837363
975108,0,1.0601316488082484
438324,0,0.4539701191665294
2749792,1,0.8765561001404655
439195,0,0.896667076204033
1202876,1,1.166895645491027
1687083,0,1.0695868895270417
2014192,0,1.4563060204909744
579090,0,1.303768773749975
1013876,0,1.3023473263891092
3693024,1,0.8412534138870085
3908260,0,0.8838567319612747
3740213,0,1.2873216242727923
2588094,1,1.073631381258384
2619329,0,1.291853685687236
1062442,1,0.8597905087252564
2662083,0,0.9124537751010878
3494311,0,1.129716834228674
1709288,1,1.0960359060933962
483665,1,1.6530310215854378
2166735,0,1.0946878810534881
3655786,0,1.318734917614614
686914,0,1.089946177157139
3401565,0,0.9460124810444829
2390740,0,0.7504031974925389
221222,0,1.12725138485746
2689925,0,0.9571196074770979
591902,1,1.3104591696777577
1154844,0,1.0475692106721077
3218081,0,0.9588375963527523
1391955,0,0.9177881632256655
2197173,0,1.128045397447799
2795331,0,1.380959846544356
503049,0,1.0648690581081195
1549108,1,0.7988859038022222
1785770,0,0.853347717815242
1846069,0,0.7453921560767733
3907380,0,1.0042657540004865
1562713,0,1.3181576681120055
2197278,0,0.851830111745689
649747,1,1.5122794349028628
3547669,1,1.2651755235075957
2413578,0,0.9388503620859264
2997181,0,1.2314009190223258
2963900,0,0.9878743187656979
2774927,0,1.103500876389089
1906894,0,0.9355461946048138
3514174,0,1.405916477091181
3770234,0,1.3077544127359613
1303501,0,1.2540412841779363
1509106,1,1.2071588655671615
2570937,0,1.2306522243097513
1160161,0,0.49037831600753745
377252,0,0.9682098377675361
3499637,1,0.8726316268317497
3002896,1,1.1831053617543266
962504,0,1.238571666180859
881277,1,1.317513476404038
3488818,0,0.836689883695428
329722,0,1.3159913712376312
303447,0,0.9311608246705673
3166246,0,1.1436083622738247
582962,0,1.1827022895186523
3834164,0,1.2446813114136583
2574613,0,1.1873000393937234
2617635,1,0.9768215969164257
368212,0,1.1347825394466027
254927,1,0.8845666181594475
2728442,0,1.0776998596146978
2059958,0,0.8443786852641133
986803,1,1.3750995939827253
1289765,0,0.7399305504625779
2530962,0,1.1094843475654013
3321360,0,1.0929778940809418
926699,1,0.9947679447236105
3132228,0,1.2130391896438273
1820244,0,0.9367684376928276
463232,0,0.9995458404940641
2207300,0,1.0678360717434738
254878,0,1.0027513641437247
2268376,0,1.3616782652697648
2457829,0,0.890073483380196
3410308,0,1.253748172469288
3524393,0,1.2752747824214894
2273040,0,0.7223534828638134
2125684,0,0.992516419807427
2455382,1,0.7767973999678419
3309892,0,1.3047752482175015
3663149,0,1.1101854730416467
417052,0,0.965527621229897
1568727,0,1.0462183286256177
3095625,0,1.1723613525143355
1460838,0,0.7323113359677438
1751142,1,1.20931618737607
3457717,0,0.891432266010128
892790,0,1.389746581986442
546462,0,1.591343747575611
2921961,0,0.8279269504507147
1857068,0,0.8229027964478699
2706481,0,0.5891107411603692
1124619,1,0.9139552821200186
721453,0,1.2632244486238136
3083108,1,0.9354927616680946
2631713,0,0.9610677811230159
2209626,0,0.7945150271642849
556168,0,1.5675006752131018
2577512,0,1.3430035377848122
1613234,1,1.5168177049139806
2224846,0,0.9832909714593518
289686,0,0.8262307368384566
3078189,0,0.9890415905563376
2897295,0,1.3164222968726256
2485426,0,0.7628553825937829
3292449,0,0.8607559164255076
265313,0,1.4509561556232735
3135931,0,0.8425009946699248
2852667,0,1.2288921299616473
1782482,0,1.0648043291679286
2893632,0,0.7868759761962354
1944202,0,1.1552560884347531
2043968,0,0.9403548162139084
2875389,0,0.9887543123951843
3662830,1,1.1437669325205693
1982424,0,1.215207492629158
3473457,1,1.4886508605752653
1072721,0,0.6126724931245728
1676637,1,1.4133507134438699
1325925,1,0.9060720653666732
2647778,0,1.1643920671798949
3952642,1,1.8308713200370348
2130767,0,0.7285038186885274
3409782,1,1.2020271635408712
1390094,0,1.367220411605994
305106,0,1.0284043097617297
3415799,0,1.4536057900689368
1546501,0,0.767613873486699
1490260,0,1.1466273487507954
3897185,0,1.0469403490031257
905871,0,0.6792831510897397
865695,0,1.1456690749835199
2278897,0,1.3385213068261455
1878342,0,1.179760442183376
1680961,0,1.4074516338187149
356063,0,0.6387661981156836
2834156,0,1.1427255658471647
1026018,0,1.2302151837779889
2255510,0,1.2526554136244874
3771842,0,0.7332179244227666
2480311,0,1.0710722045468941
3892604,0,1.2457495429875587
1129448,1,1.4083103289906655
515783,1,1.1403103916045882
2978726,0,1.1651194852157005
3895251,0,0.840414433543463
2749365,0,1.4047510949341346
938456,0,1.4880457247765935
2754403,1,1.150105774896709
2818444,0,1.3229014560448753
2644873,0,1.4081738685978011
3019767,0,0.998623031618638
3731666,1,1.2506492924855277
2448841,0,1.3427130692936504
2537031,0,0.6872640574344595
2204400,0,1.5652266702826356
1543997,0,0.9724137220588617
3459266,0,1.369638612542447
2460468,0,1.3411216345323995
3218235,0,1.3380062351803679
1817550,0,0.9522325844693889
208779,0,0.7283859708984988
1913177,0,0.7647760009389344
3793547,0,1.6005139155682486
2921601,0,0.9631237759250216
2839401,0,1.835177735602018
1613082,0,1.068952690454523
373054,0,1.6180862922668608
1524871,0,0.949459616817014
2575550,0,1.0183061664527988
2775891,0,1.0898919213828235
3368830,0,1.1431250554435106
2543122,0,1.3428306667908458
1088897,0,0.6151973730452658
478220,0,1.247957838983606
891892,0,0.6999748029609892
698071,0,1.1961029482570376
3756841,0,0.6834959056063554
2615013,1,1.1041396768972553
1424389,0,1.2168720737005159
2492846,0,1.2005116079186924
1039786,1,0.9839198953011701
1813463,1,0.5542864924771338
1914583,0,1.0884875855811105
2555277,0,1.4130579518964068
635832,0,0.9223340833463072
707208,0,1.2716323527646862
3933110,0,1.2083175105221513
557414,0,1.4973486876958655
3422744,0,1.2772304359746844
2766895,0,0.8343998524863134
606256,0,1.6578211615174079
989751,0,1.041139937965897
2444212,0,0.7978524371532882
2611292,0,1.1494962490921914
3949074,0,0.9669308145179213
868477,1,1.4584665902115577
3250913,0,1.4203515619239195
3471729,0,1.2366457569209892
3860994,1,1.081727053908568
500394,0,1.0329647365747734
2037336,0,1.278615545724536
3223578,0,1.0128630021288618
3326507,0,1.1639871768248158
350123,0,1.28981229591977
3724472,0,1.0687221764086805
750040,0,0.983843490668827
1780887,0,1.1009618955924234
606581,0,1.0483100495854878
628336,0,1.269072630243207
2738595,0,1.0126637141213464
437825,0,0.9585095521646397
3951330,0,0.7999683999756975
2685356,0,1.4488392490725186
3398345,0,0.8387781877423415
490122,0,1.2100458001868413
1937010,1,0.9593562445551981
760518,0,0.4250795114243078
2621976,1,1.0446960952712465
1432057,1,1.1928792346685313
3248849,1,0.8830970021655815
1205253,1,1.1922944957516874
2948369,0,1.382459022864666
484234,1,1.125661074976395
1230146,0,1.1222606073044274
1812259,0,0.49837409812861394
810266,0,1.0047544391323413
1475113,0,1.0469508148938151
2184509,0,0.8532557568479555
306009,0,1.244308792166895
1197354,0,1.1922587086360765
204797,0,0.8989980573469241
3022852,0,1.1152350438776173
2840354,0,1.0858553490832115
2999584,1,1.014511020753805
1422949,0,1.2722508059083497
3019315,0,0.8472679032429693
906535,0,1.062622646894287
3959606,0,0.8586938507860473
3394703,0,0.5205423333766037
1950138,0,1.2011523099562642
2131729,1,0.7269808388872245
214900,1,1.4077408611187356
2493577,0,0.9526634252603645
2394320,0,1.1048406888562579
1354627,0,1.3506621816875315
2020405,0,1.041377835443241
3951726,0,1.1826540411171265
3680636,0,1.158035880848125
727668,0,0.8901942137677579
1412691,0,0.9439935507408104
941155,0,0.7609271417334931
2626449,0,1.0958358211114867
968955,0,1.2066633941123843
2225743,0,0.8249841508310631
612530,0,0.7982374406185127
3139244,0,1.2165186492738245
2452871,0,1.4569763238844713
2978428,0,0.7519857815164441
1988696,1,0.919038878797617
641640,1,1.0070436946945687
1289109,0,1.0863306939423587
3432447,0,1.2001232827019164
3293228,1,1.179781190866436
1688969,1,1.1218666064774692
1726294,0,0.9734154711273078
1032937,0,1.531888805678516
2113644,0,0.9561513333851811
2104312,0,0.6131131803166864
2434262,1,0.7315641449305303
3424403,0,1.1565262984842928
3426280,0,1.0860021830723179
3857914,1,0.8409654715166504
1328044,1,1.1293226994913865
1214390,0,1.2046402731930492
1826595,1,0.787263246099828
2583222,0,1.1358217220632134
997127,0,0.9331943633223366
415826,0,1.2567418754829807
604710,1,1.203658394281569
2812156,1,0.5833979514400479
3435797,1,1.1716251029159501
964989,1,0.884700078887386
3062194,0,1.2181200353365738
676400,0,0.8501227989603748
2113612,0,1.1053109246778345
3142479,0,1.0500252410710769
3390756,0,1.3958278833919722
295498,0,1.0632819298754437
2058173,1,1.336346289787122
2150328,0,1.467303029198038
1126993,0,0.5846264891401445
1757141,1,1.1734222006410526
3791948,0,1.4507228728316188
689380,0,0.885368542474156
3058486,0,1.1593280181157266
2711251,0,1.1663546121938844
491958,0,1.0992122701719471
1074719,0,0.5989342488818201
1393929,0,0.8242895509340584
3951061,1,1.309687936019145
2014061,0,0.7972510107676931
3758377,1,1.2229345013166812
2160849,0,1.1099174728603014
3224241,0,1.2170393385789113
1482407,0,0.6403508709756043
231494,0,1.4502156280059917
1325818,0,1.3962919686784376
3267050,0,1.0479537229412181
589096,0,1.3439184101504948
2900129,0,1.1481815320968998
1481579,0,1.389173086308138
3779264,0,0.7748547361966471
2831933,1,1.129151743715485
2738982,0,0.8690419599468151
2198018,0,0.6716781540874097
1858726,0,1.0049045770303917
3809576,0,1.4586125837709054
2193155,0,1.3238107021257495
1944459,1,0.5942448745984669
1767943,0,1.044250920384522
1633211,0,1.1263083008058743
1031179,0,1.4423783235537422
964825,0,1.033067189618878
3250052,0,0.7910718347643819
2457041,1,1.1358263814945224
418507,1,1.3068845221361798
1887816,0,0.9290374620041632
3945955,0,1.3549882605682653
3729914,1,0.6052414384131888
3222530,0,1.0723793881083075
2670086,0,1.1021351620589037
2962800,1,1.0652990748905184
246393,0,0.9025649284433558
1397862,1,1.5360899847962153
1784113,0,0.9430643190211222
2269500,0,1.4046494840120418
342230,0,1.3572988767680603
3043487,0,1.6186954497716117
1863261,0,0.7872934023621803
2528073,1,1.2116076762185553
369935,0,1.234351601374705
2446269,0,0.9417145887579119
2991510,0,1.0760650296799297
3916199,0,1.3813737021946912
2876440,0,0.5903453956093719
3068320,1,1.3741516296033305
1371067,0,1.1390428099267023
2977913,0,1.0266753682507208
2199378,0,1.2908509301157531
3301326,0,0.8679843988853374
2938448,0,0.988410753528233
3294648,0,1.034084092250221
2918732,0,1.5329697661814614
943929,0,1.1639152478057442
3115637,0,1.1651653976382004
3949704,0,1.1841959798391815
1970224,0,0.9379103854360793
3724302,1,0.5149717384417786
2849034,0,1.1102449173261393
1550642,0,1.1371645683320475
1120690,1,0.504444778825068
3106453,0,1.1002466901146313
567618,0,1.2743604586822608
1407114,1,0.8991065099878937
3333642,0,1.0948645624809574
1313299,1,1.199371383231994
2502535,0,0.9203241173363019
932952,0,1.2386918229382042
674416,0,0.7995206880965202
1943060,1,1.150776251590531
3672543,0,0.9400599143518181
1825537,0,0.6146194169496773
2631162,0,0.7236344057427704
650569,0,1.092916309146108
3522448,0,1.1217510669701385
1165680,0,0.7994104899747059
1962793,0,1.0681679565465287
1946896,1,0.6789349676488106
2994588,0,1.1991789691702013
3855958,0,0.9494576886995313
3692731,0,0.9622082096973609
3112132,0,1.0259511762156766
1342429,0,0.998916687911125
1113283,0,1.1325714726120808
817024,1,1.0283112726923611
1489335,0,1.3828239035565115
1867318,0,0.9642353416858691
3706694,0,1.1414634041446952
2494752,0,1.1630689736064277
2719529,0,1.1207649170776204
733564,0,1.119251777042834
2987763,0,1.225866841820411
2510530,1,1.1518342075848462
825431,1,0.9172572771738475
1196283,0,0.9622496398264626
1293784,0,0.8987274847221225
3958479,0,0.9682735546193908
3210448,0,1.2603792168551207
1661831,0,1.2081260111238774
1289033,1,1.4595956758617916
2222255,0,1.0815571815502165
2820183,0,1.101106361338962
904913,0,1.2929355659797053
3430206,0,0.7697684392157957
3308830,0,0.9667342368876949
2129314,1,1.1728598968388675
553985,0,1.2841147428139768
2773443,0,1.2072410761352852
1531040,0,1.2771078772806397
3937781,1,0.9458865629731561
1607338,1,1.236870254553973
1227174,1,1.1745355096020818
423864,0,1.073914580881223
1039893,0,1.0619038320544703
2623710,0,0.9774944580799092
3807263,1,1.5184200215504389
1743021,0,1.26967727421081
432187,0,1.1563875420602077
2544996,0,1.0587766729957755
3530955,0,1.088965797370608
327220,0,1.321936727681032
1976452,0,1.2735404641948387
1391488,0,1.2236588945750462
3483211,1,1.1451132732218228
3954805,0,1.0937673313744851
362041,1,1.5371824243547225
2143763,0,1.0692716409868235
2897907,0,0.9489117706791077
3188028,0,0.7060774164142356
2140099,0,0.8216741172102181
1458078,1,1.3005177142479292
2604097,0,0.8653500487418269
1106251,0,0.869986335740199
2819468,0,1.4359948450295148
3886188,0,0.9302988023693272
3330924,0,1.1758778275661153
904986,0,1.218655667855114
684025,0,1.289958738807774
3864768,0,1.2834086266677542
1559132,0,1.1527344814319533
1489315,0,0.8747612546447904
1429573,1,1.1273352792950972
3518808,0,1.306399707280792
1560024,0,1.4001122402825883
1816331,0,1.002672970733539
277822,1,1.1302925341444734
1113832,1,0.5918372290655214
3928542,0,0.8754386893792356
2620461,0,1.276626935071778
3665131,0,1.2406015261702548
2413887,0,0.9750542241928708
390729,0,0.7368925404356472
1471628,0,0.6511912886900444
885579,1,1.018481139744875
3386793,0,1.8818429681279296
1002847,0,0.7638874832584296
708137,0,1.0336718681933057
427073,0,1.53697551603682
1543406,1,1.066119026547778
3353544,0,1.1660670230138437
1487076,0,1.3895407596179212
1957907,0,1.3791628784469179
1149428,1,0.31554669228770743
2063857,0,0.7984947843710702
962172,0,0.6307491802220382
571211,0,1.2658290434799728
2227818,0,1.4441656763258628
2480807,0,1.3170367265000478
532388,0,0.908157533290253
627280,0,1.1389163075113073
2571534,0,1.1644527244352123
1296837,0,0.8835343913689959
834985,1,1.1335295117224629
2427430,0,1.3145043842078006
3242938,0,0.9129734776982102
3078090,0,1.200681123127005
988413,0,1.1771656336179235
1053272,1,0.8847744122106987
2803123,0,1.314054266958964
2663630,0,0.8752509130577082
251849,1,0.853787717424837
3746913,0,1.1356829967825086
3390320,0,1.041175339497006
1526644,0,0.7091528409913918
1116863,0,0.4980916923070539
3098395,0,1.1489539296074411
3879778,0,1.0107745756535174
403817,0,1.1867503367129248
3960967,0,0.9762935830515634
2926010,0,1.097903177859439
2003083,0,0.9390618836308795
526935,1,0.8367625964733891
1900975,0,0.7557403460282707
3311107,0,0.7285663043206176
387420,0,0.8403612257807204
1312470,1,1.4286905440351036
1563459,0,1.099398062248417
3955290,0,1.4259084855105133
2906452,1,1.197104810737501
3031633,0,0.8777293468575846
922380,0,1.2229989008933773
2474328,0,1.159003887639426
1943323,0,0.840790661598116
761362,1,0.9369398033816756
3188796,0,1.1925271915037183
614765,0,0.8514650930030692
859040,0,0.8734819800881537
3890474,0,1.1680645292409695
2458479,1,1.385352390467599
286475,1,0.9978910675117239
2843283,1,0.8054688959374591
705397,0,0.7041228833450018
3345183,0,1.188330257596062
2812451,0,1.506549524445975
1412810,0,1.377416658258822
2927395,0,0.6984272851023445
340489,0,0.849562966599561
338612,0,0.990030406564026
370431,0,0.8763535339771258
1957466,0,1.2489896732652197
3920472,0,1.4118253879677423
3876509,1,1.0645895658945446
1250581,0,1.0079636824919103
2988655,0,0.814782035288252
1355295,0,1.0011298420327668
3041291,1,1.4307928400535903
3136595,0,1.2498566139658687
1704246,1,1.2029996834803351
1914015,0,0.9096483031579902
1024263,0,1.1205304349738638
3326493,0,1.3171711595495443
521859,1,0.657581031076411
2535044,1,0.8413739700247015
3744958,0,1.3987119924634484
1948569,0,1.263505675415197
409880,0,1.4967693717158326
750907,0,1.4955263400790373
2173183,1,1.2034186969673109
2694004,1,1.1807505337821562
1247165,0,1.2769058551585293
2825352,0,1.0302364824032464
3131259,0,0.9471431535880803
3223238,0,1.1061392683567357
750398,0,1.15193242022312
871398,0,1.046207533967529
1737575,1,1.1379108279356127
2191267,0,1.2265175987543113
2017154,0,1.0942939328917949
736525,0,1.4659383800620633
2927450,0,0.6857305032184211
2863048,0,1.3295536371482792
1032324,1,1.1854262239128135
3764303,1,0.9659383948667064
2626097,0,0.7660573693291439
1459867,1,0.823818959062953
1224775,0,1.0422060781405693
1314061,0,0.8388087139537395
3098479,0,0.9709067874542554
1424979,1,0.9967374549518102
1494914,0,0.6957644236984181
1793816,1,1.3859937040954073
1432913,1,1.0308849850169184
266828,1,1.113319082899941
2209970,1,1.3239572959755919
2580529,0,1.1706126292793286
1349497,0,1.1120653836679546
1902062,0,0.863976506929922
3218238,0,1.1138112532462259
3747908,0,0.988900732744808
1851674,0,0.5400374985249181
1031748,0,1.2596312409080646
2478961,0,0.7628777689204337
714120,0,0.843402255897304
2896494,0,0.9874639489474674
1236350,0,0.9963003325339267
3953283,0,1.0661723924961684
715903,1,1.8080775106377454
1715258,0,1.4218399024657717
3505308,0,1.1316429130428123
2130797,1,1.0333159932255034
2016520,0,0.9922401351110268
2184801,0,0.9269487208047535
517879,0,1.095940786993678
3500179,0,1.0631036711483386
2739674,0,0.759744061360065
2034233,0,1.2900522373391121
1704183,0,1.0708209154658481
1881708,0,0.9168058303385868
2230321,0,1.0303639707369054
267813,1,1.689504500987007
721622,0,0.7919791959404776
3098373,0,1.1219215101269389
2714471,0,0.9315468104090353
409186,0,1.055747006680951
748600,0,1.1747674447253489
410967,0,1.1564222821731656
248754,0,1.1349603494819376
1606047,0,0.6838909517889928
2200058,0,0.9782345032275592
429759,0,1.1780353423723904
3271613,1,1.199303822393851
1811618,1,0.7135630133122486
2038756,0,1.2220976575602491
451960,0,1.1962668307937443
3933938,0,1.0328568116281944
3017901,0,0.8051933111832448
982333,0,0.9982489084964714
3076304,0,1.6456895740907587
3359821,0,0.6625481997424738
520690,0,0.9841261180173451
1266685,0,0.9093485927747784
369659,0,1.1565815792804894
3754669,0,1.5150874002789565
995515,0,1.1170223943659168
1890088,0,1.021482819402166
3238686,0,1.2436976824680963
1060384,0,0.810806915782871
2235221,1,1.2602153743266284
2624277,0,1.2668556238897342
2928483,0,1.241662072104516
823615,0,0.7294436868169659
1332927,0,1.141671722209349
679473,0,0.730143224195538
2709625,1,1.353151515120155
279350,0,0.9792298931162764
1225641,0,1.1023388253662516
1596237,0,1.4288016527162597
2148907,1,0.9307786406524928
3501682,0,1.2124676283140368
1404391,0,1.6134866917250212
985237,0,1.4099624851694923
561274,0,0.8208029757147193
293301,0,1.4816624952565502
3192661,0,0.8425800464116543
918360,0,1.140255920657581
1575915,0,1.2716768263821518
1884226,0,0.5919781845349388
1955325,1,1.223811021203874
1246205,0,0.9837248091097145
3029447,0,1.338792748666081
1742602,0,1.3516335447905474
1257119,0,0.8997294038265496
2240505,0,1.0762767680472247
1542132,0,1.37858033829859
1503009,1,1.032132737183588
1505193,0,1.2188271713005945
3147935,1,1.2421213308803065
2793717,0,0.8852644029246279
1091443,1,0.5991796428904202
2741755,0,1.1567973585163076
1943396,0,1.178946844725772
806504,0,1.2961776738160282
527405,0,1.1261601527448946
3508411,0,0.9977361585288932
297028,0,1.0189945173887593
1210847,1,1.0758525868654267
386977,0,1.310136431936277
1380692,0,1.1218832862160586
3540964,1,1.2324112965501786
2392995,1,1.0277262077128049
251993,0,1.0917545863572307
3332586,1,0.8932719245121504
3383341,0,1.010990787385238
1848811,0,0.8162944283506951
2170229,0,1.2403535836556427
3131404,0,1.1210435603765914
3340694,0,0.7966459080732844
2793871,1,1.0296080590882926
1627491,1,1.1169531034512394
3289499,0,1.3381774806389006
689334,0,0.9797927462224427
1873926,1,0.8248521109690706
472532,0,1.2290768299320978
680292,0,0.916902867300817
1901967,0,0.6952472326324565
2986710,0,1.4632295361976548
2482142,1,0.8255688193694877
3482771,1,1.1291760536371493
3136649,0,1.0419078398651203
2700354,0,0.8294009835956442
1077228,0,0.7583010099509995
2511463,0,0.9215843235680695
1425072,0,1.0971515944347137
2731329,0,1.1818133920582872
1332816,1,1.1990336229206555
3438538,0,1.3790727217737488
1582269,0,1.0525081135357928
291717,0,0.9447772426246346
3406147,0,0.9210377322833677
2741107,0,0.7642187992990819
2841978,0,0.7955707569079367
1682777,0,1.0052717358555343
2728461,0,1.2720400654163644
2434977,1,0.6390089197968344
440067,0,0.9481108128993744
804854,0,0.8112349676535924
986351,0,1.1366837233300122
3078250,0,0.9404190899409568
2151909,0,1.2458016163825865
1894674,1,0.5826529242328607
3371689,0,0.9420029024233525
2589212,0,1.389656046576508
1125395,0,0.8213124091876475
410414,0,1.154144780101613
2871837,0,0.966882095137289
3113601,0,1.1479759564649168
1140884,1,0.6358684182728531
1715609,0,1.0956048118428616
654630,0,1.237971174693705
3046575,0,0.8224762564650834
3656909,0,0.81065298418766
377924,0,0.9437930392054887
2396504,0,0.766687096455404
1940009,0,1.2404767942635595
574520,1,1.0999712047283672
1615848,0,1.4826401967070528
501836,0,1.0050454904115407
3699373,0,1.5744734850592548
2505374,0,0.7583425273348396
3004333,0,0.7859244298912936
407301,0,1.332276078171126
3111685,0,1.168165106805152
1981136,0,1.0412693792558
2006517,0,0.7509617539360269
972094,0,1.2382262605073058
2203557,0,1.683766146319827
2662520,0,1.2459672505101902
335469,0,0.8721251335502725
3440960,0,0.8004186197439295
1204957,0,1.1122507246103392
3437342,0,0.9906399647133034
3347676,0,0.6484435957373449
3436789,0,1.2791460795058787
3393368,0,1.1515609779868696
1916787,0,1.196815813115923
1455714,0,1.0561762701331132
360230,1,1.0210539862286119
804524,0,1.317850994150137
2888560,0,1.0957316908713475
1002647,1,1.4812593892300814
3078578,0,0.763357568198695
657110,0,0.7724621577225108
971107,1,1.3052379317598402
3682051,0,0.9876389882387842
1112625,0,0.7958284448762691
1339576,1,0.8864808741882381
3849116,1,1.22155999289468
2271779,0,1.649733202300085
1788987,0,0.8965067253327811
1318100,0,1.1422162534925284
2776365,0,1.1493623768656245
1664108,0,1.0892487997292972
1459834,0,1.0671363848688957
997236,0,1.2334651030195334
1007425,0,0.9359274261923061
1530421,0,1.2080943847471544
1277742,1,1.1972261013659196
1390247,0,1.1100351281247527
3161979,0,0.9505164751210373
2718380,0,1.0695627976390731
2724305,0,1.3323890319278675
1974408,1,1.2976329113606928
1303621,0,1.0509087043285936
2872304,0,1.0286014163414343
3318730,0,1.0588253858254535
645065,0,1.0840900736686652
2216762,0,1.2617126748762284
2064362,0,1.0277539935883322
1041091,0,0.5305790853556385
3537523,0,0.8146076060465118
1596829,0,1.2792485588849698
2432190,1,1.1675508087831958
2123639,0,0.9611930040032457
194642,0,0.8762910120742731
3916650,0,1.3235213651029671
2729622,0,1.2872735954216141
2159885,0,0.8268444252232685
961130,0,0.49091301555664035
1915628,1,0.8282080704452357
292389,0,1.2781328194791042
587171,0,0.6446542423313334
1361808,0,1.367504973907358
1522554,0,1.480002286853581
1914802,0,0.6034848036043118
2820370,0,1.1762414433759611
3752728,0,1.2336431476493697
1557554,0,1.3085058669875502
1596326,1,0.5347998806666254
1198026,1,1.4369216086338419
2122570,0,1.4368639181864402
559703,0,1.197237571070574
3239991,1,1.2878656785001634
1444969,1,1.1723333595324437
2420319,0,1.4022946122824278
3311043,0,1.2498519208765098
3875888,0,1.4114052291633976
636198,0,0.9938583781928607
2119365,0,1.644292108231642
2251600,0,1.1464603642492401
3347270,0,1.3721751918857854
1232959,1,1.2305955192653135
1970149,1,0.8959999235116216
3732223,0,1.2261144891682996
3792932,0,0.9136038952991528
1828386,0,0.5982037588945193
1321596,1,0.8655736690667171
478711,0,1.0217266332497004
2721758,1,0.8589632857887511
1953131,1,0.508196962550966
1233943,1,1.0836098840379673
1982906,0,1.1631495675173422
2641169,1,1.8380324249313467
429459,0,0.9606310318728992
3228002,1,1.1043881958335742
2159578,0,1.3843766875188646
2977503,0,1.4865685813163538
1382977,0,1.2433230403375322
2112483,0,1.1854201130192836
605355,0,1.2532365849796023
1677855,0,1.1364783248252843
1344578,0,1.5403792525945446
1750937,0,1.4049175562672036
3210094,0,1.5178784578712774
2717146,0,1.1187413887751991
2058023,1,1.2104790792721054
3724409,1,0.99248278864423
977294,0,0.9882635943525021
3711895,0,1.1698578394869013
3128221,0,1.373003535172894
3226596,0,1.0407124704112
2205287,0,1.0159300451639397
380497,0,0.7013290957073025
1772004,1,1.0592852967201651
1556364,1,1.22649964835914
3191114,0,1.1478143835356063
1254354,0,1.006426233653523
909798,0,1.3983982953971128
1341545,0,1.0712543229081586
2682901,0,0.8436338528827525
1227383,0,0.9322131673023496
2867670,0,0.9896865826159987
745411,0,0.9150193973874021
1057348,0,0.8405633819294658
2897132,0,0.9709651084570345
1492574,1,0.788493069970535
2645305,0,1.3102120712705416
580949,0,1.311329010740438
1995271,0,1.609363508160565
947078,0,0.9878837481142104
2514426,0,1.1885690402373579
1562353,1,1.370918019496938
2046733,0,0.8554931651459532
207350,0,0.8972161007448318
1995394,0,0.9812417188334155
1852662,0,1.2079854916056858
1820799,0,0.9712271283039077
1809848,0,1.1049875028470255
228758,0,1.082939174246486
1892715,0,0.5796357930121032
2627568,0,0.8005716252414367
2264275,0,1.1201992251301323
195047,1,0.9755724978569791
3320426,0,1.1407759046504486
3442645,0,1.1546911154178587
2412148,0,1.1864157437478804
2779545,0,1.2790221900788656
377822,0,0.8847099708970503
1061065,0,0.7331363197116803
321376,0,0.9888304970333653
1025447,1,0.8422440224713039
3260772,0,1.2432085604169347
3253640,1,0.9942932265340234
3092889,1,1.3633490431622715
892243,0,1.0009765571230023
2045415,0,1.3742333703625231
2452539,0,0.9850204190832372
1076069,0,0.6516964316538469
463730,0,0.7638427617825851
3290209,1,1.7384408538639609
217669,1,1.089665102118966
3112778,0,1.110262254923799
1386487,0,1.0315031189129995
3003714,0,1.364716902710251
1694348,0,1.037810154799635
2462609,0,0.7162031819782413
3436436,0,0.5618337512643946
970459,0,0.8238202601452838
3268309,0,1.3405680500450974
1878647,0,0.8624932878390849
629149,0,1.2079038147194636
3875457,0,1.0801415357982318
537400,1,1.3907342673795202
807470,0,0.5669523316297758
2177688,0,1.2651604216324517
495180,0,1.1134306986248608
730940,0,1.2378960487045643
1516563,0,1.2603497936364252
2881348,0,1.201806006005148
1907091,0,0.5475793559036433
2864637,1,1.086451604058426
2698449,0,1.3874857473334572
1717211,0,1.1008581623350098
637703,0,0.9863212603239315
1942650,0,1.0989605071034114
1787461,0,1.0198777471700589
3889156,0,1.003096214570549
461274,0,0.9037105036726545
885428,0,1.0712673989339638
3510907,1,1.4101057809247632
3463411,0,1.026426263749299
2730678,0,0.8456139360435475
712643,1,1.0783858023259574
1713772,0,0.955377889075433
1792658,0,1.1495444460476063
1296866,0,1.2164872308005115
955897,0,1.4458046665080064
3439780,0,1.2000452422192822
1133541,1,0.4624505967833868
2109589,0,0.959964168923717
280497,1,1.1963459483855254
602507,0,1.4064761660269125
2533752,0,1.2548001050659865
1712458,0,1.033291934694571
555113,0,0.9201900703665554
2908295,0,1.1295820586844645
3492117,1,1.1310011764939532
912182,0,1.1285277340521511
3013673,0,1.192680830772858
1315049,0,0.9933608513168887
2049515,0,1.4323698726423135
1950102,0,1.1713121765478298
568478,0,0.9786259054756669
3165146,0,1.0704521471927055
1462125,0,1.0537885482467757
2164762,1,1.1216359063214796
2021675,0,1.187973163498648
1355339,0,0.6523947360244227
3870554,0,1.5390533480942643
2427182,0,1.1890647118581268
1918215,0,0.9889905428766217
3160743,0,1.0825797989663193
2460811,0,1.3847488125077048
952963,1,0.7694770587304609
753241,0,1.1518786827015508
1240755,0,0.8774603081807943
1908098,1,0.635447023380449
490103,0,1.077001781747605
1338842,0,1.126625553756151
474641,0,1.0887848379634713
1752466,1,1.268262025988053
1293673,0,1.207030366364677
2180325,0,1.343729502488951
1292715,1,1.5633189240450263
3014147,1,1.0274556878302898
618989,0,1.2307954196969093
1519595,0,0.9533071447006022
1939176,0,0.6758719091418399
1394430,0,0.997882905664227
2452654,0,1.0348935193724178
953242,0,1.269985203533217
3680266,1,1.1271139902015532
805010,0,1.0319732515407718
1935330,0,1.1662768638956242
3163506,0,1.506555147361874
577147,0,1.2098113774806467
2681203,0,0.6118232575968149
3340355,0,1.3206643227738173
1892338,0,0.7041806309767193
3841292,0,0.89879729671063
837103,0,1.090605977052025
2604010,0,0.774533578380052
372445,0,1.2276755185325807
986701,1,1.4303906911564988
2782575,0,1.369770642955701
1687895,1,1.3718561280377097
3229820,0,1.3835510429095026
2460307,0,1.35536966339426
3525435,0,1.055184556941582
3912919,0,0.9720162928642018
1017002,0,1.2002488191894651
3369139,0,0.776877986637551
3899935,0,1.049405888663323
3790471,0,0.6756295665722196
1035709,0,0.7803177696423198
2804837,0,1.4160472160802577
2791082,0,0.9943858287131961
3865466,1,0.8468662760810557
2742444,0,1.2913305903439014
895368,0,0.9755916888660855
1752176,0,0.8306051121703354
696621,0,1.088410714209436
2511468,0,0.9890833223801436
3249923,0,0.8836422928560668
1741766,0,1.1669539303957046
2442333,0,0.7197806643643387
2159306,0,0.9512209654984672
3493311,0,0.7737457578958197
2771295,0,1.2258371917468565
468663,0,1.1081463987140967
3477720,0,0.9975466392248032
1915543,1,0.6589239615702844
2726621,0,1.2297440697459419
280995,0,0.8060171245923049
2887434,0,1.0300837571313928
3094506,0,0.6989273544702668
1464351,0,1.4193026268586015
3703631,1,0.9968481740638565
354976,0,1.013691966782153
428785,0,1.3573531898419504
1346598,0,1.0205659996272582
3849108,1,0.9344103932819909
1593806,0,0.6232254910206296
2156688,0,0.7799555662457218
3089909,0,0.8939507011260579
3807533,0,0.7563249470647844
1508576,0,0.9720312419251853
2146346,0,1.1073533128657893
429852,1,0.8391708637269888
2273641,1,1.0602392004247188
2692386,0,0.8768491517090297
3768488,0,1.2713224849661524
1519641,0,1.2414335543372912
641773,0,0.6798973066389622
2881544,0,0.9082662630114409
3899238,0,1.480449401643854
2279742,0,0.6357484294599964
712863,0,1.3462986521910643
450730,0,1.40379623080627
404192,0,1.1426410889874308
3036847,0,1.1008013159431098
1741803,0,0.9810893802967341
2533962,0,0.8091845148523766
1282211,1,1.043903890225406
2000073,1,1.0718310372726074
3710413,0,1.204183881629198
1607005,0,1.0974282079768867
3028463,0,1.2822603234802572
3151276,1,0.7269530776339206
3031502,0,0.8473152530316055
760482,0,1.4094283918043906
2193105,1,1.2049478004754226
708341,0,0.9827908460881241
2239379,0,0.8285353901953774
2201120,0,1.0711809744806655
2748154,0,1.1846376520618573
752668,0,1.383679501202326
327900,0,0.675675059662038
2606984,0,0.8065348946407486
427335,0,1.45252763950554
2540192,0,1.2374783054631135
3161279,0,0.36245075990107567
471512,0,0.9252371790486429
2817465,0,0.8218127824226069
1734581,0,0.7973789837632947
3107699,0,1.3252607432257084
3047309,0,1.4968499810129747
3209365,0,1.1174792824744506
624156,0,1.1406226774672417
1958297,0,1.0452789883933076
1411737,0,1.0235833288060237
562663,0,1.1101270954229225
1912899,0,1.256821948589027
1852055,0,0.7041517912764812
3470868,0,1.4364112674704634
3076618,1,0.8707989674044846
1890813,0,0.05999707597251902
2390603,0,1.064018908679014
3739251,0,1.393086746468557
1343222,1,0.7089212989537381
3202218,1,1.0034298667942783
2059617,0,0.9651648161432024
1915265,0,0.5973298153220145
2704541,0,1.0476402779832366
1101888,1,0.9555759553525817
1516903,0,1.4317744680686484
485087,0,1.1286410281302361
860355,0,1.3215349530880078
2143847,0,0.9601796935244167
740565,0,1.0032300854764564
3831736,1,0.962295187081213
1996683,0,1.0558930843652445
1990469,1,1.0962916104305076
3135602,0,1.3405732543174083
713787,1,1.489928388551199
3751227,0,1.4320642535739676
1996789,1,1.346183060318932
3677465,0,0.9708606204853578
1759953,0,1.4749011752947092
3278033,1,0.633430902969167
1085735,0,0.27521680340453447
1481571,0,1.18061638945067
602537,0,1.4784849298009584
1983277,0,0.9179138321688626
2254044,0,1.350168107033405
1302464,1,1.0477517994997398
2453325,0,1.8255303137933896
3431540,0,0.772652338080409
2857865,0,0.8043676214626356
211443,0,1.3638876187063933
3444532,0,1.0559225492229314
3396766,0,0.5939961959970069
1327857,0,0.9774881073308169
726293,0,1.130675905898679
1027789,1,0.9552821205140026
415117,0,1.1289452513532605
959211,0,1.41649337337497
2736335,0,1.6929245046523356
3345715,0,1.1999866222084083
2855646,1,1.001683942902467
501403,0,0.9522573962529083
3390795,1,1.1497908930558236
1095566,1,0.5969789060112896
2027258,0,1.5726891180830576
3770660,0,0.8531050240833128
3836845,0,1.2139554602754363
623484,0,1.0972082911824668
1439474,0,0.8182274005073094
3030555,0,1.0701609124395213
1911025,0,0.7538886431853195
3249503,0,1.2044219955869357
3932906,0,0.9919836257517006
3139050,0,1.047189972935675
3943226,0,1.0501912549010108
3899554,0,1.3344949423672925
955763,0,1.1875821906334663
1136940,0,0.9616176291331212
857440,0,1.3442719676783164
3444061,0,1.0620720526177123
733825,0,1.0403631246551142
3079545,1,1.1542696934763896
1970721,0,1.0367220654839908
480639,0,1.3958248336309156
1444467,0,0.8595678959838731
3473480,0,1.1884871023158359
3726899,0,0.6807685098049554
958790,1,1.0129530346211006
1315483,0,1.1862634621130557
1316395,0,1.096960303171195
2491466,0,1.075887760305557
2621235,0,1.4984206875508073
975323,0,1.2814735945929114
1300063,0,0.9759983494178144
2055004,0,0.9211504419514503
3502392,0,1.0444356398927281
1476696,0,1.2602744212627728
2748665,0,1.3783683117451215
1895660,0,0.8295111027588805
3547641,0,0.907793418620892
3782292,0,1.0063724924755868
1456690,0,1.2514011097036042
3137729,0,0.9648719298868524
3095432,0,1.1171697602180828
647143,0,0.7952215735970736
2514446,0,1.2960670627385207
3770871,0,1.4099345716956664
3804766,0,1.3249941593952876
343922,0,0.9367421072515529
1892320,0,0.9273527436659179
2927723,0,1.347735778312578
1259171,1,0.9994481120905856
2622881,0,1.1430374164348696
596465,0,1.4159598470124366
1703373,0,1.457899619317577
2021330,0,1.0476458076426516
362064,0,1.325657672010644
2708940,0,1.0649277189208175
2416447,0,0.8812910992271044
1595426,0,1.1749933554004743
3944794,0,1.1817925249270405
1323881,0,1.1104280578005195
1080025,0,0.47086639063328695
3309244,0,0.9599802471166002
1148747,0,0.4023821664773534
474451,0,1.1469836870378074
1752864,0,1.434202723721833
3389344,0,1.205880712399447
231001,0,0.9286963571623441
3265380,1,1.069484646770366
1809914,0,0.6517127581026645
575369,0,1.2662996570355245
1395640,0,1.3173481206380209
1782005,0,0.7612997069825742
3947584,0,1.268974644315303
3765604,0,0.9244424436260887
2842214,1,1.4391835915331839
873163,1,0.8468586427669557
2018181,0,0.9372741663790813
736515,0,1.5671915478662124
1481317,1,0.6462279364598248
2557251,0,1.1441395354781054
1094037,0,1.2549856560582522
924236,0,1.1836022565460556
1280829,0,1.5371125160412498
2525829,0,1.4879373209643538
1256728,0,1.1906826246395479
2598857,0,1.0983035672815173
2663411,1,0.9423725264198655
1815964,0,0.991252335078715
478739,0,0.977817207634109
3756119,0,1.342322109102238
1732126,0,1.1576245992698189
324960,0,1.2819681374514746
3431383,0,1.5060501244577065
2580228,0,1.1404575540519921
3542834,0,1.1199851005383727
1265507,0,1.2804871216069194
1026801,0,1.1909203319839181
1594733,0,1.2393814407701833
1388134,0,0.9370493221944413
524009,0,1.142137369220267
1679639,1,0.6367980764047495
353302,0,1.505237336999249
3158255,0,1.2091267612278875
874664,1,1.2734755172256895
3440595,0,0.4810829332226485
1820764,0,0.8767434044026677
2049254,0,1.192739279304584
3917205,0,1.3877349708203632
1211570,0,0.8466129491867729
729574,0,0.8315352585634909
2034917,0,1.1202836007599752
897419,0,1.0373537855742276
1874656,0,0.9419701870833763
3718524,0,1.3568808955430494
2669594,0,1.0124826412410726
1854290,0,0.7908764081585229
2927067,1,1.0874592931639406
3478705,1,0.9073722132827348
1778872,0,1.2423566655502007
3458504,0,1.099368907101594
3007867,0,0.8671833410302923
1516392,0,1.1075805152392098
3237614,1,1.4027462217346145
734676,0,1.1718413210482472
296800,0,1.3241761199885136
978632,1,1.287297451460459
1195015,0,1.1422814120315783
1378149,0,1.2347413164956627
1897720,0,1.0731713205898037
2754134,0,1.066240442888702
3000161,0,0.666022778738234
3364746,0,1.3335626522157598
1660473,0,0.9716427088267563
721221,0,1.392281518922493
564990,0,0.5893073148111644
1870609,0,0.4939350068591392
2488982,0,1.3348806655106094
1085898,1,1.221871645875833
2593718,0,1.1352877719675951
1948421,1,1.2320129929581631
3804167,0,1.0258780739584719
1578178,1,1.3605069993630923
3287268,1,1.2275471992708158
3384687,0,0.9212798893227334
2651267,0,0.9528422984113529
1699475,0,1.2424580272419785
1351543,1,1.5373489067676112
3950074,0,1.0017874991501827
3239649,0,1.2938970311880245
3357522,0,1.1469998359430889
579638,0,1.1018924869278248
2214463,0,1.3408893118412495
3548066,0,0.6330920634042754
1978992,0,1.1706644815745784
2970125,0,1.0268739951458012
3696906,0,1.1393814163289342
2789669,0,1.1432264573797348
541003,0,1.2380328172076536
722686,0,0.8334394399558318
1088577,0,0.861400938548431
2027261,0,1.132699359250467
2239726,0,1.1688680218622702
1917652,1,1.0313077750269362
2891761,1,1.0880271625856142
2872775,0,1.0620717899708447
2000958,0,1.344148169251015
3907355,1,1.0882403469857458
1023348,0,1.1739830845335426
2986415,0,1.2919760549700041
589983,0,1.3286051710186026
1202097,0,1.0102594288866595
645667,0,0.9891672129807831
1890887,0,0.934376513631979
939659,1,1.113124208923149
3916128,1,1.1786208039616604
3196982,0,1.4659970493143455
2054885,0,0.9369895511481119
1202247,1,1.1494687579464455
1737883,0,1.3940389166822176
3440818,0,1.3312870282948321
1833316,0,1.1578382502355642
2051695,0,1.0362633212249976
1688068,0,1.0290857462375316
