sample_id,z,y
2258563,0,-1.990061223608419
1592148,0,-1.7883347937178518
2184614,1,-1.1018117918250137
2671980,0,-1.9386665927015616
297351,0,-2.213829564884197
2842693,1,-1.0486993119488686
430889,0,-1.7975313069353804
2215026,1,-1.3528540968018796
2407328,0,-2.126463764538273
2773340,1,-1.630484266967598
3868797,0,-2.4180896650749517
3276845,0,-2.2983702373318082
1153435,0,-1.6144270734890749
3325923,0,-1.9665014597820498
3482043,1,-0.9948010604224238
1425115,1,-1.2183603637832414
3472826,0,-2.1639897069187986
1038332,1,-1.1816869192576642
460505,0,-1.359801662844529
3026161,0,-2.0366517289769064
1863625,1,-1.0420874458061105
588258,0,-1.657076587759309
493689,1,-1.4351842536980919
3895795,0,-2.146563414326208
2819495,0,-1.5884834863572292
3892508,0,-2.0874716706158347
3436459,0,-1.9671902631855391
494528,0,-1.5957170050289462
553618,0,-1.686798093754579
1445046,1,-1.901923615566281
3688972,0,-1.8058783340587798
1993466,0,-2.732290151323677
1885602,0,-1.5072760663388056
311576,0,-2.2062828808290416
245688,1,-1.0213648563028204
1222290,0,-1.4607454554869348
3328095,0,-2.5476991921713745
3009864,0,-1.1320814212611174
2626046,1,-0.9698633628663595
2685274,0,-2.5030804221995413
1751435,1,-2.3395005096273236
3276829,0,-1.8555281294431554
2642236,0,-2.3677195445630126
1737883,0,-1.8570203010272537
1935810,0,-2.0711998243788474
2180290,0,-1.776684395082869
320359,0,-2.024090090460335
2058183,0,-1.6210037841701728
3031897,1,-1.1239611854139269
2827679,0,-1.712884624704829
274259,1,-1.8163298121200777
216567,1,-2.0613066633585557
2759986,0,-1.5577615563902745
2792758,0,-1.8291102731006057
674724,0,-1.1083690592077324
2541705,0,-2.1617798920424636
1734594,0,-1.8792061502289032
242224,0,-1.8979837813203801
3203628,1,-1.215062061012558
3767328,0,-2.005011970378969
1568772,0,-2.9763252650777563
3440400,0,-2.138272189776281
642237,0,-1.643582010728684
203384,0,-1.2730985874618415
3346949,0,-1.8266282197349233
3201545,0,-1.3750340871467048
1266952,0,-1.5290058166877039
1002676,0,-2.6053881504798007
2677084,1,-1.5642472428621614
738521,1,-1.2562660600182272
1478538,0,-2.0914546442244717
3796149,0,-1.5030402770532545
1842854,0,-1.615244475233836
2860125,0,-2.314961617662203
1824892,1,-1.3505987231098247
3428358,1,-1.3362567686948112
2255117,0,-1.6885572049444741
902771,0,-1.9588982416973275
3450195,0,-2.102904090264764
3050055,0,-2.2071442157567702
1000324,0,-1.4395826746459408
990161,0,-1.9878202012322936
605988,0,-2.207113684225366
2845800,1,-0.5458450673535077
901670,0,-2.2929290205123287
3466909,0,-2.1599232557966315
3049132,0,-2.0571618464621775
1298346,0,-1.988931846108624
2901815,0,-2.628427293809793
2480825,0,-2.441512462735664
1906078,0,-1.8319490988667066
973336,0,-1.6358927170530797
281245,1,-1.7995983444862007
599181,0,-2.154219456965189
1504589,1,-2.05386464702592
1239847,0,-1.834949055350676
968519,0,-1.8582020546073632
1643686,0,-1.7382023902035362
3246478,0,-1.9596723013944741
3942463,1,-1.0223800539567243
3344077,0,-1.4993864879547971
2056690,1,-0.9011337952244826
813938,0,-1.961526428778771
1438871,0,-1.1379200028261938
626093,1,-2.021295903215822
741054,1,-1.1607974759133173
200809,1,-2.128434914198908
3338617,0,-1.6252731638040099
3009243,0,-1.5292132578125444
2934481,0,-1.9205594698521666
3750794,0,-1.7851924753952124
1389233,0,-2.3136541471065093
3526203,0,-2.0086745619466155
3042328,0,-1.2707994171262564
3751010,0,-1.2048345880672902
3176686,0,-2.555876146196682
1469118,0,-1.9753069029282504
2104787,0,-1.895882936646625
2564661,0,-1.9942967441174353
327303,0,-2.584593773791114
649998,1,-1.5009307343437646
3338610,1,-1.1370676248550813
1515475,0,-1.9727000636657537
3254821,1,-2.0716493448389786
1369226,1,-1.7199010725333377
538894,1,-1.497000101953948
273240,0,-1.7390192130076723
692579,1,-1.9616293437667873
213578,1,-1.9318266432558242
612722,0,-2.094937482262652
2662473,1,-0.9317816592759045
2819731,1,-0.723747589020385
3797692,0,-2.030647043848327
3161556,0,-1.7285210638979214
2793322,0,-2.054151273237199
2454062,1,-1.4449652061544749
844590,0,-2.1259602196031038
2124088,0,-2.1766920814367174
2570888,1,-1.189530565949768
517409,0,-1.5468146051359883
2231915,1,-1.246547352047766
3289941,0,-2.0519920134334066
2730405,1,-1.5031511978202285
3810383,0,-1.9080520565631285
515260,0,-1.3906989426742251
3838904,0,-1.8417892552850263
355599,0,-1.5403799265985278
514230,0,-2.295939787588829
1670616,0,-2.009873018000314
2575878,1,-1.1009728971588122
1210536,0,-1.7593183777532082
750234,0,-1.661871577689585
2161063,0,-2.796083699962133
3179302,0,-1.4683919258078046
3548871,1,-1.4369297109845887
206772,1,-2.270979765015634
876699,0,-1.691662532343028
1194331,1,-1.8676435363793693
1689954,0,-2.7757720228667466
2019213,0,-1.4278126738232424
3898699,0,-1.744470533636076
1099635,0,-2.2380048339166674
3002616,0,-1.8038087192718102
1684462,1,-2.256515882053028
2924511,0,-2.037693937114928
2711931,0,-2.120420697718942
2680494,0,-1.93261991933208
3400251,1,-1.495717908403777
312021,0,-1.9209588080078408
3474294,0,-1.6925080221820499
1662058,1,-1.4199285631052074
2774927,1,-2.411868353605195
1076636,0,-1.388940377784846
3481476,0,-2.69488315283098
956014,0,-2.057766457071963
1287515,0,-2.1935671026642636
3900229,0,-2.382970567071485
3437492,0,-2.140880655820258
413909,0,-1.9000573558035065
1535216,0,-2.528346426815187
722679,1,-1.7916013490699125
478112,0,-2.513639828448773
261292,1,-1.5676414116879474
699717,0,-2.1539719739225753
2928069,0,-1.8882994022621988
896100,0,-1.8117933492882714
1079251,1,-1.3231355226566532
1334211,0,-1.82085806548562
3376470,0,-1.964646937263182
1705161,0,-2.4761189684963565
907660,0,-2.4781334973696874
1648813,1,-2.3281501564287677
3768748,1,-1.7987257782578585
1526713,0,-1.9962235415316327
2677598,1,-1.7216580694979147
449038,0,-2.2993254384551127
1337799,1,-0.6644743737903842
2403688,0,-1.7362477146155375
1526230,0,-1.6630886275208598
2757997,1,-0.8800502340868183
452757,0,-2.6864311889449755
2890087,1,-1.8346571377850531
813488,0,-2.222531793012236
535393,1,-1.1150204635410876
1478051,0,-1.3040667973228381
1120755,0,-2.0020689037777384
640490,0,-1.8664358804023047
3140543,0,-2.257972944925933
2439394,0,-1.613805237045693
320252,1,-1.703423101510114
3863208,0,-1.6488300423565558
1349209,0,-2.0720298176983656
806026,0,-2.360416745421125
2526577,0,-2.3701668264122357
2496314,1,-1.4315642284168941
2648295,0,-1.6864455955566222
1300764,0,-1.9395362316635327
3895808,1,-1.5419422025911877
521489,0,-2.226271558762854
2811228,0,-2.079844182651302
3723486,0,-2.2931889838524393
814902,0,-1.9381669351399526
1360661,0,-1.5175846489437301
1256591,0,-2.199539835134063
359127,0,-2.1996294763516344
3061240,0,-2.034986829738589
3669701,1,-1.7670751690783442
2034775,0,-1.340559695636553
3254318,0,-1.3812232450767905
3897268,0,-2.0584576282080773
1082400,0,-1.6455940670128784
1282964,1,-1.8815212320412322
3391794,0,-2.5149838814745844
2608236,1,-1.7507854254100523
683798,0,-1.8627843414935985
1630801,1,-1.0037998725865924
1020375,1,-1.4690147073328588
2458236,1,-1.89312552744651
1683321,1,-1.6430710396526629
1292793,0,-1.7608758410949683
1870760,0,-1.4719204902288159
1151737,0,-2.626326033273773
1855520,1,-0.7336358967099419
2248983,1,-1.8326953887411763
3475903,1,-1.10757453569968
440868,1,-1.1634608163470725
754242,1,-1.8279051263269688
2758951,0,-1.4487340299127545
3471853,0,-2.3248419665410696
2663176,1,-1.318951513893437
253295,0,-1.8505321926303144
1628789,1,-1.4828122565418882
1567090,1,-0.8031697806680624
1972456,0,-1.8681235627519215
2168137,0,-2.224111402837093
401777,0,-1.038837132011477
492272,0,-1.9226407032431354
1874815,0,-2.019689123077219
1701087,0,-2.498628754626109
1230019,1,-1.330046623206809
3896629,0,-1.691146058445914
991521,0,-2.5828710269371236
918164,0,-2.0442676579451144
1756965,0,-1.8095642034947959
2857039,1,-1.2032443374874848
3744876,0,-2.049940652798358
2166041,0,-1.273354361224013
575259,1,-1.895816722466589
2059675,1,-1.6235609816713141
3324183,0,-1.8153042849998966
1477316,0,-2.013182516466822
1888087,1,-0.5279678734602523
1303007,1,-1.1865814083350654
431697,0,-2.123189616168332
1060102,1,-1.4294169749485104
2115303,1,-1.299760403441132
1401079,0,-1.9623993282460555
2510272,0,-2.192196093078498
1783879,0,-1.4401279883017206
394687,0,-1.8345228718485636
390880,1,-1.3936792248497383
2207504,0,-1.714539449947258
1597213,0,-1.9038343640081563
571830,0,-2.128095009241929
1291470,1,-1.6029154544399689
588771,1,-1.6943018523316409
3367148,0,-1.438051316943512
1440216,1,-0.9512740744900142
3206439,0,-2.158797519241171
1852536,0,-2.0454556484426574
2808919,0,-2.2049742407045776
425122,0,-1.7352536257433453
3698069,0,-2.8617397147370465
3165303,0,-2.2061141089851874
3904445,0,-1.9957384834669476
1951799,0,-2.698418812219435
2116482,0,-2.168214670910584
830511,1,-1.8304519457724209
1584136,1,-1.1205596839077105
3782992,0,-1.4207037942019176
2804824,0,-2.089076671585228
1750766,0,-1.8771799149008288
2886825,0,-2.3702783657690727
1092967,0,-1.479203629084724
3498314,0,-2.536145755111953
606581,0,-1.6237731474850843
3475696,0,-1.6340056174595594
293343,0,-1.615450038853426
1875084,1,-1.3195825634937597
2228218,1,-1.5273075775317164
1256396,0,-1.7818609542357737
945100,1,-1.894950266256786
2214972,0,-2.1605721515479863
2425847,0,-2.357282304819312
427481,1,-1.7242459288948726
2241599,1,-1.4996093874203493
2022384,1,-1.2087357706788595
624823,1,-1.202849855352272
1406419,1,-1.3315544095219176
1035573,0,-2.228464590102792
3320235,0,-2.531182007098659
284131,0,-1.4566093999738516
530421,0,-2.2032909415784734
3310754,0,-2.351083639392073
1847416,0,-2.0257121159238576
3950629,0,-2.122671527933964
407301,0,-1.779038148633123
1942485,1,-1.7326419554031705
831166,1,-1.2368811363705678
223653,1,-0.9975631904304558
713835,1,-1.514540051966169
3689736,0,-1.9903649823269849
1739459,0,-1.7028950659105317
3936347,0,-2.539684920167092
2818493,1,-1.4977778926472505
2566496,1,-1.7636047719137231
3531266,1,-1.5568956627700614
1290437,0,-2.036731225615664
2947807,0,-2.6908195004365143
205295,0,-2.3440801242257017
1046121,1,-0.5813567796190836
238323,1,-1.7239000408991125
3391605,0,-1.7280945927140308
269960,0,-2.278869042859771
419648,1,-2.426630509598183
1327218,1,-1.6502228243364407
2759557,0,-1.4833704850296014
1808737,0,-1.7916037091295869
1396163,0,-1.9824075279138023
1602277,0,-1.8521954728096401
1256714,0,-2.6214989420779675
2644109,0,-1.964916303837814
3941225,0,-2.096921010737085
3938161,1,-1.8231409410011117
1874636,1,-1.311758206897939
2439616,0,-2.3565890999072128
297619,1,-1.18989111583048
368445,0,-1.4757166135676407
3025354,1,-0.3345121743867543
1840729,0,-1.4708421031769539
3863824,0,-1.9739410315283314
652425,1,-1.5830896211542007
2446231,0,-2.4329339285561624
1857477,1,-1.5930143175878635
2042606,1,-1.4708134181457688
233952,0,-1.7825887209369615
3132378,1,-1.65623456839151
1328751,0,-1.7614461264159544
656880,0,-1.8744688186605867
1871624,0,-2.2199786482417228
740888,1,-1.0183903566673838
966826,0,-1.5166549300864103
2803624,1,-0.7722628139252201
3949658,0,-1.8943478615675937
325636,0,-1.9261289000810973
3917817,0,-1.638206006658902
868672,0,-1.774702474224406
1216287,1,-1.009815635517416
249042,1,-1.4400631254674776
2759114,0,-1.5298576186759187
202161,0,-2.031765428095233
3681516,0,-2.0576486953746325
2579184,0,-1.8655688524155023
2738722,0,-2.2288303224001744
289063,0,-2.2850337754373107
2847313,0,-1.349660699454332
3105532,1,-1.2725324118927621
561026,1,-1.4133789304560653
3531907,1,-1.8543209466601402
474641,0,-2.1891774104178454
2938951,1,-1.5367046358875067
1277420,0,-1.9968650991030716
1425811,1,-1.2249012338324439
3945213,1,-1.1849277248113343
2927026,1,-1.526335662593524
2138139,1,-1.481641567542649
1394242,0,-2.5645251928547244
3805038,0,-1.6555625154853835
308040,0,-1.8523483986393559
1305708,0,-1.9197027103184436
3922236,0,-1.8803949206408106
1463438,0,-1.5961587981091223
2657711,0,-1.8604573745468878
443868,1,-1.452290928042276
3481095,0,-2.5264505713989225
1783109,0,-2.3023788300518353
653547,0,-1.9357827960656293
3448808,0,-2.1016092723994277
1814784,1,-1.4348695693368039
2993659,0,-0.4800483814306038
2906765,0,-2.2558200267984367
684781,1,-1.472610095704186
304402,0,-1.8336399294093737
1163342,1,-1.2184785306083787
3179072,0,-1.832681045529093
2539751,0,-1.4943012450809654
3345768,0,-0.9347410452394831
3540902,1,-1.04692365094981
3798503,0,-2.0955843056875008
1105862,0,-2.4601583888513874
547004,1,-1.705143871737731
384668,0,-2.1865454340511565
1381230,1,-0.9626929157343973
1236985,1,-0.6707337901777358
2193386,1,-0.6737110432921414
2169532,0,-1.8540952858231607
2962061,1,-0.898507512501171
2155637,0,-2.024800250941595
455069,0,-2.3648648105753662
1824093,0,-1.1444921644520827
3456932,0,-2.435048514852194
2166500,0,-1.8919395084355486
1098771,1,-1.2496003348116935
1325274,0,-2.2741170695481405
757491,0,-2.2015619485789566
1156757,0,-1.9978582254215524
1082756,1,-1.1795986727043506
2048906,0,-2.0381365790476735
680951,1,-1.5937367487633474
1844207,1,-1.1628510766316897
1738148,0,-2.482720345914384
1626009,1,-1.2169457249143034
2895203,1,-1.2756723207085394
3166552,0,-2.312587831334923
3059588,0,-2.051142305785023
1762216,0,-2.7354930284119705
1474173,1,-0.9541000162899509
1427527,0,-2.5694644007642253
1906875,0,-2.2308584491855554
432526,0,-1.5606773232893376
3431976,0,-2.261031640768945
280002,0,-1.276807443520009
2415018,0,-2.011467657046383
2427792,0,-1.9270636398520689
3474378,0,-1.9387302912684776
609567,1,-1.1995120816629992
3017380,1,-1.2582037080102144
3673130,0,-1.5805922847957088
487904,0,-2.06267104325269
2145506,0,-2.2466950076431518
2862468,0,-1.8004218519591721
944678,0,-1.2438717890765765
2643101,1,-1.7437868585898235
2413293,0,-2.300634509714319
2024557,1,-1.5714587803889333
733600,0,-1.8221267640017231
3178227,0,-2.325269405337898
1941002,1,-1.3580889016437812
732108,0,-1.5317954774187608
204938,0,-2.1471514467434427
3897503,0,-2.376590711851019
2455304,0,-1.4614146118211335
736792,0,-2.146892468011173
708010,1,-1.8524350516924737
1265487,0,-2.1481908793549396
1411039,0,-2.157684232804367
3756147,1,-0.9509701965038446
2826038,0,-1.724695339683083
325208,1,-1.7327551604248925
1045171,1,-0.910316157387217
503981,0,-2.0915243481402936
1470129,1,-1.0825942910172277
2236839,0,-1.8514693476439648
535517,0,-2.047668538884045
364850,0,-2.1529481235956087
1810172,1,-1.6988227606144144
2531103,1,-1.019723916906855
1327460,0,-1.912747393863707
1793456,0,-1.943829706561169
3203086,0,-2.2020554200367415
1194386,0,-2.375536476712762
3115992,0,-2.205914869821687
1001367,1,-1.7009213906245872
516794,0,-1.7422059552126692
2725055,1,-1.8354976017994271
1945035,1,-2.179226461287073
2412649,0,-1.2984534130227123
724608,1,-1.2747591765712636
1968276,0,-1.9855862611126478
2938204,0,-1.8391825187750928
3704200,1,-1.6587023974106672
892898,1,-1.5966893679110994
3428037,0,-1.9867195994787166
195977,0,-2.159769322726178
2611188,1,-1.2393740773553055
1555900,1,-1.3545983630684995
618623,0,-2.097167856409116
3548057,0,-1.7879183660255797
2989544,0,-1.6632241678203321
3366361,0,-1.8830645292058388
3449487,0,-2.1277678470542445
629922,0,-2.771332664322778
1830582,0,-1.6609013877217025
1237077,0,-1.78119265046903
1355171,0,-1.9802752659505547
556157,0,-2.1102630326463743
3037977,0,-1.7368958315994183
1568469,0,-2.6120876731435585
974569,1,-1.3089190607260854
3663895,1,-1.4839427262851916
3462765,0,-1.979389628213821
2739431,1,-1.3403722135014327
2560121,0,-1.8650790616995563
1155583,0,-1.787192536164777
2510816,1,-1.8169997564523819
898126,0,-2.1997273616972364
853748,0,-1.962868702590883
2992487,0,-1.8297513675267212
3725414,0,-2.000151173750307
3472069,0,-2.137200421305433
2278571,1,-1.088127188365128
2634052,1,-1.990099811289014
3458858,0,-1.9581567543277805
1583667,1,-1.7507764638461332
471805,0,-2.081170433979256
473182,0,-1.9827500276254384
1880306,0,-1.7046299804217375
1452401,0,-1.1733943711397936
2498218,1,-1.3464433961172368
3122828,0,-1.8085592777735673
1988535,1,-1.8336938096885624
1630538,0,-1.9384768318343175
311968,1,-1.7094235957320973
1609813,0,-2.337556156234415
2715254,0,-2.302855313142628
3058840,0,-1.8784872633888792
609780,1,-1.610187092864138
311844,0,-1.8217679301877603
3383542,1,-1.6515856697605136
3138667,0,-1.0661292719106101
2577764,0,-1.928191131582623
3058482,1,-1.6231760823853554
2422284,0,-1.9958991491204126
1854646,0,-2.37794063419278
3449801,0,-2.2783095344082938
2257606,0,-1.6704191100926515
303868,0,-2.123754942182459
518742,1,-1.2821989930721196
1621222,1,-1.1187411868091377
1384162,1,-2.1027181246518794
2452618,0,-1.9318305904229354
3259558,1,-1.6756413669221581
2915996,0,-1.7725562479022738
1702075,1,-1.2069559077435283
1415600,1,-2.2509445376547403
2677129,1,-1.025684337753425
3789723,0,-1.6215040462996555
2235680,1,-1.5632246358564
1252108,0,-2.092712606423489
1646659,1,-1.8133645050399674
3387449,0,-1.806579964851239
3044403,0,-2.3496633376765375
1109880,0,-1.623384829092044
1440785,1,-1.9714527889183373
1538774,1,-1.2944102974061051
1404038,0,-2.2538608950306713
3917057,1,-1.1368320029148746
1725365,0,-2.4144837477144447
3658475,1,-1.265715227557882
295163,0,-1.832910556423339
1306935,1,-1.5604135008347133
844316,0,-1.642590611327626
1873910,1,-2.044648603661958
1625937,0,-1.4733426032952057
1890197,0,-1.7109028411141076
2197762,1,-1.4739498685172103
379644,1,-1.886218082254373
2535833,0,-2.465561920096224
3287897,0,-1.6598961365649003
2916187,0,-1.8703347613788541
2702526,1,-1.4437202827091153
2705224,1,-1.7471545902183423
218254,0,-2.1802347439969734
3355129,0,-1.7123655573050836
2191750,0,-2.0786112754455077
2648342,0,-2.0806588453439248
3745403,1,-2.1944721961785913
2110106,0,-1.769115828945258
1569825,0,-2.148636381430549
2015699,0,-2.3901447639758375
2893494,1,-1.8351205358781588
923733,0,-1.3049842726022496
2651828,1,-0.9168831138984939
365464,1,-1.2201335348020916
1032786,0,-2.119756114602938
2013853,0,-1.9997218006575765
2781080,0,-1.7416756311604353
708043,1,-1.4775203951251754
745823,0,-1.507537426140799
1916259,0,-1.6783641775679818
2633540,0,-1.9832737479601148
1038207,1,-1.3867809956275785
2656563,1,-1.3815016814294916
636152,0,-1.7672511487924918
3137516,0,-2.247813143570056
2682483,1,-1.6462326609160143
1259501,0,-1.2408614580374864
2572453,0,-1.576987367575185
1529898,1,-1.381079790059399
2415119,1,-1.1094602899224735
2243745,0,-1.833488598343199
564224,0,-1.8485525165234324
990884,1,-0.7644765559120877
1106967,0,-2.7993765778461315
2888540,0,-1.759701284112955
1704600,0,-2.7639135970117916
2422266,0,-1.8016427831350008
2254992,0,-2.0345417045980874
249261,0,-2.0161654913273024
2784466,1,-1.690103916146227
974683,0,-1.6076732758236407
1964662,1,-1.4499714175709475
1108813,0,-2.0930343151360877
998576,1,-0.9823192691226582
3501424,1,-1.448239684462525
2213036,0,-1.7917488842513265
493558,0,-2.0525429627554237
2062292,0,-2.13596944991549
2434665,0,-1.8372328375979952
3365932,0,-1.5496733268677796
744093,1,-0.8037159454602826
1367324,0,-1.2222862662048417
715104,0,-1.976386945459774
1531869,0,-2.657228278639754
233819,0,-2.4415733214495443
1114768,0,-1.4680400112353436
2009646,0,-2.8464895653012565
301131,0,-1.6122495582649672
3263750,0,-1.278646158309998
1370886,0,-1.5243767328618565
2429587,1,-1.1449448121150303
3377760,0,-2.419176012515704
2862103,0,-2.3433425755282387
209466,0,-2.3245050365062463
1492483,0,-1.7447053305623337
2201972,1,-1.3324542696133965
3124875,0,-2.554536820419442
3792765,1,-1.3184391964984659
1899350,0,-2.424361532832288
1438654,0,-1.7202512886271328
1210768,1,-1.3383673031073962
2249011,0,-2.1149587517394153
628734,0,-2.3460827585009625
3948950,1,-0.8305201161238148
2181640,0,-1.7419483790523338
1470693,0,-2.2261836543125755
337103,0,-2.3015100220097264
2395362,1,-1.0302498519770802
3438289,1,-0.9744807530249842
1440621,0,-2.273480356470536
2771193,1,-1.484102899199913
2484889,0,-1.5535248177988956
2400277,0,-1.9722581161971677
1490647,0,-1.6509801708314518
2496407,0,-1.4874937384306137
3838119,0,-2.15334115150672
3763225,0,-1.8066424284565248
1327857,0,-1.8820064605398272
1581696,1,-1.2773842621342861
2650171,0,-2.8846195342974372
2897671,0,-1.580763155361978
2259591,0,-1.89190810778241
466349,0,-1.0565860827268838
2246359,0,-1.6810260728086857
1250768,1,-1.3311093733278518
3440853,1,-0.678283272914543
431924,1,-1.6701456803990886
806764,0,-1.6859917828566555
3257532,1,-1.4862371924621147
2878881,0,-1.757509976547539
613067,0,-1.7052748906302788
1300562,1,-1.4557965191942779
498774,0,-1.8250413130964471
2773201,1,-2.3787670068408144
2416883,0,-2.1493979161863854
2233646,1,-1.0982915923451237
2744308,0,-2.2308604308568056
912006,0,-1.9600429651410463
1229548,0,-2.771086101172065
1387280,1,-1.1920207019589688
2470737,1,-1.2177737542092129
2014496,1,-1.1466635787296715
2945524,1,-1.912261193781926
1934095,0,-2.8306609817543267
694320,1,-1.2616192928606471
1129515,0,-2.2008694284962558
281060,0,-2.2067626480881937
1561518,0,-2.2182447755963337
1467745,0,-1.551995214900227
1816516,1,-0.7713457098554449
2883539,0,-1.521558562485252
2677363,0,-1.6641346262545824
1485587,1,-1.0216226969361386
1812575,1,-1.3983280420542588
1499537,0,-2.017643315145916
1318126,0,-2.4529931423998432
2205150,0,-1.942879769461205
939371,1,-1.4503401502939683
2918150,1,-1.0440784660446567
2276514,0,-2.149173931545796
1134905,0,-1.3181305231109428
976168,0,-2.085783843742641
1339906,1,-1.400198277521212
2228631,0,-1.9724323782870616
574014,0,-2.1917336858630025
2497369,1,-1.0804319901719974
2727891,0,-2.220728473936827
526148,0,-2.1749763961969837
2945997,0,-2.230892084943996
925093,0,-1.9421520297113406
3288429,0,-1.751365274764042
2053897,0,-1.8020500679333173
2463237,0,-1.666007160021973
952147,1,-1.0085104935809155
473222,0,-1.9486478995589134
1459396,1,-1.1067433982394776
239172,1,-0.609420086999078
813888,0,-1.9673406927031132
715692,1,-1.8648779906759887
3694703,0,-2.606401701457265
606140,0,-2.2594053791515396
1435048,0,-1.66138715070405
2056632,1,-1.7074488059196575
2426078,0,-1.8227458545139992
2917509,0,-2.0271460699156414
3793783,1,-0.9065592697788718
1444323,0,-1.3683958160620433
2885956,1,-1.8684960877620176
3124614,0,-1.6517800732027426
2194267,1,-1.803186089577394
1130719,0,-1.9593397199106974
3314388,0,-2.1484604849248607
2622190,0,-1.066102615132785
3064689,0,-1.5198849704409754
1890391,0,-2.3082095582604456
3399214,0,-1.9224920460561132
3320734,0,-1.6515273378020985
418632,0,-1.815627917185711
1624295,1,-1.4642452205992462
2135068,0,-1.981375086844239
353608,0,-0.9001303335498525
3936786,0,-1.387143498495142
659011,1,-1.2509006323230007
3891489,0,-2.2567556832104074
998878,0,-1.0485468936442008
321997,0,-1.6252065981959967
3348392,0,-2.6697714268452835
356238,1,-2.0185153212458076
2491340,1,-1.8430271578019901
1265134,0,-2.297330620574588
3873222,0,-1.8579414459545855
3154969,0,-1.7159766571466712
1390792,0,-1.463423712217524
867482,1,-1.5164715155988757
693057,0,-2.580429959681381
1819991,0,-1.5105719057797313
3390954,1,-2.0933886506938597
1443025,0,-2.19233499285067
2846864,1,-1.6202251901208173
477302,0,-2.24054262041416
2468150,0,-2.050374257122511
2428029,0,-2.068152214242462
1073216,1,-1.5767252241750664
888753,0,-1.9853235708187622
3337089,0,-1.5861639481849787
1901814,0,-1.6965970566647932
2198531,0,-2.477222143169142
2509884,0,-2.01358164217582
1888825,0,-2.373179863292035
379373,0,-3.14375556671858
648914,1,-1.7035753539325635
806951,0,-1.548532276475925
1064164,1,-0.6747258017957488
3539890,0,-1.9206263848585103
715114,0,-1.895795332591675
1645620,1,-1.7666441196798597
1006703,1,-2.044168914331585
200787,0,-1.9331857972521038
334962,1,-1.4400891249056251
3107372,1,-1.666791933269666
368455,1,-2.0101354516472716
436439,0,-1.8614548892554794
3864395,0,-2.3599771238537914
903018,1,-2.33968941965402
394693,0,-1.5894974128410997
3888409,0,-1.6531448286783967
350460,0,-2.266997554128726
1985251,0,-1.6603675320912452
2491977,0,-1.9443869056817513
1541392,1,-0.704706852911555
3375740,0,-1.2140228486435292
2662760,0,-1.6207999848715993
328078,0,-2.2596987124412715
1591508,0,-1.8933168322418426
3915893,1,-1.1579841326525153
1747724,0,-1.8230169793324282
503740,1,-1.2802941617000339
474714,1,-1.2831498299502984
3261868,1,-1.9097083430782509
2171117,1,-1.3953760628584027
416477,0,-1.4241570861052082
1807541,0,-2.4696387048953525
907850,0,-2.0368742069094368
3860485,0,-1.644577754558676
3347021,1,-1.9408191590368604
3804766,1,-1.5283264676594384
3378862,0,-2.4828391754793095
3502520,1,-1.5756016888697428
3446379,0,-2.213049920898719
2202249,0,-1.642707838716444
3454909,0,-2.0229117647496384
3165094,0,-1.6553075035004532
1208437,1,-1.2909407989618018
3536106,0,-2.468483629488859
1422324,0,-2.3992468244737672
2921642,0,-2.5452574796738956
1702169,1,-2.0960747036759786
3090432,0,-2.54244949017228
379199,0,-2.1532770636316116
345436,1,-1.5887361268630815
1172469,0,-2.058997863826207
3959849,0,-2.3403461398086867
1354877,1,-1.6949523770875938
1201466,0,-2.223542025217925
3081847,0,-1.9700030268830306
3266849,1,-1.0578320183651622
2109421,1,-1.4592942909832638
3782205,0,-1.703001451334519
3203912,0,-1.7354664059414877
1262435,0,-1.7031037203335084
3266792,0,-0.74912107442017
655617,0,-2.7922200091065275
1870292,0,-1.8722004699079524
1700502,0,-1.7620094087080238
1918891,0,-2.196572081358708
2544579,0,-1.6149242469149074
1151128,0,-2.178978763283838
2451127,1,-1.013055461115615
934748,0,-1.1689048238878712
2161298,0,-2.3446728194674016
638302,0,-2.8049715517592686
2571754,1,-1.7596650156464135
1003386,0,-2.4855505636719073
1662478,1,-1.2546217307171117
242901,0,-1.7851766561436977
3399155,0,-2.008128890171741
2169699,0,-1.733158807919882
1082091,1,-0.6573233192267737
1046617,0,-1.5896196386331511
568234,0,-2.4138792839278587
2984725,0,-1.7996513914469392
742703,1,-2.1943120902494813
3391024,0,-0.8430129110615963
1876973,0,-1.805289495300265
2978967,0,-1.4873942295346756
2714483,0,-2.3320711096181856
1566860,0,-2.2116505577402203
3929431,0,-1.864239969212431
3407586,0,-2.099540375987052
1488400,1,-1.1136293580555359
2777493,1,-1.1578226795492763
1904436,0,-1.5743064341130137
3095457,0,-2.079670665604713
3278111,0,-2.64505388954274
705181,0,-1.9504514996242601
1008230,0,-1.963791997340064
1458744,0,-2.013394882100967
985782,0,-2.3519437591839103
1285850,1,-1.3364569071191204
2783272,1,-0.7381067146920008
1635148,0,-2.0938786860669527
2198627,0,-2.0133110157979615
540635,1,-1.4924014199314803
481998,0,-1.9619160146705807
3054684,1,-1.3379477052479307
3863992,0,-1.7403984777704742
2240873,1,-0.8120475218906543
631109,1,-1.1180791598814708
1164190,0,-1.9207596014719373
1341914,0,-0.9484431079343304
2636073,1,-1.340739398352301
3015555,1,-1.4102852996034843
3094576,0,-1.5477432470043646
1867380,0,-2.3651589820342562
1405646,0,-1.7251961106379852
1855729,0,-1.4154606496943383
2922414,0,-1.7742957735743028
696599,0,-2.0010141083646436
3656468,1,-1.512902253180329
318114,1,-1.0537522695946542
405758,1,-1.9112809465759475
2932859,0,-1.7496015952656796
398913,0,-0.9433876340877113
559143,1,-1.665734047038461
2279456,1,-1.2256620506722937
3695050,0,-1.7168041067226234
3715378,1,-1.6677703002984543
2752425,0,-1.342495963381125
3233313,0,-1.8652397225379522
879646,0,-1.83178802640046
498041,0,-1.8573522223734857
1694976,0,-2.3817013391202893
2239052,0,-1.6998484851247868
3334715,1,-1.5484785894907178
3173710,0,-1.9101223893813741
2714343,1,-1.2237175722687885
1854586,1,-1.360073679027091
1841031,0,-2.176674778653225
1671376,1,-1.8026506201545265
2138955,0,-1.7987755666711787
1021251,1,-1.0492718325791044
303405,1,-1.4376562241974633
1974110,1,-1.6473555308472176
1514132,0,-1.8104512916382476
3937314,0,-1.6044504736073304
1258933,0,-1.9928687347291967
2940408,1,-1.150991250989526
1611661,1,-1.3961518134547113
1388335,1,-0.9957607352793758
1328014,1,-2.038026252583736
2244953,0,-2.506105087267596
3280370,0,-2.429789061219549
3330457,0,-1.90061914946435
1516922,1,-1.1747542262309203
1260272,0,-1.7246523270521
363005,0,-2.1359223909094838
3198683,0,-1.0156389983270357
1845189,0,-1.4092257736035525
2538725,1,-0.9605882604005538
370860,1,-1.539397908520304
3064538,1,-0.9605280967098652
986312,1,-0.9055229764167625
2629750,0,-2.473924754338803
2742267,1,-1.54524865834159
3380030,0,-1.6442053032676875
1276097,0,-1.4608478916526852
1409388,1,-0.9264589033339995
2679966,0,-2.011287950768394
2424565,0,-1.6490799131061746
2970612,0,-1.7082292925829958
271469,0,-1.5101920652371548
3094632,1,-1.183210010047801
702861,0,-2.2689102211212453
394314,0,-1.986274707575874
2142663,1,-1.4779288934619361
2054113,0,-2.228739188105303
747823,0,-1.9922998230719673
279080,1,-1.855715332228646
2469779,0,-1.6244959621015813
2495731,1,-1.4611884237816448
2796424,1,-1.7288847110541907
3494839,1,-1.3220948932676742
1665408,0,-2.3328053686002805
3004090,1,-1.3216007157126362
2646762,0,-1.4545649874360773
3461081,0,-1.2702671109315156
3232761,0,-2.5043454556840397
1528008,1,-0.9617471636562205
2591886,0,-1.5292210265351736
1589490,0,-1.1630981825037754
3462493,0,-1.8152209233061103
2541703,0,-2.3714461503343034
2165204,0,-2.501299948753047
2796291,0,-2.244537938727432
875923,0,-2.171952973449769
3750803,0,-2.2868018831002606
3902230,1,-1.6829302792215142
3010700,0,-2.6962818056773488
1385164,0,-1.891322592726001
600785,0,-2.003245486799338
2576295,0,-2.466594079436515
592231,0,-2.0708324399527527
3403980,0,-1.5702998103441805
3716541,0,-2.5726102673623727
1552862,1,-0.6205470171423326
472153,0,-1.8269125608126768
1574011,1,-0.7171868222877845
1410738,1,-1.3874208166647573
2783051,0,-2.489545941999452
357147,1,-1.3908071471561383
1621732,1,-1.5320711096432098
1047694,0,-2.249564119405627
268569,0,-2.0470446750230646
388935,1,-1.1374271395520235
2257383,1,-1.3075485723113267
2036000,0,-2.016547196556572
2029855,0,-1.8696578360364287
3000806,1,-1.096764373068109
458916,0,-1.495993728078727
975033,0,-2.1890125922897834
3945255,0,-1.542291479000397
2543116,0,-1.8765529854992355
2885180,1,-1.8860202195695295
1304717,0,-2.1536126104300974
1868254,0,-1.5672651487943499
2551287,1,-2.3215613096592413
3006867,0,-2.1055022489052844
2592835,0,-0.6009215932325738
2164450,1,-1.2544542879207874
3793187,0,-2.0668567238004263
441678,1,-0.7867916694033534
2501816,0,-1.1072692903330434
1097254,1,-1.944855446997512
2578384,1,-1.0397570555748992
1904168,0,-2.070678131313466
1315171,0,-2.613068849008685
2062077,0,-1.799616499637174
2789172,1,-1.557436810771702
1727046,1,-1.0956478143784634
3151679,1,-1.594566442546307
2934940,1,-1.616873596180454
988277,1,-1.6158483192987811
2249622,0,-1.175437458143144
2001290,1,-1.9160583228616799
2585525,0,-2.0738417243710945
437660,0,-1.7975285265955734
3434688,0,-2.275819864418258
3405437,0,-1.7115352265460035
2598782,0,-2.171800785709651
1104435,1,-1.7313321251098681
1234943,1,-1.2958865229418393
2894422,1,-1.5572005394084207
972537,1,-1.5996417275074966
2685504,0,-2.222072423899524
3538085,1,-0.8275459389414336
664898,0,-1.509339333551973
1949003,1,-1.7332282722369752
2706889,0,-2.074580433481978
1114252,0,-2.0679916585152593
440697,0,-1.9517169311213427
2745529,1,-1.784244512183145
2971858,0,-1.9252391929625392
894569,0,-2.058986580656087
274649,0,-2.3008676176567877
476935,1,-0.9038870801112371
612011,0,-2.154015320892596
1435404,1,-1.534837415964039
3776020,0,-2.009020223719785
1628250,0,-1.9084250243575274
584270,0,-2.085420131528679
942358,1,-1.466122089976443
3036512,0,-2.137567205009089
1108334,0,-1.5468501167683195
3020311,0,-2.120889126570361
3745685,0,-1.5469926503722302
509689,1,-1.0482089217960884
2182001,0,-2.095101914766175
3677000,0,-1.9736398180886603
1554933,0,-2.0228637106452223
2770868,1,-1.311758304406633
503982,0,-1.9356989853700792
3870772,1,-1.0596177586527495
669215,0,-2.76477671746198
364846,1,-0.8417360332454548
1063878,1,-1.931732077214249
3422416,1,-1.7493541386916154
1816409,0,-1.5101767348883215
3837076,0,-1.9470882803652916
3251864,0,-2.378326370243984
1771502,0,-1.5583173565180877
950431,1,-2.4708017067604517
973679,1,-1.1640378155406912
3747092,0,-1.8187316108705789
3442353,0,-1.7300208920040216
1946526,1,-0.9598469804556418
1311213,0,-2.319632680848213
3951564,1,-1.2705833471259969
2028276,0,-1.571945157671386
1638770,1,-1.5109119525408108
3123710,0,-2.130047892933781
669067,1,-1.4795275436418414
1636256,1,-1.6668977162131275
308727,1,-1.111319697842965
2744456,0,-2.38928802454796
3860543,0,-1.682105180759631
1890800,0,-1.7244705972867425
3216931,1,-1.4907769300583853
2759124,1,-1.1316726891243505
2854533,0,-1.5439355515764805
1113832,1,-1.1148903114134656
1633715,0,-2.1706868731035054
3433772,0,-1.820759972581576
3499241,1,-1.952513367844309
1121970,1,-1.4110319197401928
2253062,0,-1.8913396379690488
1812115,0,-2.3671739407150816
1130484,0,-1.7160915095414664
676493,1,-2.2134610044714154
1154839,0,-1.9933039741687055
752025,1,-1.5685233858134924
3312118,1,-1.2226787153032148
1158668,1,-0.8302042722254345
2886734,0,-2.323351959340093
2415852,0,-1.6119063786149173
3453644,0,-1.917939037551912
921974,1,-0.796127292634889
1391943,0,-1.2514034315366611
2476869,0,-1.8556847129426295
2771292,0,-2.5004657208266514
3890965,1,-2.0429274015235297
2174802,0,-1.3634516127766974
3925152,1,-1.2868897029073765
3898764,1,-1.0590423104085085
1738390,0,-1.827517763447434
2538922,1,-1.636050982600863
3381680,0,-1.7756190151276239
2969742,0,-2.287484656466874
3035984,0,-1.7886607196502804
630085,1,-1.4571410469586021
231841,0,-1.8441242180118214
2809771,1,-1.7595129274150185
2161536,0,-1.934860753610169
3877323,1,-0.7768900154198068
2898506,0,-1.4640700184903097
1229903,0,-1.6182541590161428
2264362,1,-1.4865356445545228
2623974,0,-1.8823800649122215
566385,1,-1.5882773796125758
2472309,0,-2.0948314054262918
1914860,0,-2.138288609644171
866219,0,-1.8856178906890955
2921672,0,-2.1301925837049667
615391,0,-1.652444610824915
381648,1,-0.5940706637034163
1495983,0,-1.9850586153947698
724116,0,-1.5794938273824692
485777,1,-1.7592171377865264
318282,0,-1.3929442432861334
3351101,1,-1.5697140711547835
315673,0,-1.3633755267551675
1855845,0,-2.2541506017083788
231310,1,-1.3662756467366204
2888207,1,-1.3717203973915344
2432701,1,-1.5615187036146796
3924248,1,-1.8677983483633738
1142770,1,-1.4000790867580017
1860311,0,-1.9382486128232437
2520046,1,-1.2922570541489682
3279922,0,-2.102663914622296
2529141,0,-2.3639986885711055
3859161,0,-1.6063805732986758
3265435,0,-1.9845530441543344
2495477,0,-1.9817694507053696
3359167,0,-2.0460208958514188
2888087,1,-1.515134435543228
2206313,1,-1.9794511043864687
3131041,0,-2.009131783420784
2965361,1,-1.83634580031318
3417079,1,-1.5179041514984177
2843037,1,-1.0876157135243796
2677052,0,-1.9235802358684262
367610,1,-1.9693245529688719
3512855,0,-2.340401586899317
1570925,1,-1.5802172289956529
635477,0,-1.2164770260483815
3678164,1,-1.2217287996824466
1860343,0,-1.9469668499975554
432326,0,-1.3845100196750657
1811458,0,-1.533086712847215
3022936,0,-1.8739477269492761
2940899,1,-2.2153738270699463
699808,1,-0.7016879313819916
1858288,0,-2.0056520229032526
1295003,0,-1.7032461239743593
3085862,0,-1.1467829278998731
1352836,0,-2.442359241540717
2525347,0,-2.32781043260235
3734003,1,-1.6191386089552848
2282368,1,-1.2560728776443226
400674,0,-1.9767907172995578
2997344,1,-1.6714910531992717
1443262,0,-1.8228234255537872
3052472,1,-1.0943630347657243
811817,0,-1.0872653666763126
618918,0,-1.2859520864704272
2881438,0,-1.6608124748154265
1008938,1,-1.6225153879620293
1864147,1,-1.9336569429670618
2945150,0,-1.9709559403864836
819615,0,-2.7281976305438476
3045879,1,-1.0073936026228183
3399866,1,-1.6780568623871894
3006883,1,-0.7429489939896028
1022914,0,-1.559118885955727
2008069,0,-2.157849186742532
2503575,0,-1.7904616615642963
3110033,0,-1.8052241078238653
2754785,0,-1.8424125517178644
3046026,0,-1.0841762674750468
1022759,1,-0.8938246585966321
329722,0,-2.112035291479023
2115963,0,-2.03037233523845
2024397,0,-1.4370741140325425
279173,0,-1.226270193357617
209348,1,-1.1828070563028914
1871779,1,-1.871857705315686
3950929,1,-1.3491881896122777
2115487,0,-1.224756397612881
994512,1,-1.53140325206534
2901964,0,-2.6148162763978986
2935824,1,-1.2960360251641718
3380779,0,-1.3331929980910302
342232,1,-1.9297681470880974
2779140,0,-1.4259880392972093
235793,0,-2.123451667923599
3047981,0,-2.0978504094908623
2485700,0,-2.011138202905814
2593329,0,-1.7653795816514417
2982492,0,-1.924386967988086
3252923,0,-1.8742484501094527
1711575,0,-2.2546966850745696
1461338,0,-1.9672015696627763
605077,1,-1.4893226745272075
510468,0,-1.8691616887795017
855408,0,-2.372794390605531
1681167,1,-1.7840407112700363
1371218,0,-2.182726199365503
3920560,0,-1.8267731492067645
3659583,0,-2.096440695169146
741051,0,-2.0278455576109606
3350549,0,-1.7812070484683236
690729,1,-1.3987566894110928
633837,0,-2.142621007088215
915041,0,-1.5637028383789622
1818375,1,-1.576351648211665
218858,0,-1.9841149364581407
3874878,1,-0.9651236998362303
2677375,1,-1.2734129039267397
2236558,0,-2.2410133693331433
3043835,0,-2.415205275690564
1808217,0,-1.9765899498195043
1452216,0,-1.929243955623242
2735919,0,-2.2363587778478538
3429359,1,-1.6232676863632596
1829638,0,-1.7337985836688714
1520621,0,-1.6674952986558014
1044338,0,-1.709909871029435
3336906,0,-2.0786112480847074
2816502,0,-0.6226537096538101
2928746,1,-1.698066526199172
577043,0,-1.6208572490481792
3134468,1,-1.0941122616320373
3064769,1,-1.0392714126014586
3108197,0,-2.0228733266222427
3078834,1,-0.9083617607817553
1247314,1,-1.1552892926573017
1112557,0,-1.8604120238962385
1246957,0,-2.09856541944221
1975854,0,-1.8960959859966078
2732965,0,-1.82419195503726
1246251,0,-2.3629228652039993
3927267,0,-2.7311039127603425
3415945,1,-0.6691062281344986
2895574,1,-1.72181495698144
3103858,0,-2.359492265300085
3014128,0,-1.7687782889875647
3869029,0,-1.9451944306971438
1414888,1,-1.7043725734601822
1479679,1,-1.504400563567224
1489956,1,-1.410330619758093
2276058,1,-0.8601037237314291
3958458,0,-1.4962583777240275
2220897,0,-1.8794464350783269
2261162,0,-2.3807973624813066
3483660,0,-2.2508011740011415
1117373,0,-2.130084714677619
3282443,0,-2.276042257838446
2059633,1,-1.823880470880776
2676209,0,-1.6434189245376465
2825838,1,-1.127372615710375
483861,0,-2.1469638451880413
3370716,0,-1.6864327086832498
3329699,0,-2.3833423895675265
2058223,0,-1.4030229252325404
1667865,0,-1.9861503375890432
1236350,1,-1.2420935123141146
3117432,0,-1.9691094635753779
1949783,0,-2.3992059263007635
3256699,0,-1.9954857561580106
605384,1,-1.3874184735394723
1672307,1,-1.2121393921439594
3844045,1,-1.3601943743932299
856416,1,-1.9358959216632212
3250913,0,-1.4152027471283686
410131,0,-2.0364027526304187
732349,1,-1.5071525978168159
3245922,0,-1.4339969623757276
2058767,0,-2.0756896024410967
980151,0,-1.8723458093354142
2157833,1,-1.0545419978045563
3356373,1,-1.6739345248703705
1878376,0,-1.9859555334407748
3372944,0,-1.8863433224446013
721906,0,-2.3519717732277625
937553,1,-1.5147873652079067
938173,0,-1.8005197366659718
1715542,0,-1.4714554941135027
1316769,0,-1.5689369005005447
297766,0,-2.4691473727268596
3470330,0,-1.967997280980354
1954760,0,-1.6082619307811774
370297,0,-1.5926916842718528
3154927,0,-1.8082576809213675
2057122,0,-1.6674195193494512
973963,0,-2.2793286126355223
507486,1,-1.3394658583407135
3063260,1,-1.5989391847608534
2818045,1,-1.7740803573884483
3666496,0,-1.3399370021986834
575361,0,-2.082414095084998
1224727,0,-1.3853889958737646
2892095,0,-2.005145867965492
2963894,1,-0.8561401206659185
1914835,1,-1.8445122548373316
1408873,0,-1.7827947681382028
1968360,0,-1.7330739171917564
1487790,1,-0.4843942724533714
2693797,0,-1.8279232365598923
1571782,0,-2.0525976440720575
2203913,0,-2.31230612595386
3444396,1,-1.5750763804232801
627397,1,-2.0578447886353093
3049258,1,-0.9909592465626036
1404940,0,-1.695493119794005
1466622,0,-2.380471808172832
3288992,1,-1.583177131786102
3924976,1,-1.349920173170279
2283340,0,-2.0316034788383517
2978208,0,-1.8124970107787153
2663174,0,-2.16030584368517
1815725,0,-1.9922189330841455
2805681,0,-1.6378120338690316
813664,1,-1.396813852993357
2771071,0,-1.9445408487868965
732385,0,-1.5590893061865132
2749778,1,-1.6311998240561196
2501348,1,-1.4024114162775447
1337917,0,-1.92146006165247
2796693,0,-2.179678413628923
587078,0,-1.4805819684834
841958,1,-1.5794199331151253
3337491,0,-1.8196862789490507
3808142,1,-1.3665776506564429
330796,0,-2.2186420120695476
920981,0,-1.6217399452251575
3186854,0,-1.2033557374907113
511163,0,-1.6560439865874887
1735602,0,-2.159088794672364
2544111,1,-2.0430613546880076
3679232,0,-1.4585590544112337
1986522,1,-1.3699552957474839
3156616,1,-1.1431358442842403
1228971,1,-0.8903053173576331
458888,1,-1.7665317640996703
1326788,1,-1.609533114293524
3797417,0,-1.6627406790238977
867040,0,-2.6048255292981244
3369114,1,-1.89593532939111
2911904,0,-2.1242435750151736
262373,0,-1.3387784397000326
1968092,0,-0.6689536737775885
1884837,1,-1.4977772298927585
929147,0,-1.5490713800604388
732844,0,-2.3236205373525305
3662413,0,-2.5489730434443736
2573829,1,-0.9018581263535879
3082014,1,-0.841722739275243
1767015,0,-2.043362090753659
480240,0,-2.1008863610588477
2539398,0,-2.2602457546863697
3085912,1,-1.2955963060496563
927172,0,-1.3957013851737923
3662965,0,-1.4144578027751034
3344668,0,-2.1631575037420596
2636496,0,-2.5644361439446115
2219044,0,-1.7012149834936272
2737940,0,-2.089361038341797
2134225,0,-2.1844399459759534
1345333,1,-1.270123494439102
3392297,0,-1.968000682355553
3522231,1,-1.3067947699968376
2991173,1,-1.5402597084706617
1986453,1,-1.0932735470142374
1040515,0,-2.1968556678765254
2147099,1,-1.8615416420346649
418766,0,-1.7375626163431415
1487951,0,-1.9364123399683342
505008,0,-2.1826951772643337
3733287,0,-0.9332622460735277
740278,0,-1.4468908004391803
441466,1,-0.6158830233287413
2550205,0,-1.5536577097005082
1356512,1,-1.9229032531181514
3459082,0,-1.2797274842676651
600839,0,-2.135007346892983
2163244,0,-2.1912763551393244
2604859,0,-2.0083520019894796
1953774,1,-0.9655097861787384
2477858,1,-1.7532380079939562
3054566,0,-2.0273904246064234
1442334,0,-2.452614611783541
3187708,0,-1.4722632268174523
2697467,1,-0.7472284823413008
610364,0,-1.7458652029874107
735202,1,-0.7123408072929377
1583614,0,-1.5972795142702951
3386724,0,-2.4305126503718535
1491218,1,-1.2370343175094476
2485856,1,-0.8748583135483324
1566576,1,-1.648248640812694
2053906,1,-1.4038415784636316
1275937,1,-1.8795099824922898
353600,1,-1.2870209639970627
1663794,1,-0.9125158671072413
1446448,0,-1.1569493380587579
2411173,1,-1.6165077813663733
821240,0,-2.103402004502469
3048053,1,-1.3115882126943847
1695257,1,-1.5277762040376728
3019767,1,-1.9434362677606807
246820,0,-1.7255109690498915
2131680,1,-1.3515293436900244
2880660,1,-1.3952019956217891
335142,1,-1.3221418992787104
1639085,0,-2.0121986151808113
1508375,1,-1.636105991297396
2714585,0,-1.5874894637508186
1304648,0,-2.1060422900514877
1824168,0,-2.0046630413328295
2843611,1,-2.2120060900725647
3387589,1,-0.6778297190444378
1272237,0,-1.7444127476700237
1999729,0,-2.0726349795527317
3885744,0,-1.6143644292516566
750398,1,-1.5129459374398606
2104080,0,-2.027424800914531
347454,0,-1.9967057098756464
910873,0,-1.527464222092342
2725912,0,-2.3665079651805767
2692532,0,-2.2390747665404955
2476561,0,-1.9077719725448752
3176479,0,-2.0487773896714954
1836586,0,-1.3224305963581744
372099,0,-2.9047125643441443
757678,1,-1.610279314879211
1503085,0,-2.5015912702920557
3395777,0,-2.019299758066546
869732,1,-1.7173837856975245
2248250,0,-2.235603445489871
885683,0,-2.1975803462159753
3097275,0,-1.9546015354371493
2112913,0,-1.584410799482736
3751425,0,-1.2767585268908297
3373551,1,-1.3242397633289225
492688,1,-1.2703024250609471
1135248,0,-2.1349002085066355
2172576,0,-1.9421229817926406
2663658,1,-1.967949142098706
3484625,0,-2.408706694561338
1425089,0,-2.183453876884391
3345632,0,-2.251558840379077
1303937,0,-2.5092425282498665
1163103,1,-0.4898126334778007
292381,0,-1.700196901583066
1413557,0,-1.932996946856674
3330746,0,-2.001144896430791
3386598,0,-2.2839508681521035
3089878,0,-2.283800253816683
1675297,0,-2.1778707223655824
1149793,1,-1.3660905390069495
2154742,0,-1.9948418866627857
2565524,0,-1.574539812256173
2507227,1,-1.8189151421561123
3270372,0,-1.8326776787233026
293166,0,-2.688150088789611
3132352,1,-1.5926806720509545
3265175,0,-2.4187474297246045
1386716,1,-1.4705357173416738
1951377,0,-1.9469433662797466
2238002,0,-2.14753864006133
2864853,0,-1.9194062431036727
1610776,0,-1.6835850302078135
2014528,0,-2.5774550813500614
2631933,0,-1.8507215295677104
2848236,0,-2.05628466906923
3115128,0,-2.044227751999412
412988,1,-1.3013253745064617
420422,0,-2.361254945224734
2027616,0,-1.8220581765395572
2128111,0,-2.211920007128798
1878499,0,-2.077770288565662
2888753,0,-2.6652353914386024
3887380,0,-2.0905152427424705
1339827,1,-1.5351397513759042
1434953,0,-1.6430167832163127
1703996,0,-2.1466399250877592
850208,0,-2.09369489735959
1465299,0,-1.4929006599404777
2866007,0,-2.4218710213509853
1611644,0,-1.9129325692317969
2976394,0,-1.0698144617309322
3078555,0,-2.111427398927105
724966,1,-1.5294875846592622
1863909,0,-2.189098306600598
1456791,0,-1.9157639297545923
3326443,1,-1.1133933949653974
1907604,0,-1.812492847440113
3239477,0,-1.63032503178045
3398232,1,-1.8417112869080439
2611560,0,-1.1823335644664943
3883390,0,-1.8819629631174435
3805620,0,-2.130066786303406
2130227,0,-1.316622315737816
3269803,0,-1.3653243361783751
1714267,1,-0.9278653923394472
326722,0,-2.076339934774339
1537705,0,-1.9515650449160842
2738857,0,-1.6451650915403506
866350,1,-1.678446262656574
3033706,0,-2.3008855289573007
2474802,1,-1.2475916952134902
921412,1,-1.4736658107957996
2468996,0,-2.1005372260755673
967302,0,-2.2895328131691532
2909962,0,-2.3247404368980176
3955383,0,-1.8941676156850584
2555820,0,-2.1180723292591095
1383150,0,-2.1041163226447033
3748055,0,-1.8980761705425526
659406,0,-2.8078158767553765
1135835,0,-2.40417859213911
3510382,0,-1.742633381158546
1992418,1,-1.3436595972784935
961501,1,-1.4770540640580305
913388,1,-1.2850601497891199
1909184,1,-1.2481902352018153
2209896,0,-2.1801608252551112
2057008,0,-2.389672217388278
316054,0,-1.9301398204549616
1163200,0,-1.524993023287561
3299093,0,-1.5670584669181438
1525411,0,-1.7289762504068784
1222204,1,-1.8384875924875244
1062149,1,-1.4398218292274703
1883016,0,-2.20152405399901
3193054,0,-1.2053296975661523
840108,0,-1.7413263063465025
1091899,0,-2.064348061059772
1206823,0,-1.6430051401748642
540113,0,-1.9664085567529872
2557621,0,-1.4765879388222385
2598796,0,-1.810719148085945
1901537,1,-1.6256229266935807
2551346,1,-1.0765174482396065
2879937,1,-1.3798286016143784
1883300,1,-0.872449129596822
3692524,0,-1.9330990051153376
868921,1,-0.84368400823649
203882,1,-1.7594206426119827
1697407,1,-1.1637460317776127
318376,0,-2.6743989979652865
276318,0,-1.8825000921435886
3128882,0,-2.1220365431957093
1674463,0,-2.408777058101791
3734115,1,-1.6953727480020413
3285593,0,-2.143545638467611
3265575,0,-1.5666518586452785
1727840,1,-1.0927932470571804
1902956,1,-1.3097559945017616
2752898,1,-1.4339585854828052
2029382,0,-1.6005232124184816
615663,0,-2.2175251377649934
3042583,0,-1.460046443175557
3313743,0,-1.775697077553501
1950595,1,-1.678388456218499
2272857,0,-1.9745678062549474
292782,0,-1.595680923587371
433738,0,-1.7399288709091927
2464791,0,-2.255519927910015
628580,1,-1.0644403669937543
220753,1,-0.6997022829525867
2979217,0,-1.5628966099237678
2833449,0,-2.7732922622551563
619160,1,-1.5993463550855207
3890726,1,-1.2078758917007881
2021666,0,-2.0545237989320833
2243014,0,-2.1750735635935996
2634230,1,-1.2020533455700075
3206743,1,-1.4227866750336748
613501,1,-1.59101564154727
1936350,1,-1.7142469057766014
1690011,1,-1.2162661219981559
1010806,0,-2.6523952060228915
514836,0,-2.4192334914338156
3693473,0,-1.6937886724630635
2895806,0,-2.5262344508511765
1559276,0,-1.4511879771844485
400830,0,-2.527989853289644
1602057,0,-1.746155821879314
3387250,0,-1.8492413042088194
3845817,0,-2.3508777795670386
1093152,0,-1.6530377710885633
1789577,0,-1.8949361215337632
2578869,0,-1.5130396201611225
555270,0,-2.407801021178409
2113660,0,-1.6560745474797316
517424,0,-2.28127212436883
2967262,0,-2.155408855367653
876419,0,-2.0383687246511037
2605955,0,-1.8476877824415738
1908711,1,-1.434435529069434
1966536,0,-2.5718684934257614
1211924,0,-2.507277873127911
2473721,0,-2.3365184146990954
2791835,1,-1.3927126503422191
829943,0,-1.488866832032772
3846539,0,-2.1872384981441173
984106,0,-1.8834486892715658
200450,0,-1.8278327871198325
2896282,0,-1.5885670404574657
1630274,0,-2.014076809149177
3764614,0,-2.26985843436217
1701610,0,-2.2597958261400874
969659,1,-1.8744299288383381
1677754,1,-1.4315234687977463
481866,1,-1.0074947107431274
510978,1,-1.0738560942658015
915107,1,-1.051912267991412
2154571,0,-1.548881898284275
3489435,0,-1.6453376468013505
1409930,0,-1.7044526312556763
483865,0,-1.475344845562296
1644437,0,-1.60832133824482
2424819,0,-2.2718851331036842
2992699,1,-1.2254835167809728
1107398,0,-2.469208685613647
458815,1,-0.940233263344691
3087239,1,-2.124680394477619
806791,0,-2.4743136312949443
1149315,1,-1.6780710387519746
2982758,1,-1.2808884367267024
3033344,0,-2.0573612634479366
2502647,0,-2.567656561132827
1912621,0,-1.8226018170837763
415562,0,-2.2737497296403295
1042120,0,-2.14085548790876
1086223,0,-1.8830314028667536
1170302,1,-0.805648828896099
1382132,1,-1.5473224176921792
397323,1,-1.2055503969588932
718451,1,-1.376674302046651
2549407,1,-1.781470351690125
1735434,1,-2.001412639441948
3003864,0,-2.469375844314179
902035,1,-0.9808084188933013
3493345,0,-2.4797933059292236
3744002,0,-2.647581968584179
2679140,1,-0.9498182007086993
2735340,1,-1.7292473165699949
2457658,0,-1.7298618839760875
2245027,0,-2.3237712102452734
2512068,1,-1.7459564604810232
1815964,0,-1.870813552854097
2113341,0,-2.1288557094583878
323208,0,-2.2146442708850187
2155298,1,-1.7548527250588757
3359727,1,-1.512537300815798
1605192,0,-1.3578042091745397
1534439,0,-2.675426894748801
334399,0,-1.5866285017718842
3423642,0,-1.5099929774624037
851550,1,-1.3566047881476562
2423911,0,-1.2246619589471568
1546998,1,-0.8332788409062015
293757,0,-2.328898241404658
304323,0,-1.8118656787226812
384054,1,-1.5509212507842556
891547,1,-1.2743467987239752
1253294,1,-1.3448085219551653
1632044,0,-1.9876491491519734
504194,1,-1.5938040469316022
1323864,0,-2.1657892368986795
2141209,0,-2.252804812817076
998042,0,-1.6990226371783952
2469357,0,-1.4349119668157786
2639231,0,-2.038849305715383
3211411,1,-0.7625683695986679
509639,1,-1.4081781392246835
2238892,0,-2.1973997320584253
493219,0,-2.1881004880265755
1567270,1,-1.1953955548555038
2574375,0,-1.5434448472399123
554193,0,-1.815862210830777
1208089,0,-2.2256315186250184
2692283,1,-1.4766492379582195
3790230,0,-1.9573446238797445
2589338,0,-2.0444673210141024
1297166,0,-1.7579459948894818
608714,0,-2.6473258899119956
3348660,1,-0.7154641960376279
3382544,0,-2.227272046812967
449549,0,-1.1863115184110975
1462767,0,-2.4766875483780524
3463136,1,-1.4617956922395943
3323808,1,-1.4028074920374847
1441565,1,-1.653129369145086
1084555,0,-2.0471238594948633
3662732,0,-2.358044396642714
1192452,0,-1.505890469996305
3788660,0,-2.0323976800361128
2734623,0,-1.9541196297814665
538531,0,-1.9324870666491751
3062119,1,-1.9324395007855992
3804560,0,-2.069380894606824
955748,0,-1.78091548147502
2981472,1,-1.4978303569820548
555113,0,-1.7243854790790571
934401,1,-1.5888626063777078
1474193,0,-2.2249508528590285
1859665,1,-1.103643126325181
2917317,0,-2.3096646584848335
1144287,1,-1.5181181796939553
428885,0,-2.290874030323881
2113309,0,-2.664877737300215
2777799,1,-1.3245152258863948
3420389,1,-1.679090753640227
1784252,0,-1.8889741500637935
3750334,0,-2.1485160515533277
1731355,1,-1.6928729734073236
1724440,1,-1.1970246712991366
3541896,1,-2.169840142462512
1808187,0,-2.0911786366660476
214883,0,-1.8040835747399895
623062,0,-1.9584936306099647
328717,1,-1.5582446959300984
1163278,1,-1.510792508445383
1488716,1,-2.093724123245347
1081822,0,-1.5951547365965637
349126,0,-1.9093882690765733
3143527,0,-2.7311535816869696
525828,1,-1.5429949700032877
2571285,0,-1.756059088437164
1442498,1,-1.2674279125932875
2210176,0,-1.0636550425020475
2844984,0,-1.4856225037669593
3317055,0,-2.867646633914633
3049663,0,-1.533777807376674
519052,1,-1.1987009666196529
3400434,1,-2.212669843799395
596000,0,-1.7193607998321379
1334009,0,-1.3356239505853207
1892575,0,-2.4100076059426216
2758411,1,-1.083498621767568
627649,1,-1.2588514291899284
3940663,1,-1.0058416504020642
1961169,0,-2.0432106612779943
227855,0,-1.7651395738010982
2231379,1,-1.5503656812752755
2278521,0,-2.0187201804762807
1608141,0,-1.9282309163572398
1065210,1,-1.8115350256443987
887011,0,-2.1613508043309198
2459255,0,-2.090148876265621
690540,0,-2.1886076832970067
1547007,0,-1.688270949413853
1709132,0,-1.9922598348439562
2943711,0,-2.3028185858818455
2720229,1,-1.0209789422387712
1571670,1,-1.7581713734376978
1039440,0,-1.7622313945268187
2402462,0,-1.538612175339052
1028788,0,-1.5025583445758217
472499,0,-2.18403260210516
563616,1,-1.4572232421465083
2928483,0,-2.2937311375022658
2648003,0,-1.0383904715816996
1631068,0,-1.6238736276022272
2418248,0,-1.6616490586534232
2841264,0,-2.0144622022325094
3739232,0,-1.5817606293099908
1966477,0,-2.5389853608276116
1704195,1,-1.6516121602853884
1025301,0,-2.0187879793352193
2925091,0,-2.048567891736333
1119641,1,-1.049788516111901
3335453,0,-1.7668071683580244
3479984,0,-2.0987716328173507
3530915,0,-1.871416401121182
1035325,0,-2.138826196641518
3239677,0,-2.063521922278553
3856963,0,-1.882866537729825
2527089,0,-2.656666379711564
424874,0,-1.9382470476210385
588828,0,-1.609911290973383
3759554,0,-1.4358758771902131
738214,1,-1.2845922528877214
2867670,0,-1.702966752433733
2679567,1,-1.8053140667766399
2578348,1,-1.296032447064451
1630126,1,-1.153902155088275
721938,1,-1.1832972754402096
577044,0,-2.516406410622981
2572047,0,-1.7488999246946733
3391260,0,-1.6602189973646209
1201742,1,-1.1219447688327937
3035903,0,-1.8456805544691202
1367112,0,-1.991579101027833
1348907,1,-1.4773481183558508
1859200,0,-1.9971558714889492
815958,0,-2.2124034065690963
2563315,0,-2.340041444683534
2239406,1,-1.7638441750167844
3297786,1,-1.8665646455500524
2991257,1,-1.4959785724590409
1150283,0,-2.069859678141633
2526555,1,-0.7870184294507651
3960046,0,-2.1216295865900205
839704,1,-0.6966357519919675
2859788,0,-1.8363005338055984
305939,1,-1.3764676615845177
1590102,0,-1.9893210550077973
819167,0,-2.6128299730527944
1235606,1,-1.3280800060788296
3524464,1,-1.6760763782188854
2645052,1,-0.8523957701083874
653533,0,-1.8812546419130332
596252,1,-1.2641112903467482
1982554,0,-2.120791163732453
1860214,0,-1.9076267603560286
1340489,1,-1.449878009787148
3468263,0,-2.1778638815378693
301938,0,-1.5217012094106916
801218,0,-1.6029674284704551
2265025,0,-1.9070233315222196
3230394,0,-2.177429069659862
3677186,0,-2.2049832252309343
1401378,1,-1.2982050191343588
2239019,1,-1.5327949617391248
1286561,1,-1.0655229254265604
3341700,1,-0.8841933468510874
806801,0,-2.4452558006526894
3933589,0,-2.020368330764879
1308704,0,-2.0106088137503786
2041480,0,-1.6209091901530766
3335122,1,-0.7313592665056258
3394146,0,-2.410376384647461
2687401,0,-1.84325720892506
1850725,1,-1.3059724264388723
2816710,1,-1.3698549945694773
3110540,1,-1.3846631530736855
1254959,1,-1.7108900903084574
1944861,1,-1.1754355295457632
2529369,0,-2.0436339287787635
229356,0,-1.1884558151658728
505489,0,-1.6126591072757606
2010633,0,-2.33461079808289
2970920,0,-1.9170355559215078
3860219,0,-1.9051136654786436
2925267,0,-1.6639097014825515
2242485,0,-1.7537648430085553
2033140,0,-1.9541947892070342
287474,0,-2.3876185523681923
1765131,0,-1.4805298257082966
467377,0,-2.555199536020574
2008748,1,-0.8312388224488291
1867098,0,-1.5840270353605286
1342269,0,-2.0683923440265763
3888215,0,-2.08121726325013
3898194,0,-1.684747397636803
270413,0,-1.1817622091610747
1766886,1,-0.9600111852744122
1081151,1,-1.0691262527649599
283836,0,-2.2814321252211838
3036308,0,-1.539562678896416
2423313,0,-2.28588601193138
587214,1,-1.411772957322424
3458979,0,-1.3802214632047403
1621234,0,-1.8285422413892447
1697548,0,-2.1208632015058044
1125168,0,-1.9834472019367302
3938043,0,-1.9169700231481956
3230760,1,-1.7014775243567266
1124261,0,-1.3460315003607923
971069,0,-2.0857199828263235
2498590,0,-2.0669773812553016
1548456,0,-2.0956986694763082
196322,0,-1.6536009322916918
944403,1,-1.3809650685417003
2282370,0,-2.1205011284674615
3500582,1,-1.4737724995498174
2715564,1,-1.460153061044943
666293,0,-1.412694284086685
659411,0,-2.5138138329002904
3123674,0,-2.624779881906807
2947072,1,-0.7844070964612121
2395947,0,-2.0329584082765773
718796,1,-1.1660001013135486
2904068,0,-1.4241682066452652
2726161,1,-1.3996163305519331
685567,0,-2.563019579121524
2881396,0,-3.0657831742733777
482826,0,-2.1092842282110222
2896249,1,-1.4565218795480297
3768126,0,-2.12442331935356
226613,0,-2.8671913179461317
3020141,1,-1.3011856633599357
834749,1,-1.1325020709008564
1865887,0,-1.4086819834301032
1199546,1,-1.8509196418119713
277662,0,-2.0431751654277046
1056709,0,-1.843828227820124
3124823,0,-1.7780653802691324
2275485,0,-1.856101946248717
3923765,1,-1.448629207983957
2238527,0,-1.7409292071767961
393024,0,-1.8979951812747797
1337869,0,-2.047916917348426
2728094,1,-1.051899218081708
1990641,0,-1.7792079155752862
442023,0,-2.172940632853046
3548844,0,-2.325498107260045
1957229,0,-2.38638416055283
2989370,0,-2.3546863640507953
3776165,0,-1.6208583778551913
1639936,0,-1.2167203378426823
3907004,0,-1.9497073838094217
1240700,1,-0.9878491145799968
1118262,0,-1.7412743531310604
2021555,1,-0.8527085729941118
1569855,1,-1.8142394442087202
3454966,0,-1.6577649508873658
2284549,1,-1.6272750515727765
825299,0,-2.014226012543223
2917514,0,-1.9017368057712303
2192863,0,-1.5659272933848207
2418420,0,-2.204424559251014
1234691,0,-2.2881054523836393
3029358,0,-2.012582956396544
1888534,0,-2.3330097664964455
497287,0,-2.4468104941501054
3315652,0,-2.563596550157608
3897126,0,-1.735535258571463
1832704,1,-1.1093480505159294
1465459,1,-1.1410612122800894
2455763,0,-1.3896216976587419
2703434,0,-2.0103744353775466
972958,0,-2.2088016401818567
2486760,0,-2.151101623944085
298338,0,-1.1967279844026897
1002205,1,-1.9071718377286722
1858727,0,-2.465822982716623
1515814,0,-1.7106335677119122
1689724,0,-2.0394472677716293
3543283,0,-2.150726487923999
1514195,1,-0.9986754505061983
1977351,0,-2.243924615006839
3375283,0,-1.9194873529968106
3765675,0,-1.7597717468199654
3747852,0,-1.7595679708899268
3176817,0,-2.1261412800452777
2401088,0,-1.631551649763776
1063643,1,-1.5634386199428465
728890,0,-2.8706558707334713
1676952,1,-2.093537869789261
1990538,1,-1.290685654873791
2684854,1,-1.419982044518903
1145467,0,-2.0935060998120325
2029736,0,-2.132712582813419
2895733,0,-2.1343827953174723
2505453,0,-2.1317900852318568
1475631,0,-2.358622615078039
2154414,0,-2.2088288970062315
1251650,1,-1.1229134455642398
1610276,0,-1.4564147672566663
1881018,1,-1.4151937784423716
1716281,0,-1.8008889258679799
2138869,1,-1.4469068600228827
821873,0,-2.4927025145548285
3528136,0,-1.7521145511656893
2943264,1,-1.5550213435779168
301890,0,-1.1258790534794099
1667200,0,-1.2770142990687798
2769502,1,-1.3404359044886414
933032,0,-1.9885022830722152
2013137,1,-0.9034053649864262
992881,0,-1.5477940928138345
2503723,0,-1.897054735166023
743171,0,-1.6006634431103228
2711188,0,-1.8401718951654542
1539856,0,-2.06587562616743
2186021,0,-1.6368731947531625
3890644,0,-2.2748252653802243
1472791,0,-2.1098159011449384
2204191,1,-1.3886663983920664
2257141,0,-1.88112985081189
1859758,0,-2.0776833930133467
1843470,1,-1.0991694770950668
194616,0,-2.360444159598159
2964976,0,-2.136866035171067
699922,1,-1.709713257076051
1716604,0,-2.141696892277366
1374759,0,-1.8056205089453594
3929675,0,-2.3940828678307056
3720121,0,-2.153012476389944
2401039,1,-1.1939247879675121
1425340,0,-1.7653302642324564
741707,0,-1.7776778861764928
580047,0,-1.3403977370457134
2852580,1,-1.2703586253885
1717450,0,-1.7538982466771367
2182249,1,-1.333344207081433
2734504,0,-1.8941085143924947
976980,0,-1.633225127968287
1889221,1,-0.9454061236741778
3524393,0,-1.3793472697266453
1417792,0,-1.9330966368725526
3335713,1,-1.1774269695848782
1115545,0,-1.5381529882397529
3699973,0,-2.300220342914332
1297845,1,-0.9256386969817751
2187360,0,-1.2633764431728551
2483871,0,-1.6858179781470102
2139056,1,-1.273104138484036
3099444,0,-2.40013267091673
658221,0,-2.4940514244129703
3192643,0,-1.5661613636190883
2716271,0,-2.1918242018112726
1618826,0,-1.7578074018113832
2839190,0,-2.5250720776938897
1540681,1,-1.079980704602519
1445664,0,-1.6375856953065862
434358,0,-1.4345060993452974
2550118,1,-0.5450927754000818
3221044,0,-2.069450894496012
3194178,0,-1.927614274445065
2832181,1,-1.1670544818042572
2778005,1,-2.240962584615945
564736,0,-1.9334425909141486
898812,1,-1.150177487492323
1392129,0,-1.8869376623419611
624226,0,-2.347485473355524
2404122,1,-1.632624475819036
3279147,0,-1.7334011352557175
909153,0,-1.7219139340006722
2042120,0,-1.8814157905180846
3231609,0,-2.4344971390615173
2263206,1,-1.3360606007745146
1639521,1,-1.7508644262995636
1275655,1,-1.3398060155135663
893575,1,-1.2457492341725096
2501608,0,-2.169027502938378
3546497,1,-1.826630745152093
1522454,0,-1.8559795235643564
937728,0,-2.786378106540628
1978992,1,-1.0765000886025045
3521250,0,-2.3548904966556723
3162876,0,-1.7790393088277667
2600161,1,-1.3422809340611448
3774979,0,-2.1138066896089036
2860984,1,-1.5528240886813274
3309303,0,-1.3801412969909008
2853779,1,-0.6159325218598335
866698,0,-2.167604896375359
1252185,0,-1.9048184348936543
2464199,1,-1.589104411783968
1366823,0,-2.6487879295251897
617267,0,-1.9247521642395247
3309901,0,-1.7315473336649536
3026070,0,-1.764075675046062
754381,0,-2.188994053777533
3308375,0,-2.6078167881749836
1313739,0,-1.5334865214401288
1070186,0,-1.6609071110029299
3802857,0,-2.0207693534635127
285983,0,-2.0460698799720967
2846760,0,-1.877435250228794
970746,0,-1.5270442604369971
1146394,0,-1.7139047897038386
3187638,1,-1.3855573193487696
269691,1,-1.6920017049712643
1535268,0,-2.3819476628736496
861725,0,-1.9302526841671552
2869249,0,-2.1131325906717295
594904,0,-2.149768548540778
900036,0,-1.916388758703007
3439090,0,-1.916687365793158
1040474,1,-1.0713918008599443
470373,1,-1.336940692702591
1974362,1,-1.5752256621262761
3240501,0,-2.006366139663545
225377,0,-1.875371683591964
1561458,0,-2.4674699366031443
3444329,1,-1.4347185630670387
958182,0,-2.224900237351272
3714955,0,-1.8739071130567322
917858,1,-1.036710715290831
915975,0,-2.1140064920963884
3651327,1,-1.0433057639497074
2244349,1,-1.766124627513317
661534,1,-0.6796651025747528
1352399,1,-2.1709933836323185
2966863,0,-1.511437697071476
2597307,0,-2.169283739497209
3721769,0,-2.6872089880042336
2791568,0,-2.4171763731379214
1210601,0,-2.2474389891159197
2581572,0,-1.8804418941320238
3721858,0,-1.7682170922943405
1458952,0,-2.531316060912581
611788,0,-2.1536645589746275
3796731,1,-1.3168054428868343
3317712,1,-1.2918456661524402
715400,1,-0.9740655396843043
1504497,1,-1.2257817556855504
1536880,1,-1.6782191951725078
466239,0,-1.2846296778870578
3143640,0,-1.4747145063170168
1026565,0,-1.5697148202558477
1129409,1,-1.4164290484380693
1216010,0,-1.9430844198284642
2769800,0,-1.6674184833730532
3409061,0,-2.4003069134175847
829890,0,-1.5981400839432376
2652198,1,-0.5528635812864537
1051734,0,-1.7457255153534685
1322266,0,-2.2634594258815213
2639518,0,-1.7529264420064306
1280777,0,-2.3255125810042947
820553,1,-2.3588327935878315
875427,0,-1.7776914344262267
3792842,1,-1.2274967776322576
2565390,0,-1.3272669689534697
2970687,0,-1.7424814443692467
1388073,0,-2.1890113114745353
1118291,0,-2.1567910034780033
2686276,0,-1.3859648628595078
2215692,0,-1.7886798373299215
260045,0,-1.6449020618974148
1988696,0,-1.8980241026693645
2462857,1,-1.3155830886015565
1098596,1,-1.22035052774806
2250420,0,-2.6474255558414
2014298,0,-1.394906074000041
2602665,1,-1.0066179448815116
3910567,1,-1.6921979194844707
941534,1,-1.2984540799873252
1192934,0,-1.6508358081745658
330983,0,-2.423551909631639
3381700,0,-1.9046692709405486
997442,0,-2.2154058514096104
1759203,0,-1.9087927277671548
525885,1,-1.3861905949869848
3727750,0,-2.531230518060897
1389252,0,-1.8187498102958903
663189,1,-1.2066318263211613
1691095,0,-1.8662618232074013
1031310,0,-1.787708615426924
1854716,0,-1.3001937426373815
2438065,0,-2.2718573307274927
1569056,0,-2.252952353398051
2554676,0,-1.2484648827182265
371419,0,-1.0638434975989717
426171,0,-1.6195981511609685
2666543,0,-1.5024339251068508
651817,0,-2.3090414845357063
1441287,0,-2.1411044246871485
953537,0,-1.6562287250642502
2470305,1,-1.6043649083050442
446612,0,-2.070399201080941
290634,0,-2.031882861645734
1756858,0,-1.669163297296644
3713272,1,-1.778206741856353
3135648,1,-0.9813315993804237
2808459,1,-1.7669418885303472
2739035,1,-1.342109842564983
1719205,0,-2.0849549004694534
2809977,0,-1.9047654518288537
1023764,1,-1.2139848518387204
1913230,1,-1.7187465310196863
2609577,0,-1.8231895813244003
311102,0,-1.9496856558523386
3401960,1,-1.5132678155087826
3693612,1,-0.5971043391906193
3146374,1,-0.9791138314118444
383763,0,-2.3068628171585273
457178,1,-1.287178965071281
1245124,1,-1.2222205104679549
217541,0,-1.821373138366084
2597322,1,-1.101937592443985
2699409,0,-2.5238395132010263
3303438,0,-1.6039135468226071
3721481,0,-2.365974525558037
473784,0,-2.238328985645946
417052,0,-1.9451338531951852
3312127,0,-1.7995634341671496
3063823,0,-2.061240781959069
2864257,0,-2.229121331942769
2116336,1,-2.026839047458801
3046440,0,-1.5680630167303937
2182370,1,-1.9313764058577507
3735073,1,-1.0944351023083525
467486,1,-0.6622532555022846
3504044,1,-1.1024403111590166
354913,0,-2.3522970056214234
3232247,0,-1.655155997397798
3654190,0,-1.8779660452633997
420735,1,-1.105898055349162
825924,0,-1.9633131108427677
3840341,0,-2.4041743934821413
903521,1,-1.8649124933886556
2566888,0,-2.462059119509071
352819,0,-1.6842677051742279
1270848,0,-2.4665021774411944
3299232,1,-1.1856061467783872
3347072,0,-2.008132302682014
967781,0,-2.2234361561126916
518984,0,-2.2472665258184326
3879329,0,-2.2084438113236855
3237230,0,-1.5197111395473173
937571,0,-1.6655123813391972
2538269,0,-1.283311228667576
2756629,1,-1.588052807852032
1734200,0,-1.4206946782840988
1898877,1,-1.4413894880747897
3039696,0,-1.8181528383871388
946001,0,-2.3266921259502906
475040,0,-1.8344478511983922
3898334,1,-1.1364708049243424
3506189,0,-1.6146880615693946
2262427,0,-1.693703045598753
1204570,0,-1.640049424083032
1899381,1,-0.9526168075998149
3494241,0,-1.7279403952866657
696432,1,-1.2758972705873444
1211790,0,-2.4694169086741935
2712417,0,-1.342574562614728
3167571,1,-1.5605127012687952
2168832,1,-1.0679441386539597
1379652,1,-1.0473747764916186
355350,0,-1.6362936282329217
2508487,1,-1.6330113561548378
1424717,0,-1.9003122135872101
2931911,1,-0.9835333948271536
3733291,1,-1.3856394381290407
1137425,1,-1.4612377642053858
2996650,0,-2.0555038758340354
349515,0,-1.5704186215342884
295707,0,-1.9597697990331868
3247052,1,-1.8633191345901492
887064,0,-1.4684047098056712
2903106,0,-1.860418283117222
3777062,0,-1.5651286791618146
2581051,1,-1.5615698845168213
222368,0,-2.7299713215197174
1344496,1,-1.9086920010869057
3838174,0,-2.241903321737906
3518808,0,-2.338871653605298
364748,0,-1.9202618877978088
1497758,0,-1.8134562917072723
2422137,0,-2.4187187279434066
420253,1,-1.0405448290769441
1595679,0,-1.9940601319654085
3929963,1,-1.147058456660937
990981,0,-1.274292928983085
672962,0,-1.5035927959927098
931559,0,-2.3803513059908945
1596319,1,-1.5267883159044826
440789,1,-1.0994921325197917
1504075,0,-2.5049098520574633
1372591,0,-2.041145042760609
1073909,1,-1.156883787004018
1994068,0,-2.0985400957187172
233684,0,-1.0054282181981882
3675420,1,-1.6235774174001376
2173719,0,-2.0085606782798884
1997090,0,-2.0939387157525964
2713576,1,-1.4668736974213332
2654673,0,-2.406074156501
299546,1,-1.3662335607221352
2920363,1,-1.0205330932906107
3286760,0,-1.6837036468680062
1637324,0,-2.0372257250463166
2678998,1,-1.934491384881012
2785037,0,-1.966873230769511
1358152,0,-1.8902898216009996
3153093,1,-0.6649016861976575
3930609,0,-1.712483200588996
3189604,0,-1.6516567354761684
1502430,0,-1.8132597690825123
2492582,0,-2.8166369110528513
1022711,0,-1.2681679316289258
1198038,0,-1.5124350940753315
3252960,0,-1.5523603175076706
2410922,0,-2.5265112480118215
3320426,0,-1.6671229899670224
3160564,0,-1.6620526486647713
2974117,0,-1.533890569805657
1290296,0,-1.6134832946766187
644785,0,-1.991454477228616
3546274,1,-1.4890251934736347
3309910,1,-0.956327767598901
2057464,0,-2.590429091521967
2933245,0,-2.0852866735342763
237838,0,-1.8901592707480137
2466109,0,-1.9918315900906363
500747,0,-2.3022354529843057
2567997,1,-1.7984649974169626
2110558,0,-1.6612081078196053
2528912,0,-2.195188690421932
3653394,0,-2.1591242655042215
3383589,0,-1.821978627562234
1780575,0,-1.8402220369748714
673649,0,-2.0698463821451067
757802,0,-1.5728754359743609
3413083,0,-1.8632103694743167
2441744,0,-1.837241572568282
855457,1,-1.5184956833575967
3907013,0,-1.805504925121047
2724251,0,-1.8682164859718837
3749461,0,-1.561696841720262
1255021,1,-1.3436012380848046
2202335,0,-1.3634094996789021
2684031,1,-1.1304625833092432
744099,0,-2.1470519575558127
2213989,0,-1.6325862723331424
1643090,0,-2.3620385821289807
3155000,0,-1.6727001718047012
484272,0,-1.315860167096868
2621977,0,-1.9530865494858745
1201668,0,-1.1609674421889673
2576621,0,-2.5235104171635143
2510574,1,-1.6291729349829822
2505442,0,-1.792212209784107
3469224,1,-1.3171395451763688
379612,0,-1.8083253037995393
3425620,0,-2.300241915107876
2845549,0,-1.797394535782504
725191,1,-1.219217240664287
1377638,0,-2.316738904194325
3730908,1,-1.644732911521187
1698071,1,-1.081018667886736
3158648,1,-1.5581156207204963
2280143,1,-1.018044115361843
1106439,0,-2.6469751748238504
405992,0,-1.5781356424682578
3956295,1,-1.55190163529802
1887301,0,-2.3397180707144116
3403779,0,-1.8533029365003595
1663456,0,-1.9042692073479115
2198655,0,-2.459411903515729
2989530,0,-1.8637453250798603
2502897,0,-1.920093019821361
3462572,0,-2.4594994496800915
1743587,0,-2.0928066375157166
2209868,1,-0.768376461238392
3804419,1,-1.4637057171187418
3361187,0,-2.3987276268263384
3004895,0,-1.6625213975670605
1777658,1,-0.5720717144378767
470583,0,-2.493908947529576
1677946,1,-1.8049432606493179
2438230,0,-1.750981207308136
1713299,0,-2.911638248099984
3516994,1,-0.9624494406495487
1788899,0,-1.8185862928203624
1755372,0,-1.4142951490474713
1744442,1,-2.231798248961327
3960430,0,-1.7954305364783236
306160,0,-1.7816985482185146
855525,0,-1.6759663350600227
2972951,0,-1.3680233452882486
194205,0,-1.6682389328075062
947300,0,-1.9126213069144702
3507710,0,-1.5464378574819282
1438812,1,-1.5121519541165414
1211369,0,-2.0695766981126114
3006931,0,-1.511461680675168
556112,0,-2.186083356751469
2150950,0,-2.1681788355882192
861632,0,-2.4334467657436107
890484,0,-2.4533243403698455
3240327,0,-2.0457584565892084
2796070,0,-2.582362094105362
1163439,0,-2.2082547393894636
3047142,0,-1.6588395501988458
3309051,1,-1.284879071803512
2971293,0,-2.097022103687285
1847144,0,-1.921269771526454
506564,1,-1.5957850221814718
3537235,0,-1.9503509926787403
2272590,1,-1.8934343905487907
2656895,0,-1.787513882177174
3079108,1,-0.8233493319402545
3533508,0,-1.2110561545690077
1467941,1,-1.0735454174480406
847113,0,-2.1102404673317245
3662642,0,-1.654808392862118
2009910,1,-1.4431632130881136
2265852,0,-0.6897992932437704
3268439,0,-2.4886000368315195
3000443,1,-1.1557566698315387
643023,0,-2.1453444693822408
2650102,0,-2.2770786244243264
2126613,0,-2.2967763215741015
2163576,0,-1.4486205127163905
382270,0,-1.5737031046663867
1454238,1,-1.0348162251683342
2120879,0,-1.6708252742921834
1575038,1,-1.164976501271517
1724824,1,-1.6176034766250738
853307,0,-1.7710694332695969
281897,0,-1.5966652544619384
895843,0,-1.5974557629039108
3081888,0,-1.8424832562213935
811974,0,-1.4660275504357576
3275030,1,-1.0365407875755581
3114554,0,-2.3537122182590826
3379071,1,-1.3685964505149724
3786131,1,-1.4285205126620317
2419893,0,-2.4321653116388777
1457227,1,-2.016901772503842
3920356,0,-2.2449367676798415
2418362,0,-1.9636598683881967
1768372,0,-1.855322910789803
1560582,0,-2.4559045398929285
3483565,0,-2.85330583780798
1939852,0,-2.7945248023689815
658634,0,-2.045799775944067
3932380,0,-2.3479480440805367
2199183,0,-3.0214331596472457
724464,0,-2.0325399659089562
1992477,1,-1.893053512926157
529370,1,-1.72291963400275
652979,1,-1.3077952421990808
1687615,0,-2.302551657444124
3343143,0,-1.6963937276504952
3474850,1,-1.785964859826184
495752,0,-1.968849628268232
1845492,0,-2.0821033979760184
3847566,1,-1.5605251989869466
608892,1,-0.9169404383116929
3878863,0,-1.8010337404612071
515880,1,-1.577155934715435
1552065,0,-1.5413312565128756
1486030,1,-1.6604586358420979
532141,0,-2.1060082786345093
1746925,0,-2.063420460868933
1157918,0,-1.9166108592638602
328885,0,-1.9046778116303622
381961,0,-1.940873022648662
944852,1,-2.121794732514922
3182396,0,-1.5012618434246914
936432,0,-2.566446991968544
880322,0,-1.319165524540082
2439111,0,-2.207073247446935
1152419,0,-0.7858743796713106
1793549,0,-1.115766367637119
3722428,0,-1.912434610911999
536752,1,-1.6212477535504377
2112671,0,-2.251783756258349
292744,0,-2.0307654089327896
2828018,0,-1.8498703946904822
1030184,0,-1.8491720054366765
1357695,1,-1.6370623244514297
986479,0,-1.345962583499097
2169900,0,-1.968517720247885
3741466,1,-1.067803399322366
1029961,0,-1.449928323378435
3724207,0,-2.218904355740064
3786205,1,-1.562060425909023
512332,0,-2.2800006622844187
3180323,0,-2.6774383593784297
483432,1,-1.535423017808228
1483191,0,-1.8641916452420708
2700018,1,-2.0674227169546273
3363345,0,-2.4899525463692225
1903051,0,-2.1348895022621357
327750,0,-1.772445651024714
3798608,0,-1.448809760850901
565507,1,-1.5627250354714672
