sample_id,z,y
3943226,0,42.13559380869775
2391441,1,42.2119476261465
534681,1,42.636240419301025
939283,0,43.950575102421205
1260631,0,44.21504204684315
1122100,1,41.290778486131316
2395066,0,41.15156603897039
372088,0,42.36119598422733
918447,0,42.42550790564734
1250095,0,41.45737114643696
1524369,0,42.26180098606781
2896664,0,53.98836774451706
1077228,1,42.409032460119214
2393791,1,43.068038451788276
2414976,0,42.936033044513216
1161362,1,41.28573811480811
3889078,1,41.11667364825753
2062000,1,42.764372311216384
3144898,1,43.644601143583266
1516970,1,42.008330709530746
1782556,1,41.09531193006307
3521805,0,43.80373057624195
279209,1,40.834697505716306
2699203,1,55.10920802816211
1351882,1,43.00161865462138
2611188,0,41.90190868538257
3220886,0,42.15567178915169
2460569,1,54.57485155252229
1914181,1,43.591980558766465
3854161,1,43.68692440356632
958533,0,55.8045410863166
1499172,0,40.865339574512916
3874913,1,41.609082136267865
1572715,0,41.522877327362885
3078082,0,42.699454407079315
2149311,0,42.190802451536776
3150856,0,43.60334547979428
2762784,0,41.99120428693592
3437323,0,44.31098599393292
2032894,0,42.117112419343854
2676762,0,52.93910062649838
3389812,1,41.026073693059985
1399027,1,41.93783402491204
1552748,1,42.406379051035856
2247079,0,41.29743148666713
3124794,1,42.54836110092087
2282593,1,41.483894126391384
3285615,0,44.68211205783171
230205,1,41.56717359918009
2549407,0,41.26070126562297
1987115,1,41.18641094621266
3912221,1,41.762139861095314
1161826,0,41.695063395239195
340171,1,41.817124096668884
2472604,0,42.70513617993818
2262481,1,42.16259389705616
436248,0,44.5558886994964
537105,1,42.218793536456126
2665296,0,41.86068791300616
1037123,1,41.63242202860753
3676746,0,41.93983182652451
290040,0,41.18572768710661
2274612,0,41.11774494076507
2215026,1,41.22534747700793
1979866,1,41.23310243070322
3846121,1,44.1452417853747
3709106,0,43.715188998792726
599212,1,40.91769250141258
3321223,1,43.3348319277293
3097440,0,41.762611306540414
3357730,0,41.92989880310596
460468,1,42.20016891881498
3395852,0,42.52569975487924
520586,0,42.80096919525466
2820886,1,41.3576583052746
726610,1,55.07620807836345
3671105,0,41.88353248379298
2931575,0,42.67980288415372
411790,0,41.786605234464446
3538083,1,41.73377757883761
1253355,1,41.45192639867361
3475487,0,44.014766387650944
430911,0,43.72691836573052
3391288,1,42.126016272185495
572465,1,41.23537859282642
1484323,0,42.15132117571439
3842028,1,43.75966702634272
2753159,1,40.95657278485159
2014183,0,43.64895952445875
2685504,0,54.923792875402484
1358038,1,42.72075518800991
199160,0,41.446488523896164
431094,0,42.88313441391429
1385894,0,41.12262646597994
652916,1,41.3850611799313
2812556,1,42.08930937537992
2716859,1,43.08894367939027
1436989,1,41.75390327098373
3859171,0,44.37610089655163
1857009,1,41.95924609365455
2917534,0,44.7557798240386
261155,1,41.610418619639404
1463700,0,41.9386870895228
2701064,0,42.34167773482039
482469,0,41.19108754386166
3406008,1,41.18184417639397
3159049,0,41.36994001852665
1638770,0,41.55988528211338
3527517,0,41.92639460221042
1453602,0,41.538175595720965
722015,0,41.636089270624595
3873992,0,42.284848070145706
2030297,0,40.09307540284012
2803776,1,40.99627605890465
1793258,1,42.22472872626091
695247,0,41.03703922983874
1542690,0,56.11533828746903
2967489,1,41.04310965700059
2921220,1,52.38267966757335
540756,1,44.06967154624594
1324462,0,42.439282888575576
2913426,1,44.626141640080036
558156,0,43.212811275500236
3899542,0,44.06170637239137
3153994,0,41.27639717251952
2698725,0,40.729244349610454
412065,0,41.98303379927548
3379898,1,43.1905777795444
829102,0,53.34667372564784
1141456,1,41.98755478485671
1377040,0,41.804191968661456
2406335,1,44.3855612214497
806073,1,42.27764224480482
2531135,1,44.45629975505842
294185,1,42.64896146021855
2606932,1,42.65511185185772
1172275,1,55.53974293942671
663418,0,41.251516016986244
3253054,0,41.553277757322185
1163685,1,41.35883851603967
3784303,0,42.566546106778624
1065771,0,44.14105562327154
3925757,1,42.16571117200983
1827146,1,42.39109803096011
2198306,1,44.37162752286473
1308020,1,41.871682981359235
2521566,1,44.080868649821234
872954,0,41.409955607730254
3370405,1,42.023779806111676
518242,0,41.48250838949471
2963735,0,41.5412302227342
2109903,0,42.114541877205696
3375898,1,42.86223215093156
3409479,1,41.5803668786475
3023332,0,42.54361263350461
1746560,0,41.54843371100924
460611,0,42.10299065039661
602016,0,41.944075151791786
1941381,0,44.282072164801804
1613093,0,42.17214523504104
2906675,0,41.78628798053598
816319,0,53.52298622499973
3382819,0,41.75911357005328
3449004,0,41.17881113313022
3917577,0,42.71933089013438
972537,0,41.84062845930885
3683499,0,53.72717547704379
1943099,0,42.37925322253121
1204035,1,41.55791619549282
2677752,1,41.3945579410605
1127712,1,53.95212389179859
2759482,1,41.52935162599815
2683675,1,41.322107983850515
1375427,1,42.09756604660417
733717,0,41.152612374051216
3078602,1,42.41795490763273
1311410,1,43.26459955584585
346404,1,41.542275130020265
3797044,0,43.44259548476094
1323830,0,41.577341997580774
706636,0,40.96907929933493
2602869,0,41.41960269760485
903466,0,42.41997617119495
3959016,1,42.056021949825706
1605978,0,43.2869655558275
1084383,1,44.41407074874671
3068794,1,51.68871955293541
3958026,1,41.67407730136212
636647,0,41.43718816293853
2725975,1,41.88874582969949
3491537,1,53.815530899423656
1533004,0,41.013652597656844
2127496,0,42.01599822295141
2522022,0,42.52019571046926
2777679,0,43.64300859254468
2545743,0,40.81981769157765
570089,1,42.174310003018064
825431,0,42.302438350386396
2675268,0,41.65132866225338
1054300,1,42.39902782966144
1235786,0,42.966696400859334
3370689,0,42.37576601347526
1074777,1,42.297911411047224
1239622,1,44.36912215263652
2795447,0,41.676641143687974
838317,0,42.2447250997133
2903865,1,42.3807150929791
2498763,0,42.291287318071184
2999584,1,41.58214055453742
2814468,1,43.0935382890811
573532,1,41.18489141706297
1946375,1,41.035311471637165
3339799,1,44.2627999547378
833277,1,54.14234419826897
1313961,1,41.07644159760896
2651434,0,42.18085361937774
1316764,1,40.698820620911995
3290131,1,41.82624487027563
712186,1,42.22427986131352
914435,1,42.71762246159624
1210847,1,42.14864122048522
3780803,1,42.763083824951245
726742,1,42.46962483386598
2257620,1,41.58612769818869
1939869,1,42.04633129701406
2272027,0,41.287128270577874
966727,1,40.999836607287655
900654,0,41.92889938178153
588098,1,41.5108784168518
2795598,0,44.101151189937724
867058,1,41.64104249161162
437917,0,41.36715930244152
896777,1,42.52984169890169
3158255,0,43.598220063700545
914233,0,41.35461753292522
805077,1,41.7872434346765
1622320,0,42.07231096740422
1449548,0,41.52595830368203
1162040,0,41.58729839230801
652056,0,41.32883428492178
2987763,0,43.63091208488478
432019,0,42.40160590676717
2889291,1,53.35316555544626
3485289,1,43.623014873524426
603019,0,40.946995334408314
1552412,1,41.0218892610627
1494529,0,41.196264135081776
1124021,0,42.61891496356876
3321820,1,41.695593150863324
1276023,1,41.129315055071004
1487790,0,42.899749914760505
1940335,0,40.791064170437096
679598,1,41.10515590463019
1624403,1,41.43943604890647
2206469,0,43.16069819073018
3159789,1,40.756867914259836
1554933,1,41.30970162738224
2893626,1,51.27049825599796
535796,0,41.89649261050248
2415132,1,42.523643212145494
3104436,1,41.96072402679633
313774,1,41.4561076553385
3698442,1,41.84201511606577
2239876,1,41.320213258681974
2874768,0,53.388046667512256
2061123,0,41.177842962565954
2141436,1,41.57968450302532
3437074,0,42.282700993757196
3455591,0,53.344709238317755
724443,1,42.409624055828054
520242,1,41.43675504733324
736316,1,42.00944608200299
1686809,0,50.18633315785647
3486637,1,43.805873473095716
1998980,0,42.64930005561749
588510,1,42.630852203808665
1199512,0,43.756966853193944
1440692,0,41.808766201410734
3190415,1,41.620126126496494
639239,0,41.56557669142466
1791292,1,43.672445877042264
1869706,1,41.462069703468785
1510100,1,44.02405944145638
3952401,0,42.16142785321161
1203004,1,41.7883582589739
3448530,1,40.22670627347864
484746,1,42.8355852581826
3487935,0,41.44811877133388
1161808,1,42.045564716778244
503879,1,41.80114283667187
1151015,1,43.479508019645415
1256446,0,42.60389486474886
1225762,0,41.17902779050534
609352,1,40.65221647110932
1254436,1,41.415637587225554
2480789,0,41.48169426521861
2496314,0,41.489380797407804
2757812,0,41.914046522976705
2256882,0,41.047327094096275
1475450,1,41.105173227793045
227754,0,41.86968616722097
2910279,0,41.70149488490519
2420356,1,54.739790067213235
1241468,1,42.26325709476781
1636528,1,41.07386995326436
357567,0,42.26913025089652
934498,1,44.50065342687146
3488879,0,41.47573755648166
694789,0,41.00705454618063
264406,0,42.48257891541565
646130,1,41.265217233645465
283226,0,41.126078061222366
2769502,1,41.20145095525641
3390967,1,44.134499345430264
3420784,0,42.11853259434033
1459291,1,41.56190740089742
3840780,1,41.03965273907744
1561058,1,43.76267395899807
1127175,1,51.837313502041425
1056232,1,40.69302087393061
3758932,0,40.86566866965688
2120323,1,54.92431693713182
2561584,1,41.66993835155209
3809426,1,42.770570300490654
2449936,0,41.90323670192197
1417990,0,55.51411483105875
1872266,1,41.44375650861326
3351376,1,43.92778678538534
1496468,0,43.35558278224566
3777514,0,41.76414369710104
3843557,0,41.42002023023413
382509,0,44.43374665192174
2745950,1,41.15718251584634
1073167,1,54.99481583046403
2527272,0,42.455466873997686
2614833,0,41.24790549541776
2493093,1,42.50599330671458
3141773,1,41.76672184257502
3193360,1,42.5942040173165
1192137,0,43.283448593776626
3283316,1,43.27699335207956
1610934,1,42.16086657781089
2715906,0,40.97520861048111
1098515,1,43.61362602170391
1020191,0,41.508252714136255
1824198,0,41.72160677328788
1047372,0,42.92655612299104
3668110,0,41.813690604061684
1335123,0,42.48395701426696
2658155,0,41.507038126618426
868613,1,41.463595405526576
254354,0,42.644710594639164
1141875,1,42.2546318211871
2689973,1,40.58498633057106
1759059,1,40.87106709057237
1217238,1,41.53425010395738
1703000,1,42.306441900233246
1114523,1,42.288041784584955
1085121,0,53.96553806285567
2845116,0,42.16971755315355
3184351,0,42.19631730306955
2837111,1,41.91797332258849
272698,1,41.33969534395722
3881672,1,43.990905911894906
3511171,0,41.60320162175817
2565223,0,41.40557651838977
396882,0,41.113520439536735
372099,1,41.817640066610366
3195588,0,41.427536010331956
3305705,1,43.94157850620711
3303524,1,41.006142552945256
3677299,0,43.16197400808685
3127990,0,41.1666594337979
251190,1,41.55211534018016
3099944,0,41.24257074981401
1300921,1,42.11928727784493
1710795,0,40.92794582456883
1002847,0,41.163059508689045
967653,0,53.61367526450034
3320896,0,41.688840955705324
1573205,0,53.69042092122907
3261169,1,42.45537658663735
1779693,1,41.14761790552046
1557090,0,42.4994608968405
385187,1,42.13052248060033
1639863,0,40.410148947817135
3681248,0,44.31605247196683
1916140,0,41.21147460804482
1960545,1,41.981719008873036
1813058,1,41.35363875464572
2129875,1,43.61081138242043
208516,0,44.365877817506075
1771060,1,43.17120631785404
2827422,0,41.98225953243441
3375073,1,42.106910840308636
2401497,1,43.84302537789628
1773149,0,42.1383087462236
2781192,0,43.634066645310476
3269779,0,44.23813954072881
372827,0,42.017849425818135
2394234,0,41.18800629045782
1483012,1,41.379517116968934
1616200,1,41.19671791449158
2397859,1,42.015334358802164
1072513,0,52.961594783995466
2937042,1,41.230232216808
2267313,1,41.39356477586775
1094290,1,41.18403230311955
2871239,0,41.42128961320975
1408756,0,44.27255239690631
3395830,1,43.903190963375536
327271,1,42.968891031223976
2198558,1,40.8106419145739
3420177,1,44.246426571194355
2159739,0,43.126644277871236
3319975,0,44.49604841204025
2407599,1,41.600695834737294
1239369,1,41.421648958460544
384355,1,41.484671432637484
1227690,1,40.00180440430824
1766016,0,42.64966860880583
2614406,1,41.28672489004295
3144227,1,42.31057492565395
2034413,1,41.977675372249294
2274213,1,52.95752455856842
533665,1,43.60182469951357
3274378,0,41.27586554844516
3780404,0,42.54078469336891
3203124,1,55.20133858577436
805553,0,42.26540069662273
2766153,1,42.11677095051393
1966283,1,41.40764578738256
1038422,0,52.824216049845845
1677821,0,41.5168133240538
2134220,1,42.59962417691107
3786146,0,42.346746323792466
1058580,0,53.818394814236896
1790496,1,55.07775514686218
2040404,1,43.07676191950617
2625577,1,41.923358021060416
2605113,0,41.81853942267321
1310519,0,42.211103145902605
3844267,1,42.05869930800323
975377,0,41.500381939354774
2704661,1,43.34825127805569
2143776,0,42.05463727048965
2660330,1,41.689583886869855
742245,1,40.85664515637187
3760170,0,42.062639448088525
2567256,0,43.2376152031229
2875966,0,42.49563613747516
3339390,1,44.355840129834434
431924,1,42.801288404466355
944412,1,41.3324653894633
2540350,0,42.223484388884245
2256740,0,41.39739352737731
3371587,1,41.31585842940211
906802,0,42.65858727276193
3410456,1,41.38312145051376
980671,0,42.48000193909539
670696,0,41.57550893659899
2506453,1,41.67105167432897
3056218,1,41.653034158807
1836869,1,54.71414435767676
1098270,0,52.28417291767303
3208657,1,42.63280026626952
1166372,1,55.002414223219915
1053669,1,41.52212592273026
1332197,0,42.173637850638286
1309610,0,41.49360694754068
2743940,1,41.07447051446534
1047798,0,41.844556323692544
3502165,0,41.82160789769739
1451030,0,42.087830695880385
2733123,1,53.21253701866589
3420389,0,40.98786118227104
1910177,1,41.090983715461014
2004478,0,48.707918293403594
3224634,0,41.96707519648064
3524668,0,41.848120555742334
3909543,1,42.441277743814915
3730439,0,42.82160558027781
2805926,0,42.15821088136801
2925683,0,43.376956805151
357044,1,42.0977340043266
1981815,0,41.32473877759362
625053,0,42.58577616212094
3322850,1,41.59661680173544
1155195,1,41.601414687113014
868103,1,42.500145488441206
2938951,1,41.29783160755634
1968458,1,43.564059260036764
3714084,1,41.71141563140612
1004612,0,40.49965113122697
2205002,0,40.925575357156184
1949490,0,41.59892950796166
3060103,1,40.77001463963851
200855,0,41.79130302603007
1940599,1,42.455646682513574
2047051,0,42.980000387924
2705343,0,41.84708003955116
506553,0,41.56396821086819
746993,1,41.86403718285923
3868860,0,41.30231262065197
319336,0,41.391811089475176
2168832,1,41.075000586657346
2428721,1,43.28278001444889
1336614,0,42.16786334329782
1869764,0,41.40043655373492
1981552,1,41.23287916096817
2949421,0,40.60240938569511
1968295,1,42.137293453739325
3434714,0,42.81022903514833
3870554,0,43.32132437785186
3840351,0,41.12254496420477
863035,0,41.78675356637596
1693156,1,42.47305073121323
413770,0,42.241195070541764
2563985,0,41.78633595773449
1038708,1,42.682686976437765
2867572,0,41.54599065396447
603381,1,41.2508058978693
1639209,1,42.03896727277696
1784505,1,41.78465133505399
3403279,1,41.16830316286733
412174,0,41.66279586495585
742213,0,43.95950224041904
741774,1,44.44995910546627
3205980,0,40.45943911688766
877837,1,54.67624718516118
1771906,1,42.277813754823214
1289033,0,41.9168688975266
757187,0,54.8579077538198
851875,0,44.23275393247146
357298,0,41.6188516995751
3703424,0,41.263080982731914
979099,0,44.13960424244296
2261636,0,42.006038689622805
2740487,1,42.864321107081054
1952314,1,53.28864819508505
1548443,1,43.245011151551445
1965418,0,53.982036426832785
2175468,0,41.96407917324712
2987219,1,44.639465067785906
1567514,1,41.242262378365545
970337,0,41.70967911469683
2867176,0,41.710293189450766
1018950,1,41.463399402434696
2601365,0,42.37719440147421
1016757,0,42.105860233897
3481194,0,41.25134779641471
3469184,1,42.12804614314508
1066625,1,44.64326027712941
2162013,0,42.36779848561426
1507953,1,40.87855473882568
888394,0,41.396345586242155
2197695,1,41.97554018888579
843314,1,43.86090085941652
1982318,0,42.258005389510856
1349244,1,44.05143394166338
1837708,1,41.341356136773236
1163609,0,42.643237823496854
1201025,0,41.38879544875845
2631492,1,41.16482739599732
1829300,0,40.71765427113906
339961,1,41.97106914652767
1247618,1,42.41702102967145
3850100,0,41.481797485347165
2271998,1,41.51507508478573
3015902,0,41.81080581745726
1206587,0,43.3582703505962
2542402,0,41.44913425215381
1860343,0,42.02794409043063
863370,1,41.95104764039196
551226,0,41.40998788639111
711249,0,41.569042493473425
1563828,1,43.28220716234138
2024176,1,41.27278297729931
3783520,0,53.03320424499024
555849,0,42.49797903484206
3062717,1,41.22782771477682
1631938,1,41.68936978005822
2107410,0,52.88135931080339
398625,1,42.12538705654779
1011216,0,40.98756921168761
591050,0,53.50178173508249
3309244,1,41.387941204987946
2001591,1,41.315909397317775
1037316,0,43.095302009487064
2891155,0,52.71067915263179
2808150,0,40.72847060836854
1784242,1,41.44713979700789
1761552,0,41.83730009671893
3001486,0,41.87290733757819
3225769,1,41.235429726523414
2594301,0,41.3965564244505
704259,0,53.926766019955664
1192684,1,41.19652437583002
617640,0,41.54471154961923
3666558,0,41.24443124697645
3312056,0,43.98217288387347
1935895,0,42.24956313534813
710201,1,43.747271116776005
3482535,0,41.8711451115018
2519696,1,42.04607700913337
2393707,1,41.01490683700194
1619446,1,41.98454162549212
1944459,0,41.88503910098021
3417871,0,40.68625210410927
220749,0,40.998608245502936
613138,1,41.518804912545775
2653596,1,54.152169852265395
378087,1,42.16805925685984
1692410,0,42.78105075028257
261144,1,41.13379598787824
2147506,1,41.53802327680555
1480574,1,53.85087951599703
900133,1,41.86531852263777
2549250,1,41.487536873032575
2811436,1,41.94567473341763
855457,0,41.4531546525312
3897985,1,41.16331979821727
3264482,1,41.66976415412772
1397732,0,40.96573691180362
2598607,1,43.701266921821635
308264,0,44.02834301484575
401471,1,42.02340291334945
2609024,1,42.007480404912954
2514267,1,43.19239092437978
1315008,1,43.22404185583111
1964617,1,54.01813997780969
2443535,0,44.42743558852655
2998934,1,44.35309062279652
3036383,0,41.46583946522678
3456024,1,41.64985231357838
2035462,1,48.87330929949846
3365790,1,41.31913831907305
3656372,1,41.71506304289385
2759537,0,41.382022610426844
266817,0,43.912993419164536
2491807,0,41.07478388456462
1535216,1,40.71790982270582
1254007,0,41.979590627523685
253649,0,42.388791183777606
965270,1,41.2818925878894
587072,1,42.56251371959805
3666956,1,41.06014017703128
2252503,0,43.800308401831124
533971,0,42.187497145913
1133609,1,43.67321880508479
3332816,0,41.71706670043769
3286901,1,41.1154822853022
2244739,0,52.54293346708773
340583,0,42.663713995800535
646332,1,41.0004473439147
307996,0,42.26842312404835
1030789,1,41.85618814175228
3890396,1,44.59487322240386
2121179,1,41.00828816421193
2738689,1,41.885800520491514
3903322,0,43.7846565261512
2945247,1,43.799212474539424
3878097,0,42.14747026545511
248642,0,41.302461398297154
410811,1,41.737079982593656
1374113,1,53.162748508960604
1596622,1,43.06533752408836
1896972,0,42.85085640309423
3662307,1,41.868825083186174
1576311,1,40.629454190800786
2924810,0,41.74269563651112
1987676,1,43.05533178030554
3913700,1,41.8730527598127
2910808,1,41.99628823739414
245431,1,44.464591187245105
3191441,1,41.18079639972762
2279056,1,42.130493352410646
1493655,1,42.26027005183675
2442900,0,42.5233290744836
862155,1,41.78630653383679
1889567,0,41.19001171815913
1709615,0,41.56698812287414
3944145,1,43.59672561035353
1194851,1,41.8280374252936
2450030,0,41.4481693944129
3504168,1,41.33763126972429
3544943,0,42.12484871680352
3243176,0,44.181879150849845
2945138,0,51.77562213926319
1570336,1,41.982048796735
265370,1,41.18608974249494
1718404,1,41.86337251503024
1320491,1,41.58730938701734
1305578,1,41.78877304258746
1563481,0,42.49490864835582
3832418,0,41.304369616331826
3007085,1,41.54961209684119
3189908,1,40.90539615189079
225712,1,44.467186218337325
2751095,0,40.98030230071454
606918,1,40.474588495271064
2004651,1,42.55776941530385
1308415,1,41.56087105975981
584555,0,42.06605539616485
698502,1,43.35639066079599
2119001,1,43.338222943703066
1483329,1,41.093745235108464
1629524,0,44.862892844976095
325847,1,42.40966907553847
1914892,0,41.31708799272962
744126,1,41.50938699316622
1686904,0,42.364105897570056
2251883,0,42.19239077296406
3149857,1,43.81750027866875
2134135,1,41.14776393858503
3407036,1,41.06301810303091
2146578,0,42.92236405846424
3365237,1,44.14927714445639
3472100,0,43.267267160077665
843427,0,41.47851044493802
1355556,0,53.412215636809805
2615691,0,42.152368894738366
3372900,0,41.52245292682343
3107637,1,41.25636553482083
3801448,0,41.61083099476542
1394033,1,41.18928628892495
1873792,0,42.09189189113616
2819639,1,41.35852050138496
1986165,1,41.824281445837244
736493,0,41.81217586769049
2507227,0,41.78805046003342
858520,1,44.668621276019486
3337774,1,45.09577327209836
1360022,1,42.678753530456966
2616888,1,44.218305153263096
809831,0,40.99084011546057
2612476,1,41.146958054500196
2104535,0,41.299208063464505
2700445,0,41.45988213056463
1916935,0,41.98158884193922
3091958,1,55.4551068199307
1325363,0,44.20457438214909
552929,1,41.87948368028703
1237538,1,42.101448944606084
936432,0,41.73300415130103
1766496,1,53.00422366572451
1353125,0,42.06621370457125
3080318,1,41.31013030509461
2174040,1,42.481938490593485
1816448,0,42.88451098481985
1566223,1,53.557615933113375
1743587,1,44.06120430711335
2813136,0,42.70490511192537
513544,1,41.35469422647686
558998,0,42.67462268497585
3930682,1,40.76696606236937
2886194,0,41.71925819273965
3500506,0,42.00859190017248
3450211,1,42.1808679955811
3222615,0,44.45415460075568
3224281,0,42.010578302201274
959767,0,42.12412216091857
468663,0,42.395834297398025
442450,0,43.014085248109886
1049319,1,40.612287176845975
3776708,1,41.63612899412591
2565001,0,42.19015760497819
3369278,1,42.67802269908596
3438953,0,41.52084368488593
2685492,0,42.3143892779249
3123276,1,43.27514620654792
2425586,1,43.750718953358046
2169606,0,41.484535765181015
3668284,1,52.68982433121216
2128471,1,42.87876150388281
1874395,1,42.22269367496078
3804419,0,42.239896184150936
3413863,1,41.432669266958364
657177,1,40.97216961570027
1842024,0,41.61062114268229
2791723,1,41.889123639483756
645787,0,41.64273733750307
2120635,0,41.500447428001785
1494773,0,41.970707426621665
3017370,1,41.168068154129585
1754807,0,42.45245105513984
1971348,0,42.60624794466389
269791,1,43.86595384155147
3394642,0,41.53018760965614
1418837,1,43.67426037458845
2491721,1,42.412029048596374
901196,1,54.76577891905108
2585929,0,42.623986221657105
1985622,1,42.57936889116554
554797,1,42.29342321576961
3184771,1,44.42912389391119
557081,0,42.421964102156366
2624901,0,42.38869344915844
985479,1,42.45128439078993
462144,1,41.73106776997341
396598,1,41.087516800565
339803,1,42.678654100295205
3283662,1,43.57380171102174
1874962,1,42.323574524219424
1115758,0,55.772564124057865
759864,1,41.0025061259127
3653427,1,41.51982958475081
430530,0,42.147330139847774
1369701,1,42.3477071290989
1010508,1,43.79261906303765
560053,1,41.47759536537159
204531,0,40.53996427230575
490575,1,43.69111742582762
602690,0,41.802374683030436
3667583,1,41.63476358672372
478220,0,41.88922525288734
742791,1,43.60258087865174
2910228,1,41.146035842476245
349065,1,54.08413308826654
2460864,0,42.11644085244038
2169672,0,44.25072032695321
1454365,0,42.01253174192498
1423824,0,41.81112215384388
3075228,0,43.18182513252956
204797,0,42.35661759331029
3324118,1,42.04444776335187
2841560,1,41.326245241400954
3684029,0,41.147426084767034
2587887,1,42.052484542721146
702580,1,42.449193642377246
3155625,1,40.31013377428196
2644353,0,43.533195373490116
3916255,1,44.18160708301751
1319779,0,41.85866980532817
1977833,0,41.622113469852394
2249622,0,43.2140339521793
2669567,0,41.97802742971
1247142,0,41.38626775884336
2589850,0,41.92081236742782
2984489,1,43.59896694571686
2575043,0,44.72856645506249
3896159,1,42.41789410888101
1160951,0,41.21069034767111
1015393,0,41.696587033901444
1506813,1,41.320646066067596
3851425,0,44.60913718640651
3351681,1,44.38907762810648
2159280,1,41.29202401780283
1146827,1,41.58034163600475
1455247,0,42.938306756704456
3020575,0,41.37386434551222
3860983,1,41.80776360903376
851659,1,44.2583491192376
382045,1,41.361893509808276
2711188,0,41.27994529341155
653533,1,42.37143047538711
1327230,1,41.42467657892443
996290,0,41.362754713851984
1165995,1,53.36819484597035
3091799,0,43.229821200028496
2168152,0,41.83775082233894
1893893,1,41.70393826488233
1559476,1,41.63270661433737
2534936,0,42.14413566125692
2153031,0,44.50199485649953
1586401,0,42.0607566228629
2164759,0,41.45237555271409
1285272,1,41.936840046513744
327937,0,43.430974925338035
2285641,1,41.29670185645364
2187580,1,43.47133050500214
2851186,0,42.72886578501869
1479872,1,40.73694414205826
2438197,0,41.47855514120431
3004321,1,41.767490287241046
2933372,0,42.21044455855816
2884029,1,41.34873961097759
512069,1,43.94158598823749
1771150,0,56.31813800732774
3538871,1,40.3763946961974
2133181,1,42.598095060363065
2497689,1,41.39533180789576
2826843,0,41.07981108591278
3847566,1,41.22993889760988
2668820,0,42.069049830568815
587353,1,40.65745187288974
718792,0,52.28307963994719
1217285,0,42.43786057884065
563616,0,41.16841345313562
402922,0,41.40055730131674
203065,0,41.361975672308155
588739,0,41.46891891406456
273577,0,42.46865475109715
2513975,0,42.8902774417114
1325965,1,53.75849695118398
1091252,0,42.028077848210806
2256434,0,43.703644215920356
963875,1,43.56912894389867
1454648,0,41.35567681434281
805327,1,42.45182036976283
1366753,1,41.755742368125794
2682693,0,41.02309919070093
3198879,0,42.11851507805773
1163626,1,53.050154711967984
2789172,0,41.51457531941855
3796731,0,41.02887054243591
3802812,0,44.275466034774645
1941418,1,42.89820288559685
1809396,0,41.259597841165636
2833843,1,52.7085727157982
1163721,1,41.3363229193472
2174095,0,41.8659562985236
2412649,0,43.57066815367692
693349,1,41.206157915940906
2675306,1,41.211002487865734
2399738,0,42.48801976656117
3482043,1,41.75035759054927
3003908,0,41.71487455986485
3300991,1,43.99448236304963
517632,1,43.15396541253739
3186085,1,41.56998095021165
2445839,1,41.48246485500403
246017,0,42.50693674107739
1432366,0,42.12716368630257
1350381,0,42.247871754312136
923896,1,54.9436659274269
3933434,0,45.130923410891526
1365233,1,42.52324882098678
3342767,1,41.53971163376525
1099805,1,42.64835441987934
1434085,1,41.35219708490514
1022613,0,41.96227307164291
3669284,1,43.57274843999274
843347,0,42.32120431389114
2690382,1,43.602626917348815
2584250,1,41.78095242837403
2233984,1,40.98521590327068
2602101,1,43.40955349367332
1562047,0,41.80457508132048
2265312,1,41.51415320677409
3256956,0,42.09930075185496
1598315,0,41.247417915369674
1065919,0,52.51352085834166
1527947,1,41.77277230535729
2414244,0,43.546426251137845
654829,0,39.82707840731829
3503565,1,42.13214223072904
3250826,0,41.63893344170827
1967998,0,41.234190338943776
2488982,1,42.340029095211015
1911062,0,41.66195289864807
1052589,0,41.395889125503885
2104628,0,40.921259726319235
1706176,1,41.35407429431072
674769,0,41.68457758837029
518248,1,41.54356686268374
1945247,1,41.42700050844766
2888207,0,41.56766071639786
1129427,0,44.32685840892729
2778018,0,41.14016570833988
1642412,1,41.032180017870076
3695013,1,42.748296858491116
3388591,0,44.83498101473039
3113725,0,41.864971250353676
1489413,1,44.135887063650685
1111533,0,41.330751453277294
2542006,0,42.295990725486575
2485551,1,41.003702284471665
529795,1,44.408464212429024
2562714,0,41.428938019545775
2278391,0,42.23548103416796
1472777,1,40.712605995747836
1886289,1,41.08996514304435
3881361,1,41.84150985440879
491615,0,44.78776374366418
2698024,1,40.685886158810916
1705399,0,42.3942113488578
898626,0,41.70256471050394
225246,1,42.52616762471688
3525754,0,41.442626094387435
853827,0,41.739129799782916
1243608,1,42.97967379399396
680119,0,40.69529803880041
1769456,1,42.78287251471138
3544532,0,41.84765725276812
2845032,1,41.45621699426916
2564658,0,42.385084863444
555093,0,41.68896080981303
308909,1,40.75188925452878
967797,1,41.68700593043589
3132817,1,41.45878122595134
1275752,1,42.129489209651396
256967,0,41.4430588790776
2180843,0,42.140187486391774
3297149,1,41.40916965728195
3538005,1,41.91670076727513
1628250,1,42.149080121491465
1976470,0,54.12928548004636
538977,0,42.708489056781296
973195,0,41.39533795854554
3404749,0,41.32440219590124
3329927,0,42.03592455054014
430244,0,42.197192636873204
2574015,0,41.58219569100201
3315652,1,43.56635408810667
604401,0,41.82868655130916
1774564,0,42.28493956005127
1702967,1,42.74453198338736
1532092,1,41.30167794103389
2240154,0,40.67975873224533
3543301,0,41.06802217784774
1035258,1,42.312328000042385
3901917,1,44.49539810739062
2405435,0,41.01251074102186
2016901,0,44.55899613223702
1283085,0,41.60887376176868
2511641,0,42.24360927321126
1386721,1,54.239595530029426
2539282,1,41.62975867809643
2722980,1,42.07707289042678
3714092,0,44.34979735340738
2628176,0,43.74039066239981
1743004,0,41.56530035459908
2273153,1,40.98308246022464
502344,1,40.90690680400161
981078,0,42.62157693587975
3213891,1,40.84466275718466
1734697,1,43.27987101347526
1258575,0,41.398179106157244
2671980,0,41.498887556167006
3549160,0,42.35487522650588
1534472,1,44.220977037598544
1483201,0,42.20396298379658
1808187,1,40.420681267349956
1751300,0,54.07523568927064
1646509,1,41.89190665678063
1679290,1,41.64396483853456
1620500,0,40.988511954602416
852585,1,43.87384515054369
2494288,1,43.838554994205886
1669170,1,42.79104935830449
3684246,0,43.222263474633394
648311,0,44.13829632808037
2911828,0,44.197907845176054
2918022,0,41.086535525554154
1402882,1,41.6899570394077
717226,0,40.99258050230062
241766,1,42.0183497161155
1909293,1,41.38904457656585
3531710,1,42.1655462754785
3017364,0,41.92097491956586
1363248,1,42.16002319437929
980623,1,42.051139041286255
1026010,1,52.67022884935261
3242701,0,42.12183078463267
3730680,0,40.90661445399288
3338461,1,43.715445598717956
1578432,1,39.90073877369945
3163204,0,44.56683538968024
3422349,0,40.59726137511416
1151929,1,54.84310546200293
2893962,1,42.137160734580355
3912826,1,41.72839954088249
1163930,0,43.67762934899841
733669,1,42.231055689780234
308588,0,42.52472318065952
1207042,1,40.46217739140675
3429117,0,53.816006047899585
688173,0,41.88954726258944
2995073,0,42.07760021296477
2674079,1,42.99534410159537
3179192,0,41.47369473963558
3306782,0,41.60086972241454
2842469,1,42.89135868132281
1273157,1,42.76877798424602
1479115,0,40.466068960692134
3703784,1,44.093078685239654
3090099,1,42.263365629302676
1425939,0,42.146901118354435
1097644,0,41.480655383584455
3384034,1,41.99520827189756
3353544,1,42.95854023371375
3179302,1,43.59455461382598
2605176,0,42.17106226839219
476833,0,42.86462900442976
2409926,1,40.79000432989354
2030584,1,41.74280798203785
3263914,1,41.37961997102142
249936,1,42.218410107670444
417006,1,42.46783645025221
2996643,0,41.434268907310084
361642,1,43.76251964614275
657166,1,42.224119508205376
1343896,1,42.104428663200345
1476619,1,42.03486970727617
2932340,0,40.54180358781676
1896631,0,40.971224629172575
3383420,1,52.15552859332255
2189496,1,42.82330028455342
1533841,1,41.33409598579794
3422437,0,41.594445538873266
2805532,1,41.38513980324909
990099,0,41.29961403123954
1356920,1,41.53699468104833
2778185,0,41.460996965865185
2598857,1,54.76902999242503
3118320,1,41.14271932350738
2163929,1,41.448683906112336
3368194,0,41.57103744807969
3270526,1,43.01267354750659
3249888,1,42.575813659804346
3532538,0,42.39218313820473
2037823,0,40.982879050638516
386881,1,53.34354093571937
3887766,0,41.72220507492506
2844737,1,41.31318287810935
2812154,1,41.81127672011211
1200257,1,41.65734369351545
3878459,0,43.10488408368318
419347,0,44.60233512684479
1688277,0,44.17731364191843
3479037,0,40.58213997061366
3478325,1,43.34265459817498
2591994,0,40.93696289108018
2874033,1,54.41948296921941
820055,1,43.055944931438624
2224961,0,54.70097251433195
1859468,1,42.757109926126525
2468423,0,42.78058160275475
1859045,0,42.06040554944341
1983336,1,41.913509414691546
3130023,1,44.32835931060749
1122107,1,56.58777198327014
356780,0,41.503375379015644
3773552,0,42.22032588035355
411059,1,42.26005081344961
3374487,0,41.93643548359272
2235213,1,42.61961353145373
2505374,1,42.14286199438512
817097,1,45.01317808887354
3198905,0,41.95670611086732
3261775,0,41.87876352896855
3771279,1,43.85737384620701
993293,0,41.724332765392475
3729660,0,43.75279588571586
868966,1,40.5967592972621
3479726,1,44.4739029945387
974718,0,44.302179226360295
3471058,1,41.44898820697851
915227,0,42.08941173392114
3385777,1,41.55063718472825
2466479,1,42.07934045661565
624707,0,40.69543052238628
748182,0,56.70765438912681
234917,1,41.61723764959722
525428,1,42.15645347566252
1901764,0,40.80100455357252
2703817,1,40.82358288497279
3510952,1,40.937568044529684
1742801,1,40.82607902786863
2935606,1,42.731229766827816
2841047,1,41.5446495532436
969573,1,42.35074844061063
1718059,1,43.33128847501479
1231297,1,55.42665420780248
1489522,0,41.2787017733753
1886959,0,42.06132595895349
1518553,0,41.379057648567624
1475476,0,42.333395824532765
511918,1,41.00950966012865
1208916,0,41.68252653959756
3528743,1,41.89873169678268
870194,0,41.10553305955356
1106967,1,41.379558128062804
3930920,0,41.18048184537913
1610078,1,41.62467831602528
3909642,1,42.08000863379159
1487874,1,41.50872590998764
1229549,0,43.52392885302782
2581314,0,41.35806507446842
725936,1,41.510826146831505
2180743,1,43.96451423359068
2867948,1,42.169193770670034
2623072,1,43.64466764410804
715341,0,41.63007487741093
1710065,1,42.48811040227332
1217653,1,41.25400370447486
2841254,1,41.34805758834189
1259169,1,41.127074808053344
534860,1,41.56141871631768
1345890,1,43.32432663438983
1754818,0,42.00487631478483
3127236,1,43.503211188925896
1816255,1,44.20961243727841
3219058,1,41.60788318518622
1063354,0,42.18376719553519
607629,0,41.68819017391464
460419,1,41.48543018637253
2727157,1,43.394142697021756
2806725,0,41.26661741709592
3524464,0,42.73637876958285
1281114,0,41.84446405094235
1719177,1,41.70338860945315
2438466,0,42.38168433647206
989921,1,41.73248959013136
2678062,0,43.93985825204829
2540780,1,42.32340647856551
849042,1,40.85545655035582
1052894,1,41.89423103251612
652603,0,41.88982067275957
2178159,1,43.830646825167506
2722841,1,41.18891767855185
1508740,1,41.106973892513196
1279201,1,41.00336211942063
3752530,1,41.39352912541399
1972463,1,40.591857478489786
3327529,0,42.09491365388932
1497964,0,41.48566124629473
3090432,1,42.74012680866639
345436,1,41.0497865652792
2594584,1,42.10949075036923
2480973,1,42.24895727721588
829185,0,52.85091377957237
2133411,1,42.05742992330468
3117743,0,41.66659901629862
1467895,1,44.91869209143831
3833374,0,40.89825023375336
970187,1,42.24222404725202
1972990,0,53.513314753311754
1137815,1,40.0574095115549
1909665,0,40.96100259424362
3245128,1,43.014550957826316
2992699,1,41.60085155547389
332432,0,41.74095308314112
608461,1,41.066455677287166
3494695,0,41.88957982532935
3270078,1,41.3133020835396
3268939,0,41.424626411225205
1004349,0,41.53402314049859
421143,1,41.87626466956538
3163354,1,44.33747611429064
193226,1,41.40146414659334
2002755,1,44.31452218081657
1109477,0,49.05252676965033
1289997,1,43.92752553181645
3534934,0,45.25238945518017
1313233,1,41.5986907790755
2926265,1,44.07999269186736
3033229,0,40.973408722136014
3090489,1,43.69102305726719
2208856,0,44.67518979961115
1857970,1,42.07272314207335
2263396,0,42.22865440744075
3808888,1,42.53880577027086
1625671,0,42.1992153921084
1423870,0,40.66500080320202
2434795,0,53.37205536310827
3314297,1,41.882371746032106
217733,1,42.76775015993754
1978645,1,41.22346245419337
339207,1,42.13117698472167
1209855,1,41.30127424687165
3411608,0,42.32036727520725
1630190,0,41.34846540050047
1203537,1,42.24368143016588
3036308,1,44.20284366674137
3332459,1,43.36144060165535
2738438,1,41.69571589600873
550930,1,41.418323498076674
2745357,1,42.4057725741983
527380,0,42.47363182867241
1518651,1,41.41735775409598
1543467,1,44.50027502226415
2721061,0,40.94274439093049
884687,1,41.991959776558254
1983950,1,44.4265490321888
1438871,0,42.03114512802749
2241759,1,42.328593408245624
2117267,1,41.48233635931736
2422429,0,42.143693947054814
274890,1,41.82954764926345
1243244,0,42.146325444912115
2002734,0,41.1226264038169
3798286,1,42.315984328632815
1028413,0,42.71752138062271
2153645,0,43.52676748873276
1737925,1,43.45577691866399
2226810,0,41.477125965585635
305160,1,42.22318465308757
2730277,0,41.86521014693129
1525304,0,40.53411522552604
804114,1,43.56972339641762
3405453,1,41.73090916081472
3696841,0,43.217721326242106
2672909,1,41.814145082454914
1115462,1,43.68314483808436
912161,0,44.21334445111456
2105424,0,53.14910384745807
2712207,0,41.34111606983421
3892349,0,41.01918661371046
2816231,1,41.77570662110294
1229348,0,41.77133331360913
3762699,1,41.91932706778129
2461627,1,42.67018520547677
399641,1,42.285929804323246
2879947,0,42.59776733098399
3948470,1,40.61374016555332
3735920,1,42.437934621277236
1974666,1,53.55666626580233
1201786,0,41.06718938428416
2439303,1,52.815274354081794
1503656,1,41.91658102680678
3892015,1,42.14393571491716
2809321,0,41.402639575679366
3777194,0,42.30404042761327
221822,1,41.656985494407834
690711,1,41.16775778955366
738247,1,41.33791742257263
2490796,1,41.89418780865249
3709961,1,44.35845277317929
3416506,1,41.9328767441117
869125,1,55.27072217062602
3495364,1,40.79027017480213
2879942,0,41.32403390732511
943714,1,42.028170784354124
409716,0,41.92242452437148
2440515,0,42.200373403964406
1851238,0,40.821188406899644
3941799,1,43.125594409748764
1829197,0,40.466194794163975
211128,1,42.560712936468114
1006481,0,42.03616286271978
437660,0,44.46909659291241
991586,1,43.5632589939057
1425740,0,42.44068248772413
1205681,0,41.707879852869844
2948143,1,40.76993237562088
2105656,1,53.11326259657439
1837779,1,41.173942670436155
1213252,1,44.002212900799876
2515975,1,41.99482551099739
2480262,0,41.78071371580829
3494015,1,41.452928376919694
3013806,1,43.53034318418305
2522385,0,44.406127465428185
2504409,1,43.97821544608522
3438176,1,41.605294620628236
2569926,1,52.509674340111445
2482373,0,42.01335263637717
1847767,1,41.932822278590976
979486,0,41.833127788983134
2721667,1,40.64753434537684
1449926,1,41.911152295783374
818036,0,41.80133038360343
2915042,0,42.94865267778895
2182597,1,41.25913379549098
2154639,1,41.21958135287801
2570288,0,40.839331436605775
2836777,1,43.342326327182256
249946,1,41.70581980424024
1545106,0,43.13841854717606
2491239,1,42.74148903389325
914714,1,42.293559878106095
293786,1,42.1616923675609
1432661,0,41.67355833716482
3370401,0,43.71983098996083
1461338,1,43.37763680692784
1318796,1,41.40128542324411
1035780,1,52.8094771620903
1488323,0,41.87281901355149
1314892,1,41.368697633755346
863447,1,55.9561096478831
3344572,1,41.41583096850252
2869718,0,41.28803170055264
3145740,0,43.42132833996134
1154340,1,43.92516462939183
339461,0,42.02979674851299
1810404,1,40.429218405162665
524988,1,42.47069719247357
3775913,1,41.64940815727008
2838640,0,42.2874574560235
3480007,1,41.39966052866985
3457717,1,41.73776873381884
433540,1,43.75019670031797
3440885,1,41.45145995150156
2271358,1,41.70917701929048
2702446,1,41.13872003174651
2659080,1,43.92786292022209
974665,1,41.24124464033072
753814,1,42.259838937063684
3271096,1,41.01700745114858
897869,0,43.747291499978886
2543105,1,43.870077603233185
1936367,1,41.54046120673172
1336477,0,43.336911111180356
921437,0,42.212585876573094
2564025,1,41.11253553316721
720493,1,40.70843025981426
1979363,1,44.71909052359466
691488,0,42.322517860256966
1529088,0,53.80158985777709
1612765,1,41.839168063429824
2161544,1,41.7719766314054
3692365,0,42.164962004037626
945412,1,44.70355716841702
2501348,0,41.940852561714976
3480593,0,42.04597350107149
3140691,0,41.367108162689114
381501,1,42.889346683460786
3269643,0,41.789790045905136
3929165,0,45.111597650275186
3850615,1,41.557384008937355
2186386,0,41.89183937941594
3087163,0,42.273625684750826
243302,1,41.22476376029297
2993659,0,41.75541854590371
1240506,1,41.08204335332079
3477952,1,42.90693264817767
1936958,1,41.83268310839391
1985993,0,40.70161960024715
857354,0,41.8901013281129
1553392,0,41.620878849002985
938996,1,41.85797956591787
1673628,1,42.0128113634175
3075857,1,40.228346169552616
3319059,0,53.19078892971706
3800524,1,44.31946085529791
1214191,1,40.84028909977558
3245922,1,41.562275603739735
226680,1,43.694893242545646
2133855,1,41.68515360012677
2866111,1,41.23874963021024
1362463,0,42.363754833383155
2445463,1,44.76492136017648
3722287,0,44.18360116823665
3243218,1,42.107118169217465
2412682,0,44.44834690213998
315563,1,41.74175362542517
1863083,0,41.60719823882184
2582083,1,41.65404217173186
677699,0,55.640643789299595
2766003,1,43.336472095621765
1999021,1,53.80609168683893
1738097,1,41.81608172283549
3046127,1,41.67310352497825
1309858,0,41.977548422908214
1311008,0,41.93933356934464
2161236,1,44.078398511591296
410254,1,41.134082956873286
3105303,0,55.40845424544232
1480440,1,40.69065321831785
1416365,1,40.75920338360517
1515795,1,42.12091514928191
2046171,1,41.812233832956466
3319757,0,43.47864722359713
3524781,0,41.545886309769855
817493,0,43.31209565884098
440868,0,41.705441216872394
1165680,0,55.545792615716024
1524283,0,44.41006851336223
269015,1,44.34888307732908
3097499,1,41.2599103470187
1202341,0,41.46490610694635
3914441,1,42.24599705251152
282918,0,41.109113075712074
876356,0,43.84340710876646
327750,1,41.85698420536699
556026,0,41.13555808275244
1433363,1,41.381998394230834
846399,0,43.328967233567994
3006871,0,43.63440828918686
974814,1,42.01303991814045
646339,1,41.434816283887805
3233743,0,41.8003393851128
2199996,0,41.45540320706674
1160191,1,41.49457638113362
3670522,0,43.17227626540222
1359889,0,41.834462319600966
3063505,0,42.166776072689046
2418014,1,41.51045578214386
3251776,1,40.70255313156841
3056649,0,43.9237150163276
3862623,1,42.5769897638145
3548442,1,43.377344254002296
1699006,1,41.844890402153574
3432211,0,41.34232969359201
1274979,0,41.899462473726764
1144287,1,40.54580334325732
1152095,0,41.48776337714313
2496773,1,41.89114668816368
606952,1,40.86678105199107
2459627,0,41.786549853870454
2969137,0,41.08508442745172
2256146,1,41.47175060669408
1431221,1,41.124760479813666
3273626,0,41.9695220954646
2170077,1,40.55643903310709
1268574,0,41.37393242733244
3227972,1,43.16649914479286
3190639,0,41.256033360395406
1830060,1,43.15920210408016
3055642,1,43.33152118555155
1723304,0,42.10387721460444
3713519,1,42.59741736314813
463025,1,42.535928762622476
3547443,1,42.3680805009587
1665942,0,52.769836546463914
2225207,1,41.13627880847886
2006581,1,41.55242521598392
3064813,0,43.75192246106784
3089604,0,43.63623332786153
1944473,1,42.24860804709566
1896011,1,54.82563920853724
299232,0,42.097775580578286
1080841,0,42.838019228440196
1631285,1,43.433036690852454
2219162,1,42.19585602260348
2001586,0,41.630823491519386
448671,0,41.9824963643112
1402430,1,40.29209427505719
237988,1,41.30342771460317
195396,1,41.45301286314499
2743875,1,43.62866365271153
1125690,1,41.52396743966692
2003595,1,54.25241286220249
1648002,1,40.712822808393916
3289376,1,41.58216760943989
2445087,0,42.16477204800302
3342390,0,41.66537841675445
2986529,0,41.584324742005116
245688,0,40.5946286788306
3364470,0,42.492784505041705
857576,1,42.53841087956769
3363040,0,44.29338100184008
578437,0,45.06134244289707
1272938,1,41.20842813381864
997236,0,43.36077818298086
3533847,0,41.97633632537281
1706436,0,42.83864415896163
2425701,1,43.54694170591876
2883690,0,41.892458866591866
810252,0,42.16667285518106
573661,0,41.92385494058796
1013870,1,41.36053374526605
2243010,1,41.2152236708464
436439,0,42.20697137967472
2459993,0,42.32299254595255
3940911,1,41.21979821687712
997680,0,41.95582261426133
2660298,0,43.74061012074519
3490612,0,41.38345426727167
2271277,1,43.8599332683045
1565723,0,41.673644134631004
929765,1,41.78133196620959
3541314,0,41.89969302970656
3493670,1,40.0037075352383
3119638,1,41.37976972475454
2810409,1,41.10911449094652
3534752,0,42.00360492333638
1878711,0,41.77789886271013
709128,1,41.94906455849341
3468774,0,43.997546722790524
2499659,0,41.38896836656198
581059,0,44.76244239721378
3018355,1,41.565405409360196
444343,0,42.381430227539255
1943865,1,41.13822753571954
3341951,1,41.24454745240634
3367624,1,42.260533256663905
3935391,0,42.35801372316709
269960,0,41.444326134378606
1077923,1,41.737973642364516
283402,0,41.76327641579613
327106,0,42.92719563191494
3218958,0,41.64043491122068
1640447,0,40.72200767727579
2655369,1,41.80558302707178
3931394,0,42.40432419534601
2776692,0,42.52147882335434
1583707,1,40.78745801739541
3286117,0,41.62443629772275
600647,0,42.41310103422188
2984579,0,43.528881461669805
804785,0,44.33722119540467
2687864,1,41.19018554971735
3278291,0,42.19101111113798
1645903,1,43.56481336248142
496615,1,42.56189809466097
2502340,1,42.47796477386701
1437375,1,40.94264344931745
2006822,1,41.81615874981436
584583,1,40.91186251988967
1359415,0,42.97144531027575
1781467,1,41.18051566589456
365366,0,41.682186160507044
1825702,0,41.71706108843382
1843344,0,41.66205910019316
1035242,0,41.589745187018686
1644045,0,41.7312119527071
199027,1,42.152088555776665
749731,0,43.4637493847456
1611339,0,41.822481678570355
3658747,1,43.175237054065214
1482836,1,43.81469891597376
1374384,0,53.21357609338123
1845242,0,41.731182688547115
2124260,0,43.64487871565979
1573551,1,41.90530365470887
3066566,1,41.41329122658393
478847,0,41.338798682797304
1153642,1,54.38569148421263
1728603,0,41.265116130063696
2482248,1,41.48973601693456
1754396,1,41.34807399345266
1548962,0,41.6969662698768
2918089,0,42.22152043808882
2134352,0,41.20272831002688
2470031,1,41.799060828860334
2026678,1,41.469355936131215
205853,1,42.84730167977312
2481338,0,42.09523093335152
2262569,1,42.19849955519315
1427468,1,41.11049434567278
596558,1,41.718665131972365
1252975,1,42.41139385032701
1196564,1,41.00522118579598
898182,0,43.52726419327333
2429998,1,42.40528752368778
1710886,1,41.449756165043475
554430,1,41.672121710016825
256982,0,42.078457323941024
3433116,0,42.87080010722588
2134923,0,41.210800765971285
1052121,0,41.08875147227294
2197841,1,43.59341698945322
1596492,1,52.76891042476963
2923126,1,42.88051432843392
1594714,0,41.38364177063214
2542550,0,42.095917868558246
364531,0,42.0822663658516
3776159,1,41.67250237859731
3046929,1,40.19960661447104
1027704,1,43.895970810773434
2620104,1,42.29297315614801
1703636,1,41.11521370972617
3271556,0,41.67516463177478
1295047,0,41.17823132574464
2759834,1,41.156069080215076
3430825,1,42.09292972886996
3122385,1,41.87323438915422
3233644,0,41.755270878451476
2729899,1,41.62310017518045
369541,0,41.320481818382895
3095446,1,41.59380643397184
2847644,0,41.28917700352521
901670,1,43.700509054884265
1163198,0,43.02090151455478
3843486,0,41.78513724739769
3800543,0,55.2954214379667
837574,0,41.63715888092933
3211102,1,41.582121834609005
3959661,0,42.10617263650847
726456,1,42.962675627483
2009870,0,41.11349709895269
2902467,0,41.807310156106595
316344,0,53.650818006453434
3775893,1,43.73690870227103
742209,1,41.515402803923685
1991443,1,43.06962944124201
3904088,1,41.79389791323569
1771502,0,45.090006169957476
929961,0,42.18123020486107
412627,1,42.12040487350362
1698674,1,41.693184496006445
2596402,1,41.4196619873561
3468052,0,43.79293500599514
1125634,0,41.76790165625527
629240,1,41.76624774878149
3675488,0,41.964730307116916
1011647,0,41.9873984234857
2410217,1,41.88424711858672
2543570,0,41.65584933525162
586589,1,42.21246974690266
460838,1,44.61168711448262
401639,1,42.27784456666905
3376470,1,43.5040537350132
672917,1,41.959295482306416
2443962,0,42.61618382379687
2676226,0,40.7571369689619
1645916,0,43.86961801744911
3103463,1,44.60508847432812
2555563,0,40.76312825411615
3727320,1,41.360551141127225
592159,0,42.92133744433188
2502169,1,41.53565033649076
1019052,0,41.68669735012522
2725083,1,42.40621233577496
3318066,1,41.88782773872797
3258342,0,42.35441360147617
3934199,1,41.09405956141769
3487511,1,41.18850065990217
3505362,0,43.928452938713455
3788123,1,41.389284302126455
3953106,0,42.36639625049952
437385,1,41.342723130777514
1112057,0,41.531981133852746
2610342,1,43.60070566411703
610167,0,42.83136071785756
2149851,1,41.70843536289506
2266594,0,41.66110849632446
1165523,0,41.206445185933475
567618,1,42.699681138249026
2201009,0,43.87774053634075
1344973,1,41.8185693725103
3880804,0,43.012224479177966
1807002,0,41.97890717000972
1538774,1,41.7391361964931
601548,1,43.2643900134058
1559750,0,41.56593609078286
1602533,0,44.05268244693645
2164258,0,41.62070853634988
3396735,1,43.73271517943299
2842720,0,54.15304348204419
1277974,0,41.84416251868356
1162637,1,54.20302049377574
2598221,0,41.813245645617776
3475636,1,44.232326348340614
1688088,1,41.113777052963336
3416290,0,41.55769807881525
468001,0,43.44003980883554
3685408,1,53.91675354303267
3271956,0,41.89572089212589
2934098,1,42.370297866749944
748824,0,40.656196630288285
2246481,0,41.067715497396755
345582,0,42.84493842755007
3950618,1,41.995981235623034
3023978,1,44.03094513658809
2415577,1,41.21633199315036
2592894,0,40.90494776131235
3207292,1,44.04416495286873
2653796,1,41.334129080958796
239310,0,43.91731609867004
1966978,0,53.593920726721336
2598476,1,41.69989809763529
2941712,1,41.749902979670594
1353185,1,43.35094638448788
1349876,1,41.86233184715207
2899693,1,45.15223400771155
2968691,1,41.70031434094882
883692,1,41.9917919386001
3465905,0,41.360293241491874
2609208,0,42.02959556740934
3857644,1,44.68054304249123
1982067,0,41.35181245942677
3247264,1,41.49805454842628
2630230,0,42.100168249267846
1092376,1,54.11344059334175
1734913,0,41.32828598019578
1421111,0,41.806955368331785
608354,1,41.44442320097283
1388493,1,41.56037495419308
3373241,1,42.17745760276126
1440512,1,43.689816271263346
3753839,1,43.36297356318688
1813124,1,41.81503156697008
799710,0,43.17685802038923
2715628,1,44.16477746053349
622570,0,41.08098175714817
195500,1,41.862538699344064
3879202,1,41.9543983991523
1301142,0,42.169590135682135
3152909,0,41.576612977124256
701831,1,42.94286738670436
2245161,0,41.406725421835795
1611649,0,41.26060523459864
2691525,0,42.22224610303893
1683533,1,42.21936880828242
560480,1,43.466660945064966
2714288,0,43.73812426604461
2148075,0,42.562798663976615
468951,0,42.978712031152796
633068,0,42.79235945910664
513096,0,41.50989618158659
1373574,0,40.97972027333699
1362869,1,42.2844041843453
1155877,1,43.32116398155351
2142026,0,41.22561312647384
2867273,1,42.446802170855925
3809909,0,41.9175910359514
610990,0,40.822966366635484
294937,1,41.2867390627318
1700688,1,42.166384962615936
1456402,0,41.79517839028091
568780,0,41.97398503632725
2694779,0,42.18528106730107
881729,1,41.74368031566889
540347,1,42.713402571985085
3405312,0,55.303471986903666
2670487,0,42.091676007219995
1028629,0,43.675139108497014
337992,1,41.075748998890866
1905629,0,41.95825827621275
1444710,1,41.67510177322296
3928493,1,41.93741782401436
1821625,0,41.71952473110579
1501393,1,42.108176563885046
3424690,0,41.20147242290652
3343397,0,42.99457131380503
1578332,0,41.86911154068259
814691,0,41.00258555124458
1196052,0,40.700747161354606
2849991,0,42.37842165287768
1864263,1,42.50780961362203
1256142,1,42.41727569662171
2166609,0,43.46020875117878
570037,0,41.78791446097864
2494799,1,43.12653667914192
3387833,1,43.39606735485584
2815882,0,42.142931562074985
382830,1,41.51298963724887
3862690,0,42.70825309213368
931008,1,52.98563320318263
2222905,1,42.590104226875674
1436085,1,41.48673419786799
3449429,1,42.29996617440671
1910683,1,43.509821069271005
285712,1,41.402854414140265
1608978,0,44.19567045828068
1641105,1,41.08691640601667
1636721,1,41.341130591915125
2635422,1,43.783016010410144
3440371,1,41.864960457136156
2469574,1,41.75415288942188
3839749,1,41.04403055447561
2215805,1,41.21523539652961
520263,0,41.531835121858244
1744763,0,43.07184594701526
3384797,1,43.31241511161339
2841746,1,53.1372125430036
1974336,0,42.31737765069614
2607491,0,43.56820146273084
2587448,0,55.53795362335742
2638364,0,41.631602536795334
3481476,0,42.761516497425724
448363,1,41.856989515245665
3491729,1,41.91821689879619
2471830,1,44.190280207562125
3697923,0,44.631958326863106
1644844,0,41.714027689097954
3204736,0,44.32472264929024
3481548,1,41.19933793429444
3913104,1,41.52958361376447
1155051,0,40.79882467639
2163292,1,42.37428186692227
2226220,0,40.89185502456149
1125154,1,41.487512844746874
2853976,0,41.95537835210725
3059290,1,41.502200812717774
2710574,1,41.40747304597352
876963,1,41.390082391433296
2745505,1,43.48357371440115
710183,1,42.09547416302232
1274911,1,54.07162986096209
1327534,1,43.83327099124321
3138177,0,41.27972115057154
1223409,1,40.70267188770784
3725660,0,41.09682777977853
2285799,1,53.09785146416798
2816373,1,41.17804082385859
2127917,1,41.78716361367561
934991,1,41.89904006553607
2406426,0,43.1967865377451
1533877,0,41.12322517857519
730479,1,53.21718012856853
3093323,0,43.44183482533969
2183951,1,42.94322545048178
552115,0,41.856034741212994
1410989,0,41.54616142305222
3075946,0,41.887059129274476
3478863,0,41.72065553175467
3042667,1,40.86910353617508
1689252,1,42.28941445096934
2243998,0,41.36746853257244
1827631,0,42.21584365340893
3519806,1,42.187887310021566
3477784,1,43.545492462226704
1519327,0,42.28706713625796
1637002,0,43.44204423695163
2987854,0,41.49598647808671
2035729,0,41.62915503396101
597831,0,41.61830238022361
1093068,0,41.902867788075355
492486,1,42.169278599586875
2396325,0,40.76532077103464
2434545,1,42.53776006570882
741871,1,43.55619891658778
1341570,1,41.778739264217045
3416588,1,41.62908928592355
1420471,1,41.98953963150994
2773566,0,42.029231617379075
1170088,0,44.72410940824753
3263442,0,41.53751327693543
839741,0,53.04285439664623
1963165,0,44.166571016678375
3038093,1,42.826287775024035
3533901,1,42.124427639325866
3132156,0,41.811955886365745
1502132,0,41.48949568349071
1717122,0,41.61687587109918
2196442,1,42.52634766730338
417572,1,42.77164993332201
1518766,1,41.850369952582774
3653736,0,41.25922268376315
2940747,1,42.2381032555786
3695039,0,41.7319703113286
3510181,0,41.3404992046353
3672716,0,41.46284141104803
416236,0,41.446204762410744
2586749,0,42.49635586964778
1490168,1,41.54867942817846
3804103,0,42.39476905097506
194782,1,41.35317159947456
2488527,0,41.184625519119905
1063396,1,41.97082694809329
608011,0,43.17128354758618
3423166,1,42.00462788576871
3303595,1,41.380061727598076
2975333,1,41.70467975789449
1367282,1,41.34377456821339
2926808,0,41.731120941182795
1632002,1,44.61738246185022
1286314,0,41.79267495666098
3446225,1,40.75274339886682
1059093,1,54.19356819114527
3065818,1,41.13954636997767
2418062,0,42.347813075695065
1228369,0,41.760349419608495
958061,0,42.02984551530193
645367,1,42.39056324025761
3538301,0,41.86530436194178
2766939,1,41.25945162611787
1554741,1,43.80614618027111
3395110,0,41.913360305795216
1096154,0,53.08686539442157
1467326,1,42.551896459733186
2010255,1,41.00694699823647
1323881,1,41.46376897646723
3904907,1,43.06947120115171
3904557,1,41.44206000136153
3463185,1,40.73173662479181
453130,1,41.71184389185221
3249879,0,42.466640481035874
3698069,0,44.039173067668756
1264015,1,42.356848302474546
1300233,0,41.86433148897474
621685,0,41.32458433874841
3374382,1,41.02158937790665
2505922,1,40.96882664793358
3106867,0,43.60859454405754
3280987,1,42.353016526024895
3352250,1,42.347993954003044
3006572,1,43.984073721995074
1898069,1,42.4882884564317
3198915,0,42.37550509553681
442510,0,42.755307392003246
3652809,0,42.44764808331192
2197506,0,42.015953195330475
3075629,0,41.29631766890071
2820587,0,41.35731139179596
2110657,1,41.39855131797544
3155792,0,40.98849447082313
2391864,0,43.70209076362333
686478,1,40.743690847947974
438330,1,41.844753698856564
3061624,1,41.372970511536934
3032228,0,42.03228461591752
3399813,1,40.61073411534323
2676209,0,43.59307668479706
916085,0,41.59397665549357
3667440,0,42.91693524792483
254729,1,41.57477155850523
913676,0,43.97639437367546
1022623,0,41.73555223843319
2117567,0,44.114771686420255
1715758,0,41.609321198905235
1912015,1,41.580935951134016
211701,1,41.742301136742775
3454088,0,41.81644233655973
743975,1,41.77572801357218
1761719,0,41.82490153113274
647745,1,41.75186493424106
569644,1,41.114975743295936
1768102,1,42.0655283463359
1571401,1,41.425633736985745
894140,0,52.90178387689188
1855292,1,41.760699128472226
722385,0,42.00994996715841
593351,0,41.67881573176232
3394462,0,42.30038920557899
3779194,1,44.04472196824426
1770565,0,42.59146899649905
1286554,1,40.078982392212666
2278947,0,41.393218104529176
2768420,0,43.131252745316885
2023865,1,41.51616615953885
2655472,1,40.915844153920595
2476889,1,40.781858442585445
380362,1,44.62363001736552
1868919,1,54.75713602629589
1415106,1,41.77531410321693
2116770,1,40.27371039504588
1526230,0,41.40085312886471
1158710,0,41.58231826419873
2978787,1,43.09092558875921
2060227,0,42.585103006755205
2875509,1,42.54946818484721
1153426,1,41.55541768062024
364042,1,42.08338823255001
3075589,0,41.6525001633806
1279980,0,41.728382939117964
830029,0,40.858629934469036
399033,0,41.00471887359685
2473165,0,55.428867727072365
3353134,1,42.60788133693113
3183157,0,42.00882603769465
1985211,1,42.73139615306878
927477,0,44.42951362851106
3267541,1,41.072297708518306
2464896,0,41.11169117836002
2563724,0,41.45187964453371
2585525,0,42.89439214674845
609385,1,41.667189272447914
3095355,0,41.824282388369575
3018173,1,41.05398070577209
2861990,0,42.21937248445033
2243230,0,44.21311190601303
1077758,1,53.75477458828195
3498314,1,43.07631724694828
522836,1,42.419904239628536
3789947,1,43.712992113372096
2611683,0,41.9921000392034
2672951,0,42.385616540518605
468986,1,41.68350304654183
955552,0,41.847225353397555
1756811,0,43.97258266125945
3518462,0,40.93714914693819
2663732,1,44.123961537648526
349384,0,41.324769396632796
1892637,1,55.08830547293267
567712,0,42.564204310329075
2804035,0,43.336578510191046
828742,1,41.52373230979061
3314012,0,41.549500715684175
583778,0,41.36621729708259
2576404,0,42.098674373778806
3184422,1,41.48011268072263
3449854,0,41.897431580836184
2427792,1,42.812523076476836
2198670,1,41.64911936939083
2872265,1,42.11734515779333
3708309,0,41.91074388995271
826150,1,41.82367234466521
2973872,1,40.31210708529213
895345,0,41.93703761840547
3425183,0,41.06675593908761
1783085,0,41.20511180079256
297292,0,41.759010899721794
2284715,0,41.624472487326415
204011,0,41.927543173945274
2501402,1,41.433243119289344
3882465,1,41.42352728921622
2107051,0,42.26611200052098
424380,1,41.80309656358781
2163132,1,41.72196015793351
1947693,0,43.96647190514911
3924722,1,41.644777761812485
560899,1,44.44690084850194
1663033,1,41.729650976796485
727478,1,40.632982515321544
1860436,0,42.368394012957886
283395,0,41.88551622451616
1399666,0,41.273243339601365
1641072,0,41.60473039921766
1784216,0,41.52018517063285
1701056,1,42.26824335322865
2562204,0,40.42426109346299
892436,0,42.1260116093598
1596237,1,42.633260133497664
388637,0,42.162261137933996
633176,1,41.535461440075075
619014,0,41.163755351741706
2817966,1,43.59584909442081
3273128,0,44.01904194421625
2681261,0,43.970976960921426
2182886,0,41.99330537863058
822121,0,44.14949456131947
3202355,0,42.0259929923134
2124653,1,43.44931930406916
433539,0,43.144824803365395
1710939,0,41.33915165919096
1234388,0,42.07443215520355
1694315,1,42.07021695237213
2526045,0,42.78287043777368
2222276,0,43.729666666073605
3378996,0,42.201806130408634
3524253,1,42.175445333290476
629149,1,40.528567839059136
727581,1,41.19674845082846
1241769,1,43.54337532787582
2120832,0,41.486085287248535
3320641,1,44.06799932464904
2517143,0,42.550266955240424
554398,0,42.0694253749065
3023243,0,42.465937131935775
413083,1,41.87569704813338
1968092,1,42.36175037397051
1534527,1,42.5056349870788
263665,0,41.665777686211875
1369718,0,42.973672090313784
3364103,1,41.53467345819993
1013819,0,43.62328264632565
1347245,0,41.842593525487885
455437,1,42.23802606849397
2604644,0,42.15239487474503
3711084,1,42.35136587437153
2433942,0,41.99998365232948
2260414,0,41.62354398995923
2014397,1,40.81996545576567
1193560,1,41.173111021093675
1679409,0,42.088585720501015
2414045,0,41.04372372828937
1346461,1,41.79322907822072
2667250,0,41.653899741687574
469694,1,42.51345136105613
1746794,0,41.39129841291474
1455581,1,41.60204614325034
1388830,1,41.20868815686929
3046464,0,41.9029607715037
677572,1,41.47291187501224
445620,1,42.217850077664
3895519,1,42.87543500474653
316810,0,41.92136166052527
2667967,0,53.01172879676426
382403,1,50.746602050629484
386768,1,41.19533817327787
3264723,1,40.96451734330586
2732249,0,43.564491258951634
3677576,0,44.30478610159006
2061161,0,40.57223223682608
3512622,0,41.30041846326663
3102927,1,48.68818462965074
1395580,0,41.33640761927343
2546617,1,41.854196395556514
3314388,1,41.89906103840877
2140619,1,41.280145206393534
850855,0,41.49325929518929
3201348,0,41.65253477272016
1209832,1,42.836975774589135
1137948,1,42.217854378218604
3121902,0,41.71210791378831
1293521,0,42.247819703641696
1565969,0,42.637165458649704
839488,1,41.46020092659115
452586,0,41.480350171909954
220981,0,41.33206553978217
1880956,1,41.251346007728856
235381,0,42.896103878441814
2260543,0,43.23962477834811
459437,1,41.243041062258264
1868233,0,42.74558268793231
3466740,0,40.87078781300535
722947,0,42.01317696296824
3491495,0,41.69241982583455
2263656,1,43.44097250807981
2440474,0,41.25860873884199
1432799,1,41.847145890430006
3483492,1,41.70062886242352
2488031,0,41.80914710605411
1605332,0,41.5917400184711
1442284,0,42.47046039647522
2799524,0,40.99309187224778
1061184,1,41.9698302304395
534559,1,41.445171671283724
1757567,1,40.869292269782555
3934360,0,42.23014644176247
2919284,0,41.584763489046956
352359,1,42.21948718792379
1112369,1,41.59730226601006
1533230,0,41.13120793089454
2894422,1,42.910957092500105
1199778,1,41.24212898568102
2618859,0,41.73153713679003
659614,0,41.31180195540583
3751227,1,43.689705520820326
317128,0,42.24299619476465
3662903,0,41.35564540333762
342299,1,41.77915060464126
1466320,1,41.221664702024256
2732928,1,42.176602271120636
2939491,1,41.258475916800506
2787072,1,40.58798198330401
724341,0,41.26631521939402
3947083,0,41.79436822285621
2749569,0,42.692440479728276
3270872,0,41.25872631283578
848027,1,41.462801510791266
615269,1,43.49962620798142
1374441,0,44.42748750277052
2832279,0,41.00762323131861
2814035,0,43.6778589961215
217331,0,41.993955739310856
750031,1,40.29721190340631
846585,1,43.801102078579156
2239744,0,41.8398478569244
1753152,0,42.02200325347519
3372209,0,42.19815373096479
2494047,0,43.99012089531424
2779497,1,42.633330418320426
1364451,1,44.499150671369435
1848857,0,41.40433635783016
2894297,1,39.81616763763244
3464435,1,40.50067136319731
757986,1,41.71993696835083
3064630,1,41.68749285322771
367007,1,42.4155463523109
2251567,1,53.575584600254125
3164301,1,53.18747170880683
973308,1,43.04021808738691
322317,1,42.82331028548173
589907,0,42.07391676352208
1717586,1,48.81751691138967
1171901,1,40.993140076661405
3252878,1,44.18892283718158
636781,0,43.90109923442057
367999,0,42.07317828486035
883992,0,41.98828777586192
3739238,1,41.8646599253337
3377681,0,44.10396808063428
2430963,1,42.20791145072238
3182087,0,41.41727773968203
1249114,1,44.16104131233458
1398073,0,53.52995776877028
662731,1,41.341368069113905
622212,1,41.87430528673739
3434160,0,44.10075671587114
1689724,0,42.656138984032296
2024557,0,42.34736071855607
2635378,0,43.95173042647703
2472070,0,41.893290452961885
3655228,0,41.76177931140841
2743175,0,44.80591057455312
3227853,1,43.56747682424253
1973498,0,40.87546199556117
1195879,0,41.14791621087497
2268957,0,44.13737006956865
2687577,1,40.85103539306307
1896892,0,42.33672715479286
404126,0,42.21161759606524
1999224,1,42.911315065424766
2818039,1,43.85857642521801
2447689,0,43.608353145126934
3098335,1,42.36675281813966
3135349,0,44.24272869088514
482265,0,42.36708915862273
1959702,0,42.59212010864499
3500682,1,40.7918615123982
3297499,0,41.482560269869225
3403693,1,41.197106509640456
3914975,1,42.51878272978757
2174830,0,44.42087809570008
2891956,1,42.4046463876669
533892,0,41.86322196213229
1505438,1,41.621163416696255
3379040,0,41.67867810877488
1985446,0,41.14358659508619
1718627,1,41.6357766609128
1815128,0,41.95477590285978
1825559,0,41.83231746640933
272728,1,42.830203882090146
3534196,1,45.421792201485125
3771083,0,41.51389122231608
302931,0,41.65874290612435
1239963,0,43.92707225940245
832570,1,52.36072333341229
2765631,0,43.91230652621146
974129,1,43.85935756350818
2407460,1,52.941128540513056
894466,1,42.24170077837019
1739107,1,41.623181882349925
1941116,0,42.57679948631264
1626192,0,41.448002922207884
1781806,0,43.03648507745317
389464,1,42.248107474650666
2693797,1,41.75443491991739
709189,0,43.21005589391666
1643043,1,40.80544292375071
2895232,1,43.26612551448465
310138,1,41.915087477582425
328676,0,41.93394865361332
1500669,0,42.55262823644571
2887049,1,44.20558353931082
460405,0,42.79543337445656
2598449,0,41.5856336470731
1371417,1,43.69513973694158
1517971,0,42.46405654158225
640321,0,41.990619348389735
3308306,1,44.54409607121448
1742577,1,41.12891101658879
3107508,0,40.54682827226391
977006,1,42.66937024382819
2661157,1,43.56643614127989
889482,0,41.62178635625159
3770871,1,41.74059711061412
1748021,1,43.85139537910813
3353651,1,43.780940691819254
1073793,0,41.46367494489524
1145735,0,40.06855742347794
1986474,0,42.38004647710294
346433,0,42.217933889544106
2203906,0,53.75667601648641
989047,1,42.21016724292608
1384611,0,41.0532459780693
3298391,0,42.81753064167628
2251643,0,53.719136138594735
2262526,0,42.339504549627755
1536829,0,41.61767203734458
1521865,1,42.20041312276717
1720141,0,43.99082993977614
1294469,0,42.36096021288843
900288,0,42.41379133132399
3726456,0,42.26444360591715
450768,1,42.84480841996483
3275449,1,43.427399372832625
2202429,0,41.94226791717286
2503905,0,42.61633152161153
2631607,1,43.53838107941331
1349664,1,41.561564980537206
3940534,0,41.44954912231072
715655,1,42.465867811946076
1532760,0,40.914871475909734
3669906,0,42.062036974626544
1844338,1,42.50212795179835
2647913,0,41.82412572360825
1566050,1,43.81864201517373
277654,1,42.29238680663649
2934660,1,53.086649552530105
2407944,1,41.74597942686804
695987,0,42.138500212054936
3784964,0,42.08227501604775
1255497,1,41.11388365642195
3379866,0,42.8028211303088
1684462,0,42.235857429048835
893160,1,43.942229833083246
1198884,0,42.69812304501635
2449942,1,41.560873247007144
3165146,0,41.31649420626797
2151383,0,41.13527882831403
3763280,1,41.51275408826732
3758671,0,44.05827368363216
2526634,0,42.11225025933897
847852,0,44.07594262053493
1851220,1,41.09481660816508
1489045,1,43.462832280718914
374022,1,41.97500473121575
237069,1,43.311780727338075
593882,0,42.72193059008366
3040192,1,44.518298759808076
1725795,1,41.756396435069476
1400886,0,43.13310511743074
568728,1,43.41141085306415
1258446,1,41.04978245261829
3417554,1,43.5547164931464
1493910,1,41.179759302860774
1637099,0,42.09474765564619
856845,0,41.238091783039955
1660076,0,41.74407229345463
437804,0,42.175514508509416
321166,1,42.008492230217236
1817707,0,41.74142305171144
3409100,1,43.74389952192395
2573432,1,41.22767909634506
1147216,1,41.07156079855345
1764866,0,43.305957464093325
595446,0,42.018132522869905
899841,1,42.10078957413885
3927215,0,41.88087445492261
629263,0,41.420010790434894
1692976,1,42.054295776328445
709369,1,41.607770355832294
332311,0,42.39492331255596
2902514,1,41.94118924210208
1118262,1,40.84325463533789
1551101,1,44.60859096956315
1436393,0,41.27734456238241
2939682,1,41.255416141633155
1451657,1,41.9137220442477
896125,1,40.96826790566981
2811306,0,41.9895972889125
2025173,1,41.80411364470062
3952310,0,41.70707002452818
3659302,1,44.62533907431101
419866,1,43.90922576685157
2879807,1,41.84178984172847
952437,0,42.485364438061275
1204691,1,41.27663616556922
2143659,1,42.067207527153606
3690197,0,41.83731598743382
205902,1,42.92770952665105
2792758,1,43.67715514334934
972958,1,42.53141352976938
2863683,1,42.738432385811045
2820484,1,42.74416797585128
1331655,0,42.07783328676348
3736937,1,40.889328687334675
1957961,1,43.84121361815506
1669469,1,41.33488541387539
3095602,0,53.19095689059012
741219,0,43.908935153496
598170,1,40.92136132249878
352145,0,41.49933380731938
393577,1,53.29087604209815
3208230,0,41.57692646050304
3414985,0,40.80337373989549
1014209,1,40.47323220645516
1848979,1,40.61674985800802
2676632,1,53.36698560744339
3856382,1,41.566075432833394
410489,1,43.911498143002824
2559298,0,42.013533380697034
692834,0,41.46009637132576
1716355,0,43.27278611549025
2712039,0,41.470104785877986
1085450,0,40.27077624748907
1972724,0,41.33883959098659
2979738,1,44.00391620761724
1739099,1,42.336584505630746
567404,1,40.92306862597506
1837724,0,53.35516230249548
2685725,1,42.56305442147643
832845,0,41.32112773128678
2544770,1,44.57932332334714
3219070,0,53.443802796363094
1094826,1,42.086871027870174
3954951,0,41.22374182805076
3065923,1,41.24823519542218
1246503,0,43.086307227446525
2598796,0,41.034492173195595
1210997,0,41.34300892371559
1936733,0,44.43151419530895
607386,0,41.94199653718421
1055688,0,53.57272701352844
356378,0,42.27658464158548
2244575,1,41.60586749408466
2029128,1,41.46689118296563
2218384,0,41.06633996356126
2109008,1,42.59643469870906
3469697,0,41.03847473992567
463204,0,42.4719931839025
3790345,0,42.03133711264093
3284786,0,41.402248995575555
1451857,0,41.683279780795466
2945113,0,41.50490597438016
543092,1,42.935430177257
1198302,0,40.841709011302164
483821,1,42.81882146691949
1688370,1,42.26566714311397
1062704,1,43.915467934044365
546430,0,41.96366848518775
3440518,0,41.960645396053344
1041972,0,41.68749065378563
2112454,1,42.36567198889542
1211924,0,42.37507548458032
1430058,0,42.08547809664147
1133439,0,43.336305208002436
1951585,0,41.86646213236909
3748824,1,42.91457189735029
1303426,0,41.594936202850334
2279891,1,41.69702181678157
1996929,0,43.753595791401516
1768773,1,40.63359338926157
2153804,0,42.43539839807479
728991,1,41.350528791113
250758,1,41.347434938829956
895843,1,41.93982984247239
1982039,0,42.001319993133166
1749845,1,43.894742440379645
2210612,0,42.17140138694043
1488384,1,41.986418880814654
2817548,0,41.88636411248793
545334,1,42.468992184925355
2551542,1,42.46338035631267
3455968,0,43.52548026271499
2223142,0,41.437718942715286
3216529,0,42.99459553324275
2457545,0,42.41567146935245
1488375,0,44.52386376320363
1216313,0,42.37946111933433
880938,0,43.32249550313588
1351499,1,53.549546674736085
