sample_id,z,y
3536106,1,136.94203884941965
2881824,0,423.195252001763
3376127,0,-702.2390373898326
2859830,1,1187.233988266209
3180202,0,-1279.6402004113547
2590610,1,80.49379329195831
1103002,0,388.02292292083285
723127,1,104.18464026725927
2593504,0,-703.407560454728
2486687,1,97.03812083589253
493917,1,772.0573495305587
3132146,1,-2304.6661621213675
1464939,1,39.32798837256636
2207706,0,-3244.3021420119044
1832723,1,97.80252540102676
1671025,0,-318.82860984603684
3408372,0,492.6943187056592
3886816,0,-321.97139091685455
1853360,0,-696.8791173423657
3531094,1,92.55509025076883
2457159,0,-751.6971103722117
538947,0,-315.70061845048286
2579365,0,-323.5632962111016
946138,1,89.43762879803747
2570207,0,-1251.2806787095465
292883,1,-713.7050613792167
3716850,1,43.75129987036322
1823936,0,-701.3878783036748
2030297,1,102.0758781516498
3084839,1,40.60162186877705
1221701,1,108.88827808857187
2247824,0,-186.77523888695282
1438539,1,96.90483882156042
3526923,1,-2444.7092254276163
1451937,1,39.776079496414084
1407341,1,42.31774273717766
3234774,1,1215.6340576698044
3321814,1,310.5348444438716
2711257,0,5075255.199351955
3270864,0,191.84829550383427
3475323,0,-1251.71102875313
395536,1,105.08317776376904
1027737,0,-62.205363678691285
345528,1,-94.2442335094784
302479,0,-662.7481899495583
2893505,1,1132.4092147158096
577956,0,-1052.6422376486753
605817,0,-469.94674063511366
1960101,1,113.99020970573095
3882870,0,8.557734314667394
1007521,1,615.1198269256279
3897985,0,-319.21469953215376
2271998,0,-1533.2174221145567
2171958,0,388.28369593737716
2005932,1,96.942863875585
3263327,1,5.360333923412144
3062257,0,-736.1784845872204
1073688,1,-94.38978983051038
859088,0,-1142.151909747124
3691346,1,110.02818118944322
1697860,0,-697.748568587467
2111879,0,-283.6091524633038
994775,0,-82.84972116845779
1460196,0,-1251.5026138126113
829687,0,-295.24707812202246
1556931,0,-322.65323995861604
3417205,1,44.687050391110546
1295894,1,102.43669159369747
2161269,1,29.170070837551425
2555253,1,39.527719738418014
1010012,1,771.3730563263983
1386093,0,52.10452787122147
740564,1,-91.45613033647967
1221623,1,96.98922779100444
2780650,1,99.54324110880809
860262,1,1219.4039697948065
3524298,0,-3106.4793850515985
3429527,1,39.50202729446522
444974,0,-1249.113165645235
290040,0,-342.8428553863958
863106,0,-698.8397734686483
1956836,0,-77.13237221512627
1340712,0,-816.7456887703885
1788697,0,322.5617882371634
2726271,1,-1930.6715175050117
3737272,1,19.21577427303911
1085450,1,43.94638226665242
857856,0,-117.39338304608489
3905466,1,98.78447944969183
3931693,0,-699.0050723620176
2273061,1,-2633.672281643736
1445245,1,1005.7829470340898
3796051,1,-7.755628329218759
3903286,1,59.92409775946852
1129495,1,39.63282902294782
294189,0,-707.236476933544
2888131,1,-87.56710151635599
1560519,1,313.67205930627586
3869356,0,-701.5932144628349
2113054,1,44.20235345318087
1822449,0,-431.2576838252524
2770918,0,-702.705333347333
2260113,1,41.05455847663064
1026010,0,-1327.8633581764198
3918467,0,-240.13068889312163
1002772,0,-117.02295853428765
3674322,1,-162.7629156495925
1674933,1,44.62518713717761
1102190,1,-2598.3537014489375
235167,0,-1052.6905656830006
677727,1,998.1345472869235
307218,1,41.62221493561105
2553290,0,-37.64014198098351
727444,1,1203.7810388793325
2805574,0,-399.76610761288197
898010,0,-823.7124897330744
1321063,1,79.30760889853573
2730277,0,-1251.9626299948634
964761,1,1011.9322758332729
3278055,0,-82.14259357471761
690802,0,-1251.7742881360853
1442498,1,-94.39267749198055
803463,0,-322.63408116980696
2268843,0,-1336.6911244825988
3092206,1,-2874.926815562861
701085,0,-320.54815620843084
1835284,0,-81.16833386388514
1075159,1,-113.97750201604266
1821829,0,-696.6050270627093
3778576,0,-1251.8571966191398
1572629,0,-321.63921768758473
446796,1,35.456910019935854
2685492,1,44.41490304045009
430845,0,-145.67885811847904
3075857,0,-444.4841274931014
659528,0,-241.27512285220737
1428261,0,-320.844565799623
1688345,0,-223.45238034038803
3192285,1,96.56197466294468
1139836,0,-229.7480868612655
1299518,0,5073764.875262268
2577680,0,-1330.7251095619256
1195511,1,39.387584148514925
2605226,1,771.354732600375
3763563,0,-673.7131311241961
3501682,0,-166.1858478922866
1282995,0,-1248.4493485314717
979986,1,-2598.911723161054
3735623,1,-2165.5580167194385
803922,0,-324.0668711097999
1393840,1,108.80344585483657
3400915,1,996.7495831640414
3763639,1,39.32652375941191
2580529,1,96.74725829063927
2577209,0,-324.08086683381356
1810620,1,998.4615002437521
2876540,0,-81.32099290727162
3277561,0,1047.2217575189648
3076150,1,98.4941237068073
3712797,1,-188.48995098134534
2525152,1,1188.019836273564
1100712,1,-106.48308326299232
366396,0,-422.5227330126706
2828136,0,-815.2058254292936
3953829,1,1132.303588576737
2499783,1,108.83477022425203
2130457,1,-1.97323308534688
1590504,1,62.747206755460844
3514639,0,-697.5891346040696
2237455,0,-737.6753195089851
3667729,0,-143.87124343515538
1817048,1,1124.7637711632215
2146449,0,-330.33790445129546
3357547,1,109.04367424740792
532375,0,-848.744206839147
2165053,0,-330.2613871747346
1620491,0,9.562041819810545
3034236,1,1204.2800635843607
1604811,0,-83.11845848839958
1541698,1,109.89363642529972
923790,0,-343.34439861763485
364531,1,99.64104376530813
3003808,0,-321.46082351779194
2022162,1,3556.1137378532594
985479,1,17.51844652485883
2694566,1,770.9486486573855
1557750,0,-81.0459238267444
2921175,1,41.22925622552834
3500625,0,-1251.7504623171567
972113,1,99.50766574565813
2441990,0,-702.6486547537734
3151153,1,1108.6047161167398
2130227,1,-2580.389885124855
3160250,1,108.9099373915791
1237925,0,-701.9411336691811
3335676,0,-700.666289559883
672792,1,111.03367871814069
2239641,1,39.80673957434624
3165250,1,683.4972427817279
451161,1,39.5592354111236
2143258,0,-358.12203100177817
757251,1,-810.2520787172137
1977035,1,106.16812882760244
339802,1,677.669668525008
3833984,0,-782.3562997547278
467808,1,104.19736291869417
2182997,1,62.084977922556845
262923,0,-224.49954268470506
1157782,1,1188.090437083145
1715100,1,395.05872720176666
3305705,1,-2475.8307103284333
1902478,1,40.315525105031234
1903473,0,-701.3960974579611
2455946,0,-323.99379338977974
3806440,1,-188.83002374107056
1823812,1,756.945076440625
1051335,0,-319.02658416245504
3332713,1,1214.5140454543662
470087,0,-1052.6975288218712
1807970,0,-341.5947634059412
2137456,0,245.7991224719049
3040849,1,90.42778711409292
319375,0,-2672.4510687589495
948005,0,-220.53393644869345
2798490,1,39.24402119927665
722346,0,-82.1913603547074
669571,1,46.6751565948084
1331307,0,-318.9290912921006
3352798,1,770.3590663412773
1386073,0,-1251.9888987467746
2741116,0,-1249.0815937741856
3167649,1,-331.3497379177137
1394537,1,1146.8025777107766
2110930,0,-324.2858872502663
3808104,1,1012.3971822288925
1277420,1,-91.37564449111346
1495271,0,407.80916547219505
2129803,0,-702.8646121908308
1574402,0,-80.5560229654147
3408240,1,47.3400833326364
945481,1,96.80694687561474
852970,1,-2472.0899827168787
1662737,0,-123.27066086406086
1632322,0,-83.38311348979624
1318338,0,-3792.997115761008
2928111,1,46.145414551453904
1763071,1,45.09475246222629
292606,0,-1251.364358337214
2286659,0,-673.2591974391653
2977872,1,-105.30890120285896
2498162,0,-672.9008721239874
1643371,0,-1286.3640722836712
1051233,1,40.28599117375277
3678688,1,935.2511783247985
266707,0,-321.1131740178079
1372276,1,-94.21620571466514
1437799,0,-703.658827271769
3315446,1,96.9678539509442
724464,1,97.32708084711531
3671922,1,110.88816553111785
2488152,1,-2613.907077257008
1810761,0,-408.0073171119703
2124515,0,-1251.5714533638586
1280360,1,-164.5448672653904
1735295,0,-112.8052176160868
3922921,1,-93.03481300859634
2930179,1,64.13286402088956
1982230,0,-692.5603057239653
2662251,1,17.909217988102256
1640128,0,-330.8714026773281
3258542,1,39.86703014433113
438431,0,763.6011179871924
3532112,1,1.7400550917824167
1684462,0,-1047.688172709336
2005800,1,-2154.681657427498
1527858,0,-82.68562492847903
956875,1,756.3135055221327
2246818,1,89.87731764146912
1403324,1,96.7610727190856
2561306,0,-323.9010862408608
297625,1,96.56844594224059
917537,1,198.76288630519045
2438534,1,74.48626796331538
2405554,1,683.859463124948
1212127,0,-229.75635470294105
3547617,1,39.763530008984894
1786844,0,-2143.499646063093
1137194,0,-1052.5512758744972
3347158,0,-82.22477924282745
3521983,0,-1286.4926005878613
391667,1,101.40305371916801
2170077,0,-819.2059433040196
3681797,1,33.7567246567025
3724058,0,-701.7809395451534
1711788,1,-334.941273229969
2982682,0,-3322.317314646747
2433003,1,1200.8349231557675
986991,0,-350.49979486893886
2544835,0,-82.68256610106695
640631,0,-320.22289079436
1070671,1,-89.82407313637147
1380123,1,96.83700887284884
1575004,1,-92.6586044285384
1160140,0,5076508.737514636
520242,0,-1601.727986411839
3707927,0,-322.43887048188213
1762789,0,-116.6931794322414
3300702,0,-436.33040161942176
2887240,1,90.84072294949385
3029956,0,-329.061339229398
3206066,0,-676.3549280193955
1144631,0,-323.4462662700659
1529532,0,-318.73271285776536
1572715,1,98.52093058385731
312161,0,-737.278783273498
1359696,0,-82.97872090073412
592606,0,-228.5931369158344
1643699,0,-703.2613483770426
3434249,1,83.59455673132557
1438991,1,17.969680441272782
744099,1,-2497.12692270233
1588445,1,1196.411710213319
3376658,1,377.5280010132511
2034026,1,1130.5067132165743
2769514,1,-715.0080105571201
3093898,1,-92.48011781630596
1705751,0,-49.22528377159588
2396907,1,3551.722638323485
3270837,0,-722.5664903640388
1815206,1,45.644302310489245
1574039,1,1190.7369916719072
1356291,0,-703.4054288151395
3486290,0,-310.3050243387254
1056517,0,-195.51511149714824
910873,0,197.66967482452725
2505064,1,107.92076492058385
1378036,1,139.3493386967976
1390201,1,-2876.8365985796686
1693160,0,-318.2538709378859
2177214,0,-3792.813756205025
2726390,1,1145.6767522216667
743366,1,1052.0830354951242
2725912,1,39.81034991349519
3320734,0,-1249.0920463367486
2257965,1,109.25761295821253
1378694,0,-241.18263889431827
1668773,0,-965.2631035468721
726629,0,-782.2394653539877
3280905,0,-906.8242210160763
3505855,0,-323.6190579030972
1846433,1,45.55654089351513
2511656,1,1215.5102671898355
1550202,1,1013.4749213656332
3026280,1,-811.0320278573585
576868,0,251.39713264466346
2127366,1,67.22822742634179
3389243,0,-695.4569159656974
3404423,0,-1251.1984391238161
3074275,0,-115.52811084328695
344815,1,480.01116895060005
425948,0,-402.4514344347513
3834505,1,96.0564957782639
3267185,0,-320.9612209173197
3837896,0,-323.8908861695578
2868737,0,-81.19657526005298
2681389,0,308.91118508004575
951528,0,27.619430404038674
3448986,0,-323.02160493865824
351325,1,42.36295541205629
3764588,1,1200.0835099479127
3160948,1,99.42649575869946
2581623,1,-2356.9725882280222
3344267,1,97.60506827323199
482417,0,29.01148633229629
1271684,0,-706.8384753183493
403473,0,-1251.859873396433
3664206,0,-1247.254216195218
1633211,0,-474.1095322736471
2286964,0,-703.4543162181382
3321445,0,-82.74332655956917
1580577,0,-81.18097048963297
1249754,1,41.17494923036566
416016,0,251.37480482953646
2431590,0,-700.6531645149803
2268785,1,955.1778749988888
268363,1,47.25598905135545
2936885,0,-701.6394282709921
3530626,0,-323.52078322902395
2980052,0,-81.45999727835805
251844,0,-228.14782832955078
541757,0,-660.576911391181
2480159,1,389.5805837638633
1709119,0,-698.5674464071752
518953,1,43.36404306619377
363005,1,-532.8722591800229
840750,1,-2395.3219924165714
1224227,0,-662.3809544841856
1918299,0,388.8184326611513
2265235,0,-81.15679591747457
2683441,0,-83.42702773861771
2774191,1,42.480815831783026
1035039,1,-2161.64374544713
2708069,0,-323.9305505340082
2743810,1,1215.3339736863988
2038780,1,1192.9405530766608
1444447,0,-78.40713919856557
2034647,0,-2965.9114600500207
1825970,1,392.67382876712026
3376727,1,111.43438912915211
2503011,1,1123.6472139423079
3105229,0,-400.800889288408
2157751,0,-323.5145453914044
2611739,0,-343.8111912091212
2518083,0,-1286.3291156301777
633741,1,-326.46658654264326
3840233,0,-2041.7692968897597
1823902,1,80.86610056367593
630085,0,-90.36543041389399
1568895,0,-356.85771806480994
3516113,1,108.87336188102434
2967565,1,2.981834832357214
3305018,1,44.70219494980898
957635,0,-722.326233198585
404579,0,-699.4860318273318
3499690,0,-161.66227694007492
2531877,0,-1489.5331493513465
987267,0,-117.18966839127815
567553,1,-3002.643694824101
1998600,1,97.46193458033997
3039293,0,-1249.5882814881202
3911628,1,40.658737051959235
1012141,0,-343.3462741437616
2120696,0,-324.2948641846314
1392322,0,-1052.423246310305
3541819,1,17.757491453187363
946134,1,206.4328463091708
600550,0,-79.28804789709818
1523589,1,1200.1151916372269
3677186,0,-1250.6630078260619
1742602,0,-459.68403894124503
802506,0,-736.78295122064
2112352,1,97.27137634337024
619714,0,-674.3086937579824
2504715,0,-709.5178996334861
1637002,0,393.2602184321937
948419,1,97.26507301256875
3860219,0,-159.18980436861364
2253433,1,-2954.8553573596973
1960591,0,409.32437230431054
2631792,0,-1251.7689679380915
994169,1,44.13704877997124
1607376,0,-737.5926626765151
3911498,0,-1250.7383418461727
3866851,0,-78.92095165020558
1898522,0,-708.787583343301
935376,1,97.4825118423973
1919620,0,-401.48809630844664
2532246,0,-323.77097103490934
306644,1,39.56495574403872
341481,1,-2304.847375533697
1498408,0,-1251.6774627806376
2778596,0,-1251.6992762685802
758170,1,1066.857788170296
1220817,1,88.35050569202959
3654888,1,96.27183441143575
3921124,1,40.57023758722092
675539,1,-91.80321318911413
1411965,1,1199.4791172271457
3543301,0,-663.1074351397274
2897204,0,-159.92890816158618
2398517,0,403.64624467486794
1395689,0,-781.343813303953
2209017,1,-2501.768603369217
1560665,0,-322.1297238271267
1117391,1,-94.64991740230442
3411299,0,-320.6669133611297
1707668,0,-1047.8597229094376
2908519,1,76.04330031263262
313665,0,-315.61007131921946
1406270,1,-2635.6035671610985
2032661,1,77.40589585140437
1958132,0,-140.39262943168913
2006822,1,39.273630351889445
3317055,0,-700.6244424199784
1205803,1,4.975964130742151
2278900,0,-318.97267891674755
3371530,0,-3244.498431284765
1513368,1,81.65836806718355
2750342,0,-323.8022503803671
490262,0,-737.8985543478374
2063990,0,-703.6557514159123
723418,1,96.70372381612037
3845282,1,1016.5582262310003
1240783,0,-81.25132833075314
3917252,1,1204.374431567199
3335621,1,108.15592071581166
2664575,1,39.709587233142656
1621353,1,62.63714042668114
726110,1,108.69693639525637
3473233,1,-106.73799120046279
3441636,0,-324.0804543751049
404192,1,42.38213191228762
1562179,0,-81.10121742109322
1063208,1,97.65428788837494
502075,0,-320.9392043271977
977890,0,-323.29081934463005
2626526,0,-1252.216207447964
1594202,0,388.42983354879095
257545,1,-90.94107668549988
1066958,0,-378.0687510354602
1214607,1,-714.8688547214722
3447921,0,-323.31190240734355
1934085,1,113.92518620141644
2548987,0,-3788.462521333493
3369278,0,35.66270562173152
2504969,1,39.66973808117179
2241035,0,-82.01368921248593
3261058,1,109.14744744575265
3389111,1,-108.69349319331245
3268316,0,-240.6791097886001
3041881,0,-760.7362324271502
1692976,0,-1121.8014101904812
1445424,1,99.5485424839825
2626372,1,108.6518641005928
1330147,1,-332.9112258974377
2731389,0,-1251.5862274343021
2192025,0,-698.4234748608245
1519707,1,1474.7587430519504
2161517,1,-17.21100561825338
2636874,1,62.39509272634244
1982840,1,-3253.9002576625608
2497639,0,-702.6296679692596
2884029,0,-701.1187569379962
3237191,0,493.3015578566557
2421932,0,-145.28269906429674
2556497,1,40.350842291508414
2497562,0,-698.6652868012992
2533018,1,770.9249731649693
2394805,0,-87.98087293920007
934075,1,-164.87457681163283
1481167,1,39.31335774207745
340325,1,108.99902248393491
3493333,0,-82.3129276051264
2164450,1,44.955962559081286
2195004,0,-160.1031543503827
2205329,1,1192.2506250073784
2668246,0,-323.9359865977639
2765848,1,81.98684829592
1365434,1,80.29890249242007
917743,1,-164.4637728198067
2285417,1,108.80895845168948
845911,0,-82.345200461395
3859271,0,-292.25511197672876
2018174,1,1011.9760297837414
2880707,0,-701.8196505514252
434738,0,-718.2648387779977
1919103,0,-1599.9437789167484
431998,0,-703.9614247037133
575629,1,-86.75657593298756
3204077,1,111.24873105465417
3724163,1,1216.4097959888568
2038484,1,97.01990657114561
583995,0,-1601.4765230049836
579090,0,-1281.8476363355805
2898490,1,40.96091417473636
2281759,1,-752.3351515988661
546342,0,-1047.6064494941104
3937200,0,-1250.100347345367
1575078,0,-322.2506332075979
1301078,0,-1248.8607739733122
941987,1,-39.354228076007104
2480280,1,756.1211793852242
3300086,1,111.42828811960328
1968768,1,44.758479742151984
1683497,1,113.5603803104534
3296936,0,-1251.936010273825
1103487,1,-90.35014963830105
871162,1,108.8237367654991
1977471,1,1135.8173677805723
1358532,1,116.51953631768517
1895182,1,17.364089855079584
2968303,0,-160.44059076897062
3671811,0,-426.0275701845739
3183841,0,-1251.617321944628
2676274,0,-1252.6503670771083
3809937,0,344.7585009359863
3949667,1,43.86064993948787
3717419,1,100.0677108912009
2276085,0,-1251.5239911802196
1886137,0,-144.24607369082656
3271845,1,1067.0278246041498
2115187,1,-2362.860770863303
295478,1,1145.9508394285679
3115557,0,-79.68523353540749
699607,0,-1270.7172915168262
648088,1,80.35179314581708
2241426,0,326.0318011343857
516826,0,-1252.0037314449794
595341,1,5.417578365528027
2826752,0,-672.3406295161096
2716532,1,771.1934940525329
3393200,1,1215.0323659772946
744312,1,42.226786671163694
1777793,1,-88.72946995940559
3182752,1,-741.6756045401976
840633,1,-13.63912672441965
539976,0,-676.2771384527041
1019553,0,-228.77189397225004
1764852,0,-511.1638270018808
2049316,0,2947.2050748132046
3020523,0,-657.565621607345
2938622,1,-93.40965011628342
3710821,0,-736.2796145348817
1712749,1,103.09734535802568
2206416,0,-737.0652910027266
3215272,0,-703.7053877694646
3280229,0,-703.2719889458848
1385311,1,31.96075309674781
881001,0,-358.43612388124416
979854,0,-1288.0037660366625
2633887,1,-94.64306145660242
1256170,0,-1252.6029895997774
2116316,0,-1285.3675562744422
390584,1,42.01455405301117
1785412,0,-241.2221955733514
2049032,0,403.4882373134526
417949,0,-422.5014081566101
835294,1,62.93086903883437
2194237,1,1011.8822772283361
624437,1,46.622791851033035
1299762,1,1135.9510721827094
3894978,0,-1600.1076192530154
2669473,1,771.877292956124
3867656,0,-754.7952344674187
3855691,1,390.3584323184825
1831770,0,-775.9027534723907
1705506,1,101.64903022507112
2566361,1,96.49346313672167
3128319,0,-79.43688970813571
1092361,0,5074417.273649325
3878476,0,-103.6245276031751
1161414,1,67.63855888465963
2536652,0,-318.76764649166324
1340634,1,39.503858387626146
3936791,0,-321.6124169341336
3046701,0,-115.54594565252327
219318,0,-699.4869039339014
2796808,1,116.2166218229597
3241304,1,91.94738614162578
357047,1,-94.82963044921918
193226,1,110.98714898889372
892898,0,-736.8983430205318
695071,0,251.64740097039586
3229013,0,-82.29893407314908
2018159,1,33.74933641854164
1369701,0,-732.71107938744
545329,0,-323.5844465510954
2930062,0,-661.4838341262536
1437579,1,1013.0829782203976
321954,0,-673.5400196641448
1556182,1,1152.634537842223
1056828,1,45.74953499150701
2905140,0,-80.89642447941543
1096241,1,-2501.847197184608
260560,0,-698.9453408410897
890654,1,56.26013631309907
663927,1,109.3814492678831
2814902,1,-92.42481274539824
2867986,0,-701.667826428133
283234,0,-672.6728051321504
882955,0,387.80161177863977
1731478,1,39.63266415605704
1163609,1,39.40433828992703
2990612,1,33.405764941065634
3035527,1,34.154320806784725
2732835,1,1215.3201438525148
3251803,0,-79.47657529146431
2566141,0,-82.90498377131554
1001266,1,97.52314580574128
2469757,1,89.76662381786831
1019843,1,1146.2694380163816
252787,0,-316.4623190803336
1807002,1,98.30299694372417
2197403,0,-3514.7205366773524
2108027,0,492.41637341262424
3399568,1,39.832060504908945
3122550,0,-42.30748544550216
1531671,1,41.91397127672982
250936,0,-1331.4034728993538
2038949,1,1239.9897147105553
977726,1,108.52997197649485
1119442,0,-3244.747691800776
2191523,0,-703.3173924314345
3378505,0,58.25756780535244
2522640,1,39.735635017194966
1663379,0,-698.5295520612309
1431488,1,108.10486953981908
2616129,0,-1367.402267165725
547985,0,-668.1977776167608
3473111,1,1135.1165794495682
2221220,1,1215.5311269400506
472164,0,-1602.068520925433
2173365,1,39.800306528758355
495887,1,108.88479049075977
706763,1,39.58179801717655
2887051,1,-712.6518470205159
2397624,1,39.06496232917257
2468265,0,-144.85545588268806
1789814,0,-3530.513905657379
2851756,1,-92.84533222423083
1149863,1,-2877.430897400535
1373577,1,39.90910056060993
3876615,0,-1163.362126439005
1778293,1,1012.2994720969024
3710268,1,-92.5016835360752
290330,0,-230.24637679899217
3348171,0,-320.8417931925952
395821,0,133.56627070437668
2411931,1,-334.7360512084887
1382383,1,39.202568585407725
588259,0,-168.63135200197533
985505,1,-2418.6443456004176
3159620,0,-703.192423972458
1239237,1,109.70292416823108
2546552,1,40.034261813457036
3280266,1,55.013827124311355
2195797,1,-94.35249824746276
3137758,1,-714.3722826409474
2219087,1,-2476.2055441998036
1939702,0,-77.21853512221736
1375742,1,-113.80449163121143
2509401,1,-330.3589334363124
852401,1,-2523.883100778248
2160412,1,-2876.5789252521777
1702850,0,-77.15091150808823
3666846,0,-63.21336735068792
1517925,1,909.2876264653803
3219503,1,-2595.940950793917
3358396,0,325.01522742419775
3869338,1,1147.165179342594
1716601,1,-2457.365599676121
1136995,0,30.265634639859403
1540660,1,-2591.7892034234933
1983093,1,67.60725786522549
2845917,0,-115.94238947637116
3912790,0,-697.6025192733756
868163,1,-1929.3821662907965
3019474,1,39.843557608623925
397313,1,1146.1379285301773
3077045,0,-701.3935845127086
2152247,1,811.2474137343065
3456261,0,-105.00224211002768
1414932,0,-703.4086582798615
3150856,1,1145.9300376476488
486781,0,-3393.4944366316354
2142862,0,-1250.4690305625147
3093428,0,-144.23603919823168
2740277,1,96.95006471527186
3096944,0,-701.5868041573628
2479910,0,-702.9777411957884
1293050,0,-703.7048891749165
669067,0,-1249.1584963138066
1014619,1,211.28104636795607
3757011,1,39.38606336997599
563324,1,96.38950617553759
1473411,0,-323.37487255035455
2154528,1,-2635.7801234395297
3258926,0,403.44116983966654
1906527,1,1012.7713128274584
1136280,0,-744.1259229477165
2759853,1,-86.49882874842422
3194617,0,-700.9904385644396
2774778,0,-1251.5140585120457
1201668,1,-94.09292629176804
1202286,1,96.81582043585023
2906971,0,-1250.2008777434105
1078632,1,102.92327884624719
1229924,1,70.25665606059174
1115792,0,-703.6686718194513
1726633,1,96.49675112525922
2492846,1,39.48598554730226
1617535,1,45.33666225852313
1685632,1,-83.50025742864268
1620624,0,-161.1888348067426
3690175,1,772.8854266705505
3436436,1,47.536918795942
1742606,0,-703.4397915320724
745772,1,42.55015609236506
3500345,1,-93.98612378969811
2587438,0,-323.52332262087225
3377544,1,41.486441611856506
1828805,0,-702.0328121267223
1339098,1,39.11650046668365
231638,0,-429.03153148061574
876677,1,12.685802009765549
3390748,0,-2672.034142910092
2198193,1,96.19181344281515
1606904,0,-469.5471384203948
1494227,1,39.37937166806779
1553432,0,-239.00562687196296
2849119,0,-708.2719260737731
2880387,0,-321.78175092694585
1619386,0,-82.80695251125147
1209093,0,-431.5123909827961
3365098,0,-1247.5227254812778
3059483,1,81.38276050566454
1149613,1,55.552085434003324
1047870,0,-737.3889130898914
927491,1,1067.0802979337097
572476,1,111.02219358304525
2819599,0,-1249.685575882451
959177,1,108.37777155556984
302107,0,-240.86725475530022
3192408,1,67.41828148975296
1613101,0,-1252.0821786595156
2212482,0,-82.47381855903994
599024,1,99.67485079889127
1275673,1,756.0722366406541
717036,1,39.26585086881873
3928444,0,-1249.8018532138617
2989679,0,-735.8472660520306
2987001,1,1190.1458093078863
2737683,1,96.63876607852322
820833,0,-718.0024897970911
2894532,0,-703.7575845530844
515943,0,-324.48859655534716
3326763,0,-327.8884712725182
2650588,0,5074179.591298691
1981159,0,-851.3577773653333
935636,1,1072.5357009825889
2234787,0,-330.0289745558383
3850482,1,762.2685315212857
888394,0,-321.16287757952546
1793814,0,-1286.0631705272872
2274653,0,-1251.6839955607165
1083243,1,74.71777867242429
3938161,0,-666.877019488759
3005135,0,-682.1935313537608
1336136,1,97.10927071455234
2987517,0,-322.32450722028693
3847248,0,-672.4774271538573
1959702,1,79.07819519326536
1161810,0,5074421.146772104
3854940,1,-2221.797375427398
827858,1,62.71173283129981
1640157,0,-116.74262153618488
2815957,1,6.165485109550675
2268905,0,-701.3662642109526
3402308,1,5.076950191888064
288320,1,-2063.58514316935
2015782,1,996.7373094859078
2461525,0,-2965.923807378688
643723,1,96.67316381117588
1946798,0,-84.5706421628146
2755832,1,96.11619305832896
672130,1,46.569125442181054
3287268,0,-82.69911933946356
2564385,0,-662.8387465383129
906656,1,148.87688713874164
2122900,0,-402.15391504844996
1893789,0,24.145720102383123
1150340,0,-700.4239803825674
1893538,0,-317.18706437443893
2694831,1,108.6654046003791
3701196,0,-122.62870317666489
2593594,1,39.35938950347333
3487725,0,-323.9730753997672
2048646,1,88.89103198137339
1751548,1,321.2103483327182
1682332,1,44.45963232981446
3025692,0,-317.8612978951811
831380,0,-701.9105984642953
2133225,1,1145.7182639204436
3323236,0,-27.77930250597953
1895682,0,-736.0162799314229
935793,1,1146.3297771367622
1085419,0,-76.53883496029208
3755115,1,39.79439386265897
1871664,0,-153.80310572414697
3360033,1,1146.110279128924
2985438,1,999.2658987226355
3108668,1,40.9197406895369
2198286,0,-697.7340713532809
3061633,0,-701.5534950763516
3858228,0,-36.847793624861694
2610453,0,388.8891566086811
363571,0,-1249.2200506256956
471805,1,-2305.1715227304644
3731630,0,-1250.485755511673
979489,0,-500.56856783502644
2567587,1,96.38877478635142
1125908,0,-1285.5720703962927
3481694,0,-77.5518689016667
2535552,1,760.2899561399356
3945720,0,-296.4187335284949
2278497,1,108.4566584780042
1297063,1,-53.55669640906547
3226596,0,-2788.123444375502
3234946,1,99.96086701153905
2043513,0,-145.42119556774273
2855147,0,-322.66270871811713
3460690,0,-82.48007082295305
1074777,1,-714.7201973186233
906634,1,42.75534223972458
484678,0,-700.1023488302907
318389,1,654.3909632888389
3171313,0,-1249.417930624902
3902417,1,110.14201821482553
288477,0,-320.8444836847464
2459255,0,-88.7637681191226
1917235,1,998.9690213648918
3544354,1,109.14467520147066
1245554,0,-81.47332990995787
599429,0,-1238.7643357127401
2200196,0,-323.5738442560669
2991210,1,1189.9934432544412
1848857,1,-333.3550916928962
3875572,0,-2039.0293215340016
1490977,0,-319.19698742479517
2197767,0,-82.23475224473513
1835361,0,-701.865237392451
339461,0,-330.2375171708985
2938787,1,40.803813295500746
2593013,1,108.80395955458259
1425968,0,-718.3993127912145
2171415,1,-2454.6630560721514
1849676,1,40.65350769147639
2963452,0,-3302.368855869396
877922,0,-703.4540202615722
251288,1,101.22376912248727
978094,1,1171.4438108444795
456787,1,104.734268066095
1683654,1,44.19688004791944
880963,0,-83.12004698225958
3105815,0,-3751.877436505352
290611,1,-94.08356743438227
1007441,0,-82.7168620424541
3432386,1,-1860.5420958263073
544677,1,96.88615876538138
1671059,1,490.7704479721587
3185040,1,39.52790918396501
1438491,1,96.27489539139367
2264256,0,-701.5114172918047
2012803,1,100.88993152116593
3524462,1,89.74688181533526
2206393,1,-333.6479590199599
1273415,1,82.18372717272626
3371381,1,39.8365231933623
1022698,1,81.95721668243559
3774696,0,-83.39285456304958
2817407,1,109.31623916823403
2827249,0,-1250.1389422506165
1546351,1,19.07346330515445
498741,0,-293.78523976619397
2829308,1,81.00018914404403
2760818,1,1202.835378593027
2728733,1,1131.1856276535154
1609752,1,39.145024336098565
3729308,0,-667.1355112246985
2995218,0,-322.79861117556095
3864602,0,-2671.742783292812
2416883,1,-462.34048241192886
1464707,1,771.6868903061165
3876870,0,-701.4147775445412
2263630,1,102.978522924272
1248888,0,-82.00020971085952
344574,0,-469.95963054238536
2222458,1,96.88002045040884
261147,0,35.72177307502908
2191614,1,-2435.653748904611
1445786,0,-1251.6532001349844
656014,0,-1601.2350714598583
2903827,1,40.65840486605026
2909973,0,-322.1125511094329
3291695,0,-161.58738008230287
3935164,1,1209.509909643634
2647763,0,-82.7760019212536
2126472,0,-323.491580151368
1316431,1,1187.950569675666
3364692,0,-402.7812810211464
560211,1,79.27422009158593
3331991,0,-323.934799735767
2119001,1,1051.1847868280022
1087564,0,-702.8780701619835
1409977,1,755.8584440885866
1490467,0,-700.4557860973072
3694493,1,2.802789748127859
1639430,0,-1285.886494179613
2277373,0,-322.5898984333812
1861765,0,199.76894945059587
3860942,1,68.50781551083924
1200092,1,98.12464527446613
1326567,1,4.93354884108143
3527997,0,-703.2748875444164
923915,1,-3143.8744685042057
2799158,0,-323.33528629682274
1039777,1,32.17038967010429
1642059,0,541.349087056105
298081,1,74.14999733015745
3542692,1,38.94396977098421
2591912,0,-323.3917216594222
2247951,0,-461.9614546645297
3903316,0,-505.57679947711256
2490060,0,-723.021626913516
1066437,1,1203.1460545371767
3859774,0,-290.7154918509786
991090,1,-94.28239401410733
1140887,0,402.58260715585135
2793792,0,-1246.8695303622032
673693,0,-1248.857612040896
1354043,1,20.628087314150807
1575755,1,1216.0519929410018
1615222,0,-41.979138821046654
3336429,0,-3792.94074161291
2858377,1,660.8600617676715
3278679,0,-83.18565170247253
1885078,1,1147.9516654303984
958246,0,408.0331458165378
1717450,0,-1217.9481600271067
1735660,1,97.37769721903177
2167004,1,-2487.429984553169
3482330,1,32.821784329495266
1883262,1,110.48987853606742
2268585,1,110.77313892532878
3197732,0,-703.0719836944512
3296059,1,997.7224403679807
1336016,0,-702.6259075957489
2748671,0,-673.4405519148154
1545739,0,-735.8518188148968
723678,0,403.4000948910671
3735600,0,-115.08797367530778
1296403,1,997.7891512806901
1038298,0,-599.9971466453659
967210,1,109.12949511714032
2769725,1,39.84859305796903
3671639,1,97.85689954049849
2943352,1,6.24922124892639
3796269,1,1197.1831655990882
3421455,1,38.94279411523272
1525392,1,-2477.651698273931
741494,0,-703.3165870427472
3262861,0,-86.40193544618197
1791599,1,102.28186210663027
976422,1,88.8899158180421
1048847,0,-82.57768371861474
358176,1,111.20597164688292
3233540,1,1215.413772901719
2438557,0,-703.8433871694966
2946395,1,-93.32685651573422
1633903,0,-81.91182971201731
993299,1,215.76210846257263
1446857,0,-82.7027488169414
572180,0,-433.207756092796
3095769,0,-443.33343920905344
1819424,0,-701.5080279824092
1279628,1,-35.505721391092806
3768748,1,-94.51719792941027
3383463,0,-229.877990622008
224160,0,-79.83565481619675
2826673,0,-321.3801169585194
476732,1,1203.1733942030019
3442067,0,-1249.1439865046664
1529122,1,17.153087315453398
209902,0,-79.31313483832645
325262,0,-710.4091573084191
1010388,1,61.740761690067814
2203906,0,-465.39009465785574
2798593,1,-2443.963597128732
2685274,0,-819.8958487985952
3252085,0,-703.4202161405925
1164205,1,3689.9623124315
3136486,1,1181.6309536916763
465705,1,682.9599559171238
2449169,1,89.60132209611969
2712778,0,-702.7747330418481
2435142,0,-82.2811208786677
3219049,0,-1208.751482212528
2976852,0,-661.5602775416662
3146433,0,-700.1670856771582
996474,1,-714.6190944051025
668702,1,99.77809673396246
854292,0,-117.15971949882673
1349518,0,-160.88812985834412
2670367,0,-702.7477978739288
1787335,1,96.56602904309875
1917059,0,-1600.8183438595174
3095602,1,11.107243106863091
212308,1,42.03361410648034
1218772,1,-2444.9273308042284
942187,0,-219.49803684731242
3518285,1,1203.5105065168937
709854,1,1214.5320736767424
3286927,1,52.32091206469047
3140437,1,391.89517346490584
842710,0,-1059.986350280043
1731200,1,97.0719324406769
2912818,1,75.50376332603423
350525,0,-1244.3619059364244
3416903,1,-2304.117200603621
1827764,0,-321.6913461923054
706402,1,-1358.9446178894902
1510664,0,-1251.1948185631845
2659214,1,12.367781391586659
278274,0,-82.69125181204254
1393672,1,42.038928065071445
2667040,1,771.6830988330428
1142428,0,-403.02574222303264
3045570,0,-81.18681595171182
1819851,0,-356.5690900543811
1715507,0,-2.5622262678359524
521517,0,-320.9849155490217
612768,1,111.4386251398151
1906829,0,-318.8945653445299
3453885,1,38.61207109344719
426716,0,-399.80852120179765
3209638,1,39.99523170049236
3192657,1,1131.4077064912656
3362534,0,-79.49576832717742
2528879,0,-3515.6563084587233
2144052,0,-81.58746952152384
1254178,0,-710.5724138270456
1091171,0,-318.41407519914156
510021,0,-83.21435200771724
1489956,1,-94.23577300149388
1011012,1,96.33093676033165
3491354,0,-140.70780908623152
2860292,1,40.77504483505162
2264275,1,772.3714630982363
1021269,1,-714.5504127000098
2575522,0,1004.9329323890524
1567479,0,-1250.453682801683
1759946,1,62.497553831665364
2482692,1,109.8854868408838
583030,1,-53.780050419755646
2163951,1,39.7968653759514
2146371,0,-256.8083555072777
3949051,0,-420.53700064440255
290154,1,43.08889767262889
3938875,1,47.10798444603045
3390320,1,111.33406705398868
1815973,1,757.1990455185871
981950,1,-2357.8467544900827
3235959,1,96.13646061061382
2685086,0,-702.5406600265424
460586,0,-83.00752971246985
1333432,1,96.76506665195575
1025392,0,443.1628761957778
2841254,1,40.27420804820522
593518,1,99.04632655551568
3789632,0,-1251.6393692111485
2849379,0,-356.32523387335306
2195349,0,-1205.8887017396992
2922442,0,-156.02137884268456
3475903,0,-74.36206361390464
1980238,1,-2873.952931889802
1251015,0,-328.4943856872785
2003717,1,39.08555864106377
3801246,1,62.80205152438662
1710204,0,-92.90382639576818
875286,1,75.1200237107932
2129205,0,-97.7746192331096
296673,1,45.03250892896539
1139126,1,73.84859278002864
3091818,1,-2371.106123364481
594405,1,52.26575693965382
899344,0,-1252.25791621732
3743070,0,-1599.4475955784592
603446,0,-970.6463279958077
726742,0,-673.4357008076246
3470783,0,-323.5031163280911
663418,0,-321.1269611975341
2740068,0,-82.25745110519404
2901762,1,40.92505947318922
1127058,0,-82.66042015598137
3757936,1,108.39713151471688
718246,1,-712.198278365417
960328,0,-54.11270920952001
361305,0,-229.2740973299548
3854401,0,390.03336398583065
872476,0,-293.81159238309465
1077758,1,97.27784446374109
2222711,1,1189.8629697604508
1428401,1,39.00797607710806
1636419,1,96.72130210035107
383416,1,388.88421474238106
471678,0,-710.3863047400962
3400293,0,-80.26299040769126
1257813,0,-1251.8246343751587
3107163,0,318.9006931735334
2541802,1,39.61702709411423
1826135,0,-321.8478918708348
2033774,0,392.85888461169054
552811,0,-1249.1568699051859
3331451,0,-120.74442742229041
2393013,1,692.5669472547445
1118988,0,5074179.677926885
550546,1,-297.3212268637794
2820671,0,-701.3977932
1097517,1,108.72010707287644
2996698,1,1104.3548581047219
2430856,0,-319.92760123538915
1531633,1,38.8567192224921
2910852,0,-736.0067174557597
750094,0,-703.6180800581365
1355739,0,-1251.7053481691746
1779607,1,62.62825205735242
1432789,1,97.35798048555084
3721604,1,-2749.9320050326364
311485,0,-79.55161938023292
1088389,0,-116.95095186368981
3853134,0,-1130.8004864578677
1253623,1,17.320334448559727
298749,0,-117.32117776863498
846039,1,-715.1614938616142
2987722,0,-1291.7359188737128
3727234,0,-63.20686108217334
1309429,1,41.272164067946626
682008,0,-83.07741833557746
2765272,0,-703.656724750602
1644876,1,-113.84004858457553
2913118,0,-3.5673231231447953
3469974,0,-673.5497183722119
1726048,1,39.33682548501027
2477529,1,38.46870780276423
1957907,1,113.45604800345794
254729,0,-82.65351872702138
823546,0,377.29385336304574
1913215,1,40.93076184325412
3898551,0,-430.84480294787437
524824,0,-1251.926520270147
3171474,0,-82.06080110317141
219944,1,1011.6477371249124
2116710,1,-2502.0711623095062
1436881,0,-1251.7993275383412
1315010,0,-1397.3654649301475
626313,0,-510.96659074366823
1325701,0,-1251.6841988576894
2192886,1,39.38275074205686
736478,0,-1600.9363011433916
3424841,1,39.476159416402766
1634776,1,39.62304630187919
1860254,0,-701.6051781357329
1443758,0,-323.4480934255113
1681066,0,34.667110324842184
2615462,0,-1112.3169778752015
544185,0,-1052.7200132078906
3038316,0,-701.3927230733426
1702765,1,-130.26147233925437
1994916,1,136.72597219489748
462885,1,106.58109198685041
2685201,0,-323.5901864356344
1062455,0,-1251.8323804489946
1847854,0,-701.6535290537123
3407800,0,-736.6882228334435
2620104,0,-1251.5357417033956
2505455,1,101.25662615354855
288737,0,-700.1481294666154
1001151,0,-323.88117823298563
1023825,1,4.350905981222024
677205,1,39.4761598169646
2972402,1,97.88584227847633
483066,0,-321.3932796773019
3886526,0,-455.810862115722
307574,0,-323.6809899686582
1606245,0,-323.7307087768736
1848377,1,98.5879588612213
3276225,1,1203.3747045034825
2516695,0,-2043.4244048017028
228500,1,1203.302126984926
2892519,0,-671.5978252842616
552445,1,-332.4874551456424
1627854,0,-117.25942795128041
1335512,0,-318.4412968184572
1851675,1,-509.6842781887892
1129561,1,39.2474077804627
634380,0,-1251.0118742140808
3684566,1,98.20772169602361
3134701,0,-431.7489457383802
1504952,0,-116.39036906287444
724834,1,109.35982262133658
1898081,1,41.091751128502935
2509673,0,-698.3646987428228
819226,1,-89.50192897988317
3429399,0,-145.15040834297176
3312016,1,-810.0228679861656
1346230,0,-318.5803800050933
3070650,1,-2876.008734845087
2738651,1,-494.6603243680153
3345464,0,-78.2681085626148
3072389,0,-115.7504146352061
495581,0,546.8090624033961
3775601,1,42.64633652305891
3264101,1,-93.91693605392514
2623816,0,-1251.7301557826806
961905,0,-700.5966101203878
589005,0,-3514.291398897382
3742521,1,1204.9656286456855
2968454,0,-702.51873124521
3135931,0,-82.93577753607279
1032786,1,-2352.9946629329365
2624196,0,-330.868784917192
1536133,0,-721.2039734339494
2675627,1,39.527961864710726
1750072,0,-240.37842953885448
2122117,0,308.9159716067073
1219635,0,-737.7057436498338
534993,1,377.6914730235459
249173,0,-330.9167516797379
2214550,0,-145.32452461404324
2980581,0,-356.5323323427295
2650054,1,1150.6086758852339
566286,0,-721.8582483843265
3682373,1,-432.6628657015295
3257926,0,-668.6369413998625
2595277,0,-145.20391527718797
3059035,1,41.109768039605314
3236820,1,39.77170017787188
2975827,1,97.59523701115299
3269141,1,41.82879835819259
1869310,1,64.0780516507725
3932042,1,772.2755972485319
2623340,0,-436.8414527227561
893029,0,-698.3219836776523
2004152,1,96.7291138724791
950607,1,377.1538123470121
3923386,0,-1223.9628436759215
3471921,0,-321.0805121650166
1665416,0,-77.72401861949203
2164161,1,1202.8848619448304
445087,0,-324.13703711131257
1438291,0,-89.50398117520666
1671938,1,113.75999221659389
3345978,1,-2304.8344387331013
3175340,0,492.5162388125293
3356960,0,-3244.458760305466
2208385,1,1151.0137857229654
2606932,0,-83.11438390502732
3425421,1,98.7523258050851
688060,1,-315.08415801474536
944398,0,-319.3363064474211
689071,1,99.24447354150156
1997537,0,2399.074336102069
3237288,0,-338.46966265592374
3838188,1,38.79759544607244
3668730,1,-3254.461125581576
297940,1,39.24447478086561
2994368,1,761.8805188189938
1479133,1,-742.0310156980937
2693424,0,-1252.042279971311
1767919,0,380.99369765623817
377094,1,592.4870916977284
2027125,1,40.28225014539399
2162156,0,-1401.9214019835524
907863,1,-94.25987978687105
487021,0,-1249.147348714628
3268439,1,-2063.7244576954795
2500522,1,1145.7670013165573
1607666,0,-116.72640030102872
3392381,0,309.7220929931739
2591703,0,-702.7995741251143
407935,0,-80.121496737449
219123,1,96.93054008378681
410185,0,680.0571643096567
3762992,1,109.10496353289142
1980921,1,45.2803620228505
574640,0,-700.4108795765449
549326,1,97.16273523617554
2853146,0,-352.3167038327283
1311847,1,39.561898290063915
2961669,1,5.850526719104986
3918984,0,-356.4457529349788
1375775,1,-2166.521524136531
1046173,0,-1252.2431133742728
2970690,0,-116.27134879811868
1201866,0,-337.95557821651227
1727882,0,-324.0108767756852
3367468,0,-82.76923395190894
2230799,1,1192.9684676913878
1078565,0,-41.32115591384258
3137098,1,1012.114281182485
2822237,1,40.9691394345487
3702593,1,30.99851104609942
3248447,1,-89.3882229960519
932230,0,-852.9935931316478
714822,1,96.74642392792175
1766764,0,-81.25015653652147
214064,0,-780.3515316250406
1494574,0,-1251.0932582113965
3403693,0,-1248.2526872160613
2541018,0,-3530.0735390728746
1463412,0,-323.5418279801861
530474,1,276.557787108095
3286257,0,-320.39839785778815
3698742,0,-239.61552446198877
1122091,1,1203.265072184344
2163643,0,-323.77901515998377
1601817,0,-1285.4623281646686
344233,1,-1120.422318849244
1723783,1,-2599.020236791319
872954,0,-78.07819150274233
2284550,1,101.52627303206488
3476600,1,-2443.7569364804003
3753387,1,1145.7610428989115
3904557,1,389.186435744962
3231564,0,-3220.81502355126
2762953,1,-86.36693329927567
1674280,0,-122.85167163284045
3247032,0,-321.24511726084256
1201168,0,-1250.9043653025446
3281035,0,-224.67194416458352
1972244,0,-352.83484971302136
508695,1,-525.0617776586889
1261151,0,-330.36451303884365
3360760,1,1202.9261761474393
3352140,1,62.172950723400106
3370454,0,-1281.2496085558344
2677897,1,1124.1574752245026
3520888,1,39.440473878588975
3334668,1,97.13859637489576
3011263,0,-81.27598999948873
3447457,1,1204.1738533705945
2021975,1,108.12288226450505
1357139,0,-322.71852261788
1342560,0,-357.88765331754377
2841539,0,-1051.4177680061578
2736256,0,-117.41864650667003
3754380,0,-432.94523971009147
2119569,0,403.13650257404834
1116963,0,5074161.156496061
351722,1,111.79521641145652
1501401,0,-320.8016597534815
2042174,1,1130.9964105515298
283633,1,771.003819910973
1197923,1,39.25555679341321
1395110,1,39.06338728396472
659614,1,111.07838168537917
942019,1,96.91083139654647
3234361,1,683.5756645117442
3075946,0,-701.9864174078939
3902645,1,692.2967942052278
382611,0,-432.6581929033579
1236615,1,99.47129257132093
3690404,0,389.8325994701979
3383128,1,-711.6480593984371
2988514,0,-322.3705185565329
1876879,0,-322.45680723856236
1437818,1,1187.8407657170387
3237614,1,-712.1640318765503
2870702,1,41.114566728622705
2637876,1,1215.058159847404
363773,0,-343.06735926728817
831020,0,-1286.6895760302864
3144416,1,-91.67557062113362
495708,0,-89.25759982435412
2918395,0,-3809.4117934488186
3176831,1,99.34065045915578
2818975,0,-701.4912493092112
3706608,1,98.00650528810367
3441351,0,-318.51651000645984
540050,1,62.264288491134664
1820244,1,1147.4857583323758
1024192,1,4.931443898753942
1520443,1,96.93202792522277
816319,1,33.065214514150625
1550228,1,110.07941214767789
2417385,1,1208.525907400726
809046,1,74.65280181781014
410414,1,111.44328832670917
1352539,0,-1251.5740895530605
273081,1,-2384.1124157887552
2911029,1,40.16499371523098
321533,1,108.11960405502928
3196653,1,-2836.4293054060463
1955589,0,-1281.121422550797
1220121,1,38.93575941836019
1951799,1,1002.7655946022064
2782037,1,-168.78056288195913
3182391,0,-320.91620331882484
636198,0,-1248.6196352863935
3882418,0,-1256.6175632999416
238974,0,50.05139479622062
2807196,1,15.204801672081064
431478,0,-321.2768909324454
3849142,0,-401.37861994737864
2045780,0,-196.11089647745666
2257447,0,-88.32876589074561
602061,1,38.95264899481714
2261931,1,-187.75780324211556
1950938,0,-23.319956924959925
537222,0,-1327.9471618229202
1581190,0,-720.9190707674793
1107409,0,-703.176368322994
2121781,0,-231.13292237116696
1456496,0,-229.07825603046462
1976041,0,202.8628481113296
971069,0,-160.4920226210957
3504549,0,-319.13182540122597
2458956,1,1208.1707254656878
3852210,0,380.5092572545554
366458,0,-25.360331531415405
570601,1,47.47002985177838
3132822,0,-357.4397639927525
1280022,0,198.16044719844564
1878117,0,-229.37677777915403
1128872,0,-474.20427664967036
2180941,1,96.62296186163113
402609,1,96.51752740520003
2155170,1,96.68202721296798
1774276,1,96.2723572595222
461740,1,-93.9165242669053
3294020,0,492.23658052313914
3749765,1,-2476.1310402220643
935244,1,-2610.5162652759495
3063128,0,-702.0491464971759
3310063,1,67.63813039344993
3864659,1,-331.7062040171983
2650892,0,-364.70555877423396
602314,0,-323.51447373723386
3516492,1,810.9665767902361
440351,1,108.24686223806285
3747424,0,403.48227974709715
3532523,1,1145.3021622974336
2105421,1,107.94235008138612
3744812,1,101.8567124170613
1200455,1,771.9084579299962
3358312,0,-299.0842604460335
1995843,1,43.87841256018407
1956175,1,101.06710446768753
1478686,1,62.548971821513994
233374,1,1215.3947331304498
3371814,1,1012.4469853805247
3060112,0,-317.17205117444547
3411117,0,-1251.0887444564353
509767,1,108.54735330212453
3056334,1,40.3858310606959
2419377,1,1188.5008551547085
2146081,1,-3314.2182304157504
2461190,1,1208.31623968834
3712300,0,-239.9676829039724
3933557,0,-81.08925249241484
2745534,1,-54.15771549520587
1370562,1,-94.65112982716397
1067933,0,407.8962717706331
431369,1,-2058.999989293776
2671948,1,96.93948537371034
1617976,0,-1285.6497762306801
455811,0,-82.14831735021156
1939747,1,113.67779744893443
443607,0,-1249.1074610688265
1719588,0,-426.5979435902737
1495349,1,-1859.7915401791358
952095,1,-128.22480526688398
916695,1,-156.94327119434456
1344809,1,1188.1978050990408
589416,0,-700.1522856770245
574767,0,-42.24973676993788
825093,0,-1267.5110899593255
1003677,1,4.857435126708202
439822,0,-703.4214582226122
1957173,0,-77.3816490896009
734303,0,-702.4131265583145
959034,0,-417.22309416205525
285536,0,-298.8255330131634
1834452,0,-6.034541339774074
591283,0,-357.67495390799877
3357718,1,96.8663026944033
3522138,0,-906.8465964429837
586121,0,-1365.2033780355787
263074,0,-1285.931381098864
2128811,1,-1.9253628724724594
3807261,0,-82.44842098402721
3079545,1,41.14623951136136
1851528,0,-701.3271663147872
3739853,1,1013.0920174973317
1706529,1,114.2899965680734
491021,0,-672.3885359235992
2792978,1,-1065.587312970501
3209711,0,197.68126824641146
3379963,0,-703.0168196173802
2817587,1,-2890.148838863389
1823785,1,41.73654406256506
3672716,0,-126.93050740212315
1340777,0,-318.7740494602188
3285305,1,111.4563676441502
1131722,0,-816.5742265299034
1151584,1,62.416467036979405
1946477,0,-713.280704564248
2129314,0,-42.4416563445483
1551912,0,-80.74712744339396
3312588,1,46.95552520237117
3185366,1,39.546166213508826
1443301,1,39.21575058017387
3158256,0,-82.68593029054831
1286925,1,1187.857442941705
3450479,0,387.8111544756989
1744763,0,-432.44889342726935
1089380,1,1012.4556219149343
3278033,0,-2.760400451463409
3287608,0,-1285.399834283742
2165242,0,-1251.6398481517213
1704246,1,48.885502283888854
904641,0,-593.7652516749658
1575038,1,19.428796738659297
228379,1,99.29400318501061
1294061,0,-1251.9451063811127
2623264,0,-323.6411097601801
1689165,0,-965.0955482760044
1536645,0,-80.76388192652938
2848663,1,-92.5343427852947
1518832,1,109.01063766560435
2004946,0,-702.7033863572956
3653387,1,1129.0957055358806
1060714,0,-82.3728087781499
3504336,0,-782.2814580500072
1170372,0,-323.81248263147506
3204414,1,-712.6061155693163
1980587,0,-3388.2466552903275
2457869,0,-324.0944200185347
1613067,1,953.7714692068052
2263937,0,-788.2760434546128
3142674,1,99.63348386657519
562551,1,42.18287070277206
3547641,0,-703.0212916119897
2585434,1,96.55312156261013
3131452,0,-698.4215560571421
3311490,0,-703.1382894324352
1869937,0,-1051.538950094538
732787,0,-194.88473764599988
699823,1,137.44575621179635
1078073,1,39.80243726093026
2618002,1,-2439.237936546853
3345808,1,101.13031323053005
1067686,1,108.52972596997324
1995858,0,-319.22586641254804
993771,1,1202.9219188483826
1507637,0,-37.085420947830904
3239695,1,96.76631667639646
1594197,0,-324.1128340180258
2893245,1,1190.5024314143732
2741164,1,1203.3193762237693
3040789,0,-1249.5700446290896
3486891,0,-971.0838848944188
2225577,1,107.83979162237164
3957342,0,-633.4039899063653
3706639,0,-698.5354341721919
3190576,1,96.65313446441192
2199255,0,407.9064021336843
2645642,0,-782.0559230762291
3295855,0,-283.79149090823756
2020928,1,109.00391825170216
1836278,0,-235.4057024238173
1412708,0,308.9788805036948
2856092,1,756.8996783271155
545705,1,619.090506422057
2633891,1,-89.4844372696441
3018369,0,-82.54214213504996
2274940,0,-323.3760684694209
2430073,0,2947.945340287459
3231873,0,-323.14285399317515
3536571,1,107.5236058907281
3922602,1,673.4942776673821
2481437,1,-2490.1522026588364
857576,0,-82.94574192721774
2124740,0,-737.3695749612185
581605,0,-79.45295701774599
991834,0,-295.1908034363799
3251194,0,-322.68876907964886
1548573,0,-322.52927642057097
956743,0,-213.58672262568007
1006674,1,40.31829717700815
263514,1,-714.7346100245767
2971108,1,40.763939913501346
881402,0,-703.3271365935424
2261563,0,-81.13947034275314
928241,0,-324.5904761735804
2900502,0,-1512.0282793217157
3914563,1,776.9400188026398
281516,0,-970.6676335220043
1768812,1,1145.7008821117097
3019228,0,-703.5983127909407
3253054,0,-1268.205869702593
295695,1,-1859.3533691405714
2891584,0,-735.4501670081822
1379375,0,-702.7688062362291
1380761,1,97.07267873208163
818036,1,86.78159039355315
1709079,1,-85.1183792417787
2782575,0,-323.66553398361555
1214352,0,-1246.4166775673596
3499450,0,-1251.5871016177634
2932708,1,41.21848125807598
252621,1,99.33450826879216
363671,0,-737.13541132547
3471737,0,-1052.6861843235934
215580,1,-91.48645326494959
1833679,1,98.22318519206941
1271941,1,-335.3218736780381
3199978,1,-2635.816124901047
589924,1,107.64380236306582
3097882,0,-660.8250841062156
3734394,0,-321.8673682439481
2774129,1,39.04227294448465
214737,1,-297.6270393159919
2158375,0,-323.51159376359266
3059290,0,-322.20510617228325
3232910,1,1187.6951458878318
923144,0,-404.7621894129542
3095860,0,-736.6036868973578
608623,0,877.104714578549
229595,0,-321.1217430250733
504631,0,-1246.8176243397256
1582206,0,-81.0418851807396
3145451,1,771.1649315471402
659866,0,-228.81515055742616
3810046,0,-703.2203241262567
2582711,1,-20.18136782890312
2884722,1,63.37886965440773
2399501,1,109.10376742373646
2457945,0,-1364.9988550599855
1217891,0,-722.5250742669476
722368,1,-39.20003998601569
1744847,0,-29.737678504454006
1512882,0,-849.6907624518893
750162,1,44.936848406577084
313308,0,-321.14920198697223
3845076,1,-2153.9858279521227
2803123,1,39.64615272090533
661534,0,-673.5246603822787
2578384,1,108.89413554997373
2462724,0,-703.0012836575024
3255091,1,1215.930737470523
3859960,0,-455.6601253044966
2522859,1,62.38988837508875
3198249,0,-127.99272793684244
930116,1,-2635.3143864940216
1503446,1,-91.78211499977114
1108329,0,-239.68359385541322
2111485,0,-82.43980835231443
1914956,1,100.81639170662662
3239910,0,-342.84415217616413
1084335,1,-335.2554681263452
2834871,0,-3216.552248157917
501536,0,-316.1635515201077
1477658,1,38.85372205096813
482391,1,42.55952338014227
877670,1,755.9694709156677
1236554,1,-92.90180498971034
3346208,1,108.56961113391634
1593125,0,-338.36348509078545
1078224,1,97.31860610941102
3928249,0,-969.7829064155826
3835387,1,40.404196137922796
1710780,0,-1241.4338026131927
1098054,1,62.029315536691186
291254,1,-3232.6857466517304
3770319,1,44.77280999669563
2732722,1,108.74021635161257
233171,1,102.09030200475907
367203,0,-21.29694897123475
2841373,1,102.62697979928417
3321273,1,1145.926280321886
2032015,1,-2448.1249570274254
3844636,1,63.72682069221133
1761921,0,-364.3361254612003
3301007,0,-324.25329024294723
2933929,1,-709.5614207509875
3847890,0,-1284.3471955768848
1889359,0,-115.54516197356351
2141532,1,96.76955408483963
3013116,1,-2574.045214120264
3310022,1,77.94489611650366
2411945,1,1011.4209595730024
2146202,1,97.16544129221754
3510399,0,-680.1517901160286
280497,0,-1249.0346668704565
947549,0,-98.61655316913544
389847,0,7.4000104403890425
446099,0,-673.9999877722885
3117176,0,-323.670532958549
462923,1,97.26910800279516
2560527,0,-205.05979890987896
2922558,0,-356.53250727562437
3923295,1,100.57894202767437
289228,1,-94.55133199898471
2767205,0,-477.0148179959359
2415906,1,111.03499551156841
438603,1,1145.0772162824128
2815613,1,40.64595868581934
1193748,1,74.61088263543925
3738379,0,-1388.9227767003888
1903071,1,75.60263979444477
207507,1,4.775406592809191
2105074,1,40.04624480027955
3258596,1,39.43076604440306
1903563,1,757.8441747138172
1413559,0,-323.4791685733989
522457,1,-712.2713418577355
2562586,1,96.44008395299858
1707309,0,-77.74164155530367
2501303,1,19.88320692023385
2033088,1,39.06154998507266
3515487,0,-662.8979929759
2155150,1,1203.7133311438545
640678,1,1139.0135014662826
2207789,0,10.049664851937594
3929675,1,287.2842298062105
544667,0,-694.9288423053702
2042768,1,3717.8692372967153
253469,0,-297.77573253527174
812575,0,-737.4373386264109
3780404,1,100.94396453489095
393435,1,-91.42648970141552
3103369,1,1194.8838514609806
2864571,0,-329.66545359959906
1171482,1,-2357.1880891287306
550818,1,5.339527550876516
3425865,0,403.56771453528
3651416,1,-335.7159104833579
1763306,0,-82.41314915343017
3352364,1,1200.0821405233935
1531620,1,-2502.4353895081476
2198928,0,-1252.2982973699225
3058208,1,45.612370047350275
3071239,0,-228.3437167507326
3242900,0,-673.5863908867726
3200558,0,3567.2002204894948
1405966,0,-1251.6007916205524
1041109,1,-94.46232522394365
1365564,0,-79.12923780357482
3928117,1,1014.0446850834863
734668,0,-700.3735675155667
3087070,0,-3791.885620020391
1498169,0,-322.75083597620653
2145133,0,-3467.310334106221
1140225,1,1188.108248308245
827623,1,61.97641200012858
1567937,1,-1356.5804490519738
713787,1,382.4834630585403
3201967,0,-321.4168015578871
1620717,0,-117.03073981631624
3459082,0,-1331.1300041591026
2469613,1,19.368797779608087
2152507,0,-403.0793607555504
3229274,0,-82.56464702456536
593103,1,671.3476484555789
3004121,1,-92.7387611135957
2711503,1,96.34486812605303
1526540,0,-703.1854388760445
1896482,1,1014.2499385881765
2486670,1,148.91593975127756
713651,1,1219.903128370305
855224,0,-1251.4258685512143
620092,1,99.65058434406872
1910584,0,-672.0128376505525
2821385,1,-2533.652012213947
3051236,0,-115.62308107313243
2899715,0,-12.466686724267463
449431,1,109.12132939676859
3495105,1,43.09184425050998
2873671,0,-151.00601158745232
2276514,0,-318.4476985315839
3390795,0,387.7051572796554
479378,1,96.4373260983239
1594733,0,-323.65043357611506
3280407,1,40.29081247077813
3802568,0,92.85804178439034
2246018,0,-702.8897992818954
3179192,1,35.08880043660579
278767,0,-673.346145523492
2829223,1,-163.22028135562783
2212757,1,-164.4950884581906
3511483,0,-3792.6349662713596
3200898,1,111.95185716122604
3653736,1,39.3160961493054
1876872,0,-322.08034424271517
394007,1,39.83704753308794
3938899,1,63.36283964393117
1196849,1,770.155337119457
1502805,0,-338.9151503284619
1450180,1,39.564200651296815
616376,1,-86.67094977992012
485023,1,-2063.754946620382
2704912,1,-2880.0739310465065
2283139,0,-323.1649363124454
2000958,1,1146.074019470622
3388657,1,97.07159050376715
1583478,1,1205.0449985267442
2445171,0,-703.0118702833161
3737373,1,-809.448216182104
3900353,0,-1222.080329774042
1825785,1,97.81366743192203
1953131,0,-1246.4792435240447
1522994,0,36.5005633907604
200084,0,403.7726569589114
286607,1,1214.5048288540431
3952422,0,-3301.649519135453
3120301,0,-1330.9590024296144
328676,1,42.19093014050312
714769,1,108.17360848835146
2447551,0,-62.76531177262817
1146400,1,1131.40408795965
3351666,0,-1251.5957349382081
2005173,0,-82.78246067205097
574460,1,108.60765604848562
3334134,1,485.58421885849594
1495540,1,1146.239671467214
820771,1,756.0953777396132
1764370,0,-257.9343114381311
2584060,1,97.57542148324018
501555,0,-970.9090303890858
1594025,1,96.74026225164982
987835,1,796.0251085740861
1467468,1,1145.474049054975
2648251,1,96.62864721773249
1870312,1,46.65283310041478
2452422,1,39.13560157932147
1343480,0,-1249.3976502109842
3171725,1,62.15147692886716
1423175,1,97.33736334131827
581951,0,-700.5166157897156
302930,1,113.74244617004052
1869764,0,-701.9814146678065
3345069,1,51.97970333271703
1026735,1,377.9890300222823
3665184,1,1157.2981876704832
3020848,0,-342.9939571753463
667445,0,-617.6321523287974
870950,1,74.95114601375462
1279377,1,-334.86831501070793
3390722,0,-702.3127998549777
1901074,1,-92.84919329895334
2465660,1,770.9557623993976
3754902,0,-323.64932066535397
3799502,0,408.4162661871468
3153213,0,-3244.3665282284323
986410,0,-82.4818623318166
741140,0,-703.1101857314816
3056890,0,-322.00360991875687
3711881,1,102.31035930812413
1157918,1,-2433.379910477723
1575044,0,-1250.5453998158675
1731979,0,-732.5188693539369
881079,0,-703.4551104211229
316400,0,1011.9977465292668
1487817,1,138.48575554125085
3476542,1,1124.2100415384873
3418441,1,39.993467217034784
379567,0,-320.0720233716181
2039990,0,-703.1079916282204
1140858,0,-698.4828880840668
2467323,0,-1052.6163023403076
602175,1,-1872.010082563985
1055521,1,108.42066224780562
1505609,1,39.67062193236395
1713162,1,51.099270792279825
1791597,1,101.60391800632763
2017200,0,-324.0446882241497
3309901,0,-781.6567461136456
509774,0,-432.02369869573744
3284914,1,42.13932723003914
633230,0,-1060.058077830526
304569,0,492.39551755519153
2403028,0,-79.76912837385657
3203425,0,-79.01234122602027
3105651,1,110.17508560484939
1304661,1,109.09395909678427
1509066,0,403.9745068388401
3198210,1,111.31422593427122
2557428,1,-2489.618713415195
2805285,1,-94.04743575616874
1742798,0,-1679.8074180287222
747438,1,40.077799424351525
1960080,0,-697.3571713296391
3277967,1,-94.42466674269764
1419359,0,-1252.2768007710467
2418924,1,389.38984981786575
2830945,1,-2567.8605540275266
3112699,0,-329.07447476724934
2498773,0,-323.2434948157874
3677000,1,-2496.082121042422
1684480,0,-697.5323685432262
1410267,1,1203.2872141079972
3922132,1,-333.51247390935725
2504034,1,377.64985801738476
379961,0,-1246.7331340409462
929346,1,1188.2976209782405
2238764,1,113.72078185448981
3321215,1,1202.9592266183236
942408,1,-2223.3386556167748
1822378,0,-1250.5160041016336
965687,1,-715.0547451153591
1847574,1,110.09865914301417
1095264,0,-1246.518640481739
2810852,1,-88.78200383860846
504781,1,99.67319174085517
2609851,0,-81.89847559317124
3743365,0,-1251.466746599079
2595514,1,67.04890601734674
588129,1,655.6433867905596
3189458,0,-3792.815395075829
261155,1,39.901501947430525
2701845,1,1051.2330557583484
2963852,1,1013.6830808283626
3476239,0,-82.05037312965803
406646,0,-1251.84095574447
2844987,0,-293.7389662920537
1104226,0,-318.29525667615434
2616610,1,39.21903110899773
3958141,0,-1250.3737002675691
1538560,1,45.66762268008249
2814079,0,-1285.2941358638006
2279921,0,-89.12028788965655
2730618,1,89.40954536211724
3428245,0,-1398.3364878805394
3437005,1,-93.83060668969276
2236502,1,-94.2237085407514
497397,0,-79.9001856297422
2733383,1,1108.8200134088552
853722,0,198.31704226501495
1876826,0,-80.92015546287618
1056475,0,3568.0339525424793
1808014,1,-2500.637662009444
1965341,0,-3242.0149873319215
3290125,0,-702.8487620611786
1966710,1,113.91662669690626
2243987,1,-94.61664355351297
1499476,1,1145.9473589198958
1916040,1,-239.61455445645765
1432086,0,-1252.1920085107633
938062,1,67.05848844001439
247127,1,-714.5984126882524
267580,1,109.02273227712615
240123,0,-323.3459447776225
2261786,0,-81.38870965713448
1819379,0,-317.41510852716516
375491,1,90.4533765849411
1811899,1,98.61153273253275
1598511,0,388.4747928686233
1782148,1,73.7493229878987
3354294,0,-294.4027122573169
3255315,1,-2502.3207906639846
3467080,1,44.18714735032642
1683533,0,-1246.7163078162082
985820,1,1188.2395442233951
3205769,0,-228.33867786747686
3191611,1,615.1708768445097
3779194,0,389.14772931968344
1526130,1,96.70949559655472
2890554,0,-696.7662172109984
850839,0,-1251.698489173637
3664801,1,1204.140292276214
3102020,0,-356.29120283465954
2232727,1,1011.990423450706
2565333,1,-2635.521351922005
2201304,0,-358.75359521338896
3413863,1,97.05835170291381
836116,1,99.61325394759531
2828423,1,137.57190187303704
1203811,0,-703.1064223999649
2040184,0,-323.3050332449695
1771755,1,9.347381625809591
619217,1,1203.8797489746876
2544659,1,-2223.967188230543
1469411,0,-1223.6924592542823
1141810,0,-1286.2448241436343
650915,1,-1872.2570096333334
1385159,1,1199.3538735986733
916966,0,-228.99581644386222
533080,0,-295.2960599030021
870475,0,-1251.3894373698884
3100094,0,-3242.956516288818
3787759,1,39.220649504719624
193612,0,-1249.2296888987883
2756573,1,-2461.423742802316
3380528,0,-703.8593282199913
1886087,0,-322.283821270594
1568471,0,404.9839992570874
1198907,1,40.383089864826076
3194319,1,99.7861362129204
2470196,0,-5.519814031209957
3250853,0,-703.4142735753027
2049979,0,5075416.770638934
3525088,1,108.57393860709314
666647,0,-700.3590877876688
2850775,1,98.14307811723609
618550,0,-1248.6817094117666
1146893,1,61.982469566389476
3503520,0,-703.3475235091353
1024977,0,-700.43905541225
3461772,0,-376.8591153415767
2754448,0,-703.1621340948815
1886909,1,-93.21926544341395
199713,0,-158.39377336882183
3133103,1,432.15794583421655
1974679,1,22.54409983053446
1367722,1,-94.0841189941168
3118959,0,-3793.3496060849984
1263347,1,77.64558663124893
1485118,0,-27.974138370839892
483323,1,-91.53095956526198
2795621,0,-29.76580113112009
317510,0,-321.0393381854205
559187,1,104.58028423939894
2121135,1,1011.7188132822323
1052266,0,-703.1302736686514
3861084,1,1216.296262897276
3737699,1,1204.361232554852
1404538,0,-703.9976707087793
1151929,1,1135.9708316954627
1484904,1,39.94558616956122
3958285,1,1173.0189995079345
569587,1,42.67927940925459
3151312,1,-89.55627496054979
853470,1,-100.60280001955019
1506468,0,-81.85826332156964
3764938,0,-703.3702276891954
732045,0,-565.3647188080826
3449261,0,-1256.1477546719634
3856516,1,103.50298829741895
357602,0,-80.48159216807
3120901,1,-2444.6367901777576
3897185,1,447.7824644628862
1881288,0,-115.37250720934468
2634314,1,-90.21694836723702
2267006,1,40.841483701479504
2901335,1,81.09279331785933
1582213,0,-1250.6455674529655
3146383,1,12.833344732418384
345596,0,-321.03529871342835
269701,0,-79.70516909381357
1264040,0,-1331.1732307675597
1645313,1,39.7969145822187
2618314,0,-702.779308323034
1097937,0,-1052.8719976835675
2260302,0,397.70927942538265
1882248,0,-81.34186724479456
3501651,1,40.283237401538074
3003729,0,-226.94366148741227
3002751,0,-111.19669362302567
2657845,0,5074420.870207677
2152365,0,-3010.6868472296833
2432030,0,-1248.9527315605164
2931893,1,11.22235375757789
3676510,0,-322.3593927801609
1643113,1,96.47899158071925
1150533,0,-700.7672228827929
1486954,0,-1252.0861150734015
1048333,1,101.89823043079976
1243056,0,-80.34535628783816
2873999,0,-3.402526993607315
1084938,0,-732.398594105054
900734,1,-2893.924536503105
1325688,0,-358.11221608957993
3875402,0,-396.70335645189544
3089390,0,-678.4300475708606
2745869,1,34.13056992193356
1479005,1,96.2882743336934
1300030,1,1131.2969657471835
1037879,0,-702.565171752995
3507470,0,-239.24355302959128
3725470,1,-112.50777515586158
314148,0,-80.27994663214236
1078107,1,96.07250992365901
1911725,0,459.149754959889
3491507,0,-323.88311201127806
2774792,0,-323.5875537911404
2174306,0,-82.62201034856585
3396907,1,370.92272235637233
567003,0,-235.99689831117354
824750,1,40.02836078954281
2766735,0,-323.28506106153475
2403200,0,-82.18043956631075
1440620,1,1145.919092169429
2455258,1,1150.558498630281
1238496,1,-713.8270659776766
817263,0,-338.48332009422353
1497759,1,61.72205497552951
1641012,0,-42.33819840375318
2567518,1,-335.1187684281837
3772611,1,109.10721656067143
711148,0,-709.5989215203444
1405646,0,-160.16452354980353
971645,1,101.68718244088723
502128,0,-970.733385909076
538198,0,-321.0703965336643
1360520,1,39.24595676101079
1359731,0,-319.0142104922366
3657145,1,14.925048122295726
1702793,0,-156.15406223536877
946110,1,137.1335643781038
2152890,0,-1330.3689600978869
895021,1,89.86228489391452
2874169,1,98.17553684717052
281986,0,-322.9598814452411
2258609,1,41.53705527745311
1205423,0,-323.9757075425841
2406426,1,1145.9811957560973
1554139,0,-1599.989564649626
3548768,0,-293.79616174331676
396944,0,-82.29668875157643
2622127,0,-698.7547646541321
3864709,1,3725.581495981836
2136821,1,756.5081399132599
531780,1,1011.718531660821
343743,0,5073002.779995114
2510503,1,-65.73754127198518
3145295,1,-2876.568934857411
2771723,0,-1252.127067034589
2696350,1,39.28176058823022
2634531,1,1199.4018534188665
2768362,1,99.38750403551857
1588737,1,-89.45665530045132
2473643,0,-318.27587928023615
3026969,1,40.276549593714925
2766070,1,101.42433215810746
204197,0,-377.3438669035949
3883952,1,110.14362474952944
476133,1,42.811267186457094
2165346,0,-906.9380081456997
3107372,1,998.1519618461764
3304451,1,99.18905275691786
2667847,1,97.33224345423444
1475970,0,-323.3227717435652
826537,1,-189.41405896722674
1170793,1,102.04714667960063
3305971,1,97.3411256678491
1994098,1,19.972662850847414
2752014,0,-82.93880822113235
418766,0,-82.59196448088996
1328035,1,96.74980255602473
2804035,1,-3255.3502837461115
1706090,1,-186.93270648659623
3916255,1,919.5619589140354
3272748,0,-325.20735431508984
1353190,0,-432.24587292015696
1728321,0,-290.67064531298377
2712372,0,-723.2921726156203
2264399,1,-2597.491985024012
498180,0,7.08238587838965
2191814,0,-1330.7456217561933
816031,0,-338.9272448567566
989047,0,-971.4936830123262
3488595,1,-94.52545400692956
438687,1,-3232.4125247026386
636046,1,101.78923909220958
2801309,0,-848.2561254772526
3370710,0,-321.0995487527076
2598899,1,96.18521734745417
1155922,0,-562.0645146947453
757637,0,-1367.4850799235628
2107306,1,1012.8093582393262
3671818,1,1013.4644960749878
2031572,0,-703.0812901994751
1468426,0,-409.8267723948025
2256271,0,-708.772629468912
1118751,0,-1281.3560272150758
2861367,1,98.5483958885513
2025831,0,-698.5738056498351
1263042,0,-323.1717300391211
3370023,1,-2223.8182224642137
1992763,1,-93.48596077669141
1064164,1,42.44071197571933
3244750,0,-160.6941117424764
2741290,1,96.71190196211904
3873150,1,320.99540723376526
244901,0,-82.1300562455378
1437734,0,-82.4001224514159
245975,0,-1249.1166129661035
2628543,1,-89.16126527350787
3148745,1,-2444.4469813196674
2160611,0,-689.2088818737769
692580,0,-320.93091914046846
3469888,0,-782.0994243028234
2460316,0,403.7583443871698
475464,1,42.413504201681135
3657557,0,-1675.008976298111
1888312,1,41.59949282433847
1704673,0,256.5122185078592
1493058,1,97.00623370491203
2527618,1,39.62318034429278
853657,1,73.33494202621682
800608,0,-353.9251373035666
515043,0,-1601.2837938904174
1299582,1,107.84692484126754
1127823,0,-323.9618360319812
1968458,0,409.2441737071037
518242,1,-113.64077500846838
3780503,1,1196.3951871185989
1998070,1,-713.8980039483873
3665072,1,109.83281384765957
524009,0,-316.19893187398065
2196055,1,-2528.866606198027
1953752,1,-2654.2573774137945
1073936,1,109.04610445481326
510502,1,-711.4263482994317
670897,0,-230.15683125861085
1106249,0,-673.4312717442298
3410077,1,-2817.9706738562236
582907,1,108.55135927782608
2726927,0,-232.56834662046575
1042330,0,-1248.4168856910678
1218399,1,96.50085053342153
1233666,1,-740.7528710366668
1482222,1,74.56956096782889
1207814,1,958.6053555580837
3444708,1,97.07521981388749
3676613,0,-1250.061987820703
2056444,1,39.33270044519376
1984339,1,80.54455193778462
1475477,0,403.46044480956846
3158880,1,79.28845999839261
3371905,0,-321.0042582111142
2407022,1,39.01718523780293
1494367,0,-323.5415606587846
3846484,0,-697.8062526076865
363630,1,39.02406451115686
1578056,1,30.824815901188234
1532595,0,-323.45106022505695
3933249,1,-92.02553514401264
203030,1,42.07800597230439
2132949,1,-2395.3580018541497
1279242,1,89.46659434458705
3383420,0,-79.22692568140586
3750375,0,-1455.3938041358324
542406,0,-1223.747274964384
1372043,0,-673.7622515226543
1136909,0,-737.7096176830981
3261043,0,-316.887361879456
3739935,1,40.57988200610341
2821101,1,5.874344637126498
576677,1,111.82267344577016
2581314,0,-709.8935829343901
1083938,0,-3390.595942686296
224779,0,-79.9691129684325
3206036,0,-676.477614012278
883099,1,96.61817432770276
3358422,1,1193.211535556399
2549250,0,336.32380738865777
2709463,0,-324.4551650597509
3279900,0,-662.2637215190607
215299,1,671.7732330734648
442771,0,-1248.9841634025217
562444,0,-722.6414152910049
2125795,1,-94.07824253780173
3271864,0,-1052.842047929999
2674181,1,39.527399456285785
1519641,1,96.22244809692002
534408,1,42.42118822748721
1460303,0,-124.23117718332502
601262,0,-80.02624771359677
3115909,0,-469.52308845034605
730377,0,-323.8963876544664
3932181,0,-159.47815196613288
681434,0,-1398.1166078444635
886880,0,-1251.4836654347014
618981,0,-702.5820918035815
3770000,1,-2638.5645454846185
3894877,1,390.54255942378404
614913,1,109.14261598008018
3931218,1,149.76941455129682
3070748,0,-3792.7216170532706
2287317,0,-323.4685942991913
1781806,1,996.9184794369955
298484,0,-702.5688459939247
410967,1,111.6276474712371
933785,1,17.23906153308194
681954,0,-1600.965290893058
1239292,1,1014.2748310422741
500447,0,-145.70224341117395
255486,0,-1248.833804919028
3512728,1,38.520118361819414
1317727,0,-702.9807287946953
1594612,0,-702.6413431733348
547004,0,-432.3071257021185
2998670,1,109.18194427538485
1069710,1,755.8982722967745
2731319,0,-145.05341405886952
2123744,1,-2581.975419759073
807039,1,1130.9870497853792
394184,1,77.16301643591557
1710203,0,60.15840022354975
3794455,1,43.71680462265657
1258345,0,-737.6974323002452
3072501,0,-318.15943916389216
1688277,1,1151.2904453125016
2580596,1,-2406.801245706728
1997596,0,-323.4784789352221
3740460,1,103.14681941390828
859965,1,101.35227768504413
2919284,0,-322.07893177867373
3038725,0,-701.2588742630817
3542145,1,-2766.706869660504
2279261,1,696.9707154786469
2224807,1,136.47985030170022
595446,0,-703.2094409210828
816561,1,975.8617507103751
1622066,1,1188.0185011510544
1352399,0,-564.874049602607
3073453,0,-322.0329871400839
3178832,1,96.7592730941078
1664522,0,-277.93999185969847
934439,1,39.57022836284456
499762,1,190.94515459831524
2775088,1,11.845892877403895
3204007,0,-701.1468691905563
893908,1,997.8822195403125
2764392,0,-323.5822393516012
506906,1,239.51452735849162
1671251,0,-698.1439892690971
927013,0,-323.2777412144831
1024557,0,-323.7868789994933
1209832,1,-94.25346295560685
3930634,0,-81.6061016957003
1442944,0,-117.00842689573412
3751696,1,6.471750870858346
3378996,0,-323.9516916911072
1642671,1,4.541323511699088
3029327,1,-93.20486136662745
2455620,1,24.88245831590967
3751562,0,-82.01187075926958
516018,0,-78.58053811613868
3327854,1,41.95250719234686
1731265,1,1201.2117879153561
3923846,1,-2490.5536716244187
1611372,0,-82.70874344028668
2645460,0,-443.8123693010166
3329307,0,28.59556559111032
1531884,0,-703.6124454420584
3753834,1,391.75477036850435
1620293,1,676.4966818608656
965166,0,-323.77391922317423
711269,0,-401.47940309697685
3406683,0,-2672.498718200831
363149,0,-672.9249227414001
3051958,1,1146.3433136432695
2023536,1,932.9733861147834
2964474,1,110.40952191681542
3393368,1,-715.2769360976973
815940,1,86.51959749701206
641131,1,41.713253924266155
1806733,0,-1250.9240318399272
2621832,0,-700.4337534575
3162704,0,-2787.814461815975
1680170,0,-1217.7952358087862
3280017,1,-91.49136110057972
1245245,0,-2577.298447735851
1613545,0,-358.95294019655677
1198022,1,3671.056149582141
246017,0,-82.4901469608545
663472,0,-82.12530250447941
3725670,1,-3255.1451180380072
981260,0,-1266.8964516493834
914976,0,191.35521075136307
1377261,0,-702.5776791712119
3118929,0,-1282.0189134193777
1967816,0,-317.9465723069807
826999,0,-159.6895883871129
2428902,1,-538.4669111773964
3910998,0,-155.59243450121
1467940,1,-94.35710552643332
1836194,1,109.81273853914105
2133839,1,108.6480313132916
3443602,0,-145.712795762865
2545186,1,-686.341245383931
3106543,0,-356.0008208971536
1918638,0,403.81147891991077
3384960,0,953.9375246782421
930464,0,-82.27108453925591
3692348,0,-342.7706187047384
1831384,0,-81.06381331601925
716876,1,1136.5740340511695
3108610,1,-1870.6029559585743
2654763,1,108.97814389359097
1391849,0,-1602.1207648982577
951621,0,-27.602318291690295
1611609,0,5075054.967832643
584265,1,534.1087687901019
330005,0,-702.9737438209697
622861,1,42.416100741100294
3055571,1,-3281.7787285196614
922853,1,687.785573297792
1471597,1,108.53443144312558
329519,1,-715.2553709458913
898182,1,1214.2111893355611
2462346,0,-42.35661552447753
291993,1,107.75071343983635
1326753,1,62.6194904534743
2643972,1,39.04030936412798
689442,0,-673.4278252221895
2800771,0,-1251.3472690933652
420553,0,-1248.9394638488495
3519808,1,16.91160399858367
2825229,1,103.27734494237644
2464219,0,-160.88567521162014
3165138,0,-431.6104900930845
3109230,1,98.2522103646195
1901967,0,-1250.3570325448225
2435689,1,-90.99089731602825
2668494,0,-2122.3717967885595
1502680,1,-94.21503026142503
