sample_id,z,y
900102,0,0.512727370198278
524257,0,0.43297081192926
1456605,0,0.12270012667454619
496529,1,0.07207022346680395
346698,1,0.31990942346408235
1721005,0,0.4586520873268841
1139922,0,0.35158429541056807
3535655,0,0.43684541016466044
3708889,0,0.5473721400563935
1645948,0,0.2563565014368089
468733,0,0.43216744402524515
3877368,1,0.3219104146074478
2000347,0,-0.024430707743525144
2245421,0,0.47876569537299174
268955,0,0.4383954876456477
1125845,0,0.3264759142804973
263660,1,1.0256719089219928
1507310,0,0.846938453478315
3103571,0,0.29067936313748133
2639518,1,0.3000611335499508
3698481,0,0.9293972825632062
1377984,0,0.3603571996639886
3440436,0,0.28417138985911755
2191345,0,0.4642925375641833
2567418,0,0.9240183384096184
3943922,0,0.37942724857941673
1055896,1,0.5929859159974877
3752850,1,0.4073470285691131
2581666,0,0.17130209895524864
1002778,1,0.8627706462255142
616091,1,0.4565250495637159
2015630,0,0.5238323221361366
2586760,0,-1.3665468708804351
1826035,1,0.626380838911855
3073977,1,0.32952812013018506
2254073,0,0.5817666683676204
2426657,1,0.8196655005541962
2530758,1,0.7142005247421612
2914444,0,0.4997437605574932
2157504,1,0.37879478581687676
2206306,0,0.5871007527244556
759080,1,0.34124466177738505
2450764,1,0.11306493283956065
1789650,0,0.5279970724996205
214541,0,0.5832206738394901
3229199,1,0.7627131377011038
3226353,0,1.0705402265372261
3840686,1,0.6956858666319577
815128,1,0.9640896655865304
3369003,0,0.6058578379946874
3487182,0,0.6276334985760408
3089238,1,0.6181080197920825
3207815,0,0.43415006351540997
1448641,0,0.4858393585517783
1200330,0,0.675394434839613
2630424,0,0.266777324219556
3333480,0,0.48611199806002303
3045212,1,0.8925178542936301
1445292,0,0.17431943204004827
867841,0,0.6455107767015499
824592,0,0.22633602040187303
2622855,0,0.4244791922796215
850855,0,0.6623609030686897
3214661,1,0.7933341674967657
557490,0,0.5837976428818643
3294074,0,0.3322156190282308
3446378,0,0.6385643794139922
2870762,1,0.6232212034415979
1630137,0,0.48848041515465196
3399570,1,0.9026336381528345
1304226,1,0.7617486690644076
1744108,0,0.4868487317955555
2458036,1,0.246561259166409
1729779,1,0.6403546116948627
2580323,0,0.5729533177188789
1780564,1,1.1058978659303182
820156,0,0.3577144004756073
1531633,1,0.4526716935970905
2974238,0,0.26828057428297636
299155,0,0.5850076548161403
1759631,1,0.26138308519161685
575654,0,0.5323836902685807
2543116,0,0.7139102561343752
855722,1,0.3199887515143809
374791,1,0.6620662755010901
1107713,0,0.30666105941696
1420658,0,0.3081213852957504
3701038,1,0.31621499567795947
1462263,0,0.744863344906003
2626885,1,-1.4644803091678595
3951061,0,-0.8344401960292559
1368708,1,1.0808943459742464
416053,1,-0.3631078871003855
212335,1,-0.012448664225671341
1600636,1,-0.16231862122308932
335060,0,0.7511031601270092
3952760,0,0.2629374361900142
2659219,1,0.7336065294406233
2058183,1,0.46835727401860633
3019047,1,0.9929842589822886
1622577,0,0.32854867246450137
2021158,0,0.8163987708365267
3778699,1,0.14492831888505475
3547994,0,0.5869145878283692
3167080,0,-0.5303480210898818
2432608,1,0.5506916183170628
849689,1,0.8803299272138594
338272,0,0.29115111966770607
3900399,1,0.44657513470780197
370273,1,0.5319165993866879
2647313,1,0.5061249205483418
857257,0,0.5047358409102412
883043,0,0.3740927460524087
1408255,0,0.8508018361665957
495180,0,0.8440714085917956
829270,0,-0.4568494956638385
1077400,1,0.38619830426412316
2582912,1,0.6132355643241375
3103648,1,0.36701355825989224
1367247,0,0.5292257145805326
2224863,1,0.7398763069127883
3233523,1,0.5357930304865606
2627084,0,0.6059570162332788
505230,0,0.44384795204814087
3694703,1,0.9032647075343518
1898165,1,0.9606112787112857
3328216,1,0.5709567612906492
1691409,1,0.5165796012804738
892754,1,0.7674402410877306
2500530,0,0.604014405323268
203889,1,0.4132253771049702
2201273,1,0.9140096527586137
2987706,1,0.4616785802189711
3496992,1,0.2655648324180284
2915044,0,0.3682441533486783
554284,0,0.5819521932336853
1130609,0,-0.46506259170310504
1828681,1,0.41537249632926254
582826,1,0.7560797776820657
2392818,0,0.4012407411223609
1087419,1,0.27462798137177763
269956,0,0.7675879738731204
2586954,1,0.40061475413922387
2057834,0,0.6164952093909489
261614,1,0.8558164058697072
3087514,1,0.7648151683055439
212704,0,0.965612523968846
645367,1,0.5136244972600776
1773362,0,-0.18476199503319637
1741803,0,0.553811003889143
3798573,1,0.5789731785585692
3784706,1,0.16318791517991454
2623796,0,-0.006540404403422545
1063368,0,0.44084978045185585
328717,0,0.8094663352083122
2041948,0,0.18244777150495442
2617561,0,0.343333588165912
3135349,0,0.38171225128046754
1577457,0,0.37568819478010024
2996286,0,0.5457775180596061
516794,1,0.866271423839567
2812156,1,0.7140712896629977
1999739,1,0.18974237442097125
870313,1,0.5526457430284051
2418014,0,0.21153358044692996
3519045,0,-0.3908899218653756
3701229,1,0.9260422869872722
2245843,0,-0.5806400663849689
1829757,0,0.2808880188780351
1145169,0,0.002150574301398478
2817744,0,0.3468522279792612
1105967,1,0.5457831426748393
3273708,0,0.7637175963684174
2187476,0,0.41214766142075604
1593165,0,0.48185043102385905
3949949,1,0.2727267622390827
644746,1,0.5420981023890651
2941384,0,0.10817910573787476
3176304,0,-0.0967639415540053
1909474,0,0.35202622452126264
3679167,0,0.06262108461148119
1817435,0,0.25664496175052826
582962,0,0.9296705193720693
2856459,0,-0.2659627282042548
2173601,1,0.2688200862798593
3241630,0,0.3945266829767299
2717830,1,0.31620394385361494
1726131,0,0.5701357457816085
3339611,1,0.4038846349650532
2282492,0,0.16203591860185232
3341477,0,0.88179134841935
1150825,1,0.7292414318467215
1779693,0,-0.6028827294914149
1630783,1,0.4221736128593765
3327956,1,0.6975411033667861
1834454,1,0.37697307636234306
2144432,0,0.6954028180156956
1815269,1,0.8197022787930046
2025083,1,0.5529430742868308
2779954,0,-0.18494348192413917
3347884,0,-0.6369809557836242
3761801,0,0.6538153452501223
3463849,0,0.9303855311859245
896879,1,0.6388057735925432
1116173,1,0.5546646171724722
2690108,1,0.3401230888128562
2491874,0,0.779862352464741
418071,0,0.7389930724513998
1352436,1,0.4910642248359893
1688928,1,0.5474954094622415
856943,0,0.36331666049124084
3766704,1,0.5214356364850121
3662985,0,0.4294220097643152
1619946,1,0.637268732324427
3734042,1,1.072210388667095
1266635,0,0.34298280144080473
3684431,0,-0.30248395827668095
841907,1,0.5630216195402681
3291814,1,0.12694399489194125
3377528,0,0.6990674914848848
3701279,0,0.5878738251284659
873641,1,0.6208829580466295
552368,1,0.7818107169472285
932306,0,0.08667428585640505
3741444,0,0.25366450949137764
3033376,0,0.6590328701790178
1854510,1,0.05624008035296445
1972342,0,0.5199710108874458
2553103,0,0.3755750130187129
1709576,1,-0.02685671956543527
3187763,1,0.40720104798801293
387020,0,0.9637575866237407
3475830,1,0.6008624776437256
806022,1,0.26456315459832314
3199141,0,0.5364169219778315
3170728,0,0.12061774717698909
847485,0,0.04003000864468968
1906904,0,0.4640397939003459
2208947,0,0.30352131534591253
748160,0,0.20721549062875502
408649,0,0.5476977537601933
593428,1,0.5842883746850853
3661098,0,-0.23697872406490716
2414235,1,0.7892746940737405
2928560,0,-0.07825614621657073
3505400,1,0.512934966703579
708611,0,-0.09076571285478643
3031001,0,0.7406466468575892
3348792,1,0.3008062958715659
1833942,0,0.1752808590825224
285122,0,0.49601938778795884
382276,1,0.563644792857883
1065723,0,-0.7437708998648818
3515712,1,0.564496450338374
281258,1,0.8309403993949386
1994028,0,-0.11931940083817139
2896028,1,0.21748977329276115
3276132,0,0.42767917095221963
3540086,1,0.46643641906293776
2987763,0,0.7980760517860234
1228674,0,0.35505157339532056
3870708,1,0.6862232663354084
1544135,0,0.323183928314266
1043534,1,0.48489816929145757
1337463,0,0.42531544450581504
1260706,0,0.7270903371875233
3838089,0,0.5167663129445946
3300690,1,0.43497779127759184
1259424,0,0.5608036965732592
735683,0,0.22487109314040327
3767636,0,-0.40882144447946256
746755,1,0.2305533441071503
2035709,1,0.28355904056735987
988333,0,0.08503522070963326
1618786,1,0.186604656274673
383396,1,0.3695823756606812
1987664,1,0.6949399613951248
1672436,0,0.6025383092453543
2771432,0,-0.20786328852507052
1097671,1,0.22145676055154748
916966,1,0.24234953273833393
2725868,0,0.17830508399149922
3945996,1,0.30824910177055753
949723,0,0.8269308269783134
2933496,1,0.38277785161205424
489446,0,0.34728978005879213
1912329,0,0.6525298840025628
1045067,1,0.4589710478023504
1263181,1,0.9206596324927155
974029,0,0.271941449831184
336773,1,0.774416534003313
1117071,1,0.22542141626568502
3400590,1,0.4853923533897409
328533,1,1.0103890336687984
3075311,0,0.7444657459823123
540113,0,1.2141698037300814
1760388,1,0.2005079823621232
3686209,0,0.21970001527448904
2603189,1,0.6615106428931435
3174076,1,0.9848163748394763
413145,0,-0.3225901484787851
624985,0,0.2602447749581885
3363742,0,0.23571615949175936
3948886,0,0.582412672453427
3404606,1,0.5144327045568662
2154708,0,0.19431346210698888
3121603,1,0.8258120146239951
464632,1,-0.02283226501772316
2920168,0,0.026810155124461388
1423549,1,0.5046219988537147
3905698,1,0.7029046845920676
480487,0,0.6822137318511107
573120,1,0.9248748062902392
684657,1,0.6418324269984533
1093352,0,0.8188895771483851
3890638,1,0.5664423967931719
2642282,0,0.2957722555382318
3466449,1,1.0348012990751094
1574858,0,0.30485864950489816
3898326,1,0.03590974530488131
2967583,0,0.588556370685594
839704,0,0.2025285827405576
3656439,1,0.6419709837275324
2156123,0,0.46577300065630145
3422025,1,0.5852790049405756
880262,1,0.7779331632090147
1947870,1,0.8438542550310435
1903681,0,0.5962930127782451
1521367,0,0.4485356429514582
2643459,0,0.5535291172292156
1020807,0,0.46864900095641115
1700190,0,0.7834744283693368
1133567,1,0.39322279703165797
3218289,1,0.7920796289269136
3413745,1,1.0623843965386173
1236526,1,0.7078592726331808
2456999,0,0.8206280669593479
2028975,0,0.2855540723740202
1522143,1,0.9733992055221545
1252997,0,0.7836437371012928
2464501,1,0.564690206364049
551988,1,0.6173471287049527
2401648,0,0.1958603923455205
213821,0,0.2285471351420434
855006,1,0.37731578633757756
1416159,1,0.5978341729426655
2915996,0,0.7772510598546654
506437,0,0.8059981913687241
1885661,0,-0.04756635486746405
993643,1,0.5701976316870104
1907956,1,0.6354324606683912
2017967,1,0.6604421247495698
967516,1,0.5745430029398759
1469411,1,0.917795803243277
1071127,0,0.4283950927325631
2981180,1,0.9617281461859715
3691907,0,0.5942441543817343
356238,1,0.4062889256662949
3189166,1,0.9605125038780773
1807378,1,0.7894119149750097
1561896,1,-0.20519910017994156
1228472,0,0.2842510336508651
2003557,0,-0.07893283833455496
959135,0,0.15901548894849138
3099834,1,0.15119185219750658
1740389,0,0.41077624034377436
2468832,0,0.07402458598868314
477172,1,0.6250703868122705
661584,0,0.16524581658566412
2767288,1,-0.44897588748484946
2973033,1,0.6302003519118471
323315,1,0.6584012897507512
1534527,0,0.26459214202953946
586140,1,0.6048202058698081
375858,1,1.1558816994971464
424552,1,0.8111125200708615
1683045,1,0.6411343479124603
845825,0,0.25704986808727387
2214434,0,0.10110178769685513
1696234,1,0.8964903122517457
849233,0,0.41183095117353935
3159049,1,0.5345070725375594
2500760,1,0.49020586191917315
2274950,0,0.453400765010575
1612932,1,0.5382676956348078
3923671,0,0.2338605300291755
314826,0,0.7965525220087486
1519072,1,0.18359701711066417
2421063,0,0.4793948644542625
536140,0,-0.09801997164697673
209466,0,0.7121671825052803
1490863,0,0.46895215884307145
650346,1,0.9442084508496424
327448,1,0.7129932366246872
2206031,0,0.9925293608278482
2142602,1,-0.0965843842715805
1965408,1,0.5165802185751154
1157559,1,0.4621990897815274
2218280,0,0.40981475100902065
2974875,1,0.8973056394527772
2198203,0,0.1620114180537869
2627401,0,0.644742072849682
1970474,0,0.28641435609541543
3344500,0,0.33581815183544755
2108687,1,0.6130398812876956
1780841,1,0.2626691925515341
1449548,1,0.6048739927505792
1370361,1,0.9764471995515565
2007243,0,0.48036072182166273
1989267,1,0.17867483899449974
1021804,0,0.30780993588553096
2236604,0,0.05007154320599837
3473480,0,0.42614574824002177
3103864,1,0.23392210575292235
827472,1,0.5658060813911524
244723,1,0.8880410469932577
1666202,1,0.7077765373196159
3659373,0,0.17678436697095135
247016,0,0.30140659177068735
411584,1,0.4954302297796141
380577,0,1.003672639982827
1343424,0,0.865673227447997
266707,1,0.7072674453937735
3528637,0,0.9066447523810106
3366680,1,0.39229775986888926
3497841,0,0.7842140390028456
2993394,0,0.5391333296300739
754884,0,0.5462182373461189
1606188,1,0.37243529283272203
690288,0,0.7859064775734941
3760034,0,0.6688097983886996
390308,1,0.6268245351967638
1881662,0,0.39131921636813816
1849501,0,0.22359664818913827
902907,0,0.5289029433295509
1491021,0,-0.11136445597540505
1942878,1,0.8836998184263061
509774,0,0.3085154638990443
3437323,1,0.6530964795579184
2121134,1,0.30466013064712666
1864368,0,0.42746168106946375
1069849,0,0.4557967728122396
302502,0,0.19627137307494674
2281613,0,-0.11494463347216732
986355,1,0.4873297058268028
505424,1,0.8566870006173728
1621673,1,0.42260478937955553
426963,1,0.8013827231441389
2577246,1,0.42060289509400134
848410,0,0.5874663017904642
199558,0,0.5469707393119246
1134812,0,0.16530315055443676
1153226,0,0.08489005982535175
3213460,0,0.21142970859922283
587247,0,0.2959602008500323
1171880,0,0.15130135099204461
3741916,1,0.5815108354865673
3467997,0,0.4216023424699345
1544759,1,0.8353203171346464
3548126,0,0.7917922102872974
727568,0,0.39126339478164757
3159827,1,0.4420369721322355
268387,1,0.7481238614899274
449364,0,0.6515657616644659
2661083,0,0.6407702710146109
2252044,0,0.5611523655876643
1689862,0,0.06765981512489774
2905679,1,0.6973611980009627
667782,0,0.6786655847707996
3951114,0,-0.19478848080439917
3395240,1,0.9372748224014436
699717,0,-0.046212209467448306
3691701,1,0.9340213652315166
3889990,0,0.23556693111093946
1385749,1,0.47285790998562877
3228608,1,0.9780179461017258
1444795,0,0.3014626537224431
3149460,1,0.41692826128796684
1514543,1,0.7042634750269604
1624735,0,0.40288000959413284
2528711,0,0.505264449776448
1988653,0,0.4124669731798664
3276126,0,0.7489938280113964
3322653,1,0.30507917701908166
3141228,0,0.49921133094130105
2415689,1,-0.2383440979819791
3160136,0,0.588586198703358
3653551,1,0.6842780233102004
3133994,0,0.13877084248682825
2790807,1,0.4264673657299783
326859,0,0.9749357224619997
630348,0,0.15965573703400845
941672,1,0.6300619504206137
3156164,0,0.6725295730009677
3791756,1,0.5458901474536125
1504578,1,0.5212444088265327
713258,1,0.07552887323260499
1990807,0,0.5434304922278208
3728856,1,0.8208441171717561
1393672,1,0.7104854370670484
1901403,0,-0.03569852967274011
1907604,1,0.4600824220074593
3957825,1,-0.21576936756013376
639651,0,0.49966690956061643
2535359,1,0.6311557343461647
271469,1,1.010410233934033
1549324,0,0.6776190643083247
751586,0,0.26237562831543937
1433436,0,0.18190381182809479
1706051,1,0.6984987432775116
384355,0,0.18857941759132177
922853,0,0.5341168876122462
3047793,0,0.3476627490385464
3133085,1,1.0280389436584978
866406,1,0.5999992944666112
2698816,0,0.5510980753676225
3527290,1,0.49149848655586587
1390745,0,0.39714812915337666
1285629,0,0.014603291656569317
1777721,0,0.4119368580880364
3040836,0,0.3764273722317839
3943780,1,0.39159657877244486
3683501,0,0.49767295341389595
1239055,1,0.5243250630815769
1947310,0,0.4903978549841519
2457491,0,-0.7621899969237115
1880755,1,0.5367149789323156
2025582,0,0.3860937653081877
3429430,1,1.1505484717746746
3029533,0,0.541123492157704
1340590,1,0.6672485875055401
3211840,0,0.6507449588861963
890876,1,0.620532050590562
715863,1,0.5253277293876608
1730602,1,-0.07821276781295572
1280156,1,0.6472777366940972
260632,0,0.17583091331769615
3678026,1,0.3073519504986356
1244500,1,0.7168897929316183
2565470,1,0.27962841003154737
1946325,1,0.27742545541924835
1161179,1,-0.1056867894118324
1910076,0,0.3764633650825158
828428,0,0.2852396829226525
719787,1,0.22011763833069076
309444,1,0.8542402042031273
1051720,1,0.306122968508278
2796044,0,0.488207072722705
1518650,0,-0.1102744402109885
977931,1,0.7393678723952397
927108,0,0.3824474466396741
1623922,0,-0.12796165384934133
962793,1,0.5848647438527625
3902557,1,0.5656055375098235
1933753,1,0.5985931444372647
3345410,1,0.4628956844211133
3916038,1,0.27314632857790994
3660730,1,0.5374760095183788
3448808,0,0.31650662087289994
3188047,1,0.6498684831529429
1000395,0,0.4894683411258855
2754148,0,0.7454175682697671
2566763,0,0.3858877542479562
3271012,0,0.49321411683518757
379564,0,0.6822357705581281
710602,1,0.6124241342089116
485087,1,0.7291471047741804
3473602,0,0.522417862154487
994241,0,0.5914782512150072
1052101,1,0.7229190263615483
513286,0,0.9772728399300363
2492083,0,0.267058289219676
1463438,0,-0.16285407412135416
2116491,0,0.5890704245556739
2198655,0,0.3983407814140989
3685758,1,0.6458027102716075
3384887,1,0.293711979747443
2913118,0,-0.1938054421046739
1986995,1,0.5496410232474549
2730092,1,0.6327284928102143
3777577,0,-0.1737076868821163
1625341,1,-0.06074757245508996
2904432,1,0.5100075294753017
3381059,0,0.2520291031695983
2283712,1,0.4666061327574368
3410790,1,-0.08322651058296188
3765475,1,0.5610332338123647
1598448,1,0.6655332420783863
272633,1,0.5733532056931956
1145664,1,0.41143777103709006
2236240,1,0.46241721028150223
3000806,1,0.9166742967589064
638690,1,0.6248572795384988
1623605,0,-0.1702499660492035
1365668,0,0.4379841096031004
2576380,0,0.3621933089986094
1121129,1,0.8780781688387964
2179183,0,0.547773409706756
1082587,0,-0.3030365416995928
853753,0,0.5724804190257975
3138667,0,0.2835590305648386
2240484,0,0.402095267883964
2106640,1,0.490946636118435
2880876,1,0.6873434540691986
1839072,0,-0.05909101973720482
890903,1,0.4585596507576404
1522214,0,0.711711037429294
1382357,1,0.3705720895558909
3458858,0,0.5997041708161213
3737580,1,0.5089357824798029
1169788,0,0.005085072920827202
436030,1,0.5913448577659569
3076034,0,-0.09121857887365695
2219044,1,0.7438231689081654
2201940,1,0.31964753558559217
2529262,0,0.5477090244719556
1440660,1,0.34764972904932806
1219933,1,0.7740584020400813
857856,1,0.5883216399443615
3163578,1,0.6825050043335651
2176652,0,0.3156914053641182
1425671,0,0.4303228017401408
828103,0,0.34831516031494797
3116591,0,0.26540409598859116
324289,0,0.2532150567660819
3396883,0,0.660813353090284
2012812,1,0.08537184246858756
3138361,1,0.2564796486359513
3255746,1,0.518737724036231
924570,0,0.30021383648606725
3884000,1,0.6123783414371399
466664,0,-2.910271266394362
1007174,0,0.5832979377913722
2527829,1,0.2321220133505671
1758102,1,0.5598434840576585
2219709,1,0.06775379007168202
3548970,1,0.7895200887375564
825197,0,0.551607942780808
2609114,0,-1.5706302218588988
3034096,1,0.5900868878517924
2882605,0,0.27075294890825513
3467613,0,0.9763525867601717
2241483,0,0.6230369360514211
2621206,1,0.4056724693081355
3681817,1,0.758915176773644
1860485,1,0.585334625879622
1475298,0,0.14665814651626807
1280457,1,0.850749022142181
1846891,1,0.4751829188170521
2522743,0,0.5388901640211183
712568,0,0.5662056832726665
2474599,1,0.6638357301674167
3030549,1,0.8165557621179966
2027258,0,0.22698677541275797
3926543,0,-0.2024966256580341
1165463,0,0.7266355260937457
845260,0,0.38517106267793977
1311026,1,0.9491380122792796
864565,1,0.31717447786306857
1660146,1,0.7565876673981327
2145737,0,0.6062038306325336
3225583,0,0.4963020380927012
2167824,1,0.8490043831773769
828704,1,0.9382244565952075
1778661,0,0.633731093795393
3372350,0,0.6800725451339277
3522038,1,0.8608161188565809
1303051,0,0.5748033138628869
2604940,1,0.6035767401489975
3526197,0,0.608641348256988
1055548,1,0.40283282773152623
276244,1,0.2717928958296153
1058216,1,0.4886574286386358
2392163,1,0.29774628425374405
1739601,1,0.3464069991060119
225015,0,-1.2043270138758786
3755780,1,-0.3526535879533631
1205898,0,0.41752808026031474
1967406,1,0.07231224722409813
1861972,0,0.4519567115574875
2735340,1,-0.21959373704990676
1056039,0,0.7051980197260349
1631829,0,-0.16937109225057917
3121485,0,-0.1636423375439898
938118,1,0.7714687237962269
1913785,1,0.7111110063281689
3121540,1,-0.5730308525816402
2482222,1,0.6825313026934514
3704898,0,0.6265249264584699
1523832,1,0.4570242455642235
1132617,0,0.5681918545957062
2654992,0,0.4576791297705982
1881405,1,0.590015529005419
1647266,1,0.3917593196147814
2771199,0,0.4853187851421539
2742232,1,0.25779570479682695
1303783,1,0.3363574087811735
2195708,0,0.4881949303546058
2591315,1,0.6470671756294232
1162360,0,0.4919044022758019
1791360,0,0.7292734672281748
288844,1,1.0212135051954847
2410552,0,0.17926249244853443
3954648,0,-0.07987072800209605
3367483,0,0.6537053489519902
3918477,0,0.19059419507937067
2214895,0,0.5146730158429759
3320517,0,0.521074215500881
1124885,1,0.3853565299517211
483990,0,0.3750500109591439
3065737,0,0.23941320094113344
824723,1,0.4757826364072614
592458,0,0.872607231284257
1976457,0,0.6261789855299623
2945176,1,0.5754272065627745
1970311,0,0.772237188618777
1165240,0,0.4122273256709219
1320851,0,0.6813140578977598
714728,0,0.2211254462637159
1339827,1,0.3274192122276133
1317897,1,0.8298351812443364
3093059,1,0.7053427513265992
3340294,0,0.3536589986181079
3116973,1,0.20618593939884128
3075484,0,0.29106787130722334
572492,0,0.7498774807377555
741674,0,0.2547029291153141
390751,0,0.18603768321618896
3673875,0,0.44766432001044404
3856223,1,0.2922093923858036
1224775,0,0.21825078448888288
928103,0,0.9251579713684421
2225577,1,0.23920656883880861
3282743,0,0.40986387699026616
3957165,1,-1.5886835704922833
1223603,0,0.36711719461037007
971638,1,0.4271681371310978
2158398,1,0.14817640839128696
820526,1,0.186878108537834
3281625,1,0.5191862159999188
349065,1,0.7189805873790954
3869050,0,0.6420723774592564
463783,0,0.5147899381811866
2526171,1,0.730867631398618
3032404,1,-1.3939870646801207
1436847,0,0.390480375319119
3499601,1,0.3947822194265952
2543760,1,0.29986893238781537
2136511,1,0.6104288302316674
678342,0,0.2477061396662698
1385923,1,1.0009178079091992
1853984,0,0.2601965200753908
2163926,1,-0.1364851128858227
1248065,1,0.44420295393066966
1060979,1,0.6588695946866235
1411002,0,0.24730169689665432
284162,1,0.3988975311307418
2818646,1,0.5601506228228541
754934,1,0.6571415941570865
1748167,1,0.41397632212902824
1585067,1,0.5492214696111375
3228622,1,0.886664969515857
3034055,0,0.3661812779109781
1702144,0,0.6706425462117496
3445549,0,0.5937484075298877
1766679,0,0.41173730857449853
2415632,1,0.7441297278374581
3887986,1,0.35470595829377777
2595543,0,0.7318768721194358
2993762,0,0.2428343591472908
879473,1,0.8069231486148422
1471850,1,0.6614741994603031
1402247,1,0.7136448451656565
2903922,0,0.3665304988965331
1345753,0,0.4983081778756409
954559,1,0.6368765509584846
331791,0,0.4097882709563738
2806889,1,0.8988938589833018
2171793,1,0.5543966160074083
1523704,0,0.44828860598184334
3127694,1,0.6805463922397843
418810,1,1.0051386295830442
260366,1,0.4331992409527934
2511656,1,0.2063119640709014
3169905,0,0.23325524327807756
1573443,1,0.33212563573036824
2274194,0,0.5540050218560605
1629909,0,0.4487231196087292
815111,0,-0.13252033288351567
951008,0,0.08608122905047129
2063665,0,0.7541102394865997
343551,0,0.0992646913483114
494899,1,0.6661644916220267
411657,0,0.4646804152187075
3109446,0,0.13641807418919286
876469,1,0.44618550834644494
371144,0,0.09821850340645218
2796513,0,0.38368991956194987
2223068,1,0.742957613348228
1062962,0,0.08698102329988469
1133056,0,0.4498768039879673
410034,0,0.7237830122333407
2931724,1,0.7688649331724801
1856851,0,0.31833829977753
1706550,0,0.2214857425354063
1858396,0,0.5973089406403825
225026,0,0.8949258659158129
2802301,1,0.999994671606438
316661,1,0.7869153031884756
490348,1,0.887373130266538
1737732,0,0.17822951488946975
1705751,1,1.0284414110630316
1455217,0,0.13238639548741513
1351543,0,0.6425306038575354
1946538,0,0.56808377809234
444577,0,0.694571218669432
3202741,1,0.5370734592938068
507039,0,0.6177606347686526
988159,1,0.4921560511309175
1485134,0,0.41672037768868986
3474378,0,0.5741809291653737
3199570,1,0.2395648009240305
2735890,1,0.2147039567083024
1320711,0,0.09288381047518718
2664575,0,0.15635101552023642
2916187,0,0.20406544120484668
813475,1,0.7197536672356551
523342,1,1.0775830537202025
1706790,1,0.41135543810348496
3206534,1,-0.8331712546515035
3728538,1,0.586450730915311
3840908,1,0.7458484627102397
1702967,1,0.42218234637893653
1391818,1,0.5706124642103103
2920442,0,0.257842293412612
2283499,0,0.5634021759885807
1429959,0,0.37006216084479576
2633970,0,-0.017367351332601783
1784861,0,0.35690319486049626
2691798,0,0.2556402963717513
3123600,0,0.171236203224237
3267312,0,0.8973229393566761
898812,0,0.1914620704164776
2723873,0,0.20829725667597773
3290663,0,-0.552868751596075
1415966,1,0.6004141135144174
712118,1,0.6786534297761114
3140691,0,0.9438903802554007
1088636,1,0.07249611108417299
3936346,0,0.01055571987305326
3413569,0,0.04182788156009111
3453101,1,0.6872387639032279
3119409,1,0.8710565716735752
1352835,1,0.156962704629958
1208980,0,-0.11281191414896974
2480969,1,0.7481352329757748
442801,0,0.9147899203220538
3443309,1,0.5919074762745534
2598482,1,0.5580243384450247
411078,1,1.1173428860577939
3046201,1,0.6174088905785668
2498959,1,0.4144556513778933
921046,0,0.4668172732692314
1893764,1,0.553979565013533
639421,0,0.8091523622143834
1052059,1,0.010870972647146981
325918,1,-0.7898119924431058
3019315,1,0.6251698196015836
2016424,1,-0.048777647479252347
541821,1,0.7596940697415971
2279858,1,-0.5860438917559905
1996183,1,0.31952871067936245
2391657,1,0.09123098885149687
3949443,0,0.2847380139863117
2872401,1,0.5628504187104254
533430,0,0.04943986627534738
1429465,0,0.09649187962454722
504436,0,0.49482166339001454
349142,0,0.43985783850809707
1731721,1,-0.1800967339636818
1226193,0,0.12384711807446647
3383884,0,0.6944661978671611
1824168,1,0.30600799120258454
2634186,1,0.3034278809884993
875460,0,0.4366220476285937
300554,0,0.18556905157990197
448032,1,0.3567878478624845
878508,0,0.31069939391908913
327993,0,0.3413423821317119
1565184,0,0.20677878019203352
1870709,1,0.81938762443163
2494924,0,0.7302147850348949
505822,0,0.49332798669835265
3098357,1,0.5132232434314813
1385950,0,0.4270561406670138
325761,1,0.7314637903223733
2618297,1,0.42007062374237153
1758985,1,0.5152709389992459
909500,0,0.4683460793565621
1109153,0,-0.00689244338788985
941221,0,0.11600115292693508
2485518,1,0.4130388937257403
740936,1,0.44897189857590647
746974,1,0.6837353164338442
617842,1,1.0157787964412575
1493538,0,0.006950644142054062
899233,0,0.5467094625527814
2696398,0,0.04116011439372952
1889657,0,0.3436912917971222
1062632,1,0.14213058135833195
3189439,1,-1.9204153242399111
2583202,0,0.38668287848305166
3368178,1,0.9012083243818254
1388500,1,0.4886473004691574
3128676,0,0.644963486071859
973602,1,0.35320397895955336
1446857,1,0.43808992078648823
3356317,0,0.781094544330427
2573815,0,-0.17403023618729846
2413475,1,0.80808373257113
2034807,0,-0.43313563437846014
3088386,0,0.37101085286762325
2712975,0,0.2331180121350463
501058,0,0.04442229841002629
3364826,1,0.42540063688727053
804286,0,0.3442501371751062
1992263,0,0.5428466162897614
1315640,1,0.642096992305227
494725,1,0.8024587834910014
224160,0,0.563726015293935
2196452,1,0.7661962934579702
1856799,1,0.19542687856914726
3238067,1,0.747596699454979
3157994,1,0.7144548106189061
289677,0,0.8687144401463587
1746468,0,0.4679698418791912
1696574,1,0.6025354675480462
1705487,1,0.6173326372720702
478624,1,0.4242571334158985
1497207,1,-0.20336461800658273
2447433,0,-0.08882988210295517
357557,1,0.9375780908313813
2407989,0,0.2750015582815035
560887,0,0.3149697693147161
1103933,0,-0.014934802106814554
3038117,0,0.6817518371855723
3345589,1,0.7586144927179489
926001,0,0.09716003953197222
3840552,1,0.6262836851562735
2984479,0,-0.03872780014392527
1836617,0,0.15617336847874136
930629,1,0.48507023334307864
3791596,1,0.5159236083655396
3866849,0,0.34380193470467385
3218958,1,0.3134029668467896
3138955,0,0.2649962802877494
3109900,0,0.4397392427740043
640631,1,0.8798336079632606
345121,0,0.27651640429475055
2048896,1,0.4488203766465225
3269067,0,0.8427720857829868
553763,1,0.6026993494864703
308727,0,0.4078910478922475
1521692,0,0.505001418018754
1627854,1,0.5248697247828026
3057016,0,0.09921753735421623
3736682,1,-0.026357139562249055
1046151,1,0.8743934175503307
912425,0,0.34275473126734535
1776525,0,0.21196530323616014
2167004,0,0.4530736231706214
2978967,1,0.3433250370832802
2587830,0,-1.1941696259565509
288506,0,0.24564380593494028
3861676,1,0.5405935143264227
946671,1,0.9132122995051677
2424085,1,0.4957274413443641
1951201,1,0.42888648220755093
2665541,1,0.6663780524193718
379612,0,0.6765132877932999
3942968,0,0.34682430383257046
374123,1,0.8217868647874365
2537785,1,0.8399315897384717
1327218,0,0.3860837822614219
1391498,0,0.4954834342025541
3655910,1,0.3504705469346811
230947,1,0.04039694181839437
3310325,1,0.7440050921341883
1133439,0,0.5641472138972915
1624151,0,0.28471110904948277
2104499,0,-0.1785886683875788
3733009,1,-0.03125644790570972
3534369,1,0.8978691758493648
1446526,0,0.2769753192539077
3843823,0,0.17515132468779018
482284,0,0.1561825130290083
3295941,0,0.8470582478040336
1278571,1,0.6593885475474808
854512,1,0.40343533694960904
1135238,1,0.2113084687236094
1223815,1,0.4868517120474186
406258,0,0.5446479983488705
596145,1,0.49496490690882156
1440751,0,0.2501544214120334
2941041,0,0.7493780246492575
1425338,1,0.38975160149385846
1945573,0,0.42983940865360415
1612301,1,0.3988220329181883
1964750,1,1.0387236209474
3886655,0,0.4282992864466879
3365218,1,0.8910405347850354
3833476,0,0.5195989869929258
3248169,0,0.3609876972408894
476133,1,0.7400088464464784
3100093,0,0.40655991745491754
1773523,0,0.07663251497971996
1152848,1,0.5087855896788194
618568,1,0.7310283113585042
860879,0,0.25394512701337046
2610453,0,-0.4433685213864418
3503344,0,0.19160147314595488
1957984,1,0.6084810874792771
1627987,1,0.6843936670637256
3454262,0,-0.013101895263530366
2136815,1,0.4918182001432385
3329023,0,0.7402848069810286
1006345,0,0.364812171182343
707809,0,0.5685130157133781
1092376,0,0.18696375709135327
3008190,0,0.2538336370591756
3442113,1,0.33770291086780313
587838,1,0.7288959021448469
1554036,0,0.5158695671321296
1301253,0,0.28491750689468565
3109830,0,0.46354024335036126
2563633,1,0.13114760962322458
2030709,0,0.6910986106826966
1753861,1,0.6434855344492023
2108083,0,0.48002341163656514
3805434,1,0.184029504092657
832545,1,-0.10928913462916728
3246487,1,0.7511732486975926
3754333,0,0.37053802721124346
3747083,1,0.2852652562436733
2062096,0,0.6062384554075423
2860233,1,0.8161521427694036
3832552,0,0.7517857576760729
635102,0,0.7378134671071179
3005222,0,-0.08139874936507252
3504549,0,0.7559730019605614
3357522,0,0.29701131050728674
241874,1,0.3466601592305737
3748958,0,0.16737760848795208
1791060,1,0.6270273997529878
328266,0,-0.0057718920494906276
691708,0,0.9177072814223735
820865,0,0.6645884901221049
533168,0,0.7122268102216928
3486247,0,0.4169768877519888
2276543,1,-0.0852218357609828
625923,0,0.4566774396192573
968145,0,0.1490513405654482
2745505,0,0.4629788118688796
283234,0,0.36552045357570706
1873246,0,0.15520266993867926
2107359,1,0.4418654804240085
3124912,1,0.396429094589983
1703757,1,0.8262095376472653
2508547,1,0.2661349422682884
3442343,1,0.53600283570753
1320611,0,0.4603516941361035
2488256,0,0.039485787617258655
3778477,0,0.0029087874859175245
2238723,0,0.2582257951943162
2532446,1,0.6218235288095291
1407341,1,1.0035244495296183
2121165,0,0.3845218263948639
3500903,1,0.10778943281005837
887267,0,0.2582956308732122
1015943,0,0.4296602939496825
2028889,0,0.08243739356566859
2925690,0,0.34218235900161204
1996918,0,0.026000610948189833
2517028,0,0.5210957173045089
1722022,1,0.4643094482824664
3195683,1,0.5647676866087971
2559923,0,0.2973098263457662
1105069,0,0.359201389620631
3173546,1,0.684168408542414
2400400,1,0.6158925128678141
2036197,0,-0.12210569056329218
1383039,0,-0.1770229594978016
2174750,0,0.5180100361897434
871928,0,-1.6394386644281744
2784838,1,0.6984470166627261
3362160,0,0.8093756531146967
2268083,0,0.41901429020632075
695491,0,0.7306354012640323
637261,0,0.607283865493302
3851446,1,0.6731752044647623
924478,0,0.2678382818532592
3014672,1,0.2254187015523971
1251440,0,0.5389670413936933
666397,0,1.0128134983671733
3938161,1,0.6864397768753875
1712920,1,0.816422006604157
3670638,0,0.28922693051617265
275088,1,0.911427039519165
3672483,1,0.8600388323477678
2155990,1,0.48571480173860704
2003169,1,0.3714333719762881
2833795,1,0.7984554356243262
3108930,0,0.2244432372783187
2579476,0,0.5829702390112977
1240696,1,0.3449413127037694
850768,1,0.5464386478227664
371965,0,0.24851125488896197
3017788,1,0.4416940646308999
1435824,1,0.5333033624192103
275746,1,0.19515019328355737
741140,1,0.6858248657144128
1427962,0,0.8985342359832601
2213036,0,0.2993349245341175
309470,0,0.5805660908147712
682826,0,0.8084965970375049
3296810,0,0.4396604324446414
326811,0,0.4663082558142141
2789114,0,0.6080068098035891
3953673,0,0.27120496615757933
3416731,1,0.9129666773791507
836523,0,0.05259878858445893
844872,0,0.11653573863146217
3736101,0,0.03885191673395985
1046173,0,0.1117698580564424
1219498,0,0.5781736946729158
849652,1,0.4411493213188317
492212,0,0.2819889144173756
3082991,1,0.08708652711845113
3880683,1,0.6807416806723052
2398306,1,0.2724271702324942
2261020,0,0.7264966629196253
629999,1,0.9240951729718828
2447631,0,1.0916967643350821
405274,0,0.5797111298611382
1128239,0,0.1414651214106824
1993170,0,0.3332798027107607
361043,0,-0.9644858988923712
1139210,1,0.47359122943665877
3687640,1,0.6666640759837763
1861115,0,0.6734723506416036
1378357,0,-1.0307240403798705
3073590,0,-0.24063880941902122
3283882,0,0.647501332235747
3063970,0,-0.19198798445658194
239108,1,0.0881432809151389
3481592,1,0.5454876822421318
1397528,1,0.800905058740679
811587,0,0.75327131344971
3697247,1,0.6338439595950665
2716311,0,0.6439472975048297
683502,1,0.7857021325273175
205147,1,0.892083500836401
2819503,0,0.14233762170118372
1039786,0,0.2845726846919878
1461433,0,0.5698512105078819
1481645,1,0.8596161536682471
886635,1,0.29549818600966427
625053,0,0.673702710805339
2695012,0,-0.08634098647939578
2581886,0,-0.07806223409702563
1303664,1,0.4937398346804674
3471714,1,1.0119228902788424
232398,1,0.9097557642010355
1694877,1,0.4438152842149191
3656545,1,0.8379811713575027
1276075,0,0.5014052431934267
2922414,1,0.07941536047774042
3804035,0,0.3039495397894071
1841761,1,0.9007861060078892
1589765,0,0.39807784340819663
2131262,0,0.5684611510113792
3800373,0,0.08055291408557103
2476869,1,0.45179001112981004
2403683,0,0.25836905809414745
448034,0,0.677467420041952
1533295,0,0.38180961808008035
1732214,1,0.555372797131168
1393573,1,0.7586539926007443
1844856,0,0.1343212282225371
1701003,1,0.6289397028215867
841894,0,0.3141529112409862
1528208,0,-0.15479528392273773
1751391,1,0.555709684920906
1271883,0,0.13656853285763193
3133850,0,-1.4553661417633563
2526121,1,0.36157261419285086
290138,1,0.5932243512284232
3889065,1,0.670823355238866
1014887,0,0.7367884086019275
986396,0,-0.04625657816934017
873163,0,0.22143509584189075
482417,0,0.3590371392784279
1584918,0,0.47831812987596894
2167397,0,0.4176720380672584
1374864,0,0.22982792092308002
3042000,0,0.29576041069264813
1036771,1,0.6560501206399423
842257,1,0.48200412169227236
2114710,1,0.5529626324859697
3169015,0,0.012224583801963278
3763563,0,0.19110564426290938
1089248,1,0.0076951978823568586
290077,1,0.6008961693380904
3917109,0,0.4676350127695052
3285042,1,0.35550893579966536
1731478,0,1.1987821851049907
252860,0,0.6158392563555011
917840,0,-7.075931186508102
1822352,0,0.3750722478874976
587658,0,0.758014935055196
371196,1,0.6266688440365252
1289875,1,0.6810682231145605
2785664,0,0.8576453408846764
3340987,1,0.06283062196698502
1124384,0,0.5159602502580981
1815241,1,0.6672812544788176
3105772,0,0.1973363025059538
2830452,1,0.9564574905967382
366109,0,0.5757016648069107
1764425,1,0.19182151036347506
807245,0,0.24005026182286182
2913354,0,0.3987651715510312
1063669,1,0.1540436202100254
2482054,1,0.7530049694169384
3095200,0,0.6961273477012658
3304236,1,0.7237351078311552
1761893,1,0.2343995774282952
2013905,1,0.5973010124326009
2026661,0,0.5667764499548733
583269,1,0.5249417453444505
489930,1,0.8155261188028642
585648,1,0.9430599774415072
1642095,0,-0.081092523570171
1604556,0,-1.141198254305684
2685972,1,0.6264913041925452
2157058,1,0.6210626554385137
457796,0,0.835045491912845
3786477,1,0.06453394011669025
3189173,0,0.6334191287565789
3021071,1,0.47910494484503435
629149,0,0.11626214762059958
3103941,0,0.649975936157506
3141434,1,0.8384328065533014
1461109,1,0.7520452608366031
1517137,0,0.7470474265288588
3910567,0,0.5424427887534191
226029,0,-0.17693631981270075
1431668,0,0.5668825387186726
3672916,0,-0.8294513613897476
1417053,0,-0.11082152427886341
1223009,0,0.22340544458607192
2659644,1,0.8490113232200621
2854682,0,0.38959796020118775
386704,1,0.503411387351833
3467452,1,0.6234429551970115
1646940,0,0.4239868589241037
3179195,1,0.7752132418261377
3200177,0,0.6125357481690029
2942652,0,0.7994662161955551
3852733,1,0.4272694922384752
359078,1,0.575624999462414
2145468,1,0.4173252255906848
3136907,1,0.6417593551645256
460042,1,0.6791731106158089
1552358,0,0.3738497045080198
674837,0,0.34964678514482245
3903788,0,0.4790348736922383
2842678,0,0.4711613981650484
1769384,1,0.7987725068869184
337292,0,0.4908449366671309
1919492,0,0.44473832669254293
1119668,1,0.8581044611867813
3055571,0,0.6634134258934108
1704563,1,0.661121468536901
1334762,0,0.6223808183885189
2446123,0,0.3231441811517399
2509517,0,0.30386031130058017
3097778,0,0.3170959719982763
844683,1,0.3905165336348532
3206605,1,0.16521987816005512
1430663,1,0.5344969370819742
3505362,1,0.559011006717677
3719752,0,0.4201388824575712
3272880,1,1.0953764753194453
1559238,1,0.20695584511145204
1150190,0,0.40079515508634145
1709570,0,0.894995854493169
683386,0,0.5364108810980561
2913342,0,0.08550741133631541
3884521,0,0.8230252096256835
459794,0,0.3062366095154775
3066176,1,0.2682728890921029
3548435,0,0.855321105346216
2927844,0,0.3826041458286532
932935,1,0.3239574533245396
2710609,1,0.09375457455212391
2757385,1,0.4147967372156323
2974173,1,0.3650207872171983
3722374,1,0.4834396913957719
1277825,1,0.5461100484361392
341143,0,0.9215221975362843
1919452,0,0.327956216159254
587907,0,0.270451484907394
2206416,0,0.5723623708111532
902050,1,0.11721351232578955
2982099,1,0.6833533104490642
474965,0,0.3820398601349076
2591886,0,0.13479958733287642
1590640,1,0.4561334782380783
3793547,1,0.3314751154779483
330706,0,0.6332291494259819
523895,0,0.07400359054785066
922918,0,0.06780827331042233
3333697,0,0.7711935180487762
2241737,1,0.7896569277051921
2457408,1,0.5007223218922121
809504,1,0.35931117700129905
2001156,0,0.4528398024778993
2873943,1,0.5817699145423367
864137,0,0.579205403863652
2630082,1,0.5996801285198179
2560123,0,0.4635097025400467
593882,1,0.7242357671610176
2646749,0,0.35262318250310465
1630853,1,0.3483158032984353
3115128,0,0.6250441453444892
514646,0,0.07123892513724964
2127202,1,0.7143575253153795
1841918,0,0.6026170694737245
3091437,0,0.40116900344082
2425695,0,0.7172030893039165
1035264,0,-0.1683965055220606
3117202,1,0.7692501891907169
3158913,0,0.2440833775881306
3887798,0,0.6736781821717155
3444838,0,-0.14162181780749972
1770405,1,0.7290120569967696
3220017,0,0.6475805031380419
1518045,1,0.2501637848200168
1563479,0,0.19209543517678912
2275670,1,0.35990548842934955
2224961,1,0.7619894300114103
1989222,1,0.3983135458354886
1675297,0,0.5571721718167169
1782428,1,0.7486259033071145
1311860,0,0.3901876637734323
1818857,0,0.29268464778525455
620343,1,0.6602803492381164
2940856,1,0.46640382984798484
1343245,0,0.4550789806233999
1259765,0,0.6385884114749865
739488,0,0.7367035305080972
943414,0,0.47095675457215797
1007821,0,0.059732486027880394
3034027,0,0.382083252074537
2796059,1,0.5011410426834888
344038,1,0.8400417527772628
1637540,0,-0.022161661478011054
1820189,1,0.4697346944225375
3338172,1,0.3287849191486465
1021833,1,0.9583318885125225
2609740,0,0.47260920969133763
2986159,0,0.14455708203070444
3519489,0,0.4383149586766063
2144095,0,0.36020576080003197
2560631,0,0.3964995360627742
3308611,1,0.4677376164458706
2272253,1,0.87051298899929
888534,0,0.7396744205025777
305878,1,0.8931531832068051
3337683,1,0.21999274393396262
3024087,1,0.5531163659348978
3712123,1,0.6427893207483649
1337743,0,0.37100618971687016
990884,1,0.6314873095826875
3381080,1,0.7095323976760182
3668721,1,0.518809875059298
2464984,1,0.2760762208720523
2962363,0,0.5753949103400658
2424986,1,0.5006826146669084
1352877,1,0.8294904816040428
924967,0,0.6681441111185353
2397653,0,0.5877298414419801
2771036,1,0.2719142313696342
3753135,1,0.5522990181250933
1151814,0,0.6198847404731754
2175061,1,0.33816049784146135
3876553,1,0.08349569715034151
3171671,1,0.4123443386302208
3309799,0,0.35603029278471343
899753,0,0.8626846933601646
3448783,0,0.16508302704271308
818955,0,0.4322889916159471
1363967,1,0.7778187636547368
1424680,0,0.5007941017210349
3717133,1,0.5096778674778714
1156377,1,-0.5055050156356837
410058,0,0.5038320775741073
1620175,1,0.002934627307309076
3482355,0,0.06588300571767663
3201937,1,0.46448873080553543
2495947,1,0.587369365274063
2931911,1,0.8452828666677376
2812322,0,0.29000904767082875
2058623,1,-3.1211439329415014
2938972,1,0.4007395282421286
3889342,0,-0.3215649058312424
732013,0,0.5711970871212517
1822378,0,0.49563770202928426
3335819,0,0.640529610862834
2872775,0,-0.09789157763766684
1551551,0,0.04943011825204846
2544493,1,0.5384891322092511
1857997,0,0.313951737432554
3776746,1,0.5024399856612245
3513730,1,0.6853666717774146
3093401,1,0.24856620728921264
2592460,0,0.3444620957633618
3423498,0,0.4709575055702274
3526456,0,0.13720474390085344
3045570,0,0.5815582379635669
2237568,0,0.23797262230078603
306923,0,0.8248381615777793
2718381,1,0.7849682347627366
1493557,1,0.2470903547758943
2211670,0,0.453041883045315
2016103,0,0.6037755433809957
1358000,1,0.6317051684416471
893160,1,-0.4825267847339401
1148608,1,0.5006198361373458
668122,1,0.12944956366167584
2817587,1,0.8085587128085774
1972596,1,0.8951109692807632
535794,0,0.22290151060007554
3167731,0,0.0571735817623904
978568,1,0.8442535392837096
3736937,0,0.7030370595137065
590217,1,0.3550417519024406
1582604,0,0.15265721166922436
3394435,1,0.37489905510635213
3795062,0,0.3295218091077501
3190881,1,1.0187958960592882
2892095,0,0.06839379545313415
218908,0,0.8180260906884189
2755365,1,1.0320600911298394
2441237,0,0.243167301465956
3918277,1,0.31946783398065615
1633153,1,0.5673758267734724
1363847,0,0.572254358361294
2922966,0,0.2475729904930848
721906,1,-0.00488551101895926
2637550,0,0.26044617123327174
1236432,0,0.05148076249008206
2238764,0,0.24014724844709867
620746,1,0.6562004898534974
846585,0,0.20171664605066947
1933952,1,0.43684319076073475
632429,1,1.0544564531642104
2510175,0,0.6007716561134471
3917638,1,0.5359028684482294
234806,1,0.24002047037365448
2434054,1,-0.8799626382993513
1316769,1,-0.24239352977125975
3410096,0,0.3440732999290227
2202320,1,0.27909941198548494
1838315,1,0.4727293187095996
2926558,0,0.5362642108663356
2462804,0,0.6332188378996474
3116431,1,0.3958926889556665
3313921,1,0.31638590153366464
1240809,0,0.7053580787345501
1088003,0,1.0854362776290833
2246814,1,0.5212671646191059
1947785,0,0.31142252407228305
1198855,1,0.3034132914464577
3495390,0,0.03687456183515056
1025920,1,0.3999534822016793
1492349,1,0.5361725902470672
2238429,0,0.7929671632814111
1418747,1,0.7334924842098438
3022863,0,0.24428484814657492
2106952,0,0.4849207464888632
3686118,1,0.9132740100108205
3275080,1,0.582936479301672
3352204,0,0.579834108886753
3734456,1,0.6331286518819739
3280763,1,-1.2103459829398118
3244884,1,0.45915690796439906
759938,1,0.7491212979802031
948468,0,-0.7233970155056954
2742776,1,0.48185392486760914
1259342,1,0.6139872627686577
487883,1,0.524965767771835
462144,0,0.9481203953985025
2723676,0,0.4798502912121088
1766751,0,-0.23147759483759986
2235435,0,0.5020670770776813
507463,1,0.6024939619823281
3398024,1,0.7846386322217607
3010228,0,0.3533254581511126
1394254,0,-1.2299412013188324
2245703,0,-0.37158489244096754
1573958,1,0.6360554555934057
2961880,0,0.2967974231899476
1003359,0,0.5113143628328524
3371457,1,0.6574707108876859
1009340,0,0.5142283541557773
3011574,0,-0.7319615279858671
3727286,0,0.40481255227511137
506815,1,0.9235231349669283
1525060,1,-3.64776035696553
3466384,1,0.5984656682791503
994002,0,0.4251264303303286
3352476,1,1.0383350187697826
2039779,1,0.49754802567439
2273061,0,0.7753582803996624
1142207,0,0.49181453833759853
2516470,1,0.562364082088918
305758,1,0.37767793045918285
3478224,0,0.11783272121666336
2722980,1,-0.2641145952082681
3190448,0,0.06748551677420324
2215805,0,0.10971522814474252
3800460,1,0.13099729835899301
3408642,1,0.13780305820016608
3067343,1,0.45997548935850996
2660586,0,0.3715658260806318
1696916,1,0.7342969874604396
2636841,1,0.8391091420304254
3277089,1,0.2652118372777813
2278743,0,0.15868162742650993
709669,0,0.4967708470529337
912551,0,-0.0315831513121599
1745523,1,0.5170592796367717
2122725,0,0.22058594058114886
1635148,0,0.7155785968964448
514096,0,0.18819953710152482
2582821,0,0.784658981429685
1098596,0,0.20780996917191796
1666719,0,0.4214020360163807
3137899,1,0.4373394438697462
2883074,0,0.5431444980451986
402211,0,0.4071129485801155
2713591,0,0.3041955692380699
1508523,0,-0.7169522314370413
2578263,0,0.20033845108704457
2687360,0,0.3769764931995754
2113455,0,0.5867741588655265
1349756,1,0.8421022471453072
2034647,0,0.6813242199709746
2739911,0,-0.23829725066869065
1581147,1,0.8621626450133554
2574081,0,0.18175482107826016
3267050,0,0.3819382465028127
3723874,1,0.11371534760452712
3039386,1,0.39221617151528665
1508167,1,0.39456016193435206
3915893,1,0.3389430109162287
1051734,1,0.4087883748663881
694663,1,0.7636729182212313
2117241,1,0.6588452555243167
2565103,1,0.5608891206572226
3501889,1,0.7525888043280058
912851,0,0.2304423326051195
1878754,0,0.230328586541314
1830147,0,0.34608459629717503
1230238,0,0.6015007641019954
3099301,0,0.16805229113528058
2777827,0,0.3751001714834084
914996,0,0.6736945992912735
2730491,1,0.4960410226947356
1672965,1,0.6065192824956834
2580420,0,-0.41961414665541336
917743,0,0.25347437411102525
3666379,1,0.9678548577096723
920477,1,0.9386931962270361
369222,1,1.0341212741191295
3831817,0,-0.6705216111858161
1013188,0,0.6696721350662714
2781989,1,0.4094075349571738
2019400,1,0.7814076693059507
3257926,0,0.31425561748122216
3493670,1,0.942868435324465
1611098,1,0.44195252878847857
2888311,1,0.44165772680758286
2219526,0,0.2380876954507161
1693216,1,0.7459205315682784
2927484,0,0.6102614553836477
2653453,1,0.19895573745895753
642872,1,0.7852326636363188
1709933,1,0.7363914698423479
2760177,1,0.44484023763177605
3328095,0,-0.17658783122800437
3264842,1,0.5827082767451797
1561784,1,0.4908889682976057
1315822,1,0.6789575762793449
3729159,0,0.2465786388338192
2672613,1,0.5673964823732983
1702177,1,0.7184354717910623
1229401,1,0.6507433816028365
802522,0,0.3310713958361811
526026,1,0.975592695795352
857938,1,0.54764950484178
1343235,1,0.21886550547689226
1423870,0,0.5750038295211056
2557779,1,0.7858380256467203
1511490,0,-0.6412107617050666
1501401,0,0.7140895248200069
3056357,0,0.5604177018154184
2933751,1,0.37406941883877187
2169718,1,0.8695975418390245
2638514,1,0.4966394254821553
2050466,1,-0.1370497483267053
651673,1,0.9634467426104422
1168830,1,0.6562422717051388
2155512,1,0.2039093919286249
1564295,0,0.4055524342717335
271126,1,-0.2523845965091952
1200439,0,0.018188291272373508
3465293,1,0.5979435930112409
3808517,1,0.6204074334494012
2948884,0,0.07510208930859735
2005148,0,-0.04398903659421702
3790449,0,0.7275059161806801
2498590,0,0.49539897199580885
974670,0,0.4378360578254562
1199546,0,0.015951943386803467
364781,0,0.8201381782749589
3332477,0,0.2262520597704163
3360500,0,-0.08798426649795069
3406295,1,0.5325510390734366
881402,0,0.35459208776260115
1603420,0,0.018209568320537717
1538732,0,-1.4829446884741773
2580796,1,0.18865058008728808
2896683,1,0.6233988713866894
3272232,1,0.5523155432991458
2675320,1,0.2836240341799872
1239963,1,0.5655007260673699
940186,1,0.6715495715556583
2572299,1,0.5104161756638539
1695138,0,0.37417236261068865
1671708,0,0.4015054414689855
2129140,0,-0.011360156334310895
2546717,1,0.9291260991968083
2220230,0,0.4828688732150542
2625099,0,0.5260710669162542
2914206,1,0.5737799309042472
1730795,1,0.45006828122562315
2527245,0,0.5460172491806804
738163,0,-0.41605497722281837
672917,1,-0.19452856649844413
3148877,0,0.363616660906558
3079274,0,0.43402291190444625
1585357,0,0.5575108461319034
333620,0,0.7806588773942974
2524602,1,0.5022808154960903
3945175,0,0.306745030883264
466364,0,0.8146618285061976
249204,0,0.6741713582948493
1971635,0,0.6919077062755282
2441927,1,0.9786725843056477
255358,0,0.9367092933150967
3091392,0,0.3469413106523519
1433856,0,0.6241223269027956
981789,1,0.9330945155755215
3934861,1,0.5331154010033784
3701133,1,0.9267838162245398
3500470,0,0.07264855779948728
1816448,1,1.2406746400924564
3001645,0,-0.6314666610147522
948488,0,0.3595151595736483
1632287,0,0.5394665250075265
3941441,0,0.26401031762143445
1400622,0,0.026909089664196223
3766964,0,0.188507611378931
3500179,0,0.5682242027589651
1598521,1,-0.05824347808785683
3758986,0,0.5960237328767911
1521208,0,0.41009965515206126
3152909,1,0.5520411300986925
213049,0,1.0054531210784983
2744942,0,0.5573634281330655
2553866,0,0.3412072579797299
1241286,1,0.37403295219206395
3374849,0,0.18339511322624913
3705991,0,-1.184079841627672
1344797,1,0.5144021422282467
3475955,0,-0.06529601253394418
3918023,0,0.017541784843647212
1462484,1,0.10045996927341674
2252048,0,0.27318374000560064
210357,1,0.8072172297828738
2979878,1,0.28868795267939573
3747242,0,0.17539073759491336
733940,0,-0.023482883683720063
1010508,1,0.029560595248216755
1810404,1,0.49637312611327167
1471936,1,0.5588376534869833
2499791,1,0.37208719170215115
307111,0,0.6894305214671711
1218793,1,0.6885586863442543
1606264,1,-0.0005345485558199484
877765,0,0.5092358512074309
2474107,0,0.40422919476977265
3774342,1,0.1659929825293076
614787,0,0.7250166375631895
2397635,0,0.4217195338506515
280533,1,0.41281238895021355
3702716,1,0.6079439186084247
2780175,1,0.8208773765218302
2210943,0,0.4170195843615234
2611538,0,0.237230835705625
2927752,1,0.5551731270521498
2235621,0,-0.44491486003286573
2516492,1,0.9658618158455646
1586401,0,0.6010288067008036
3167483,1,0.9864005610393574
3053423,0,-1.842040433202066
1624295,0,0.4551213904975046
359547,1,0.9022535406615765
2199957,0,0.03980022438219463
2698683,0,0.2919066928834156
998947,1,0.6626907830718158
1542710,0,0.34426431242901945
3204007,0,0.88880407262385
2913779,1,0.527026704637269
2625274,0,-0.5999327175814118
3342767,1,0.749422707898841
3301900,1,0.8508518052831088
3120449,0,-0.4029365177660119
1530823,0,0.2960684482362719
2485480,1,0.8749910172140751
2028639,1,0.840513267709319
1372527,0,0.6023677307186067
1245530,0,0.547690898786741
3026021,1,0.30266386270353446
1397889,1,-0.04896440338786066
1751129,1,0.4387780582780738
2737223,1,0.7132337917045258
1097644,1,0.683827101318213
434308,1,0.9416884062380385
433040,1,0.761153584949819
3491354,1,0.60042418551209
1823178,1,0.511902811223153
858911,1,0.4467695288636745
3095077,1,0.7695060009446046
3286811,0,0.12999427477085748
756147,1,0.5773577383952785
1833496,1,0.5614332167684335
3061167,0,0.4840512576316455
2439004,0,-0.10758168995516922
1877645,1,0.6770240293720116
2155752,1,1.1290634134300173
622218,1,0.8328111791864629
3836550,1,0.6545948896534234
1034330,1,0.771730042121601
2138287,1,0.5328005366159986
3893356,0,0.6993388976367152
1522589,0,0.550988103262727
2821720,1,0.49569944118872666
906933,1,0.46212275935367747
749731,1,0.32693910927108044
623515,1,0.5983143812240042
261147,0,0.6554892045308294
3763574,1,0.4796960841953111
2488086,1,0.44846886706386657
1539745,0,0.021719929541518856
2443962,0,0.9611459029876528
1394922,0,0.3932477223133817
1262493,1,0.6202000747799978
602322,1,1.0465798415789636
1076369,0,0.4146274479761747
3038262,1,0.2907415274524579
1316782,1,1.0102570648651812
551400,1,0.5370958450920456
1452051,1,0.5573191817438022
2678466,0,-0.5615945424027387
3722430,1,0.9015599031683755
857918,1,0.9759784099725692
292213,1,0.38724576967900043
1741385,0,0.2933889644600535
269075,0,0.014031166246773828
2002319,0,0.45838164996330477
1311897,1,0.5864571321859267
3270837,0,0.7113816092345328
1062369,1,0.5226907338032137
2661388,1,0.7568525597475172
585698,1,0.5751469813573059
344574,1,0.5834746730699083
3136593,0,0.16110200860703297
3203628,1,0.8733249363151857
955763,0,0.798625161521633
220538,0,0.4016788040942461
3516475,0,0.5802523724516658
2661091,0,0.34691713755362064
2510203,1,0.21842212666089997
2666342,0,0.49702095772055366
1589824,0,-0.29325096884109647
3541896,0,0.4544640076058298
1277742,0,0.031726709442408796
1997269,0,0.2305597463751282
3172890,1,0.2587600080065029
3683393,0,0.2599762417991237
375927,1,0.7502398285302894
560576,1,0.49545814213281525
1068181,1,0.48627465997801667
2879807,0,-0.6175620726978395
2916560,1,0.8010907777968108
332348,0,0.13125121801497425
3700044,0,0.2382786422893935
2203421,0,0.6277745298837375
383076,0,0.74251330790415
3936821,1,0.23381435958213198
1819970,0,-0.5837497892772435
2404428,0,0.044478365601946734
387420,1,0.24729417569349874
3740874,1,0.613937679843967
2494509,1,0.3230708181014647
259759,0,0.43805351852633767
2213924,1,0.5637585471035096
267813,1,0.7135420364735722
326065,0,0.9166262459572654
3697770,0,0.5882833816338341
998360,1,0.7849276802370013
2802175,1,0.6062702624178467
3919411,1,0.6173272667045334
752278,1,0.8816279338139363
3308638,1,0.6922784601935668
510938,1,0.6622747221361165
3494524,1,0.9014992054933402
3350721,1,0.9907481651247154
1663425,0,0.7285494861087509
3245747,0,0.2745870186743224
2888555,0,0.6228710614644526
432500,0,0.4748782622831952
2034834,0,0.4627033271883043
918821,0,0.7859822218548358
1032115,0,0.15678474815553017
2869249,1,0.6071017156770553
2837383,0,0.09858194928791633
1474015,1,0.5809685895837996
2632554,0,0.7529068898917337
3960046,1,0.9733578750701012
375690,1,0.645427340130839
2574218,0,0.2920944846691021
3721352,1,0.5420435847370957
1380510,1,0.5529538107960376
3129751,1,0.588749292760248
747823,0,0.3110254335952708
1494367,0,0.5732337073165494
379786,0,0.35905132687559277
3889476,1,0.4600051488942042
1453602,0,0.6237659829584334
1312388,0,0.24874512074859112
2281023,1,0.23187130457384564
1964385,1,0.7125104146926337
3291369,1,1.0079759259703747
3211160,1,0.8375787139170041
3480984,1,0.7631633474471938
1241819,0,0.4984491075047086
2527576,1,0.5313914853364938
825601,1,0.6189398228936994
422447,0,0.19930331177505034
495236,0,0.6650320398408404
2982165,1,0.8899683780032641
1034035,0,-0.08351897154506743
3205997,1,0.6479277171020785
3448236,1,0.7656432457340984
3400434,0,0.2516826709596942
3443091,0,0.6560705519484726
2460316,0,0.23671219388597076
3368041,1,0.46499051630961624
3134259,0,0.708391902075514
1972496,1,0.6275728007595641
1148885,0,0.7819237686948729
2662594,1,0.7667935788296297
1614554,0,0.46559901033367657
2658610,0,0.5743679772872623
2605447,0,0.7628976668280825
1064775,0,0.26296248269647476
2401935,0,-0.24852739674603647
3700775,1,0.4994652807542337
2029471,1,0.5189720112740476
2514036,1,0.36030195304957213
3733269,1,0.9288875867158357
1285135,1,0.9116467153026954
1771568,0,0.1853614579460224
837262,1,0.6152734015650945
3184379,0,0.8527049449411547
2514861,0,1.0610715877090526
2048754,1,0.4118614767118097
1528493,1,0.9684827001901084
3392047,0,0.4683154722588515
1228501,1,0.6333598826382117
802916,1,0.40179907516542035
1793258,0,0.29619687625555924
3889835,0,0.7522355925322635
3327316,1,0.5077129955132954
3707146,1,0.618082776953792
760444,1,0.5505672682041214
3275545,0,0.39828746823829897
1985765,1,0.6146232253010724
541959,0,0.6170391928767056
2966090,1,0.3821774748942928
3244513,0,0.40970553584394687
3292974,0,0.31639659697772954
1894497,1,0.4815443773782687
197543,1,0.6680900055414435
2638320,1,0.4164689369971746
658605,1,0.7087762015810571
1059955,1,0.9359432711891915
1716160,1,0.6477384814294782
742663,0,0.43417332441102363
956675,0,1.006334152925872
3135107,1,0.3070179000377871
2038261,1,-0.3720173440056175
1691198,1,0.5192700538926892
1034200,1,0.7575900484410165
2493632,1,0.6503900211668969
2206874,0,0.28296264165162643
2491781,1,0.46804886395920875
3711963,1,0.7198084864137383
2269689,1,0.7352635164129817
1513787,1,0.6744125382574498
2665717,1,0.4829388258421128
3418390,0,0.11230034374785597
1084933,0,0.023979415927849475
2285431,1,0.4614748295615273
3753257,0,0.733671664254344
3907184,0,0.9137771794493554
1979243,1,0.6855619984295565
1215482,1,0.8403595316725938
3044494,0,-0.3483229772066116
365741,1,0.27752034561828753
2911276,0,0.3812759476337523
3305705,1,0.747203031312611
814138,1,0.6591904189766333
2582548,0,-0.8636095223311026
2126810,0,0.6112334877788277
1029637,0,0.47838935065426874
1355112,0,0.7362880950356706
3337209,1,1.068700774342091
2640614,1,0.486171100344019
2277073,0,0.5744369432185111
2676512,1,0.5918161266099895
1303709,0,0.3055761986470501
3387234,1,0.7733581885178011
2909354,1,0.5046736948762909
684543,0,0.7288140589577013
3846558,0,0.30436921582727783
194812,1,0.2589068953902072
683663,0,0.48686173626379947
2512123,0,0.22695536493764504
3450122,0,0.659223580119205
1219688,1,0.613397237578054
3803026,1,0.2735607674962596
3273261,0,0.60080807192163
3467924,0,0.661716607945591
455729,1,0.04631856737140386
1620810,1,0.10917011294845114
2436306,0,0.4019702540593952
1598739,1,0.6281537311037798
3926799,0,0.4962950264188106
1137832,1,0.674820863437998
1415086,0,0.255078238455258
2282239,0,0.5362619672213954
951389,0,0.5685906434850196
3382948,0,0.9248227597700425
2871200,1,0.4081856465023618
2711616,0,0.5425911030098621
3009882,0,0.0733555421795949
952333,0,0.808048175922071
709206,1,0.5576989299089584
537765,0,0.5879619497129818
2965854,1,0.6667255098466366
3936813,0,0.4358673285677053
3345481,0,0.791702447595836
2800709,1,1.0233501500540567
548036,1,0.7395562505058331
2893632,1,0.04256376657448621
2234791,1,0.8801029511420903
280032,1,0.8875456395778034
446727,0,0.5849724418520806
1975396,1,0.5827807780629706
2476300,0,0.17573097436982313
1726812,1,0.22161717483560334
2780546,0,0.777186953164867
2624936,1,0.3686352452937179
3052324,1,0.5627303464008934
1350152,0,0.7983669537780703
1937056,0,0.7853657826055668
1621892,0,0.15715104343524486
833331,1,0.42926085511304374
3298969,1,0.3843273298778164
1293306,0,0.5480275964045158
256007,0,0.6947836572738824
751938,0,0.2298822036732103
858751,0,0.46968740989441415
2524878,0,0.0633705377284938
2576444,1,0.6222579597605402
500091,0,0.7274652439037702
2141636,1,0.34272419054601705
340086,0,0.20235510412109683
1146733,1,0.2566351989351925
3148644,1,0.33783458190277993
2520046,1,0.49304283196442367
2144604,1,0.567639896166972
3740963,0,-0.07895429938441481
874907,0,0.15011507774813587
3682905,1,0.8312498171134203
1279611,0,0.6512407427648332
999875,0,0.2733880749116448
3315089,1,0.6037937101545189
2629743,1,0.23724554885844673
3017370,0,0.22132504012511836
3193797,1,0.2330654188659414
2465224,1,0.7589240520018329
3515421,1,0.6177050609977992
1029535,1,0.41759048631968426
834811,0,-2.102404308466967
3225537,1,1.0453512078229248
3939432,0,0.07773757662337556
2120104,1,0.7545348372358296
379417,1,0.6204499684155605
3242701,0,0.5910540226695139
758323,1,0.07497025940177321
2728309,1,0.4475318512175294
553874,1,0.33320429531100504
3006572,0,0.752908565222352
1306864,0,-0.11375457182740834
2806885,1,0.7538173980362767
693036,0,0.6796147162988764
3388359,0,0.3598033563140068
2145466,0,0.291170280493887
1030576,1,0.9132442998295203
942488,1,0.543307675601052
3094924,0,0.8358742859085895
2865841,1,0.5881364149572688
2139056,1,0.7180189317895093
2883557,0,0.6104199653544987
2493026,1,0.751968893204813
2494385,1,0.5221581356302537
287747,0,0.5573528170599049
2225968,1,0.35789606180792993
2106328,0,-0.14275183883664067
2452025,1,0.7965693610430569
463432,1,0.6577690920732283
957955,1,0.7737021534067741
943298,1,0.044448567855933985
3671064,0,0.43858208485526934
1014154,1,0.1645160179423881
845165,1,0.024525852078946184
627613,1,-0.1635403692672579
1810172,0,0.7587321770575421
899534,0,0.5385737849856611
1513052,1,0.5224489139648327
2031083,1,1.0249925708832581
3503378,0,0.45623471959923395
2696642,0,0.14125117604744336
1666714,1,0.8367310167961705
1979531,1,0.7904701547798578
470704,0,0.15487205214156696
2225886,0,0.44420147345912864
438986,1,0.9551649357475562
2449906,1,0.34005532987963544
1431285,1,0.7312861940890357
3489862,1,0.7000886898514898
3677167,0,0.7391361163359627
3846408,1,0.20785159069918024
1594475,0,0.6096571653352021
2615361,0,0.4348579559112773
2441843,0,0.6791483478751175
209957,0,0.4932176875848362
693607,0,0.2975045573647771
1456481,0,0.48275758538286817
2109938,1,0.573620838493581
3325085,1,0.9581248945093821
1692011,1,0.7647033203710721
1093339,1,0.601619220556146
435453,1,1.0537521189627066
417189,1,0.6525858350064931
2576733,0,-0.36236727657199086
3338313,1,0.8240078359562254
827101,0,0.487241861076225
3323808,1,-0.026295998862284908
650908,1,0.9154033035716886
3467570,0,0.791723145981302
3516253,1,0.7219422645385629
1022002,0,0.19624543053265778
3129415,1,0.40268016154979347
2918395,1,0.4627912493826798
2542197,1,0.6744661106046067
2248868,1,0.05275799213896046
1774564,0,0.33888338842752735
2520736,0,0.4021772343513386
895843,1,0.3582001697700935
1389784,0,0.3632691270648777
376216,0,0.7258632457971008
2904068,1,0.28898522059906456
961130,1,0.5815180331502029
3225769,1,0.28739081233799235
3278925,0,0.283087380120138
3330259,1,0.4222334990502279
1022372,1,-0.1953005645637368
2849692,1,0.6822683937889233
1621130,0,-0.26071643175273335
1235767,0,0.4232793050370454
2441466,0,0.801592973868293
3345714,0,0.5024530443303272
1959826,1,-0.08413127118745065
2237236,0,0.4946287872533643
340487,0,0.1819855168469035
3051172,0,0.04413389084687808
1751553,0,0.5423674043826064
636198,1,0.7276101895248215
2923291,1,0.7765945449836557
2205343,1,0.656482164524721
3514243,0,0.5555547138569605
3479281,0,0.1336312428235221
1345166,1,0.5866560514539831
678235,0,-0.2577268683724986
3421488,1,0.967585263381826
1943195,1,-2.0558241547703404
2539681,0,0.03655993608697933
1776326,1,0.4862612906148214
1994068,1,0.4233500777307425
1852908,0,0.5697616448793628
2805794,0,0.2896933962337641
268529,1,0.21555367442577492
2627303,0,0.29942227073598304
660752,0,0.22288737783016455
1845189,0,0.49478711335447423
1817145,0,0.26483420341510194
1321996,1,1.010796323306968
284131,0,0.3128514537750059
1163552,1,0.6529535368933983
654387,0,0.819351017124896
675927,1,0.9041007491993011
1738390,0,0.13676217896399054
460632,0,1.0144397128804838
1226729,1,0.19276479449146505
3264640,0,0.8721943506666284
1274639,0,0.33397497963422046
2872112,0,0.8634353978641099
1757604,1,0.43580336487995547
2656532,1,0.3521692892833734
1703856,0,0.5118313677942219
2966140,1,0.6402008462018837
2991257,1,0.14078718085278047
898200,0,0.7401828876053149
1291409,0,0.922856875247054
3698742,1,0.3071761313034454
2895483,1,1.1120020455608077
3301211,0,0.3680791361076534
3448511,1,0.27912466455637686
3255758,0,0.5790942976160229
2545201,1,0.6170153890386654
3261637,0,0.09022254762415174
3019319,1,0.3316279564863848
3078578,1,0.5193867010311215
597820,1,0.7719691853618845
3283655,1,0.3191068449148313
2795064,1,0.7338900832267204
1827146,0,0.3536985505231693
3350578,0,0.3044923496053609
257544,0,0.37055702608344376
2748671,0,0.1252040125513361
2397735,1,-0.09685061594632713
354212,1,0.9724797278790978
3778843,0,0.32173155655696695
2829606,0,0.3540667154568401
2006050,0,0.4355597519368494
433948,1,0.8555829274578736
3112150,0,0.22532565983795436
1810911,1,0.2462614322589306
2643438,1,0.61170253189474
3771197,1,1.0840432480959454
633830,0,0.44297415297555043
3357445,1,0.8615543425925225
1765864,1,0.3036918740871101
3881513,1,0.7832858096297906
3940017,0,0.06129741490796101
2692021,1,0.530822127797613
3162006,1,0.7019410553309806
460839,1,0.8478724555096354
3212314,0,0.07555207064586279
3145333,0,0.959856873930721
2721379,1,0.35234259529048273
3545986,0,0.6970215560464653
1858139,1,0.6322724603483934
1321031,1,0.19788213568255453
1256897,0,0.4728304745735163
220697,0,0.15878765016181226
316940,0,0.5938101182578485
1547894,0,0.25824099420641466
1194086,1,0.6792041781234001
3277440,1,0.0941521181082727
2001960,0,0.061909127481986154
605396,0,0.7746956543355882
853741,1,0.43352202413067364
572901,1,1.022494606079611
486712,1,0.09726093332700464
1475667,0,0.5273514683022621
969181,1,0.647783902145265
1513290,1,0.3432094068575756
3894893,1,0.344251900974308
2024120,0,0.2757054727931938
895605,0,0.649875992840826
1687732,1,0.4075356659254423
1623378,0,0.6167891208907209
2032828,0,0.571343148894103
404192,1,0.8015143925981558
984902,1,0.06866720136467674
1473808,0,-0.45138713237507977
1147938,1,0.37604965518451305
2679638,1,0.5948395206567471
1765043,1,-0.06671996552053025
265661,1,0.5632536634964116
2862486,1,0.696135068200868
1746205,0,0.17320255887788072
1135446,1,0.4867608554959128
3208056,0,0.2670116642695182
667806,0,0.8449747463595608
3420235,1,0.7245274639395188
664479,1,-0.039361811196184454
975323,1,0.7663194856824357
3386678,0,0.35450278887522807
1383867,0,0.6436663554193682
2941406,1,0.8238632463664375
1395636,1,0.5674476770077508
734095,0,0.5885142573148745
291183,0,0.10794885964131361
3458676,1,0.832035196144916
270388,1,0.9330201116007516
3130140,1,0.49831615529365275
1900946,0,0.3148298886386154
898711,1,0.23853383802696432
1738284,0,-0.15273141390661468
2496211,0,-0.05862838123967801
2886363,0,0.32858373166353516
3883355,0,-0.13571053336640798
1878748,1,0.7423539717985607
3428538,0,0.2911111874062874
3656965,1,0.730843619947999
3882411,0,0.3571106171057582
3938170,1,0.7818704260024675
1107004,1,0.47865224949551644
3666956,0,0.4902729072859182
304262,1,0.5653811554018331
2655093,0,-0.18225398946154384
3101095,1,0.4603033494874069
3671283,0,0.18790931917731363
309502,1,0.612226433885535
1769456,1,0.7616027418041742
2145143,0,0.11917838488452638
646409,0,0.6273787507639849
3350672,1,0.5353339102023533
2681914,0,0.4388812151877593
3414327,0,0.21656830848374017
2745869,0,0.1860031489053468
3940492,0,0.4250752143699162
1489197,1,0.6385420745114462
2206977,1,0.6768945810301705
2660681,1,0.25103478536550505
3193650,1,0.2819273297630363
3067030,1,-0.0333501626130322
3427976,1,0.6728023352143584
1610411,0,0.623225687325585
1502922,1,0.3226844632454162
256618,1,0.4829366791219495
2486147,1,0.7339105098445725
1569949,1,0.6039086433165611
2556494,0,0.6126765676627838
821333,1,0.35654463706096956
291610,1,-0.19295464117195554
3072859,1,0.7907237438992202
1723861,0,-0.7285817107776963
3449514,0,0.3634514032641006
627649,0,0.7365568942596841
683315,0,-1.2463990265360991
931005,0,0.5731193632220073
487581,1,1.0383336571394433
2255046,0,0.5721848124793452
3113864,1,0.7466575777351139
664611,0,0.1486589401672396
393937,0,0.7695952623756191
724769,0,0.4582037025077422
3951200,0,0.561645357739799
1414926,1,-0.3876701329891704
1252962,1,0.5051166690389854
2054940,0,0.7327849826450404
328047,1,0.6096116230105412
981388,1,-0.004359517898407439
1032295,1,0.7062924711191991
3733420,0,0.6343372460040229
3542387,1,0.6226089388645002
3229211,1,0.7318883467774027
1619754,0,0.12437906804293034
1587663,1,0.20564566003683676
2994386,0,0.7036975542396058
2782037,1,0.647342281131762
2653701,1,0.9492494876716931
1028992,0,0.7067295461503729
3426622,0,0.9763733675856446
742231,0,0.12677007432837242
1330395,1,0.5622154529448884
3501897,0,0.4326414511737722
3339995,0,0.14920059332840427
1839743,0,0.04200688351804062
1383469,1,0.2192043926643243
934748,1,0.06934642541135279
314157,1,0.5451803623812495
982323,1,0.5889896671016119
611038,0,0.5555455647559346
1513511,1,0.5110327136669316
3760694,0,0.3482319820136342
2962885,1,-0.6920025954903035
3051682,0,0.6078189982610536
825994,1,0.8550101138748384
1535958,0,-0.04143447052996774
1117134,0,0.5539211006853915
3417118,0,0.6227922486453207
1054038,1,0.5950880575490756
905466,1,0.68308702985266
1737093,1,0.6325566996447132
3385953,1,0.1147984751192298
2759834,1,0.43187685309732793
1934642,0,0.351606127718488
3525421,1,0.056863691732818106
707090,1,0.5789905849235331
1449816,0,0.4793100066797939
1624258,1,0.10126854006431507
1854085,0,0.6535204499652544
526424,0,0.6261152318446547
2496373,1,0.7981457837568348
3070065,0,0.6644994813121673
3256716,1,0.5389368775290175
1077592,1,1.0920498236179912
1584175,1,0.8316471601466706
1146356,1,0.4339379663046564
424405,0,0.495509055971379
3961041,0,0.4392888172785827
3081684,0,0.37169674334883096
3241497,1,0.2703459280709778
3332097,1,0.1956962396497848
2911155,1,0.1294221451757055
3130732,1,0.9115949829809034
1629562,1,0.6975810020687272
654772,1,0.905529338173805
402780,0,0.6875227134349651
3129922,0,0.4574980038515901
3794408,0,0.3811216518069012
3425094,0,-1.3260266171812982
2407399,0,0.5623136589722447
1611661,0,-0.6097639584120585
1464030,0,0.3489633599072838
1008311,1,0.6601553934594073
436462,0,0.0741350213048196
435116,1,0.31620636640949346
950607,0,0.3871646234610725
954042,1,0.41063916232965914
3525048,1,0.8640501574183908
324429,1,0.48735008275704383
1455339,0,0.3252068063121518
1418537,0,0.3464183059140848
2717871,1,0.454001758108588
1949492,1,0.3763352551318181
411853,1,0.5679650798485282
3755549,1,-1.313128613849098
3741466,0,0.14699666196572356
562166,0,0.872420567923637
2915088,0,0.5318059187450079
2683471,0,0.41501125936392147
1127712,1,0.6280520004247258
1767416,0,0.8675101355270399
876176,0,0.6148230567428243
2792529,0,0.6698841157091091
3212165,0,0.912755147205993
681434,0,0.19796075054153084
1361872,0,0.32011448974157286
2107936,1,0.3694416077594982
1009853,0,0.4279545353827857
2530962,0,0.76316528028657
2557900,0,0.5678025975728451
3054111,1,0.46041684884280054
1851461,1,0.4444577093923044
1141994,0,0.503353383862222
2259620,0,0.6675343914065857
3657097,1,0.6247870278516575
1328226,0,0.5683675022874929
227192,1,0.8139696575248183
1822408,0,0.22502244989569545
1015240,0,0.3793309794469165
1404583,0,0.03317539037533927
3518850,0,0.1834480988266355
748596,1,1.0519037107127316
1200257,0,0.7527674309811879
3769842,0,-0.10789877962004807
3844895,1,0.16395846585026821
758429,1,0.4529824701402942
1776043,0,0.019575678059462337
3089031,0,0.3153602929111646
1258248,0,0.6165821979064046
350410,0,0.49110078737186025
219786,1,0.707665119589724
1287402,1,1.0023737516856637
3309755,1,0.6460880385741256
2693475,0,0.4159063790435732
2855203,0,0.40759816380737374
2530916,1,0.26308108310034006
1042459,1,0.5527436870311335
1384162,0,0.1325988353772529
2778063,1,0.6904143332915978
697589,0,0.20815301122195748
3346468,0,0.3650764745876106
671292,0,0.8404015837041272
1191752,1,0.696471941841556
873138,0,0.7399860039126954
858875,1,0.6079370265816836
928918,1,0.5373181752784849
1352373,0,0.4196527971272906
666285,0,0.4432342656119044
1106655,1,0.37828454006803286
824021,1,0.6886959447157124
3096210,0,0.21033698613574156
3291321,0,0.987459837958435
3503565,0,0.20165042447524045
1713123,0,0.9660688337221276
3938899,0,0.10450442536986848
3134830,1,0.37535491777306174
1134031,1,0.556143183159395
2920138,1,0.4805102510753512
3543132,1,0.2383888091004206
200809,0,0.5816740853903489
1392033,1,0.20037790625122215
264468,0,0.04712084720282736
3126417,0,0.5738136902156835
2978613,0,0.0869252570154937
2750549,0,-0.6073827323520086
2579566,0,-1.0875302559785336
3809576,0,0.11747951382515723
1893960,1,0.48148005866524
3061633,1,0.7460410684822114
320518,1,0.2203122073374123
1703804,1,0.9224160194875954
1840955,0,0.4363995506877884
3411608,0,0.8689925647256773
3487815,0,0.0570870672960154
942044,1,0.3336950564289939
1444076,1,0.6590702288739045
1085664,0,0.42041790618859065
605697,1,0.8532577407968842
1833138,1,0.5531138016091595
742164,1,0.7366100853257367
450856,1,0.6264170952326203
854626,1,0.5131033032796677
1573471,1,0.621383088579853
2775234,1,0.391654004000887
608313,1,1.0306945925824955
1382904,0,0.45952220950249634
397952,1,0.7986099764272176
865641,1,0.5557035112218636
720827,1,-0.24134011313227688
1414191,1,0.6634172956209178
411202,1,0.4604595890077274
1529005,1,-0.715917779733637
1825975,0,-0.22390799463993466
2521021,1,0.6132577299145762
2123417,0,0.0896010109725365
1550642,0,0.2991508672627433
2672222,0,0.6154561406745154
3663391,1,0.6567387785726646
622752,0,0.4316148146040698
1898665,0,0.2229964478723756
2274653,0,0.6442396487514822
1215358,1,0.2698653194150449
2671561,1,0.8853801284553903
613759,0,0.2564748008546526
3861591,1,0.7122626220373218
3755111,1,0.5769217461932434
3302697,0,1.0351148702819546
3401333,0,0.46466773366549596
3358540,0,0.5483006007360653
2623829,0,0.5637972702994686
3311535,0,0.6500010754411664
1232910,1,0.5665508375365007
3412478,1,0.8716565188790169
431659,0,0.5281790362281311
1621222,0,0.4710074262148579
