sample_id,z,y
3668458,1,-5.739062953033281
3703172,1,-2.32691440057653
3475078,1,-3.574582016490666
3711574,0,-3.0757030163112766
3281625,1,-6.118565624682374
321743,0,-4.333292250431714
290319,1,-3.0719800653991287
2969676,0,-2.9847177624069965
466893,1,-3.855059064465518
3349080,1,-4.44670485926825
1550372,1,-5.277944773500405
3721352,1,-5.578458860816545
2609809,0,-2.8365896388286616
1540957,0,-2.013559773846882
1993420,1,-7.796702226909015
3214405,1,-3.582514153295545
2223068,1,-4.5908950712424685
3442738,1,-3.6291176564373466
1635822,0,-3.0691085045178252
2535044,0,-3.2620973464562035
3380147,1,-3.4028119019062406
2115503,0,-2.5949879929031803
2788487,0,-2.932891499127489
2252268,0,-4.6634886968396705
963826,0,-3.858806662901598
3409373,1,-8.058231365437036
615609,1,-5.019765989824315
719844,0,-2.1082744432215352
2217512,0,-2.9847177624069965
1770988,0,-4.243906473008902
2782435,1,-3.467258771247926
458350,0,-3.6796630724376587
1561464,1,-5.228797947761015
2394944,0,-4.671949428674062
3791034,1,-5.739062953033281
1149376,0,-0.3769971926185329
447538,0,-2.8109221494382695
1445050,0,-3.0338117174472172
2594822,0,-2.6212317113152412
2153707,1,-6.620580961854489
3803092,0,-3.1543108870749674
3662658,0,-1.5704516458917812
3294986,1,-2.9313407319413702
2773566,1,-3.721143156628754
240096,1,-5.739062953033281
2679627,1,-3.970380713422679
2613834,1,-3.0560470491426854
2927433,1,-4.158656933686616
1767638,0,-2.75869294292347
194616,0,-3.953998203920451
2257462,1,-3.2632826735486344
246727,0,-2.3802140793382325
2264256,0,-3.641966786689511
1098672,0,-0.35242423900735426
3519667,0,-3.214060084219794
801443,0,-3.214060084219794
3651260,0,-2.793908909610892
1408821,0,-3.0123588157078856
504811,0,-4.089624389463978
3091963,0,-2.9847177624069965
1531407,1,-3.9798706716667804
2779700,0,-3.214060084219794
271211,1,-3.0320964179539036
3912813,0,-3.6098946445719235
3675491,1,-4.495732006152828
1735954,0,-3.3200271891295894
2868957,1,-3.760860313868493
1618418,0,-4.311839896569708
2489944,0,-2.932891499127489
1032324,1,-3.5310105229757753
676330,0,-3.0338117174472172
3144144,0,-4.226446205099874
1775298,0,-4.087796948489858
1329608,1,-3.618357174155488
281753,0,-3.414233076562366
3941938,1,-4.192806960844399
436512,0,-2.5441671662023904
2547810,0,-4.25466763061699
2131361,1,-3.475767314666403
891690,1,-3.8453652274533154
345255,0,-4.407820033073089
3106727,0,-2.5441671662023904
2794700,1,-4.118582858409941
328319,1,-5.277944773500405
2670288,0,-4.243906473008902
3317408,1,-2.4110429240627504
2551924,0,-9.459663608597758
3694031,0,-4.384791539046958
879566,0,-2.458834302575503
2557438,0,-2.795373326783333
3234556,1,-2.8735497364724125
1302516,0,-3.5134642601325075
2893370,0,-2.809434801416155
2036198,1,-3.9895035678777777
761318,1,-3.0925347123159943
3167985,1,-3.2393045207566495
2009538,0,-2.9154066749346144
2038961,0,-3.030690417862425
2948651,0,-3.9526056628991566
1199244,0,-2.60177536840011
685703,1,-3.2428702604506743
2974881,0,-2.9989616578821963
2636778,0,-2.9432013285568703
288095,1,-4.118582858409941
2452706,1,-2.5667636100477824
1024323,1,-4.648606986611973
1407886,0,-0.3327154799723311
742245,0,-3.116328972826183
2837291,1,-3.721143156628754
1915628,0,-0.35731041079766307
924342,1,-4.722892956228679
807950,1,-4.115306064767127
1080925,0,-0.3332124458030792
3457067,0,-2.3802140793382325
1821449,1,-0.40379699429737836
2207884,1,-4.414626376446858
261614,0,-4.034864032126583
2141436,0,-4.401316885561655
3336674,0,-2.841229012308865
2636073,0,-3.3427421566760187
2053067,1,-4.414626376446858
3950279,1,-4.074112066344626
3902433,1,-3.5333750957035734
2945875,0,-3.1286870940469256
1124658,1,-0.3204638823048972
881832,1,-4.622114189615214
2499764,1,-5.4821573079203505
408914,0,-3.0535889477828526
2659910,1,-3.1089306708883004
562663,0,-2.793908909610892
2528818,0,-2.458834302575503
1858447,0,-0.3315576798166492
1526618,1,-4.722892956228679
3077100,1,-3.3379544845342792
3399214,0,-2.98746305211734
3879076,1,-3.4402871410052263
1404583,1,-3.1409019399556692
708742,0,-4.055923962724555
1571294,1,-5.193760480311735
515414,1,-3.0987566528562214
2547417,1,-4.622114189615214
2621655,0,-2.5570393975073378
1845990,1,-0.3437187755623418
2576922,1,-4.451826937639676
3054395,0,-4.573461018021955
2919547,1,-2.4269977821767736
2982226,0,-2.462951454333431
3722385,1,-3.5920730141373722
718225,1,-3.9984165166470076
254051,1,-2.7228448205364555
1471970,1,-1.804698222494841
3942890,1,-5.739062953033281
3510181,0,-3.6786044568379976
2255731,0,-3.4637601759971837
3077073,1,-2.013106000105924
635899,0,-2.458834302575503
1565167,1,-4.495732006152828
2013729,0,-2.5441671662023904
2628428,1,-4.551131363491727
825988,1,-3.510750386244025
1083719,0,-0.30089849308604505
2593430,1,-4.399018553105283
3675513,0,-3.0943569759034766
2814939,1,-4.06225802569621
1411282,1,-5.739062953033281
3295371,0,-2.7957369809018617
561464,0,-4.469600371052994
1906418,1,-0.37285053923565714
3530802,1,-4.584001022070268
1205777,0,-3.0063360452461088
425531,0,-3.2748877514331114
2035604,1,-3.6829433778406298
3021170,0,-2.9270072157777216
536565,1,-3.713243144718276
483526,0,-4.055923962724555
2738618,1,-3.158117450126895
1530375,0,-3.560996255830556
3271458,1,-2.827353714297992
2472344,1,-4.622114189615214
3907527,0,-3.0535889477828526
2003085,1,-3.8389032909795033
3029461,1,-2.1395624227330656
2666070,0,-2.9831905444916087
277898,0,-5.8962432569556045
2992510,0,-2.5441671662023904
2436001,1,-3.4979324110114733
364945,0,-4.089624389463978
3732202,1,-4.901392849814243
3241630,1,-6.4153777374438405
2227553,0,-2.740375551404497
1368937,0,-2.5172469249666114
1788985,0,-2.9288454427532615
1270579,1,-3.851952467674549
1359698,0,-3.162115524210101
2962885,1,-3.158117450126895
1479068,0,-2.4700409677498603
1826545,1,-0.3845465349473547
2056068,1,-3.343053362360884
632578,0,-3.794577187680072
922678,1,-4.414626376446858
2519244,1,-2.978754584956824
695249,0,-2.8427644460842156
1098830,1,-0.39866273647389966
255548,1,-4.6603264405362195
1648763,0,-3.4261389903999233
489372,0,-3.4648813581563207
2727025,1,-3.4359448596235143
326859,1,-3.284800982355491
2021370,0,-4.463416867568385
911641,0,-3.6066241289095595
2025318,0,-3.43410188726164
2572567,1,-3.851952467674549
1869384,0,-0.35731041079766307
3783950,1,-3.3492324865557097
3668849,0,-2.793908909610892
1548869,1,-4.782052827576336
2974005,0,-2.855102258743671
884192,0,-4.362170881877037
1124151,1,-0.3724218172229798
416966,0,-4.147558053761585
2516553,1,-3.2324079704898465
809061,1,-6.10431266071876
1475835,0,-2.2794158134669975
472175,1,-3.1848966078661807
1780444,0,-3.670094631568814
660072,1,-2.9366339370315364
1909969,1,-0.32834110406080247
713362,1,-3.8473319044172896
2522010,0,-2.9689396610063863
3380278,1,-4.164335230230051
3659623,0,-2.740375551404497
3516492,0,-2.740375551404497
3458306,0,-3.2620973464562035
1941827,0,-3.5108873829099982
733562,0,-2.6532906404969387
2685772,0,-2.5172469249666114
2506693,0,-3.287009980379639
1463646,0,-2.809434801416155
843347,1,-3.437498069961032
1436422,0,-3.9393092851497915
3941441,1,-3.271900839077033
1109305,1,-0.3645804119356036
3719615,1,-3.760860313868493
2803142,1,-4.549719269447464
2999647,1,-3.5310105229757753
3910608,0,-3.0535889477828526
3208149,0,-2.458834302575503
852762,0,-3.644648671846237
1493940,0,-2.809434801416155
1066480,1,-0.2443029523739827
2151639,1,-4.44670485926825
3254305,0,-3.522040679277602
249382,0,-4.034864032126583
2567956,1,-4.398883025865081
747061,0,-2.8109221494382695
3708315,1,-4.495732006152828
2188183,1,-1.6455471240375195
1602533,1,-4.094504008165198
2559847,0,-2.9847177624069965
826573,0,-4.002931071987303
2420375,1,-3.3379544845342792
3850285,0,-2.855102258743671
1682668,0,-4.294989474588367
2621206,1,-2.33884582395772
3335084,1,-2.7568069795353773
310869,0,-3.0535889477828526
1364738,1,-4.762446101996526
3176254,1,-3.2120063354609565
635682,1,-3.3748829960168063
1783138,0,-2.9432013285568703
2018159,1,-2.9290511604045952
2973353,0,-3.2620973464562035
3896726,0,-2.740375551404497
1696068,0,-3.3126149814423385
2118172,0,-2.9153432913778983
1873431,1,-0.4052094790809064
1504263,1,-6.620580961854489
1420967,1,-4.584001022070268
3179219,1,-4.051704441824056
3478671,1,-2.8892226839935757
287384,1,-4.421978497948741
3482024,0,-3.572488052110167
937275,1,-3.4051738705935373
1169203,0,-0.2495480223716092
890287,0,-2.746564308367606
2650347,0,-2.9902510791255286
2948830,0,-3.55988446229199
3357349,0,-4.0574681909823065
3070831,0,-2.772902715523562
2185655,1,-4.680822459353867
288359,0,-2.458834302575503
1824892,1,-0.26900580842442595
1738734,1,-2.3447901527525956
250542,1,-5.627990486296375
3099285,0,-2.8980977201274674
512192,1,-5.865423697398539
1529991,0,-2.950753155114227
1274945,1,-3.723868318726866
2457096,0,-3.115381680756117
752633,0,-3.63560073612282
2965829,1,-4.29365564348911
2933751,1,-6.620580961854489
3855236,0,-4.225983614276769
1309283,0,-2.941107685901443
3036309,0,-3.645355157503553
879260,0,-2.740375551404497
3720142,1,-4.369333474488346
2696642,0,-3.8468166655680145
3435435,0,-3.757314666639933
3909937,0,-2.9963281250706006
201791,0,-4.14707621992752
1630242,1,-5.637285989428565
2848909,0,-2.7431774403415714
2722225,1,-4.01388147640233
729986,1,-4.008937229620124
3160743,0,-5.462490320785968
2396236,1,-4.040531256858031
805553,1,-3.721143156628754
3008146,1,-4.191592490161186
1966283,0,-5.16764244482822
666943,1,-4.627559512193119
210060,1,-3.104495040840952
1395896,1,-3.913427668566203
3247019,1,-2.7568069795353773
1696039,0,-4.3666138293770995
3530374,1,-2.7568069795353773
3246141,0,-5.403861446550574
321166,0,-2.700890898553077
813340,0,-4.055923962724555
2616993,1,-2.7752059315996767
3867227,1,-3.9483122072601833
1598489,0,-3.3427421566760187
2114934,1,-5.865423697398539
1332783,1,-5.121673153131926
2160266,1,-3.2428702604506743
3780512,0,-2.8620459813538712
1284405,1,-3.0573092500433456
264591,0,-3.4284569054173732
388790,0,-3.279544593356147
2860973,1,-3.467258771247926
2255128,0,-3.6786044568379976
3732385,1,-3.935116366631017
1103933,0,-0.33854643303842835
722622,0,-3.0535889477828526
3711056,1,-5.739062953033281
3878216,0,-3.0943569759034766
3285460,1,-4.848265409788015
288844,1,-3.0719800653991287
1488375,1,-2.7568069795353773
1765580,0,-3.23124210050817
1154943,1,-0.3773818260614419
1243689,0,-3.115381680756117
1712850,0,-5.137966558858674
1956072,1,-3.647738420265718
1331113,1,-4.472881798361515
2060465,0,-2.804117129842905
3000858,0,-5.894995068448584
1773149,1,-2.710934444657847
1260565,0,-2.6079525383725817
1559931,1,-3.5942184337925753
510488,1,-3.0925347123159943
1171518,1,-0.38618817280566503
2684483,0,-3.3427421566760187
2760969,0,-3.1908799669924646
3358071,0,-4.002931071987303
3764411,1,-2.4012981927103882
2597692,1,-5.228647443794076
1479641,0,-3.214060084219794
1676852,0,-4.028265123363326
1455777,1,-4.584001022070268
2059949,0,-1.9190730628014503
2870702,0,-3.0535889477828526
3183253,1,-3.1403500413308896
1023167,0,-2.4330647574849795
3681751,1,-3.0057452160615057
1039280,1,-0.38480228298164054
2715148,0,-2.3802140793382325
2521356,0,-2.8035387235868505
2785778,0,-3.237790295747289
1689651,0,-3.836199456209765
3955627,0,-2.7431774403415714
574708,0,-3.6076091865865836
281013,1,-6.085678841319772
502965,0,-2.511603890477933
684230,1,-7.796702226909015
2923465,1,-4.008937229620124
829687,0,-6.439078768058138
1758874,1,-4.257861657135153
460468,1,-3.713243144718276
1985606,0,-2.21360697571345
1120446,0,-0.36565181351553766
1053264,1,-0.38361000353025104
531303,1,-5.075197930574605
576193,0,-2.637466841888813
648887,1,-3.1623752955315925
1010808,0,-1.5373618996315415
730579,0,-4.055923962724555
2905004,0,-3.237790295747289
2165314,1,-2.2668378471941137
3351920,0,-3.9046920124308486
3479869,1,-3.8312665221669553
1111739,1,-0.3787574629607332
661250,0,-3.641966786689511
530532,1,-3.6388179731784023
1716239,1,-3.495460929724871
2277827,0,-3.3145821098209094
744155,0,-3.214060084219794
3858914,0,-3.016244087866921
1753353,0,-3.2812496012631405
3737317,1,-4.745006976515613
3127402,0,-2.5441671662023904
2996496,0,-3.1597949136746335
2448456,1,-3.861759066746488
743075,1,-4.584001022070268
473628,1,-4.06225802569621
1531257,0,-3.5283581635028085
2609834,1,-4.118582858409941
3280750,0,-3.1703549833405247
1473519,1,-4.008937229620124
1245752,1,-5.865423697398539
546402,1,-3.9005990109243207
3793998,0,-3.0737652222142087
1085165,0,-0.3069609823266957
1400026,1,-4.080505439524705
3189384,1,-2.953189024115284
697863,0,-3.390134683395353
3411375,1,-3.5604962061049306
219593,0,-2.7143103099158785
841252,1,-4.451272098849613
2227931,0,-2.984580949012803
597575,1,-3.431543297910885
403429,0,-3.287009980379639
396081,0,-3.6796630724376587
1251570,0,-1.8222155516149328
3353705,1,-3.431543297910885
1754684,0,-3.7676496406686883
2003911,0,-3.959335762873977
1021079,0,-2.637466841888813
1904388,0,-0.36258711355088635
2161439,1,-2.8248920124949612
977224,1,-3.195726566849842
1306658,0,-3.568450107538387
3926863,0,-3.560996255830556
927154,1,-2.5577887229736067
3201271,0,-3.0535889477828526
3045786,1,-3.668878165067299
3950884,1,-4.369333474488346
3684265,1,-3.721143156628754
3716155,0,-2.87481149618618
2896510,1,-0.3299916736959681
800152,1,-5.019765989824315
2424711,0,-2.8811445235596707
755411,1,-4.008937229620124
3300086,0,-3.9829473257872237
3156554,0,-3.9526056628991566
1116067,0,-0.34681590201195117
3247048,1,-5.82038852200399
877922,1,-5.578458860816545
1745523,0,-7.184072112614952
2623516,0,-2.9432013285568703
556222,1,-4.124101640944315
3311987,1,-4.565378918522942
3888092,0,-4.671949428674062
2195374,1,-2.7568069795353773
3243788,0,-3.5403446060887136
1373872,0,-3.4261389903999233
3049258,0,-3.0943569759034766
1002988,0,-3.0737652222142087
297637,1,-3.546322578167475
3027199,1,-3.23152046672809
2418420,0,-4.575943522197378
1323433,1,-3.7439619998389957
1230288,0,-2.855102258743671
1626655,1,-3.484915731064846
998878,1,-2.8735497364724125
3396196,0,-3.43410188726164
3947348,0,-3.3075586008644917
2966354,0,-3.377300474973952
2614536,0,-3.0091772658717875
2818788,1,-6.269455875206625
2887349,1,-2.727712262157446
1123764,0,-0.38863856582758854
585836,1,-3.4028119019062406
2656532,0,-2.8781468447025773
1473778,1,-3.6829433778406298
2891037,1,-4.584001022070268
691362,1,-4.478669856858764
1296954,0,-2.893431083711271
1079306,1,-0.35987802557407755
3154713,0,-3.3137130282218523
1584570,0,-1.6508163893234586
1789188,0,-2.6133716222534953
1681411,0,-4.881831623765257
3952486,0,-4.006781052084736
437917,1,-3.23568728006129
1870296,1,-0.45851010653231955
2981755,0,-3.6786044568379976
1537168,1,-1.3555830830369524
235484,0,-2.772902715523562
3867013,0,-3.282135270707827
3081862,1,-3.467258771247926
1866074,0,-0.32446253286783805
2565001,1,-5.1737115033747045
2415367,0,-3.9046920124308486
3956736,1,-4.06225802569621
1696486,1,-4.303974159635404
3193360,0,-3.5854517103447257
2696398,0,-3.670094631568814
571264,1,-2.9491744618504994
300686,1,-6.085678841319772
382895,0,-3.641966786689511
229595,1,-3.259942642039051
3415442,1,-4.238280677659202
2126602,0,-2.797393677093442
3430235,0,-2.9838478642381974
3438342,1,-4.3638057244908754
1662600,1,-2.8131019550358896
3300166,0,-3.792333890704447
560947,0,-2.740375551404497
936798,0,-9.164818608385417
2169631,1,-4.495732006152828
1768109,0,-3.8919742269592565
2676357,1,-4.017399794928403
928407,0,-4.084436847344377
1977052,1,-3.464861859008893
554140,1,-4.622114189615214
2485654,1,-4.297520901081369
870950,1,-3.118799462874103
394687,1,-4.067473766142804
1088613,0,-0.37967862404642694
3697101,0,-2.740375551404497
1711235,1,-6.565914814402716
1843322,0,-0.3480638848446304
3178554,0,-3.342764985417159
3509341,0,-2.5997070831719866
2488122,1,-5.051192701979295
3457829,1,-5.355745898079249
3700044,0,-2.7786203903961493
464892,0,-2.740375551404497
3023212,1,-3.40859753064134
2133818,0,-2.9847177624069965
1617540,1,-6.062350811346388
1664731,1,-3.495460929724871
2549546,0,-3.237790295747289
686840,0,-3.221145576612182
337217,1,-2.3236304152238527
2757427,1,-4.044164849879063
1361121,0,-2.6079525383725817
3542676,0,-2.7786203903961493
963097,1,-3.8389032909795033
2122051,1,-3.925816947246943
1445064,0,-3.358210080173506
3705989,1,-6.958316543564009
2915922,0,-2.932891499127489
1728766,1,-3.813866169593959
1604733,0,-2.2826774426889513
816851,1,-3.527025938107449
1380813,1,-1.815489355511348
1837724,0,-0.3440077124770454
634811,0,-3.8669723881723095
3132331,1,-3.340453722544306
2239976,1,-5.228797947761015
1335758,1,-5.228647443794076
703387,1,-5.739062953033281
3012582,1,-5.210465697948413
443607,1,-2.9138194794532892
2106882,0,-2.246013579726212
1847603,1,-0.4023865018133523
3505807,1,-4.06225802569621
2139586,1,-4.680822459353867
428595,1,-3.0127356706065873
2117310,0,-3.2620973464562035
3449111,0,-3.43410188726164
3418410,1,-3.188873229666169
842748,1,-3.052344039350446
2553251,1,-3.646149289712697
2578451,1,-5.761301378196791
600156,0,-3.7973331580277967
2586299,0,-3.3697756258889493
1491447,1,-4.495732006152828
511624,1,-4.178270531281922
1755961,0,-3.0896036040425354
3722279,1,-5.739062953033281
2047427,0,-2.825205553203562
1747903,0,-3.9392678323549517
862987,1,-3.691040256907797
1587274,0,-4.219442917464791
3309293,1,-4.760093839247345
3291318,1,-5.193760480311735
1203113,0,-3.641966786689511
2255910,0,-3.0535889477828526
2393733,0,-3.3998127930428925
3246487,0,-3.8373863725596142
3924123,0,-3.4231182451998627
331845,0,-2.9153432913778983
2510203,0,-3.1356644499216264
806589,0,-2.809434801416155
393435,1,-3.4611246681768644
3101505,0,-3.377300474973952
1555886,0,-3.6443049040047595
953566,1,-4.077738024342659
3029602,0,-3.2989897666083685
1008230,0,-3.4052979352683805
2725015,0,-2.813832994669347
3016682,1,-3.2350757227151012
713835,0,-3.716635663593568
2581436,0,-2.364770272581901
1436881,0,-2.4479979989408873
2428504,0,-2.932891499127489
855965,0,-3.1284824964025377
907850,1,-3.48562971980683
3467195,1,-3.646149289712697
469451,1,-5.578458860816545
1613031,0,-2.8058578150160267
281662,0,-5.600571035049203
1942633,1,-5.371734092651333
732493,0,-2.793908909610892
1968956,0,-3.4439303917484843
3922552,0,-3.43410188726164
2498774,1,-3.9398329911261545
1793382,1,-4.393537651235962
2460459,0,-3.641966786689511
2135988,0,-2.513760955488988
2566220,1,-5.578458860816545
2735930,1,-2.831528015540935
1224227,0,-2.380329115032
1580782,1,-4.605748083186447
627641,0,-7.049244718599202
1272497,0,-3.8468166655680145
578082,0,-2.7143103099158785
637436,0,-3.0264379805113584
3352261,1,-3.9483122072601833
625943,0,-2.950753155114227
1626702,0,-3.0691085045178252
2020617,1,-2.4825557140083148
2439111,1,-4.008937229620124
3850652,1,-3.2190206233928955
814735,0,-2.0365887528854776
3752820,0,-3.4052979352683805
2393867,1,-3.557382788163078
1894369,0,-0.36258711355088635
3938634,0,-2.3802140793382325
2792536,1,-3.3805088249809074
1586948,0,-1.7910904184557184
1491902,1,-3.646149289712697
464842,0,-5.713707540698694
1747118,0,-3.1105275573991644
1621402,0,-3.1318986961293316
3070028,0,-3.007185430519592
673859,1,-3.686509726622461
3092261,1,-5.4386183505570225
2526453,1,-3.2929447424307288
2006822,1,-4.118582858409941
2864077,1,-4.440733764072593
1770486,1,-3.315614768007233
3515421,0,-3.214060084219794
3429567,0,-3.2772842086019818
2846939,0,-3.1908799669924646
1369987,0,-2.6103400897852307
1301631,0,-2.655962366417277
3779848,1,-3.467258771247926
2455054,1,-4.178270531281922
1694251,1,-5.598475659026074
2166035,0,-3.7177353375676856
232763,0,-3.0943569759034766
518980,0,-4.538267071902339
2936872,1,-4.905295414648869
3722996,0,-3.43410188726164
2152825,0,-2.7734086692244935
3120048,1,-2.4890904445210675
1456582,1,-4.685363194207819
3072611,1,-4.241748237118898
1222800,1,-3.40859753064134
1476784,0,-2.559916469312346
554284,1,-6.604949736371497
3412478,0,-4.004395539223102
3450181,1,-3.0719800653991287
2931268,1,-6.016743521909678
966082,0,-3.4052979352683805
3716775,0,-2.793908909610892
398972,1,-4.544187712740817
2728747,1,-5.4821573079203505
1717670,1,-4.172577390829123
2426134,0,-3.924895345564623
2924597,0,-1.692838762531612
3530172,1,-5.578458860816545
3540180,0,-3.716635663593568
2840572,1,-4.584001022070268
2915109,0,-3.2620973464562035
2278188,1,-3.4979324110114733
1889419,0,-0.2763138363719829
1152378,1,-0.36833057266936986
711798,1,-4.584001022070268
1575084,1,-5.277944773500405
1135481,0,-0.4186516673429896
3437925,0,-2.7786203903961493
1225558,0,-2.932891499127489
2447335,0,-3.115381680756117
3706354,0,-3.4052979352683805
2506586,0,-2.98746305211734
1625760,0,-7.392031074663694
1630944,1,-3.7439619998389957
2269333,0,-3.0535889477828526
1133915,0,-0.34169579061316474
979683,1,-4.369333474488346
2805331,0,-4.439191942618871
1003142,1,-4.06225802569621
3267694,1,-3.2576367255914285
3682360,0,-5.213656999729715
2756652,0,-3.2076849041203106
3368598,0,-4.242366100540813
3722850,1,-3.760860313868493
1878327,0,-0.2899992667101972
1948529,0,-1.908955202549211
2115840,0,-2.855102258743671
1549158,1,-4.7416231250545335
1345000,0,-3.162115524210101
682074,1,-2.8735497364724125
660290,1,-4.908133783793039
3096874,1,-3.958316194603197
1146827,0,-0.3476951777645297
2135378,0,-2.637466841888813
904921,0,-3.3399627778364764
2838713,1,-4.148275339926728
1778293,1,-3.1178897980643687
2249535,0,-2.978464546217379
2025471,0,-3.858969494668791
3670114,1,-3.7082457716497443
2899461,0,-5.099748661019324
3922261,0,-3.0943569759034766
1706797,0,-6.646792140337342
2259402,1,-4.578849514182746
2936260,0,-3.0943569759034766
2549274,0,-2.7431774403415714
1889198,0,-0.3121837333246166
3019393,1,-3.0057452160615057
1546176,0,-2.98746305211734
1443030,1,-3.362142733822998
3020287,1,-2.7133960462809052
1134812,0,-0.3336462920494666
3548504,1,-4.008937229620124
2457988,1,-5.578458860816545
1698421,0,-3.588887614760909
2435985,0,-2.855102258743671
1046681,1,-0.4799049000230508
1285499,0,-2.5618713654517777
880686,0,-2.9680335860900433
915752,0,-3.716635663593568
800624,1,-3.1043079012773465
2851009,1,-5.075197930574605
361142,1,-4.53056839091551
367953,0,-0.2885274333154137
3364361,0,-4.113516196452465
2988653,0,-3.0737652222142087
3652360,0,-3.9526056628991566
3667215,0,-3.202924436071671
1171901,0,-0.31724505820597043
1959353,0,-2.6606325404756026
1308582,1,-4.172157955651371
3098234,1,-4.118582858409941
3377343,0,-6.560422349232041
3387565,1,-4.87668461454518
1688759,0,-5.348469517568405
1859208,0,-0.25975004351796677
1214479,1,-6.008484786009142
2132117,1,-3.0057452160615057
1782140,0,-2.8058578150160267
1438600,0,-3.0535889477828526
2695404,1,-2.507103346715746
1869919,1,-0.37696441799203056
1018627,0,-3.7827138172559205
807960,1,-4.716343472377829
483999,0,-4.538267071902339
707090,0,-3.9526056628991566
925697,1,-6.565914814402716
2801300,0,-2.932891499127489
2115406,0,-4.488352742501691
3491290,0,-2.3601586108315926
3777103,0,-2.5441671662023904
3238480,1,-3.259942642039051
1560059,0,-2.350223903646476
3446769,0,-4.055923962724555
1232616,0,-3.1908799669924646
562348,0,-3.0757030163112766
1313497,1,-3.348385844854804
2218331,1,-5.578458860816545
541138,1,-3.158117450126895
2249461,1,-6.037451451182085
1598943,0,-2.0280411235263265
622752,1,-4.414626376446858
3154336,0,-4.916207903411243
3708781,1,-4.53056839091551
3943826,1,-4.592805109869486
1483297,0,-3.7877912935198927
606045,0,-5.713707540698694
3959142,1,-3.8389032909795033
2706639,1,-2.5414653552171256
2736276,1,-4.06225802569621
1955840,0,-3.363173145372534
1097591,0,-0.31081203077312786
2496533,0,-3.0737652222142087
3325421,0,-4.8785506638770775
2715145,0,-2.9847177624069965
1431392,1,-3.6256788291240802
2187461,0,-3.0019985502608217
1531023,0,-2.813832994669347
2772159,1,-3.437498069961032
3227382,0,-3.7177353375676856
526154,0,-3.237790295747289
304826,0,-3.115381680756117
3206728,0,-2.3802140793382325
3300898,1,-4.1795904770575785
1238151,0,-3.641966786689511
1740131,1,-4.351123786044702
2665770,0,-2.8765561550047742
2270732,0,-1.8724983555913295
1991831,0,-3.3697990801948943
2922202,0,-0.3936811626204697
1436393,0,-3.3697990801948943
2897384,0,-2.8939811091417833
1276759,0,-4.1897708132863025
815958,1,-3.7398363660717107
2914538,0,-3.312559145050999
2464629,1,-3.721143156628754
944132,0,-3.214060084219794
2062277,0,-2.809434801416155
631987,0,-5.716017868426573
2812451,1,-4.21728204524631
1306245,1,-3.1860666961368778
2830924,1,-4.503789271676436
2736175,1,-4.06225802569621
1261949,0,-3.2212775554071578
2968480,0,-2.6709813664727764
2137833,1,-4.414626376446858
2636841,0,-2.5172469249666114
2926186,0,-6.725724251086785
1490977,0,-3.377300474973952
3696941,1,-4.06225802569621
3250826,0,-3.5971983433808314
1835009,1,-0.40945894370987235
2561824,0,-3.1908799669924646
338542,0,-4.407820033073089
1500227,0,-3.4338874615750785
1358572,0,-2.893431083711271
3217684,0,-2.9847177624069965
2183747,0,-3.2620973464562035
1811928,0,-0.355904137426496
3457168,1,-3.0925347123159943
2727900,1,-5.739062953033281
1435057,0,-3.7561706208849857
541435,1,-2.9313407319413702
2828873,0,-3.3028264495130224
3094506,1,-4.312660308344527
1773842,0,-2.8185417764022613
3035330,1,-4.535536168796751
3218770,1,-4.191819623114062
433976,1,-3.646149289712697
3455404,0,-3.3145821098209094
3040938,0,-2.2794158134669975
1583711,0,-2.793908909610892
1791046,0,-3.0856440128073306
1601136,1,-6.661542406976587
1413383,1,-2.8735497364724125
429274,1,-0.3414571333008303
2881740,0,-3.8476807356927023
434685,0,-3.0943569759034766
1079939,0,-0.30952669941165745
3023475,1,-4.06225802569621
3329367,1,-2.7568069795353773
1860323,1,-0.39477256672993166
2182088,1,-3.956002893998425
815357,1,-4.62973633232527
453942,0,-0.27343863964141607
2454062,1,-4.06225802569621
570458,1,-2.9579244071597066
3291929,0,-2.932891499127489
3416117,1,-4.398603645876997
400910,1,-3.284800982355491
1042975,1,-0.3582696568137462
484746,0,-3.173542385743918
1312454,1,-4.257861657135153
318531,1,-3.431543297910885
408511,1,-3.3379544845342792
643695,1,-4.118582858409941
1529225,0,-3.0943569759034766
3200908,1,-6.269455875206625
2986819,1,-1.848370508390055
754683,1,-4.44670485926825
568515,0,-4.089624389463978
1690170,1,-3.7988713846779043
753344,1,-4.315021992813461
534672,0,-5.462490320785968
3757897,1,-5.578458860816545
2399738,1,-4.229132780344731
1202097,1,-4.53056839091551
1683926,0,-6.094895189177709
956605,1,-3.3379544845342792
3860485,1,-3.9561512213722865
2602452,1,-2.9633649901517867
2144737,1,-3.8925132724910085
465403,0,-4.034864032126583
2736844,1,-3.646149289712697
877495,0,-3.641966786689511
3099435,0,-2.721960682502654
1943161,0,-5.805257679778726
3291857,0,-3.0535889477828526
1275335,1,-4.1615841846062125
3382987,1,-3.760860313868493
2536946,1,-3.6447746316367082
1303653,1,-1.8255924759028448
2556547,1,-4.622114189615214
2793324,1,-5.865423697398539
1549429,0,-6.497972205993935
3187218,1,-3.760860313868493
1493439,1,-4.53056839091551
3398109,0,-3.4813811464335314
245437,0,-5.1884091158024805
3206036,0,-4.390783272262552
1318618,0,-2.113847245924559
1343988,1,-3.4692619616563647
3365885,0,-2.809434801416155
2209802,0,-3.5553417020939615
312671,0,-3.201755763229329
950610,1,-12.268259213543402
3714280,0,-2.6869509310278077
1497100,1,-4.008937229620124
1006603,0,-2.5441671662023904
2406384,0,-4.045436666464151
3465418,1,-5.193760480311735
3960922,1,-3.3700953606541106
3289685,1,-3.721143156628754
360067,0,-2.9689396610063863
3272544,1,-3.6388179731784023
2506690,0,-2.87481149618618
3341951,1,-4.051164299383583
493161,1,-2.9491744618504994
3501889,0,-3.0422188736847176
379241,1,-3.2923469199469397
2118239,1,-3.721143156628754
1772578,0,-2.932891499127489
878984,0,-3.0757030163112766
2031832,0,-1.7053261681526295
3130648,1,-3.271900839077033
3123706,0,-5.894995068448584
614779,1,-3.963015813330892
3890123,1,-3.158117450126895
3548579,0,-3.641966786689511
2158552,0,-3.490630199493196
1316782,0,-6.165824060189277
1741739,1,-3.432275036365426
1858028,0,-0.3268814098009442
3293035,0,-4.113516196452465
3937887,1,-5.355745898079249
698507,0,-2.825205553203562
446937,0,-4.034864032126583
235329,0,-6.050004826066279
684483,1,-3.0320964179539036
3258462,0,-3.281271068482319
1300505,1,-3.975667859665558
737560,0,-4.002931071987303
1252024,1,-0.32868034781416094
735674,0,-3.495709084462497
857973,1,-6.869185408814369
2527144,0,-2.9847177624069965
1818375,0,-0.3780157759121598
1462327,0,-2.855102258743671
3082171,1,-7.427836020808544
3279957,1,-2.9491744618504994
289686,1,-3.3477129672890786
572257,0,-3.0943569759034766
1619914,0,-2.992033474979471
1267380,1,-3.317381806300627
3281101,0,-2.932891499127489
1488063,0,-3.237790295747289
936113,1,-3.3053037930632465
1311140,0,-3.8468166655680145
600077,0,-3.2620973464562035
2566496,0,-3.4637601759971837
1366859,0,-3.0597330794872613
1710795,1,-3.55961986218701
942973,1,-3.958316194603197
3960933,0,-5.894995068448584
1992023,0,-3.214060084219794
3328984,0,-3.4052979352683805
2164581,0,-2.7286397148428536
1345166,0,-3.7208392309119858
485023,1,-4.2468792667213755
2599411,0,-2.872309909246636
3950160,0,-6.420380314551774
1022720,1,-2.8735497364724125
896013,1,-4.470763367741373
1094194,0,-0.3221953085133109
1505609,1,-4.008937229620124
3177875,0,-3.333645175269411
1108978,0,-0.37662875657475403
338667,0,-3.0737652222142087
2163864,1,-2.9271596864584315
731148,0,-3.7561706208849857
2019400,0,-3.2620973464562035
1637789,1,-5.649146414504985
469610,0,-0.3314480467991133
2665240,0,-3.028468574639328
3090739,1,-5.101623601655014
2720330,1,-3.089845203375582
503473,0,-2.3802140793382325
3718524,1,-3.7478966950847505
1644634,1,-4.705831245758915
470201,0,-3.90601936168589
2752756,0,-2.9080208356898005
648045,1,-3.9387134628349325
3035731,0,-2.9153432913778983
1169655,0,-0.3403701707581351
3070246,1,-6.303297086632999
3223238,0,-3.498575679790987
1987278,0,-7.440578134198633
2662634,1,-3.2757481815750014
1099824,0,-0.3556176777834689
1739107,0,-3.8919742269592565
3512622,1,-5.177425406053409
391697,0,-3.642987299542757
1167551,1,-0.3801349948440126
1054151,1,-0.4105501728623167
2144095,1,-6.085678841319772
1302175,1,-6.415870925753945
2240749,1,-4.118582858409941
2186941,0,-2.825205553203562
1508277,1,-4.622114189615214
524484,1,-3.347900707775999
3165146,0,-3.377300474973952
2999362,0,-4.052882713816636
2990762,1,-3.8473319044172896
460419,0,-3.116328972826183
3749147,1,-2.9728197348340246
3703601,1,-3.188873229666169
2589203,0,-3.1846309205629573
2558226,0,-3.237790295747289
341751,1,-2.8735497364724125
1015856,0,-3.792333890704447
895104,0,-2.183552372772343
1373239,1,-7.2747227364837865
3041420,0,-3.6066241289095595
2586734,0,-3.5971689005522336
3869050,1,-4.883714136471709
2807324,0,-1.626339937692859
2023184,0,-2.2306829582743064
316194,0,-2.48863610832885
3367722,1,-3.2120063354609565
744644,1,-4.478669856858764
1218913,1,-3.2793557180997737
921522,0,-2.766334780751302
473214,1,-6.4575465836225865
1813061,0,-0.2888108078139836
3117916,0,-2.553156828123824
2268878,0,-3.4637601759971837
846797,1,-6.269455875206625
500432,0,-3.0903347554396454
1470396,0,-3.0535889477828526
1638144,0,-2.6963530413443935
3504430,1,-4.44670485926825
3857343,0,-3.545669740766484
1587004,0,-3.237790295747289
1421772,1,-5.739062953033281
1018608,0,-3.328538341566735
3115416,1,-3.6753383304200162
720963,1,-3.6829433778406298
1915265,0,-0.3400269387201115
606918,1,-4.913836717848921
553630,0,-4.4767663721925155
237622,0,-4.45378203636335
3959347,0,-3.6786044568379976
1285094,1,-3.9984165166470076
2480297,1,-3.6256788291240802
1589750,1,-3.851952467674549
647951,0,-3.287009980379639
3535113,1,-5.739062953033281
3687056,0,-3.0338117174472172
1515719,1,-4.008937229620124
365785,1,-5.244790960257012
1687403,1,-3.886798411089688
589907,0,-2.130665313626442
3236229,1,-3.3379544845342792
2221747,0,-2.5441671662023904
2653453,0,-2.9432013285568703
3486350,0,-5.373404017789835
1610986,1,-4.989283416329903
296695,0,-2.666766070766098
271469,1,-4.051164299383583
3844308,1,-3.3673696730541396
3076489,1,-3.7007947907757437
848591,0,-2.56959478482888
953753,1,-3.467258771247926
2120945,1,-3.910134654768194
1914350,0,-0.33477887871778633
3004801,0,-1.9919274043893063
3379141,0,-3.488330697068805
1283241,1,-2.9633649901517867
1906609,0,-0.34135210335645894
1377573,0,-3.3975602570896903
3654720,1,-5.578458860816545
2244288,1,-4.495732006152828
2011280,0,-2.9689396610063863
254822,0,-4.004395539223102
1282618,1,-3.9449024900854304
2016536,1,-2.371363741618285
3080757,1,-3.9923537103352023
1558538,0,-2.9153432913778983
1581246,1,-3.557382788163078
2174255,1,-4.06225802569621
2577246,0,-3.343783357670131
3241484,0,-3.214060084219794
2696354,1,-4.752329897329464
2199957,1,-2.3236304152238527
1602936,1,-8.295127830009005
2965983,1,-3.8473319044172896
867539,0,-2.809434801416155
3298651,0,-5.894995068448584
1323572,1,-2.9174836743935653
445568,1,-2.6445869921007694
3017597,0,-3.716635663593568
995205,0,-3.8717481406784295
3069747,1,-3.745663974568038
2686568,1,-4.867964761826828
2602561,1,-3.2044480425050117
3428816,1,-3.0925347123159943
1885923,0,-0.3699590012498794
1246009,0,-3.1554826381972862
3310063,1,-3.291068996275048
424817,1,-3.9895035678777777
1299080,0,-3.453917477455293
2798546,0,-4.111883018477034
3272749,0,-2.855102258743671
603050,0,-2.6268726039097254
1282138,0,-3.662543871652851
256310,0,-2.9882965506525503
482826,0,-2.5441671662023904
1854991,1,-0.34796298831728234
2674779,0,-1.8290930160076628
1854518,1,-0.3872780336321922
2785216,0,-4.1728930809106535
1155051,0,-0.35025171875083666
297018,0,-2.3802140793382325
2153025,1,-4.584001022070268
500903,1,-3.0057452160615057
1480406,1,-4.331597432205335
684025,0,-4.649819128380183
2890021,1,-3.40859753064134
3045735,0,-2.6305473948704483
3431511,0,-3.4052979352683805
3094074,0,-3.43410188726164
1013009,0,-3.2881347398411123
3112030,0,-3.30012515525155
1092609,1,-0.40875361309063046
884244,0,-2.3147462597152746
1663702,1,-3.7988713846779043
734493,0,-4.45378203636335
675354,0,-7.049244718599202
1477316,1,-2.4110429240627504
206772,1,-3.122521265739694
699641,0,-2.8980977201274674
292678,0,-3.798525306921623
275308,1,-3.431543297910885
2512471,1,-3.51993462567987
3875067,0,-3.2644371883005934
3655228,0,-2.809434801416155
3198100,1,-3.8389032909795033
2427863,1,-5.865423697398539
1220051,0,-3.1682250171402764
2492240,0,-3.716635663593568
892996,0,-4.575943522197378
490103,0,-2.700890898553077
1439584,0,-6.342377079953681
813130,1,-4.913836717848921
2803624,0,-3.4555841116855266
2011758,1,-4.889173633912033
635035,1,-3.9796444404284026
2158029,0,-1.964158289773768
649520,0,-4.732231894246473
1443028,1,-5.739062953033281
1949717,0,-2.7207536968345996
3182458,1,-4.53056839091551
3932296,1,-3.2428702604506743
535328,0,-3.63502206896452
2649704,1,-4.705831245758915
2020117,0,-2.637466841888813
1622724,0,-2.8215718110444534
627330,0,-4.261203506661498
369673,1,-3.4611246681768644
2824012,0,-2.301872659073309
2117131,1,-4.178270531281922
2825652,0,-3.641966786689511
3287178,1,-3.998229321356802
2193207,0,-3.3616181331101047
556462,1,-4.398883025865081
3323387,1,-5.439204881649414
2830354,1,-4.3462754899099165
3204007,1,-3.113520735026052
1985745,1,-3.4775105219529308
725839,0,-4.002931071987303
2575330,1,-1.8439786091159531
3543635,1,-6.085678841319772
2397950,1,-3.0057452160615057
3756953,0,-2.452490537144227
3354417,1,-4.051164299383583
3386678,1,-4.06225802569621
1663070,0,-3.158853438095211
3729218,1,-6.085678841319772
3212503,1,-2.8735497364724125
2258149,0,-3.9526056628991566
1455262,0,-2.855102258743671
394377,1,-4.051164299383583
1479955,1,-4.008937229620124
3014704,1,-4.648606986611973
2986415,1,-5.212422947132973
3471345,1,-7.72084308478661
3109514,1,-3.40859753064134
708362,0,-3.6786044568379976
522917,0,-4.469900310263939
546650,0,-3.214060084219794
597420,0,-4.0988369947731185
1733130,1,-5.011702302607818
2229283,1,-6.269455875206625
945197,1,-3.340453722544306
974366,0,-1.9462456409177284
2012317,0,-2.7431774403415714
1953388,1,-5.031165628510661
1775302,0,-3.746977591987923
2826568,0,-3.781576757669593
3701289,0,-2.5580730987329563
1102804,0,-0.30725684618235205
399125,1,-4.058955927888191
383061,1,-3.0719800653991287
3930180,0,-3.792333890704447
980877,1,-3.6829433778406298
2251643,1,-4.118582858409941
3927503,1,-3.380772074149665
3415237,0,-2.8674747634834126
2512663,1,-4.788033174469774
1643741,0,-1.9854536157669331
2109815,0,-2.6810386446613923
3710268,0,-3.237790295747289
2232727,0,-2.001182667783831
202388,0,-7.053208903912813
1103002,0,-0.30725684618235205
2776365,1,-6.269455875206625
1679639,0,-4.987435607535628
1032848,1,-4.03039660602409
216838,0,-3.612937612538252
255594,1,-5.355745898079249
1428198,1,-4.495732006152828
272698,0,-2.5000540609755904
1321510,1,-3.7925962148255943
2251883,1,-5.355745898079249
1956831,1,-2.811876291025087
2704385,0,-3.8468166655680145
1869764,1,-0.40379699429737836
650768,0,-3.716635663593568
3375134,1,-3.557382788163078
1807418,0,-0.3499050788268681
3757335,1,-4.118582858409941
3274028,0,-4.333292250431714
1280442,1,-5.228647443794076
2752918,0,-3.1597949136746335
210370,0,-4.293415086659445
2591578,0,-3.0856440128073306
599711,1,-3.3748829960168063
1020020,1,-3.8745011280163055
3320107,0,-2.740375551404497
1443116,1,-4.06225802569621
3449870,1,-2.9595290902615488
1541865,0,-3.0338117174472172
894795,0,-2.7431774403415714
363773,1,-4.38560929150619
3658535,0,-3.0737652222142087
1364499,1,-5.995039204041698
3074263,0,-3.5126739446186344
3311417,1,-4.503789271676436
1727959,0,-4.973354107157484
1609834,1,-0.3630953949701212
928435,1,-4.061038863667016
2560191,1,-5.422203629045237
884136,0,-3.352595063989102
1354043,0,-5.319300175988993
1734641,0,-3.988909637031622
3177074,1,-2.32691440057653
3004275,0,-2.793908909610892
2549407,1,-3.760860313868493
3760517,1,-2.95512786825471
469023,1,-3.051839416687299
1748682,0,-3.162115524210101
1279992,1,-4.55906823244215
1733115,0,-4.8779886873656615
3839777,1,-3.5695502769199914
1687166,0,-3.43410188726164
1779875,1,-3.0968128471336924
215989,0,-5.1884091158024805
1302383,1,-4.121922409509203
3357765,0,-2.458834302575503
3191938,0,-2.9153432913778983
262059,1,-3.2673026289248166
731955,0,-5.894995068448584
3088898,1,-3.8389032909795033
297579,0,-3.9829473257872237
318620,0,-3.4052979352683805
1457545,1,-3.0508307512978914
2282605,1,-3.467258771247926
2236363,1,-5.578458860816545
1620942,1,-5.228647443794076
248905,0,-2.932891499127489
3447958,1,-5.355745898079249
2193419,0,-3.237790295747289
430667,1,-3.0022036426139995
1677529,0,-3.1738563043653523
2026894,1,-4.622114189615214
569061,1,-3.7136283722985746
3373196,1,-3.6753383304200162
3042807,0,-2.2980070716373517
1858727,0,-0.3231595472934081
1907460,0,-0.3376315446258426
654005,1,-5.578458860816545
2619398,1,-4.022998964751045
215280,1,-5.0446528281289424
1246792,1,-5.360202956396051
1503804,1,-3.317595123516967
758051,0,-3.5898143537984475
3235972,0,-3.9393092851497915
2403498,1,-2.8735497364724125
2259763,1,-3.675372225072844
1912639,0,-0.34135210335645894
2963394,1,-3.182676832160759
3373302,0,-4.263935685693552
2542610,0,-3.237790295747289
1113319,0,-0.351590511531781
2913661,1,-3.958316194603197
1852355,0,-0.35731041079766307
1572796,1,-2.3359574158249647
2127099,0,-4.111883018477034
1591560,0,-4.344846284667501
895225,0,-3.545669740766484
3526040,0,-2.932891499127489
3001550,1,-4.584001022070268
1571997,1,-5.411734672579244
3246478,0,-2.932891499127489
3413945,0,-3.2491914237544584
436497,0,-4.126014197284991
3231456,1,-3.3700953606541106
2119763,1,-7.075224991189104
2570207,0,-3.9526056628991566
2809170,1,-3.8022204010811436
3938062,0,-3.150050720056273
1544759,0,-3.0737652222142087
669681,0,-2.6869509310278077
1583613,1,-3.158117450126895
2185162,0,-2.772902715523562
3151612,1,-3.516171555734067
2608725,0,-3.5633486957964777
1841071,1,-0.37435012456591193
1123311,0,-0.36083394401484137
3430262,1,-3.9883270613116943
1017800,0,-2.841229012308865
1214281,1,-5.277944773500405
961084,1,-4.495732006152828
3845076,1,-3.6268961260320842
2938597,0,-3.055487999420144
2821327,1,-3.4979324110114733
2190125,0,-5.053913487893093
718630,0,-3.768827807682081
3152419,1,-3.4611246681768644
992823,1,-3.3053037930632465
3346949,1,-5.739062953033281
2037700,0,-2.7656355591913315
1407864,0,-2.254557064600686
317928,1,-4.32473494492937
313283,0,-3.780699096200075
236266,1,-4.183085216145285
2975339,0,-2.5532195314297415
2482880,0,-3.4052979352683805
393425,1,-4.008937229620124
921675,1,-6.360612586793597
3406039,1,-4.414626376446858
2020765,1,-3.3379544845342792
2727443,1,-3.6829433778406298
3231334,1,-2.9313407319413702
1899381,1,-0.3370359972125096
1207463,0,-4.055923962724555
3777487,0,-2.452490537144227
3300702,1,-2.4944127839282753
1703837,1,-3.684592117130511
3496566,1,-3.8062394510679045
981950,1,-6.869801233129554
3676335,1,-3.3557508603707675
2138605,1,-6.269455875206625
422851,0,-3.7177353375676856
3706077,1,-3.166419771590204
2946988,0,-2.932891499127489
704557,0,-4.004395539223102
2545630,0,-3.9526056628991566
1221465,0,-3.4637601759971837
857720,0,-3.952426848973869
2979280,0,-1.9190730628014503
1672964,0,-4.228154072316464
479835,0,-3.8545240200674624
2733575,1,-0.3261790270863826
3461576,1,-3.14417300285005
1596326,0,-2.434088949220389
1247195,1,-4.339608226632602
639511,1,-3.5695502769199914
1327465,0,-3.8036105062183525
2805690,0,-2.950753155114227
211558,0,-2.9153432913778983
1488323,0,-3.4943250346155943
605838,0,-3.7561706208849857
333473,0,-2.9345744507279052
3237363,0,-2.740375551404497
1124586,0,-0.3221953085133109
1672689,1,-5.6915281947012
664611,0,-3.055487999420144
1544340,0,-3.43410188726164
1099665,1,-0.39121085550750234
3454358,0,-3.8350450714328015
2592132,0,-2.412935021120343
3008190,1,-3.158117450126895
1209966,0,-5.0108148329540185
918779,1,-3.2428702604506743
3116130,0,-2.093916514763462
1738037,0,-3.1651628364412785
2395962,1,-2.4581028132546283
710806,1,-3.8389032909795033
2772775,0,-3.6786044568379976
2930746,0,-3.641966786689511
2249585,0,-1.9617317661591478
323560,0,-3.2539283415228804
2870771,1,-4.369333474488346
2178421,0,-2.8012082443457107
1070006,0,-0.37167860404592695
2730246,0,-3.1908799669924646
1956000,0,-3.3708373715447877
3024764,1,-3.1321507344184303
1519012,0,-3.0535889477828526
2866167,1,-3.557382788163078
3136084,1,-3.9387134628349325
1890584,0,-0.3940634874777175
1260465,1,-5.960757755875722
2980262,0,-2.0192831870179218
301131,0,-4.0574681909823065
2927485,1,-3.4979324110114733
2519205,0,-3.641966786689511
2436247,1,-3.0057452160615057
367110,0,-4.630554042688896
2218122,1,-3.8389032909795033
312733,0,-5.600571035049203
2111435,0,-3.0535889477828526
960323,0,-4.761754357956431
1848168,1,-0.3554251885771144
2642615,0,-3.1846309205629573
431478,1,-3.259942642039051
1695282,1,-2.8955283209810077
740751,1,-4.495732006152828
2607985,0,-3.3975602570896903
1082247,0,-0.39901132193052935
3129045,1,-4.495732006152828
1114378,0,-0.3345286048880915
3922793,1,-6.085678841319772
3290771,1,-3.912469590053891
2454779,0,-3.4943250346155943
3277842,0,-3.798525306921623
1905757,1,-0.34796298831728234
497916,1,-3.721143156628754
1165069,0,-0.32349703748635494
1358459,0,-3.700932086309877
3878879,1,-4.346496819568468
2234977,0,-2.740375551404497
1304637,1,-3.4908241965502937
3504061,0,-3.4052979352683805
3171759,1,-4.367737960655466
3412943,1,-3.259942642039051
3839253,1,-5.400002865445211
3014147,0,-3.4943250346155943
1474107,1,-5.865423697398539
2535393,0,-5.120058964152523
1521497,1,-3.158117450126895
1559531,1,-3.437498069961032
2218908,1,-4.008937229620124
2801586,1,-3.4972208110317204
2245653,0,-3.9526056628991566
2599724,1,-4.8793281417392205
2112352,0,-2.9689396610063863
698071,0,-2.793908909610892
1611703,0,-1.789796961424137
2052757,0,-3.892013764900286
1399410,0,-2.9105956705891596
429734,1,-2.9501942610046976
570220,0,-2.60177536840011
3401129,0,-3.8318016283484635
3806920,1,-3.6809585079039215
1445730,1,-3.6388179731784023
3277729,0,-2.908790656592428
3687916,1,-4.758036440720616
3467515,0,-2.458834302575503
1017003,0,-3.1908799669924646
2022236,1,-3.6829433778406298
3249596,0,-6.466646810014358
2849702,0,-3.716635663593568
2581827,1,-4.648691247337246
3099138,1,-3.137903658594541
496395,0,-5.462490320785968
2521683,1,-2.4021221397643853
1525253,0,-3.7513724754656628
1645878,0,-2.971676449585575
1966780,1,-4.1139904387874955
3106355,1,-6.085678841319772
3041849,0,-1.816402214776388
1768662,1,-2.9633649901517867
2201113,1,-5.355745898079249
3203425,0,-3.768386307041039
961561,1,-5.578458860816545
1624735,1,-3.584374070671307
511165,1,-3.6829433778406298
3285918,0,-4.043583569348136
2724747,1,-4.414626376446858
2921878,0,-1.7159881442203015
2737266,1,-3.646149289712697
1733582,0,-3.4274317539268218
2998299,0,-3.5756486355833066
1967498,0,-3.5553417020939615
955787,1,-3.3419622428947853
398418,0,-6.560422349232041
3092889,1,-5.277944773500405
3230030,1,-5.739062953033281
1414745,1,-4.622114189615214
989467,1,-3.8389032909795033
2786310,0,-2.1758764880011827
1899994,1,-0.36797761001707796
1316713,0,-3.1846309205629573
3310785,0,-4.10241062202329
3753705,1,-2.9948089561209748
2157198,0,-2.917723419436531
2704948,0,-2.8474426101132027
2828423,0,-3.565886473842315
1625379,0,-3.316420300740596
2628035,0,-2.9146027292802867
1223364,1,-3.804103952264203
1994098,0,-2.8582453003933663
3227559,0,-4.10504211711352
3374426,0,-2.825205553203562
3413911,0,-3.9358437410440232
1772004,1,-4.256066963674689
3243741,0,-3.2620973464562035
228329,0,-3.377300474973952
3847167,0,-3.0737652222142087
1432369,1,-4.622114189615214
338718,1,-6.076493599155039
2853257,1,-2.679632115366581
1885818,0,-0.3419647676383767
2148986,1,-3.0057452160615057
592231,0,-6.990248869903609
1461338,1,-2.1395624227330656
1254823,0,-3.3975602570896903
1439985,1,-3.316723420557004
1048228,1,-0.33605829153987143
2540207,0,-3.237790295747289
2195162,1,-3.2815422439082047
3661254,0,-3.525853637927029
1749047,0,-3.1846309205629573
1979692,0,-5.583153408160838
3717429,1,-5.4821573079203505
1361811,1,-3.484915731064846
2208274,0,-2.60177536840011
232072,1,-5.670776131750103
2199298,1,-3.8533874794275147
2528349,0,-2.8922265294705545
1309858,0,-2.8765561550047742
2218675,1,-4.908133783793039
2064312,1,-3.3868666485871533
477826,1,-3.467258771247926
3124853,0,-2.932891499127489
1582875,1,-2.0818243503329725
286483,1,-3.158117450126895
481820,0,-3.519667889026204
3490609,1,-5.865423697398539
2425682,1,-4.584001022070268
280445,0,-4.407820033073089
2460817,0,-3.4861581320613033
2778811,1,-5.578458860816545
1812224,1,-0.3508927116761595
3012609,0,-1.9679233911586338
1852169,0,-0.4242423385746569
1581367,0,-4.0574681909823065
3720084,0,-3.6066241289095595
2551637,0,-2.809434801416155
1864079,1,-0.4144631541693501
2667671,0,-7.392031074663694
1350125,0,-2.7077138921917014
2201178,0,-5.213656999729715
3128292,1,-4.008937229620124
1896637,1,-0.38167841945299796
3936346,1,-2.9114231409340294
1489277,1,-3.9111498280827437
2593496,0,-2.278663133362927
3239677,1,-3.3700953606541106
419744,0,-3.641966786689511
2695548,1,-4.214367371890351
1844708,0,-0.33024542257826645
3529552,1,-3.0057452160615057
2732835,1,-2.7568069795353773
2781088,0,-3.6036319524960394
2808880,0,-2.5891425311109675
2709227,1,-4.158708555766826
940944,1,-5.578458860816545
3755802,0,-4.055923962724555
3374557,1,-4.21667449261931
961662,0,-2.855102258743671
1080909,1,-0.38581002092685346
1151914,0,-0.25094131870409214
2938042,0,-2.183552372772343
374492,1,-2.95409380327661
899753,1,-4.331858703040467
703735,0,-3.4052979352683805
1640862,0,-1.9527049770355545
1277799,1,-4.648691247337246
626362,0,-3.1846504106779387
3338195,0,-2.5441671662023904
707986,0,-3.9526056628991566
2462016,1,-4.320089496421553
2783203,0,-3.0338117174472172
3030380,0,-3.2620973464562035
1616932,1,-5.4693322435337866
699679,0,-3.237790295747289
1411178,0,-3.8468166655680145
3832201,1,-3.646149289712697
2146449,0,-3.5425366858798646
1967964,1,-5.716059133687131
1095745,0,-0.35025171875083666
1602442,0,-2.505762521272854
3778843,0,-2.950753155114227
3848680,1,-3.686509726622461
3216375,0,-4.111883018477034
2503624,0,-4.111883018477034
3033086,1,-7.849123567878376
1535958,0,-3.4794309093751505
1434524,1,-5.578458860816545
2962199,0,-2.159405114495479
1330459,0,-3.5971689005522336
1713538,0,-3.4615676537636295
1914736,1,-0.3613904762013365
3485257,1,-4.244672981677122
2032661,0,-2.772902715523562
3878476,0,-2.809434801416155
1854560,1,-0.40379699429737836
3372181,0,-4.551366195596469
2638204,0,-2.2586929397756057
2649844,0,-3.290773552787487
3863537,0,-3.7561706208849857
2911521,0,-1.8524756782473415
2874648,1,-5.054796580347872
2530053,1,-4.680822459353867
2703081,0,-2.8599612703292148
630085,1,-4.06225802569621
2929457,1,-3.3379544845342792
3121603,0,-3.237790295747289
1478558,0,-3.116328972826183
3051511,1,-5.578458860816545
3918502,1,-3.271900839077033
1337718,1,-4.901968137864297
3143010,1,-3.437498069961032
3732765,0,-3.43410188726164
3884444,1,-4.584001022070268
2599020,1,-3.5222408672054244
1084555,0,-0.34840988701412445
3773888,1,-3.0101108601017192
3175491,1,-3.051839416687299
476488,1,-3.6495865809941317
894925,1,-2.951621224153321
1110504,1,-0.3630953949701212
225303,1,-3.037952382626369
280103,1,-2.8735497364724125
3889990,1,-3.8389032909795033
3196106,0,-3.268292695104282
357013,0,-3.0943569759034766
2863192,1,-5.865423697398539
2703438,0,-2.74294263570051
448926,1,-4.584001022070268
1359064,1,-5.228647443794076
1033105,0,-3.377300474973952
3328851,1,-3.9483122072601833
1570879,0,-1.5373618996315415
704134,1,-7.118468091020116
2665955,0,-2.010367924911339
2662025,0,-3.988909637031622
2676931,0,-2.075645040117422
2721355,1,-3.188873229666169
2989370,1,-3.654339932267733
2022170,1,-3.442384887651753
3226045,0,-4.004395539223102
1486827,1,-5.1737115033747045
2137464,1,-4.495732006152828
1693241,1,-3.8418688137833277
3688229,0,-3.9526056628991566
1242935,0,-3.1778475096815217
3721351,1,-4.339608226632602
2050468,0,-2.932891499127489
3453533,1,-3.316723420557004
3838119,1,-2.02018754394437
752963,1,-4.44670485926825
1696332,1,-7.4974388040983655
2446751,1,-4.584001022070268
3367885,0,-4.0988369947731185
2279653,0,-2.781375597473344
3506831,1,-3.45757753480657
1105115,0,-0.29311997906784604
3258786,0,-5.094870237164448
2282064,1,-6.085678841319772
2999123,1,-3.5310105229757753
901415,1,-4.622114189615214
441453,0,-3.573440035496718
2907901,1,-3.1662631871743803
1265928,1,-4.4909301928025345
3765872,1,-2.7934311267609493
3084301,1,-4.002519002283441
2414853,1,-3.7530422444616565
1642553,0,-3.3975602570896903
2136418,0,-2.9153432913778983
1489840,1,-4.44670485926825
351286,1,-2.9238126127395083
2666015,1,-3.9595819780694526
375858,0,-4.84543058980438
3470868,0,-3.2331491663264504
2550232,1,-5.722606056975021
3721883,1,-5.355745898079249
2633074,1,-0.3851399869710701
1325800,1,-4.251555520478429
1625457,0,-3.880869293483081
1071893,1,-0.3760080789396789
1068501,0,-0.36429407545358533
3324086,0,-3.214060084219794
903170,1,-5.009199468772739
3231405,1,-3.158117450126895
2487421,0,-4.243480811328514
255001,0,-2.969757856177022
2124088,0,-2.740375551404497
1390442,1,-3.5703903461329882
2642317,1,-7.2747227364837865
2175468,0,-4.055923962724555
1574593,0,-3.377300474973952
1743840,1,-4.1059843249098344
3895895,0,-3.115381680756117
2929323,0,-3.641966786689511
1456105,0,-3.5971689005522336
1416227,0,-2.889030738523325
212335,0,-0.3072544413073847
1026018,0,-2.6532906404969387
376216,0,-5.713707540698694
3218911,0,-2.7431774403415714
1815376,0,-0.36872354398215634
2516502,0,-2.740375551404497
514680,0,-3.1908799669924646
847388,0,-2.9847177624069965
435765,1,-4.793089079916537
3767810,1,-2.657032546447558
1348002,1,-3.843230708501635
1361780,1,-5.661975042332936
3267374,1,-3.2120063354609565
1898081,0,-0.3328716613370411
3134207,1,-3.8389032909795033
3213340,1,-3.5858605055463526
3917665,0,-2.9838478642381974
2457606,1,-5.1737115033747045
207997,1,-3.6753383304200162
1889610,0,-0.4256840203772534
2627303,0,-3.243641461285018
1225762,1,-3.721143156628754
2919141,1,-3.2056653840058704
1889894,0,-0.3328716613370411
625651,0,-4.778160934789273
1570617,0,-2.978464546217379
1076907,0,-0.4368283434102798
293166,1,-3.9984165166470076
3545295,1,-3.188873229666169
1779706,1,-3.64639835371657
243083,0,-3.43410188726164
1596622,1,-2.8642994575197176
500152,0,-3.2400738843924315
219663,1,-3.104495040840952
3696480,1,-5.355745898079249
1393587,1,-3.851952467674549
551223,0,-4.147558053761585
1812669,0,-0.3079106359808518
1323549,0,-3.1640687896205786
1506812,0,-3.641966786689511
361373,0,-3.6796630724376587
1406055,1,-5.037588470438589
3163001,1,-2.8735497364724125
3237860,1,-3.7260704569704717
1414263,1,-2.8475723694005897
1524124,1,-5.865423697398539
2611292,0,-3.019996191070178
896935,0,-9.164818608385417
3485284,0,-3.055487999420144
847416,1,-2.7568069795353773
669378,0,-3.67651808542118
1406390,1,-4.751522042834525
2635378,1,-3.484915731064846
2198366,1,-4.803620182181303
1107216,0,-0.36158411720433675
2574360,0,-3.8919742269592565
1429096,0,-5.204417157234361
851979,1,-3.721143156628754
2636297,1,-3.54997049459404
1409127,0,-4.311839896569708
1886984,1,-0.3445350127972815
274484,1,-4.44670485926825
887970,1,-4.495732006152828
3438087,1,-4.53056839091551
2446114,0,-2.841229012308865
2520659,1,-5.4821573079203505
3664438,0,-4.693898257458592
1133908,1,-0.3923403967353287
2686750,1,-3.9017689394314345
1711125,0,-3.836199456209765
2167828,1,-4.788033174469774
2117778,0,-3.8782611130848847
3223321,0,-5.894995068448584
2259322,1,-6.620580961854489
823747,1,-4.18887790669304
220996,0,-2.700890898553077
2005081,0,-6.263962480057056
570242,1,-3.051839416687299
1913177,1,-0.38596054366899446
3457588,1,-3.0925347123159943
2865858,0,-3.237790295747289
3269209,1,-3.563736732143029
3123276,1,-3.3379544845342792
2652607,1,-4.320028833909562
2039258,0,-2.9847177624069965
2473132,1,-3.437498069961032
3017746,0,-2.2990148638820025
3200994,0,-4.575943522197378
2615302,0,-3.6321730702918726
3150762,1,-3.3379544845342792
2856589,0,-3.4943250346155943
641427,0,-5.894995068448584
1981239,0,-2.9388866791423456
2234435,1,-3.5295767771790403
3301211,0,-2.7930925470347847
3235135,0,-4.657183927704842
1515347,0,-2.370193007638927
2795078,0,-3.0162256712484843
3432070,1,-3.8387738102420275
2149222,0,-3.6786044568379976
2655781,0,-3.251729319831751
3331165,1,-7.465176669186125
2803960,1,-3.5295767771790403
2026230,1,-4.495732006152828
2703067,1,-4.752329897329464
3085402,1,-3.557382788163078
575296,1,-3.23568728006129
3053194,0,-3.116328972826183
1854308,0,-0.3324334309105556
2423478,1,-3.8389032909795033
2062684,1,-1.8465056770982646
3516959,1,-3.7380474123292866
1025972,1,-4.5908950712424685
3087847,0,-2.458834302575503
1453172,0,-2.074449165891745
1410261,0,-2.9153432913778983
3079476,1,-4.976320020193769
1193684,0,-3.4678826021165623
587556,1,-3.4028119019062406
2014414,1,-4.1810151424566335
3312893,1,-2.9337441941153037
981536,0,-2.5441671662023904
3732364,1,-4.100512754192897
1879327,0,-0.36394253441256486
2528061,0,-3.352595063989102
2827507,1,-4.919936133282852
1896557,1,-0.3640999090308824
3180746,0,-3.4637601759971837
602453,1,-3.4035471676167974
2598607,0,-2.5172469249666114
1970258,0,-3.1791413078796786
3529285,1,-4.06225802569621
1370196,1,-2.8363210626042896
694472,0,-4.671949428674062
1319621,1,-4.554792075295195
1268563,1,-4.393537651235962
700215,0,-2.2219495097339417
2497151,0,-2.0449544842903196
1850228,0,-0.3400269387201115
1762573,1,-3.878343217299762
272247,0,-4.004395539223102
476135,0,-4.0574681909823065
351325,0,-5.1884091158024805
1881288,0,-0.3258253988262152
2106304,0,-2.932891499127489
278122,0,-3.8229056454684525
387188,0,-3.757314666639933
3849080,0,-3.411958190295144
622836,1,-3.4402871410052263
338258,0,-3.1284824964025377
1688041,0,-3.363173145372534
2996172,0,-2.5441671662023904
1360606,0,-3.596916501530544
3314214,1,-4.495732006152828
3796051,0,-3.0736156679945457
3406830,0,-2.825914167956471
234262,1,-4.059160417685942
2135148,0,-3.0943569759034766
1234758,1,-4.728844988977259
1123785,0,-0.33132440714943523
3075617,1,-4.414626376446858
3291360,1,-3.557382788163078
1425608,0,-2.458834302575503
583448,1,-3.6829433778406298
352145,0,-3.7091545497724168
3066480,0,-3.1152257717907617
3228650,0,-5.713707540698694
3201382,0,-4.0988369947731185
1338697,0,-2.9432013285568703
564961,1,-4.06225802569621
1999287,1,-3.437498069961032
263185,0,-3.6714015135235347
2548830,0,-2.932891499127489
506252,0,-2.7649827078531324
1083506,0,-0.3543333490385487
1490974,1,-4.584001022070268
3753179,1,-4.53056839091551
2671713,1,-3.9449024900854304
3068664,0,-3.0535889477828526
594856,1,-3.23568728006129
2768839,1,-4.06225802569621
2594584,1,-3.44591067521124
3148033,0,-2.559185288022062
1990641,0,-2.5872863912698527
3417938,0,-4.089624389463978
400512,1,-4.369333474488346
2451126,1,-4.06225802569621
2746893,0,-3.642245610482819
2048264,1,-3.1705969244132812
412640,0,-3.6066241289095595
362041,0,-2.637466841888813
3503090,0,-3.237790295747289
3529618,1,-4.008937229620124
1952792,0,-2.200313483111942
328078,0,-3.214060084219794
3339992,1,-2.477830231591465
3919918,0,-3.6284624742684457
3949159,0,-3.716635663593568
447244,1,-5.865423697398539
3874199,1,-3.322741487831151
2731573,1,-5.739062953033281
2155433,1,-3.0057452160615057
197604,1,-6.269455875206625
3152638,0,-4.630554042688896
2155206,0,-3.342764985417159
3406176,0,-2.7431774403415714
367283,0,-4.004395539223102
1102122,0,-0.2985226112588648
3051138,1,-3.4979324110114733
556510,0,-3.162835151731692
1236615,1,-3.9984165166470076
3156231,1,-5.108445974480116
3336955,0,-4.034864032126583
2705760,0,-3.028468574639328
2228467,1,-4.405994197466739
2195031,1,-3.868370891497214
1428169,1,-7.9630487965258965
1727035,1,-1.9519451008792459
2785153,1,-4.008937229620124
3459514,1,-4.788033174469774
1702344,0,-3.2466922930579964
1664206,0,-5.105523061714267
272346,1,-4.08266339410155
366173,1,-4.680822459353867
619480,0,-4.0574681909823065
2642038,0,-1.814817689405983
884550,0,-3.43410188726164
3081707,1,-2.571351067290904
3435355,0,-3.5881102430832903
1445267,1,-4.016159493379256
1379245,0,-2.434088949220389
972355,0,-3.680101136888726
1115882,0,-0.3372249787142933
578941,1,-7.72084308478661
225252,1,-4.324994428702936
2683221,0,-3.162115524210101
323282,1,-4.596872995698591
1900817,1,-0.3613904762013365
3310982,0,-2.8133701805115487
3343853,0,-4.293163668164361
2597270,0,-3.3975602570896903
970899,1,-4.592805109869486
3488595,1,-4.680822459353867
253295,0,-2.6563859041365707
2008748,1,-5.355745898079249
2139973,1,-5.865423697398539
1441721,0,-3.1908799669924646
288688,1,-3.676304050078997
3168335,1,-5.4821573079203505
2261926,1,-3.563736732143029
3928223,1,-3.631895013281082
202408,1,-3.9483122072601833
2469779,0,-4.150219541844473
1950138,1,-4.303974159635404
854512,0,-3.586939229113298
604588,1,-3.40859753064134
3005865,0,-3.237790295747289
1784216,1,-3.7925962148255943
1439593,0,-3.2770635441194718
1264955,1,-3.2917107009770645
3008891,1,-3.6829433778406298
2699724,1,-3.0221637062946534
1561055,0,-3.0737652222142087
1016266,1,-4.495732006152828
2495311,1,-2.948264167892479
1544053,1,-5.865423697398539
3538805,1,-4.495112209993743
1946977,0,-4.443766758124382
3715766,1,-4.53056839091551
965756,1,-5.355745898079249
1316823,0,-1.020275708254751
255528,1,-3.23568728006129
329897,1,-4.549719269447464
3095314,0,-3.0535889477828526
1478559,1,-3.2740980722183877
2938501,1,-4.2990655683298025
3147683,0,-3.1908799669924646
1345929,1,-3.235729628447751
2121412,0,-3.237790295747289
2525083,1,-2.1395624227330656
2707381,0,-3.7039422157483637
1851662,1,-0.3613904762013365
1701912,1,-4.05791657834802
2217907,0,-1.640108953852207
1013477,1,-4.61212282816053
911216,1,-4.0262622878599075
3231407,0,-3.5584087461280336
1468478,0,-1.8724983555913295
202456,0,-2.9524664630834745
2655267,1,-5.066676589593962
1984840,0,-2.455773023964543
3020112,0,-2.4837847983754147
2248779,0,-4.111883018477034
2940846,1,-3.436043486405122
2699135,1,-6.415870925753945
1096798,0,-0.3787090936424653
1014221,1,-3.467258771247926
210357,0,-3.6714015135235347
548857,1,-3.237045653213246
2668731,1,-4.251555520478429
906851,0,-2.8419490770998603
3074343,0,-2.8811445235596707
344100,0,-3.0356735454214547
2740954,0,-2.370193007638927
3084419,0,-3.0737652222142087
1894329,1,-0.4023865018133523
973065,1,-4.14255904099922
570858,1,-6.085678841319772
1741345,0,-3.1586889963320206
1883095,1,-0.3811567809061915
3834573,1,-3.8453652274533154
3432322,0,-5.213656999729715
2137782,0,-2.3574394039771693
3179684,1,-3.855059064465518
349003,0,-3.0903347554396454
2810820,1,-3.6071805134217656
3837304,0,-3.6066241289095595
319733,0,-3.3697990801948943
1193666,0,-3.43410188726164
2991443,0,-3.716635663593568
3917037,0,-2.5891425311109675
935852,1,-4.40650300497179
2912542,1,-2.8735497364724125
2618391,0,-4.5761053036356625
3901915,1,-4.675080093559741
2521190,1,-4.176901502845654
1696883,0,-3.6235980330779243
3541762,1,-4.414626376446858
2522883,0,-3.8193214486625857
454956,0,-3.4284569054173732
1430502,1,-5.739062953033281
1508576,1,-3.0057452160615057
2927268,0,-2.857513409459828
1432970,1,-4.495732006152828
548165,1,-3.3477129672890786
567556,1,-2.9673320174400346
1668057,1,-3.1640102213160013
2395872,0,-2.932891499127489
2791189,1,-3.7597481876160623
3466796,1,-4.565378918522942
3441237,0,-4.002931071987303
829213,0,-3.4637601759971837
2009477,1,-4.008937229620124
3207194,0,-3.1908799669924646
3292513,1,-4.584001022070268
2947902,1,-4.649708252445609
1682747,1,-3.3138058590007784
2048836,0,-3.4637601759971837
3179072,1,-3.4611246681768644
2020537,0,-2.3386486267331486
1003302,1,-3.0057452160615057
1789282,0,-4.364184849378483
470704,1,-3.4701322156474235
1614041,1,-4.158708555766826
832570,0,-3.2631944161653545
2877307,1,-5.739062953033281
1080633,0,-0.35631407767077733
1227323,0,-4.234173557363633
1112490,1,-0.3237719257958955
3725970,1,-3.5065495105955558
1472206,0,-2.965390704669015
1535943,0,-1.723238430981133
2791785,0,-3.0737652222142087
196884,1,-4.06225802569621
1566881,1,-3.158117450126895
1367227,1,-5.066676589593962
3914417,0,-2.825205553203562
2476821,1,-4.680822459353867
2409378,1,-4.2960358658204605
1792663,1,-3.3585517068149153
1468074,0,-3.1908799669924646
2973045,1,-2.7568069795353773
3302623,1,-4.008937229620124
1366584,1,-4.400809332961741
1779307,1,-4.752329897329464
892512,0,-7.098842088352336
2170545,0,-3.3946244942380432
642685,0,-3.6796630724376587
858228,1,-3.659461963644794
3477186,0,-1.7798506336324849
1241524,1,-5.865423697398539
882955,0,-2.855102258743671
1718800,0,-3.930281397684299
2496314,1,-3.760860313868493
3204775,1,-3.0925347123159943
2984204,0,-3.0943569759034766
1381437,1,-6.8091181612776825
980671,1,-3.6829433778406298
2056961,0,-3.0535889477828526
1811438,0,-0.35065859627598334
292258,1,-4.38560929150619
3035167,0,-3.8350450714328015
3897055,1,-4.01388147640233
248399,1,-3.4337423372647637
2972739,1,-4.53056839091551
238619,0,-3.1057422777816446
1537104,1,-3.646149289712697
2781142,0,-4.538267071902339
3367761,0,-3.641966786689511
1819843,0,-0.2971672820328234
2397859,0,-3.6786044568379976
3797232,0,-2.950753155114227
366422,1,-4.44670485926825
2771844,0,-3.377300474973952
3297499,1,-7.188429867291769
3416903,1,-4.918149255080909
2890612,1,-3.4359448596235143
1541868,1,-3.5016319947057717
2687245,0,-3.028468574639328
1338374,1,-4.021249703303396
1531194,0,-2.07342430399954
1985765,0,-2.8441082416990935
1688599,0,-4.294989474588367
2632976,0,-3.739233495870136
2707888,1,-4.752329897329464
1548573,0,-3.6268820883480744
2737415,1,-4.06225802569621
3336131,0,-2.9445655104981934
1250395,0,-3.716635663593568
1500739,0,-2.841229012308865
1122091,0,-0.2699124375722888
2274222,1,-4.722892956228679
2772817,1,-4.759280966411674
3762837,1,-5.4821573079203505
3475094,1,-4.433007688813772
2785065,0,-3.1682250171402764
2455271,0,-4.127733632207167
2551260,1,-4.752236435798918
3248907,0,-3.488330697068805
1024193,0,-3.1908799669924646
2505969,1,-5.796349756649965
2568673,1,-3.6702528969908923
1521789,0,-4.002931071987303
3438538,1,-3.282437094802316
990998,1,-3.516171555734067
3371998,1,-5.277944773500405
3216033,0,-2.9882965506525503
433040,0,-3.6796630724376587
734913,0,-2.932891499127489
1723258,0,-2.402347112017015
1474132,1,-4.008937229620124
1641656,0,-3.2564783033003275
2247989,1,-5.578458860816545
2876414,1,-3.61819123757264
1531055,1,-5.739062953033281
683314,0,-4.362377983463038
2842347,1,-4.414626376446858
649170,1,-2.7568069795353773
1157095,1,-0.36833057266936986
2625714,1,-3.7844921225860553
3841803,0,-3.1605399678250627
1916366,1,-0.4428698618715227
1777723,1,-3.363636226521869
3919148,0,-3.3669201946207425
876409,0,-3.2162044274685746
3357516,1,-3.557382788163078
1433824,0,-3.0535889477828526
722979,0,-2.6810386446613923
3544178,1,-5.578458860816545
557151,0,-4.45378203636335
2625435,0,-3.0896036040425354
1919620,0,-0.35392544962660655
3289567,1,-5.1737115033747045
2188923,0,-4.111883018477034
3678736,0,-5.0108148329540185
908581,0,-3.3399627778364764
2016790,1,-3.721143156628754
2706564,1,-6.557308551041482
410540,0,-4.630554042688896
3377760,0,-2.637466841888813
2520797,1,-5.739062953033281
219835,0,-2.8653121954264034
3422026,0,-5.053913487893093
2608690,0,-3.1846309205629573
1436075,0,-3.7561706208849857
1009015,0,-2.0192831870179218
3250913,1,-2.990928830592027
333296,0,-5.713707540698694
1572629,1,-6.620580961854489
439126,0,-3.2644371883005934
2839048,1,-3.4979324110114733
3450559,1,-3.1848966078661807
2282221,0,-2.9689396610063863
263607,0,-2.740375551404497
1080111,1,-0.3733352663179939
3092253,1,-4.230443853584505
1808641,0,-0.31722702076483794
665306,1,-6.269455875206625
3763665,1,-3.1611525848297117
3011764,1,-5.277271980405678
381426,1,-4.883714136471709
3426431,1,-5.1737115033747045
1062774,1,-0.367229895714723
601531,0,-5.462490320785968
1690243,0,-4.881831623765257
3479936,1,-3.6829433778406298
1818321,1,-0.39145182050871474
2529652,0,-2.458834302575503
2851506,0,-3.237790295747289
2880569,0,-4.850785982235749
1647838,1,-3.4603645431093453
1435925,0,-2.2980070716373517
376380,0,-2.9345744507279052
340591,1,-3.4993214661388947
1152848,0,-0.2844183387316077
1052732,1,-0.3726879879397461
1455872,1,-4.121168237540606
1300985,0,-2.8215718110444534
2062092,1,-3.051839416687299
1981815,1,-4.8980471867981175
500959,1,-6.620580961854489
2404629,1,-3.557382788163078
334235,0,-3.237790295747289
2557428,1,-5.340991046701288
1348152,0,-5.143239954133778
2924921,0,-2.588379745908274
2541269,1,-1.8456277018048857
3193997,0,-3.069824818096664
2737683,0,-2.932891499127489
3138756,1,-3.7940735366882024
2248513,0,-2.808373340165313
1624737,0,-4.911400614485974
1835361,0,-0.36394253441256486
1390208,0,-3.5971689005522336
816603,0,-3.7065905169270206
2610814,1,-3.6412154618264414
1987676,1,-5.920484309246837
2824840,0,-3.1170423249144212
323886,0,-3.9526056628991566
1522394,0,-4.311900064333741
3876736,0,-3.4052979352683805
3043338,0,-2.637466841888813
1235081,1,-4.910874348449879
504490,1,-3.5326352690238476
1744108,1,-4.867964761826828
3694493,1,-3.760860313868493
504631,0,-4.002931071987303
3336302,1,-4.009339696286896
2893443,1,-5.99536311475528
3698578,0,-3.5272820518061248
727268,0,-2.709964051627629
2734023,0,-3.079497947046256
1611247,0,-3.2516226099000094
984962,1,-3.051839416687299
718584,1,-4.324994428702936
573480,1,-3.7248486322462018
2752334,1,-3.4277704683729424
3920389,0,-3.046733415316055
2858958,1,-4.460659744835965
1974580,1,-4.615654699648782
2674912,0,-3.3427421566760187
2427708,1,-3.431543297910885
3270078,1,-4.06225802569621
2511811,0,-2.793908909610892
2038758,0,-3.2631944161653545
1209976,1,-3.563736732143029
1988362,1,-3.5975702874889484
3012227,0,-2.3802140793382325
1893807,1,-0.3654573833122873
347257,1,-6.6526069633731355
305384,0,-3.3387782226487044
3000847,0,-2.740375551404497
1726073,1,-3.1668243761879182
286618,0,-3.2162900609830656
406358,1,-3.9984165166470076
2815619,0,-2.6399943856579595
202079,0,-3.0903347554396454
1473487,0,-3.630693665668008
2796045,1,-3.2673026289248166
1383943,1,-4.32678341207654
1609737,0,-5.894390258354759
3700710,1,-2.9290511604045952
589340,1,-4.008937229620124
3904414,1,-3.8389032909795033
397952,0,-4.575943522197378
2245510,1,-4.414626376446858
1143914,0,-0.32616379007065355
2584277,1,-4.251555520478429
1494428,0,-3.9393092851497915
986410,1,-4.495732006152828
2803072,0,-5.2618814901148125
952359,1,-7.796702226909015
1986676,0,-3.3263496962440473
3046610,1,-3.721143156628754
2842831,0,-3.781576757669593
812942,0,-3.6284502020951335
3496836,0,-3.2573422937004954
1867711,0,-0.2949316300713342
3928746,1,-3.557382788163078
2171386,1,-2.807527613763606
3428990,1,-2.7568069795353773
813549,1,-2.920331452629995
293554,0,-3.3946244942380432
1367282,0,-3.2812496012631405
1268385,1,-4.320028833909562
2699276,1,-3.7439619998389957
944624,0,-3.641966786689511
1319579,0,-3.8101018751066102
3099595,0,-3.0737652222142087
359935,1,-5.285374984306902
694042,0,-3.0874451343532767
1069557,0,-0.31915488679677556
872371,0,-3.3172600459927657
2724871,1,-2.6260348540767584
968466,1,-4.622463555011147
759957,0,-4.0574681909823065
3080228,0,-3.2832333893367127
3944126,1,-2.9491744618504994
1475476,1,-4.117293102105002
640650,0,-3.3585185497801042
1642548,0,-3.5971689005522336
1978966,1,-4.375265818685728
2737253,1,-5.865423697398539
2757747,1,-3.3315658285287135
934439,1,-4.008937229620124
909662,1,-5.578458860816545
498366,0,-3.1908799669924646
1603610,0,-4.020381196676468
974644,0,-4.055923962724555
2442091,1,-2.9673320174400346
1642717,0,-3.5679037915501572
1463932,1,-4.22570861661867
3403328,0,-4.649819128380183
3381672,0,-4.538267071902339
2397320,0,-3.377300474973952
529761,0,-4.671949428674062
396691,1,-3.872343917644693
3304940,1,-3.6291176564373466
1664450,1,-4.946968350168068
3663967,1,-4.788033174469774
600406,1,-2.9313407319413702
2858397,0,-3.9320817218682436
3240269,1,-4.238280677659202
566200,0,-3.0737652222142087
329722,1,-3.23568728006129
1401208,1,-3.9449024900854304
3666614,0,-3.7470117932121645
2630424,0,-3.86318075982463
3309806,0,-4.657183927704842
3687862,0,-3.055487999420144
3852213,1,-3.8473319044172896
1246293,0,-3.9526056628991566
1271753,1,-2.596851188617908
1903681,0,-0.35258352929398157
269075,1,-3.3379544845342792
3326843,1,-4.8476325598669145
2913889,0,-3.236447190916991
3943412,0,-3.7561706208849857
1667443,0,-4.294989474588367
2715025,0,-2.5441671662023904
1706106,1,-4.23655544266579
2597203,0,-3.162115524210101
3275897,1,-3.7136283722985746
1680802,0,-3.3004503089619854
1609763,1,-4.762446101996526
2966721,0,-3.214060084219794
518077,0,-5.373404017789835
475426,0,-4.100795466527775
1986474,1,-5.187021031145416
3850672,0,-2.9345744507279052
3244311,1,-6.085678841319772
1965068,1,-4.173396342372156
2705129,0,-3.627406211925596
3208091,0,-2.740375551404497
3738598,0,-2.932891499127489
239695,0,-2.6532906404969387
1491299,1,-3.0925347123159943
372702,0,-9.459663608597758
3926342,1,-3.637471224005619
3735600,0,-2.9882965506525503
874333,1,-5.355745898079249
1403843,1,-4.752329897329464
2902730,0,-3.377300474973952
1073638,1,-0.3208645712797624
700729,1,-5.355745898079249
1639697,0,-3.0856440128073306
1642645,0,-3.3594727629413703
1010402,1,-3.958316194603197
3425547,1,-3.5604962061049306
1683971,0,-3.7386922166544965
646387,0,-2.5441671662023904
1489045,0,-2.855102258743671
880804,0,-8.473602314731979
2792426,0,-3.0737652222142087
1917235,1,-0.33810391966837955
717174,0,-3.757314666639933
1819371,0,-0.33834290953041773
2821831,0,-3.214060084219794
1058360,0,-0.3730464123598021
3667249,0,-3.641966786689511
1707113,0,-4.294989474588367
2222274,0,-7.398996417561343
902050,1,-4.06225802569621
310686,1,-3.9483122072601833
2865865,0,-0.34738081486537736
3494839,1,-4.549719269447464
2410202,1,-3.809486299614312
1774043,0,-3.7077974199844532
639273,1,-3.1527775243058307
3870218,1,-3.255197799743553
1860373,1,-0.4052094790809064
3490120,1,-3.713243144718276
1437322,1,-3.760860313868493
751536,0,-2.965390704669015
2869879,1,-3.3138058590007784
2889086,1,-6.269455875206625
3026357,1,-4.788033174469774
3749735,1,-4.495732006152828
3300957,0,-3.7177353375676856
3078599,1,-4.06225802569621
2844764,1,-4.834978169295054
3249176,0,-5.600571035049203
3753461,0,-3.3616181331101047
3842173,0,-3.0943569759034766
1554766,0,-3.43410188726164
2622558,0,-3.23124210050817
318195,0,-3.9829473257872237
2253683,1,-5.865423697398539
1983944,0,-2.19741807470134
1717073,1,-4.173396342372156
1824223,0,-0.3369493907386709
1274510,0,-2.6970578944819903
1291796,0,-5.533124624896572
1776043,0,-2.4278997573575074
2568960,1,-2.3708286413916997
3102197,1,-3.760860313868493
2215663,0,-2.9169969435896816
3537235,0,-2.932891499127489
2728006,0,-4.387006778955001
2835265,1,-5.739062953033281
1522175,0,-3.0535889477828526
3224931,0,-2.637466841888813
306887,0,-4.732231894246473
2503973,0,-3.328538341566735
1371417,1,-5.080981989224419
2495096,1,-4.118582858409941
1726206,1,-3.604453658251101
1263220,1,-4.867964761826828
1829227,0,-0.34135210335645894
2557786,1,-4.297520901081369
2905794,0,-3.495709084462497
3519223,1,-3.6652790151164054
3520009,0,-7.445125048929264
2916977,1,-5.634068404029607
1407855,0,-3.1846309205629573
227288,0,-3.495709084462497
3337475,1,-4.584001022070268
1994605,1,-3.2632826735486344
3274378,0,-3.7199095958197828
823783,0,-3.131219996728842
3685936,1,-4.592805109869486
902643,0,-2.784578823699915
