sample_id,z,y
3012285,1,-0.09139187495434728
309361,0,3.071203896778546
1522981,0,2.6322641083573646
3292780,1,2.990417221615082
2556497,1,3.1872348999410476
1640006,1,-0.6403644061541731
350236,0,3.1092563050691444
2617883,1,-0.3273699556906101
614124,0,-0.023307873677990996
3003742,1,0.3434600871692809
321049,1,3.3723157933587196
1390745,1,2.912789344485896
529431,0,2.9390449562805947
725634,0,3.263867976574294
1672331,1,3.1418388286812418
3304567,1,-0.29611980839892466
1813855,1,-0.3719427743154164
1820684,0,-0.05354337589152591
1645321,0,-0.5650490941373227
3804294,1,3.052048513005365
3156557,0,2.8483732765257312
550759,1,-0.5338972434480946
3757471,0,3.072078975225381
1488797,1,3.1683373786444755
3700269,1,3.071990893939621
2607254,0,-2.3309290972176595
960337,1,2.905457738080955
347619,0,2.777691328635527
729908,1,3.0995329279271826
2172293,0,3.2245592796200295
1898568,0,2.9249152426386686
2531517,0,2.8411224502384087
2804703,0,3.183136447171618
202153,1,3.0251779141453374
2628336,0,2.4375623703641573
2412089,1,2.817843713526691
3186940,0,3.1461720261375103
1557977,1,2.8509452410008285
2976151,0,3.321089390945171
1663442,0,3.1947721121799613
394826,1,3.2886409405184094
3706639,1,3.264027343194939
1944976,0,3.2702974352877563
3529498,1,2.7085082764636113
1373180,0,2.7912975308218186
1934717,0,2.8660471750727683
3940534,1,3.43788452468129
607890,1,3.128239905305488
3543740,1,3.164081378935273
3885708,0,2.829134503181012
2558202,0,2.8881518938064437
1744357,1,3.248108308703528
1481355,0,-0.2005779239478016
3889063,0,3.133652555480054
3303492,0,2.610308023414874
1295200,1,-0.609818823415338
262706,1,3.11695484081474
2285598,0,3.1309533548556194
563168,1,3.2277537003555397
3358127,0,3.179549989344321
2114933,1,3.066316366799717
1909461,0,2.931945014167032
1501890,1,3.210096729224904
541773,0,3.240261810767432
3050500,1,0.19128025327199963
3721111,0,3.2273574876172266
2708184,1,2.546230715018015
1916327,1,2.959455586653644
245996,0,3.0901747120174674
3169149,1,3.049165041250549
1962397,1,3.354999348937012
2760476,0,-0.8139450078746214
2963094,0,3.069474046875162
1886734,1,2.680797472634715
2615351,1,3.0847315365735555
3864709,1,3.000418689963188
418414,0,-0.9010588873317101
1294592,0,0.2658649538053566
3500582,0,3.3851024065947977
1727840,0,2.844042221722819
1863699,0,2.926706988452976
3930764,1,2.8786808377213755
2262481,1,3.1041942851602
3301745,0,3.230009810797479
1446343,1,3.171821981542434
3538491,1,2.988091092379975
3197497,0,3.1366958431652563
2940296,0,3.225729898561013
1783876,0,3.1140608146424094
479172,1,3.113106382840083
850872,1,3.334711207124348
555774,1,2.9490926963794193
3435971,0,0.955655340092789
374527,1,3.2397360702735782
351018,1,3.142047808926739
2521190,0,2.958697522128964
2529493,0,2.9697744986376
3277674,0,3.0413520793816886
311683,1,2.534013889929385
2062079,0,2.9170998146291574
2905625,0,2.894168154953179
1260707,1,2.8969569554859107
1528972,1,3.1664141925597384
2901605,1,3.233124629966275
1963671,1,-0.39543233178347587
1682747,1,3.015000217819959
3730512,0,2.942535493449269
490757,1,3.1472134234444447
2965145,1,3.3318313712867753
2733807,1,2.9806695156736907
3730325,1,-0.46003191366515134
3163497,0,3.4938314812623865
3853255,0,3.423903902579282
2440989,1,3.3545906638058116
558291,1,2.7733140759658834
1127029,0,-0.8516697933749217
1334762,0,3.271754712045528
3403280,1,2.9881256935794074
255158,0,-0.28546263884155476
3327246,0,-0.6082673750299173
675307,1,2.9110480183070715
2128755,0,2.8260599346078576
856316,0,2.8331578668064927
1011451,1,3.0884686504507775
1136412,0,2.9790679885523357
3754404,1,0.1862104981666062
1065448,1,3.1269800881604706
735097,0,3.2315222490705446
196923,0,3.298217237462732
1689392,1,3.2329799235197894
915898,1,-0.31591597236058105
456889,1,2.8908196603417675
2117347,0,3.1176498899424927
1546033,1,-0.41031468705021457
824750,0,3.0831894547059977
1053488,1,2.82347490891342
2710597,0,2.829100240481878
1421866,1,2.970000221160157
2727015,0,3.1290825956033075
3229008,1,3.048620533277934
1685407,0,3.1684872560621096
1955773,1,0.5240466675705474
271671,1,3.0284668591694173
1488626,0,1.0629523461256858
2252048,1,2.834796516463804
348342,0,3.1425443200100154
2535552,0,-0.28315443096490567
3425219,1,-0.6831353703350644
876377,0,3.1947960479435453
2608737,0,2.8639657919078405
3141773,1,2.6196339240208877
1145180,0,3.031152247504163
1553852,1,3.111382808421071
986312,1,2.8555033427299343
1019458,0,0.11153444150724037
1046622,0,3.1411575448851727
1253623,0,3.145478630618899
1605609,1,2.8999305842150984
2884388,1,2.6159601899057545
1043253,1,3.3590933056553762
3023475,1,3.149284767294277
3438983,0,2.970302439005814
3480956,0,2.952615593055994
2193742,1,3.759691578853484
3370101,1,3.2686048494519517
902313,1,3.0593806227883955
1030886,1,3.0897515807497227
1524881,1,3.1545034543653636
3784694,0,-2.588403013711195
2999238,1,2.9711984192205994
2195857,1,3.0444394392811347
1676125,1,3.1031934812990873
2485272,1,-1.284586814712753
1919103,1,2.7224453232308474
3097924,1,3.4078176644754468
1606202,1,2.8391124296802785
394874,1,2.96030240945584
1427496,0,3.1080280449384827
1031151,0,2.7873269884211744
440498,1,-0.6860744569626349
2926504,1,3.2018953789294287
1810466,0,-0.4244394868616005
3926784,1,1.2896503964006751
833277,1,3.176705512594646
1587596,0,3.076928376716697
560489,1,2.9195196451589034
1391868,1,2.970242383861214
1571750,1,3.1523433838700137
399033,0,3.1439430852555783
3046728,1,3.155159972640796
1126320,0,3.486250547793369
852622,1,2.0993824465897624
648660,0,2.7468870082198102
2614406,1,3.344186974019055
1418668,1,3.1462481876022754
3731339,1,3.1601002487913075
3707949,1,2.903681504989591
1966626,0,2.8303954261890096
941381,1,2.9102821144519746
3468487,0,2.700718491128859
2208655,0,2.834962528248017
2180267,0,0.10304440595044621
3200908,0,2.837164490211319
1704212,0,3.4785421414054953
1046061,0,-0.3439769106545948
3042010,1,2.720867248359059
926075,1,3.124085576987659
1040248,0,2.643915865272238
1210312,1,3.470852914502265
3405882,1,3.5022077189983163
1150654,0,3.230581139176978
1958951,1,-0.2836139313384848
2561314,0,-0.6821288499882415
3029368,0,0.010099672774558992
952333,0,3.113930854727068
1692410,0,2.950574309690625
3342961,0,3.1800836645878885
3020246,0,2.398774410321515
3836729,0,2.878585536853364
2053067,0,2.9741659391921775
1518502,0,2.5579021756797293
1241273,1,2.755336642699505
681681,0,2.2167812980914814
2250263,0,-0.7558953287299588
2192355,0,3.4675858787519567
964055,1,2.9739828976361
2745088,1,3.2652419477528865
837806,0,3.0828256830380956
1285431,0,3.176202924342419
1339776,1,3.0556572864412717
2581886,1,-3.064999445175418
2779362,0,3.0161768949963577
2496292,0,2.731307279519495
3686972,0,2.665183211561064
3492577,0,3.2257651408088854
364654,0,2.8263090949304357
578938,0,3.201050712962717
3765604,0,3.1428041649851077
224427,0,2.5888935406181037
712161,1,3.2241794825898955
3720000,0,2.733366344807615
625861,1,3.296019051279899
584159,0,2.5787980431353876
3243930,1,0.5942184764122876
1958100,1,3.156745215164918
518248,1,3.0392627157731233
2691493,0,2.8262912824317454
875275,1,3.147444358406979
1994552,1,2.87251817020896
663246,0,2.8985112198120437
3406914,1,3.0509212496059233
1453419,0,2.9859970441897348
2232894,0,2.720755970656729
2411083,0,3.0798748230816355
363922,0,3.2263760204531478
2733748,0,3.1361522745993704
3096442,1,2.790916010057776
1070643,1,0.068470217018818
700630,1,2.9425410531738705
3103463,1,-0.2294864390882953
256967,1,2.868007956227935
545528,1,-0.09030044373357825
2544213,0,0.06748043284682853
1903522,0,2.6229819771794736
3904569,1,-0.7412680594959056
1621130,1,-0.22362669298831006
2602473,1,2.67327386910204
3053432,1,2.850330050112699
2677210,0,2.95023538064543
340892,0,2.833784449000736
3418260,0,-2.9689012504508216
1034456,0,-0.22517204879024055
801280,0,2.910974097688271
3288500,1,2.785106845449231
1003359,0,3.1921508044215567
2790805,0,2.6995001728187353
3694526,1,2.9972932171085076
2480262,0,2.6446886589925547
638836,0,3.183310197137858
2720229,1,2.807488997196658
3232579,1,3.029884049364743
279855,0,0.49786312959205525
3027663,1,3.107741764704555
2607075,0,2.8593455988028493
2502990,0,3.4330916921919785
214541,1,3.119056065511124
2002318,0,2.759206335617724
2269117,0,3.110518315607118
3187833,0,3.210578469546999
1699957,0,2.652998294875302
866580,0,2.7995474392773194
3139861,1,0.13135073088707397
3733148,0,2.571976329202325
2062654,0,3.275106232501634
3214368,1,-0.44487832254094517
985143,1,-0.7279859337412049
551036,1,3.3502292289961804
856156,1,3.0101252936291862
920925,0,3.0146020930207644
2216412,1,-0.5755883865501427
475119,0,3.1181690787558054
3457956,0,3.3712372181514683
2423194,1,-0.4474699270556796
1160261,1,0.21729543462049522
3359020,1,3.005029327359054
578176,0,2.7837314281993697
3392637,0,2.7422723844819634
1985446,0,3.2701904495734144
2852205,1,3.031692071643204
3316564,0,2.977587172867527
3470715,0,3.434992608360034
560887,0,3.2159304540154343
2981251,1,3.322417359607462
3381080,1,2.6763993728164825
751900,0,3.2552872116647755
2738316,1,2.769503400421816
3295053,0,2.837359135307755
2818005,1,2.953303825224551
1435218,1,2.674272415502087
215036,0,3.039593753105278
2501144,1,2.943811361094423
283916,0,3.0324991089565567
2708849,1,3.172245904602438
2798931,0,3.230164672306347
1368286,0,0.16294370342527584
1613545,1,2.9629071075594866
1117745,0,0.1417549737872822
1115167,0,3.037827003706585
3750080,0,3.151477855540233
3531793,1,3.1063822236676923
2607020,1,2.8980979629028196
1758490,1,2.6741011688081686
3209875,0,3.218323854617581
2034009,1,2.8052094551318483
1403959,1,3.241881875092757
498203,0,2.8107640123364317
1900588,1,3.044104499103254
1084837,1,2.729147015749103
2509145,0,2.907725296339682
3447621,0,2.9916217533461182
1987278,0,2.90446633619626
1339014,0,3.0033763269898714
229706,1,3.0128596417293556
851188,1,2.9149898736982114
1132617,0,-0.34941550814996963
1023503,0,2.924693763638304
2055932,0,3.1022601151899574
623306,1,2.821228717958736
2910740,0,3.1606847288483775
492364,0,2.457154515682933
1114523,1,3.0636576761245804
2733666,0,2.8717779907432823
3238771,0,3.272975404250445
3946957,0,2.992858053540159
2537136,0,3.1215977438862144
2511459,1,2.91263220927508
354703,1,0.6751626659185028
515567,0,2.852396198449448
1264040,0,2.826196638945237
522697,1,2.5972830742767887
2044543,1,3.211474043117896
1864263,1,2.79180771190397
1744989,0,2.817823675648346
493982,1,3.1681299398068767
1366227,0,2.7807120718584817
1682697,1,2.8143207671894985
2558460,1,3.3568808492466107
820613,1,2.813452798403817
641078,1,2.720732248283523
3422593,1,-0.7833886530508258
3483041,1,3.327034472057374
1326777,1,3.1207509181255504
3689100,1,3.114093189382701
3717108,0,-0.4024012221632557
622613,1,2.861782513001127
3220936,0,-0.605185509272988
1674898,0,2.7681387150082566
549797,1,-0.020569307733947856
1050565,0,-1.6276464171180973
2995097,0,2.964630903189895
3449050,1,2.977966554058023
2533112,1,3.2864395182592676
3679020,0,3.044828710173045
195026,0,2.9227711842326887
2828797,0,2.8534720508526825
1198807,0,-0.5718062764974605
1577260,0,3.0851343437741603
3476110,1,-0.4686601221340994
2522771,0,3.1503814682999023
3144861,1,2.999173305782308
1724364,0,2.6327669708349744
3834609,1,2.662998848713458
3237188,0,3.1466120858080697
1583707,0,3.1034931568190562
1577204,1,-0.252675596263404
1052124,0,-1.3555156617051494
1897870,1,2.9753068467424693
954240,0,2.922797820591859
2272884,1,2.802079723993179
2700703,0,2.8785188832892485
3678482,1,3.389885823462665
2260712,0,2.9358374048092344
2133634,0,0.4146908841551738
3878422,0,3.0622613996167036
3787658,0,-2.5341466869999354
410003,1,3.0584299120068077
2624901,0,2.796959742069555
1582018,1,2.772861742299634
3900135,0,1.0444387423422454
3423864,0,-2.7750075423562266
2166556,1,2.886217118303913
3763035,0,2.818133970612296
3147999,0,3.242236351358105
817923,0,3.315154575929914
596811,0,2.963779176705661
194356,0,3.1021012320694767
504631,0,2.7846368569466198
2044289,0,3.2667154869693413
3404104,0,-3.0208413617220304
3707174,0,0.21095559375915934
973148,0,3.0613659838788805
2392571,0,-0.5232859670238621
982166,1,3.124255664270361
1682324,0,3.260421869816555
655177,1,2.9818218538454673
983757,1,3.0109806145030698
807505,0,3.158792445403251
3280731,0,0.3241335255301788
2815545,1,3.28200884681126
2009083,1,3.312236648975985
3783470,0,2.9741739800701947
3938418,1,3.1315865886784287
1858651,0,3.3609859832419264
593518,0,3.404401418073458
572205,0,2.7958413157301467
1049257,0,3.0828716571518355
2985532,1,2.971742370938956
3041521,0,2.5990840686911203
1915321,1,2.8352681573709195
2627146,0,0.20555566433762018
983372,0,-0.6631165460047295
710065,1,2.6347700970904113
1664450,1,2.968458046995784
3730336,1,3.0380737248975005
822970,1,3.184434086841892
3136811,0,3.033229071219049
2961669,1,3.1546557502636667
2026426,1,2.979445983056424
1374811,0,3.3404345180814548
3435820,0,2.8974314810485384
3779264,1,-2.981614536483257
2495969,0,3.412893284828112
1208367,1,2.9903127669052676
572542,1,2.852465086951197
2506561,0,2.9042158214325293
2748435,1,2.7048406246725496
1767764,0,3.0011650347612555
3936157,0,2.9443584255973296
3761830,1,3.266999367705979
3717357,1,-2.0651347172201984
880752,1,3.222788943737774
2637806,0,2.9244081930389507
708611,1,0.5941110221757013
236455,0,2.922701157344137
3709164,0,2.881702383496865
1528324,1,3.18763642382819
2633941,1,-0.6636878039040024
294459,1,3.095485397320989
2640093,0,3.1234931939761954
1545841,1,2.6659937544780856
1551681,0,3.0802591950800022
3305798,1,0.31862373595360394
941612,1,2.928314988578977
1406714,0,3.0288299332926862
1961731,1,3.1466676955357453
1280047,0,2.847579189596628
1849729,1,2.7922188557305487
3462102,0,3.207820646105966
2269689,1,3.137090822494087
1704246,1,2.967137942605625
1405758,1,3.400073607503636
3096544,1,2.903259201059232
3414111,1,0.6173804624210907
1092490,1,2.878642045522976
2430395,0,2.8618580943722574
1572061,0,3.0279356395333634
758780,1,3.075678439909463
473080,1,3.062916124726868
1705557,1,3.1424338080367336
2864862,0,2.9326881835778944
1231297,1,-2.49902905769474
1330902,1,2.6989347192562225
2142648,0,3.20055395814349
3779055,1,3.2187990486726403
2053021,0,3.184254188682283
537006,0,2.9759666634216297
508973,0,3.0525584051080927
891747,0,2.8456634568408905
3341466,1,3.015174139028554
3950755,1,3.237692924590608
975887,0,-2.6558514451232496
1723057,0,3.6224009197730274
1334676,0,3.415037019522306
1018088,1,3.285888226198253
3240379,1,2.8630453356679286
3077945,0,-1.130556616277655
3253488,0,3.3252796353088208
2396520,1,3.0844245252937
3844697,0,2.894263124328214
3384046,1,2.8648053590415747
1623521,0,2.8191672985959326
3039696,0,-0.7187790220528577
1253629,1,3.032404062335971
2406722,0,-0.366110916009851
659898,1,2.8938831439068124
3876081,0,2.732216993872513
976168,1,2.849371023604288
2723098,0,2.7967421615429755
331854,0,3.2787004359332275
3655976,1,-1.6662837048724828
1365044,1,3.3136348026487425
2754134,0,3.1771758644875097
674907,1,-1.0615968051654676
3395363,1,3.0747560282595208
617452,0,3.0408147072843406
1328338,1,3.1396627938346127
2185418,0,-2.99229365650593
2949017,0,2.8547246592079687
711363,0,2.9385779476914573
1001477,1,3.330802656215512
2126855,0,3.127748523837434
1906465,1,3.1759303374893517
2390652,0,-0.8036482060002375
3281757,0,-2.4616125182339403
425909,1,3.2080925049594256
1683785,1,2.6746272533443443
1590901,1,3.1724683664579003
2175061,1,-0.6456448494876322
3249703,1,2.8619844300060375
3959300,0,3.1185855972517165
1377379,0,2.994354667197506
720782,1,2.8755525301997062
3157312,1,2.8391806842221228
1855292,0,2.618134522820613
642826,0,2.9486430590118324
2802461,0,3.207342990548853
1341570,0,3.2191418556958475
719329,0,2.705505716722697
1197736,0,2.9996288189823215
979819,0,3.373266513746187
200588,0,3.2874547070932496
3182463,0,2.5187039293930917
2688532,1,0.4021102634687969
1555986,0,3.0176678996830146
1159202,0,3.443985019442982
2723346,0,3.4369560029597737
1405504,0,2.7645785370544456
1203492,0,2.7604723427834292
196121,1,-0.8331229677768197
1041314,0,3.260784968178988
850992,0,-0.785694420320567
3365677,1,-0.25283943545674403
379885,0,3.071492491422713
909430,0,3.186381996966735
1407341,1,3.5283978674631533
400255,0,3.3446204794608505
2113036,1,3.074146423052413
2924085,0,3.0116221100412766
3329862,1,3.0379403331505577
909763,1,2.937369769712607
3132744,1,2.6836949040223295
1410897,1,3.360783594575708
2537746,1,2.7667565604906375
2811514,1,2.746524034797571
2528520,0,3.3397079758987522
3327144,0,3.0555957334403563
2775594,1,2.7921510649360846
363418,0,2.906028228180403
514412,1,3.4989856282916256
3257926,0,2.868885481246374
2676732,0,2.9459301253564827
1107004,1,3.2986337460005113
1661683,0,3.049874387070324
1521382,0,2.814556513569519
853924,1,3.0116687648637597
1033546,0,3.128048268563419
892020,0,2.796108788649519
2915859,1,-0.5230358280310085
756724,0,3.1920406064238955
816420,0,2.9940494689624346
2777404,0,3.4480609623679417
3438772,0,3.1379156150599057
2132293,0,-2.6432979415115523
2677052,1,-3.0907121461535327
1076369,1,3.3744606147844136
2025051,1,0.18148377400664162
1058769,0,2.8099633329466993
2566402,0,3.1515372976640443
607481,1,2.9626298064190117
1620426,0,3.0145547466128484
3343175,1,2.9288653268468523
2752883,0,3.027589008645398
1065169,0,0.5760126033659431
321946,1,3.131126768546011
690276,1,3.019581740792805
1397862,0,3.027781990428566
1683245,1,3.63982267460778
3123790,1,3.049464998023721
533470,1,3.3761165685782495
986814,1,3.1621437363920806
1700190,1,2.469683430651981
3430493,0,3.021184142916461
3443494,1,-0.36543076810621944
410204,1,-0.4465606421968631
3363119,1,3.1661495561369457
1195067,1,3.1781697339596255
3308638,1,3.1939471057490847
1299275,1,3.2775039781735162
938975,1,2.862306800349283
2232101,1,2.7809470810341526
3764526,1,3.0881247777297167
1284944,0,0.18368533670154763
3146608,0,3.1280558072747215
259325,1,3.22045065146599
1522351,1,0.42290519161469
2646755,0,2.910389570048731
3114554,1,3.0779801506435214
2831659,0,3.014201697981521
2476009,0,3.207647337276196
504991,0,2.9648740899075245
1428349,0,3.0874235603016564
3170068,0,2.8797890554152517
1516913,0,-0.16078263007361396
307503,0,3.0773974012609577
2872816,0,3.240196419396386
3393107,1,-0.21581550958336182
957691,1,3.019979992598837
3656041,1,-0.2961056434443512
1890996,1,2.990627602767688
3142200,1,3.056855502232782
2523885,0,-0.6491862433066091
616785,0,2.5128690642862503
3475452,0,3.068003375274472
212199,1,2.8224470729048563
421713,1,2.7498730769438136
3855893,1,3.386660438955406
345877,0,2.742332248935725
3031631,0,2.9597561909183137
364578,1,3.301462172141357
2259012,0,2.866381498355066
1864460,1,-0.34987592643459625
664665,0,3.124469515693688
3172391,0,3.080913932871099
275930,0,2.9402858378138492
1743004,0,3.0139283489622626
1617850,0,2.98212484883336
735291,0,3.471327237699202
1569692,1,2.5282819170602524
2160117,0,2.987045702180313
2116965,0,-0.12818275870182622
444054,1,2.9602975381961043
598944,1,3.156296747589801
1260029,1,3.085215237816428
2859282,0,-2.8254677426393586
2853784,0,2.880522411624898
618833,0,3.095572552932318
732180,1,3.375371862837181
1129588,0,2.458821529138313
2730946,0,2.6923040192615004
1327007,1,3.2824718683983742
3164611,0,2.8607841326644396
1898918,1,2.987820792838997
3145471,1,2.921280725836965
3684118,0,2.576250232715606
3693726,0,3.2311182481700085
716925,1,3.2268297712527416
3006148,0,3.1817881381296598
1910678,0,0.08371865078440965
829676,0,2.788357440347155
1068298,0,3.1318553865109333
3364049,1,2.734416659862009
2256973,1,3.1812444949916325
3286920,0,0.6010628889008898
1131949,1,3.1025703857125086
1481974,1,2.9062306683239902
3088386,1,2.936008326285093
2498797,0,3.2474633385573535
2507648,1,2.9844545740187036
3035980,1,3.069686437580083
1447806,0,2.974333586650578
590599,0,3.072945937108116
2769904,0,3.277345461250977
2503151,1,3.3233931599447866
624521,1,3.0156105014135575
2550812,0,3.2836188133484465
3165489,1,2.6161900103843925
3703755,0,2.9077110535073984
2807762,0,-0.5502337239369208
2008748,1,3.086959546748423
1793476,0,3.4679771566064463
951389,0,2.7657631273804144
3456643,0,3.113166561470685
1408684,0,3.761003960945797
3357765,1,0.11796296716605431
349096,0,2.984174760694457
2042606,0,2.867673477515289
3719920,1,2.5176115866946853
1484308,0,-0.5528334291284996
1259792,0,3.131851526001432
2193708,1,-1.926650870570613
2756409,0,2.964726924375587
3165778,0,2.9610324676487974
1373439,0,3.5002373990906297
3449514,0,3.137979289675293
3717948,0,-0.280640280284743
408998,1,3.0874162474429827
3459497,1,2.8851917096338746
635855,0,-0.6694419586237079
1105373,0,2.632001430282283
3118892,0,-0.48652004083970235
2465663,0,3.2685329360275652
2467088,1,2.6037064877368072
230947,1,3.2075167339576343
3320481,1,2.9191404274646335
2637211,0,3.144687402969572
976424,1,0.3862251388677665
2456100,0,2.926310775179667
827472,1,3.097406734526386
897103,0,2.9676045308723213
3309270,1,-0.4722773278061253
3443201,0,2.8710811142003907
3498343,0,2.8187205676567646
3189786,0,-0.5567086810692754
3540086,0,3.1440796288249473
505921,1,0.5248515552720084
3509953,1,3.628804279455692
3838323,0,-0.72162917196617
709790,1,3.5530871780089397
2804384,1,3.211415570570595
1063878,0,2.7575474557501165
1237091,0,3.1293246233839875
2858168,1,2.7254471669359837
2056099,0,2.8508119290935636
3384270,0,-0.28132715611514153
3693909,0,-0.7589435440587726
2795335,0,2.915311184204856
2196127,1,3.2378798833673903
3075140,1,3.030705489370936
255548,1,2.8208727670555795
815166,0,2.784564769417372
1522059,1,3.2397774675575146
2196599,1,2.783817588992666
1962846,0,2.777388551564128
924224,0,3.0857759437234695
3224634,0,3.503615221522447
2576444,0,3.068984122469049
1289888,1,3.3492328747311504
2833132,1,2.7239132949595675
3904088,0,2.922511382708334
2820587,1,3.388075792998917
459700,1,2.9574858452667083
884687,0,3.0744399106919587
716417,1,0.7392487933166507
3868960,0,2.777986942536288
2565825,0,2.782445478831436
1990835,1,3.1599200123474525
2720250,0,3.052511323269918
2676385,1,3.1677644683087354
1744442,0,3.0114266140901043
706108,1,2.820724263402128
3023978,1,-0.7301366134241042
3328993,1,3.13391625032419
825244,1,-1.504161458913061
3791756,1,2.961561057895922
610167,1,2.463871313057906
3421246,1,3.1144024067008282
3394665,1,3.125412707221713
299155,0,3.294025756992898
628423,0,3.355808888220746
2488383,1,2.8000031045650995
2818679,0,3.191017839736749
2903920,0,3.406847892399339
729701,0,3.001832746092735
3736608,1,3.3102626960035515
2009498,1,2.9398845251919696
3932854,0,2.494259436308033
2780386,1,3.085104514131252
574987,0,3.140175826214213
863330,0,-2.231712691096142
317928,0,2.4582417242712133
3406156,1,3.1785152220697777
953438,0,3.158760586982205
1940965,0,2.9969492495355037
2143776,1,3.1746415086927966
2607560,1,0.31177373942940545
1347067,0,3.249828652023131
3003299,0,3.104386165668352
3658820,1,2.5785273431189113
3364783,1,-0.48526449760215595
3272886,1,3.1707435590142747
2285111,0,-0.5325777956288366
2194123,0,2.714138476405911
2236016,0,-2.61061155121013
876976,0,3.1194471258517513
2788682,1,3.0203259710777197
419908,1,3.0267527573454496
1738707,0,3.7434197547737433
2485417,0,3.0039642211026756
1544759,0,3.3209246557529526
2879240,1,3.3462774587972866
2476762,1,-3.117266309414567
2670736,0,3.1651662980391517
3707446,1,0.3595389976927076
3433513,0,2.5734184288285618
3192285,0,3.0754134557585284
1389541,1,2.8796160899812024
2563215,1,3.0233810331738233
2914860,0,3.160030333279442
1771896,1,2.8794858158041703
2705101,1,-0.1855078004297035
1965294,1,0.4965273940230062
2254601,0,3.1379028057888014
2495839,0,2.6374583862903864
2848236,1,3.159144761669631
3754539,0,-2.392950235177151
2924710,1,3.256455634634634
3461891,0,3.0395922737737657
1193278,0,-0.05026643950874556
3269779,0,-0.605814021395593
842144,1,2.9111823030633976
3408461,0,-0.2799042025253669
2571461,1,2.9492044160882394
1262384,1,3.5574208716251694
1662677,1,2.7013520106222186
2492202,0,3.127392775863857
2021615,1,-0.5466727960127649
2285396,0,3.078918521488357
3015521,1,3.1688624948152464
1302168,1,2.8431169543778294
2578108,0,3.187087255169835
1808830,0,3.129366879189961
3666745,0,2.8757763567853805
1374855,1,-0.4251122743350809
360740,0,-3.0074528337731783
1202588,0,-0.7890469506700108
2185775,1,3.3601280495002217
3486891,1,2.9845157785840084
2675692,0,-1.025094117979796
2794952,0,3.3911901308102776
2869631,1,2.9915565569878986
1917995,0,2.9735102000704363
3256203,1,3.139695115237213
473644,1,2.8107135333887183
368191,1,-0.1738014501753947
1452877,0,-0.6478315719839886
1259342,1,3.0503366872737527
2518566,1,3.2969339009319683
1709109,0,2.951301272765409
2874378,0,3.181077821577002
1146415,1,0.044410853019867455
1418765,0,3.30498485634535
3776207,0,-2.5872340550355473
1857164,0,3.3360277074142135
3082991,1,3.0092976075555553
1735962,0,-2.3699421019751394
279673,0,2.776516208284291
2979620,0,2.884453555387696
3260127,0,3.112754644548007
1312205,1,2.8795680895368307
1938767,0,2.9396277830788735
1695128,0,2.8681781941987974
3345808,0,3.2694147562575284
3251673,1,3.2678695863857596
2484565,1,2.4505601876087812
3749867,0,0.16812825583652402
3935578,0,-2.5314099098662086
1603379,1,3.0025833248281932
3016429,1,2.9940903516224586
3201624,0,3.119683726113797
1874470,1,0.2229914639084206
1641703,1,2.6436391958516547
807950,0,0.0907838415755846
2872597,1,2.7426229690038983
1643124,1,3.1008720635605136
2798015,1,0.5230466126441933
319823,1,3.0077289698958976
824953,0,3.3641434965348362
3262286,1,3.2412048193041594
1431523,1,3.3618733115653416
2115667,1,3.421373337036933
3665545,1,3.1812319408857266
645141,1,2.823324224366409
1303592,1,3.181390915655845
706387,1,3.301503437094012
617462,0,3.47902565053014
1165374,1,2.9347931132981
2455313,0,3.0514700446594203
292921,0,3.0386666088025227
2855203,0,2.735537016643398
1048973,0,-1.2480413801747847
2737266,1,3.4986632531212236
3117579,0,2.8831579354423407
2155826,0,-0.7102232968049746
3760100,1,3.16172857938659
1856435,1,2.824088306458718
1640868,0,2.8804686977075313
254471,1,2.984831034491921
1324653,0,3.4535087641077444
344080,0,3.034634200266679
211052,1,2.783963464086363
570916,0,3.22614689518549
1566979,1,2.841853460534667
364435,0,3.0624457887841667
1340809,0,3.3043234213030925
1717435,1,0.05516730969857416
194034,1,3.0952718342998384
670595,0,3.2501551844676433
3673044,1,3.1753289936205955
3507710,0,2.959683564443839
1069043,0,-1.6286631619880878
2104005,1,0.3543712266759498
3921740,0,3.4477403762080523
1592619,1,-0.3223941160524302
1170372,0,2.9097416139738224
1533672,1,0.5988271207537608
2472630,0,2.801333835335437
497032,1,3.253508615423591
409820,1,3.120922822245094
457522,1,2.9291937137973507
3417938,0,3.0147418116319504
3278573,1,2.9806023238378874
1458729,1,3.2502451130417636
3546131,0,2.9816830003258032
427658,0,1.7655352024381605
930539,0,3.3392861849961966
1857623,1,2.914310134248538
1230450,1,3.200240931244767
760851,0,3.0777884217635165
3153153,1,3.0843901111089935
1083719,1,-0.255062595662646
3928444,1,2.925243241390956
2137854,0,3.096911004601234
3206239,0,-2.2906676253709737
3280266,0,3.109414970567536
3686970,1,2.664288710504357
217455,0,3.282854326776102
2474297,1,2.9659869854660337
744355,0,3.0515237064662233
3353794,0,3.2638784240895466
3032498,1,3.0778410646471155
2640288,1,2.6707600796582516
1881136,1,3.1106583210397765
2477182,1,0.00761025610279531
3366024,1,2.659157648521515
1455892,1,3.247668481757868
3807634,0,3.639274351635544
3663661,0,3.3388057464470333
675196,1,-0.8459276587621184
704937,0,2.5762682098816843
2643465,0,0.2235644251968567
1263231,1,3.287370970021469
413332,0,3.0959699479479807
1686002,1,2.9376616638216193
1045528,0,3.44011145323723
2240873,0,2.7880412928170926
2646109,1,-2.7836861321204482
953041,0,3.018644108417614
904655,1,-0.857233172278735
2607057,0,3.376466308313148
1994750,1,3.257336915373526
1360505,1,2.830407490135097
2216662,0,-0.43227135817017326
2780212,0,3.0586202767444934
248249,1,2.779667098322874
1899226,0,3.2964047662588665
1292629,1,3.356280931055056
1504828,0,3.2499674557477114
441443,1,2.7745352022298526
1038066,1,3.052045916840584
3086947,1,-0.17400041625597323
3892904,0,2.9246717822832093
2927220,1,1.0352366318950572
204542,0,-0.08557213666622648
428029,1,-0.7369640902609391
493562,1,3.131675917499826
2810245,0,3.2035361559366717
2827070,0,3.097800954459935
847963,0,2.967073336921923
3422965,0,-0.5911699592091573
1395962,1,-0.8657927772064696
2475593,0,2.8385602912559635
3178162,1,2.896798437190397
716782,1,3.45495329096948
3779800,0,3.276503263948466
2774377,1,3.340432537301706
3154220,1,-2.6707924681975883
3291994,1,3.1079558473413362
3325940,1,0.013327757801567072
1612558,1,2.982978595496784
1880832,1,2.7909776526173427
3458504,0,0.2566550467122821
1094361,1,0.6067334893784386
813565,0,0.3249381465758164
1565156,1,1.2551781066015555
2528073,1,2.986367126800978
658429,0,3.178665535654742
1201168,0,2.631470958362662
3431328,0,3.1049907518618087
500091,0,3.0936991851707023
3159834,1,3.206483109143312
1508381,0,2.621573735744
3423853,1,2.937259931527916
836032,1,3.1228711531168507
1989471,0,-0.9459554846830077
2784372,0,3.2325385424531055
2566745,0,2.7755077415432554
3317992,0,3.1482240368140335
3668895,1,2.9879430932782904
1272416,0,2.976253394760386
1231702,1,2.780804489355606
1074201,1,3.4275326757838287
3223695,0,0.0535724944331487
1425792,0,-2.1301678963386377
1046594,1,3.4197181836421824
473502,0,3.169699367248558
3904211,0,3.0410780508657176
503347,0,-0.8539746310151235
2740339,1,0.06918198772596995
435072,1,2.9138242311978932
2814644,0,2.780478859101324
3918934,0,3.134895363700431
3357547,1,3.20686558636649
1435584,0,2.8176829356938193
754888,1,3.2565613869787495
3884444,0,3.1047441306493853
1951608,0,3.072502604700346
3915605,0,3.1873925457830787
3674904,1,2.824199019717918
290319,0,2.8239027297134194
1892809,0,-1.752640488928014
3099163,0,3.371153085257975
3791569,0,-0.3144918625760125
3430235,1,3.338572568566771
1776697,0,0.272616328291579
3759902,0,-5.013222702092454
599393,1,-1.6787317952499416
3948433,0,2.9520176349815577
3053194,1,3.3887330387355683
985672,0,2.8241090490027405
3402954,0,3.302903516804939
3506124,0,3.489923167379515
1817032,1,3.124093378826262
883520,0,3.1750485307521763
2818788,0,2.958900643240923
1591898,0,3.359095404515722
660752,0,3.3246041057236413
1117050,0,-1.4716414073003328
845072,0,-0.05512212837472569
316028,1,2.8707808757627866
425911,0,3.3561064137586047
2001588,0,3.0524829830958686
1746925,0,3.026936328869807
3770234,0,3.0692735204129518
2651846,0,3.1195157861107963
361373,0,3.281839873352729
1552374,1,2.9685133004264714
1112057,0,2.945189805362635
2450764,1,2.8118788608635934
2767809,0,2.6115337974137316
350510,1,2.8757761095994354
2841014,1,2.772291517782808
3081847,0,3.0444314082036175
3452586,1,3.4089744899347356
902044,0,-0.5318139744464994
895215,0,3.2535193099169777
3539929,1,2.8951719073421507
2421495,1,3.1049407704383793
3383720,0,2.9957780779492165
281283,0,2.973353756698722
2744203,1,3.066905103855198
1047798,1,3.235489118963887
2902592,1,-0.20541565754195185
817097,0,0.9130098640574162
3264315,0,-2.776236831677017
1419794,1,3.1114676754418524
1311713,1,3.1012918045855993
2812904,1,2.8408749902960655
885579,1,3.118653539385743
1284810,0,3.193458095663662
1215771,0,2.825601934676677
3024024,0,3.2581111216161656
2595799,1,3.1676518630256987
2033199,1,3.0431987921141466
2975658,0,3.240332283365614
2234101,1,-0.8134894332950702
2557104,0,2.9603835448496985
728550,0,3.0359981978592914
527014,1,2.8093883604174716
1232353,1,2.5209658230606484
1327465,1,3.337241976723791
1388232,1,2.8503767260038027
500164,0,2.9924330962347914
2888642,0,2.8553047765537296
1881424,1,3.181827858993587
609400,0,2.843935893776768
1903423,1,2.9184207664718813
509612,0,3.087280670231862
575654,1,3.1118532268677033
1908832,1,-1.233767938652581
217582,0,3.0460271702895008
582337,1,2.7835373430698547
3480762,1,3.291182913725174
2611538,1,3.011489127939265
3450569,1,2.95214240773128
1131972,1,3.0484837060429895
1679826,0,2.8176848550487827
1256941,1,3.511638295417711
1588984,0,3.123373075619282
3855503,1,3.4607517238051764
1724557,0,3.1548528116569523
3143628,0,-0.709450110634766
2211157,0,2.6842376477940606
1446781,1,3.18254981944318
3003075,0,-0.24339129750317026
3149055,1,3.2335806359007857
3348665,0,3.0934452828164885
1891301,0,2.9576403837645424
2018704,0,2.971976967146179
1718767,1,3.0327263273245615
1934399,1,-8.610044108099563
3753440,1,3.1416971839973415
1000649,1,3.08398099355507
324029,0,3.457509596341044
3107573,1,2.9619826432260417
1145701,0,3.0268552931898123
1630348,0,-0.3235758980645803
3661135,1,2.8446021079314443
3910363,0,2.818145548784279
1604733,0,3.0682528386699195
3935169,0,0.18413885585948714
1673074,1,2.8922356422690796
2520273,0,2.564255175615474
1002597,0,2.9214429433836595
2671714,1,2.828737715081589
318195,1,3.137843452714003
1730714,0,2.95948322559676
525417,0,3.4124537851347325
3835487,0,0.14872720294650832
233542,0,2.9593178076711726
3532878,1,2.9639398721130257
377527,1,2.995916686318528
3719634,0,-0.6572193848607252
3431799,0,3.360191446645536
3453216,0,0.7214079367407311
1298822,0,3.0623731734579844
2456638,1,-0.8646849940632606
2947751,1,3.025587892217557
2837753,0,2.8647034714541864
2802427,0,-0.02985226423756285
2480815,1,2.7770751554660715
2906971,0,3.02276554259218
1164555,1,2.687217322652531
3869674,0,3.058173674846139
3117743,1,3.294183199601429
1083077,1,2.8438351431173383
2580881,1,2.899060667909355
336156,1,-0.32761521032802976
882437,0,-2.7741854226517133
1072336,0,-0.4563884202827827
1347289,0,3.2294054646096506
3842060,0,3.0333240227440665
3874502,1,2.8041121489528806
317169,1,3.164483494524958
2568550,1,3.102018541524633
1001367,0,-0.29189834056299246
1971348,0,3.34079870045509
2616061,0,2.973982519892701
1245011,0,2.6494994373019565
3109324,0,3.492895126499146
2187983,0,2.5849868920288745
492083,0,3.26565129310233
288548,0,3.239159085137785
2905717,1,2.899926824910442
278369,0,3.019886154291928
2527576,0,3.360129750872198
1615785,0,2.9785250394608473
393280,1,3.266339530828734
435627,0,2.896527460203238
2209390,1,3.40700402077093
2787072,1,3.2199146166238775
1992405,1,-0.3891236841959861
1472206,1,3.1611068406571716
2393448,0,2.9772079898252546
326761,0,3.4064825870107773
2467756,1,3.1022241892756393
977230,1,-3.100504019679848
603262,1,3.1688946675295666
3103408,0,-0.1815488602388396
269045,1,3.363550392613928
1108372,1,2.9640340866916213
625474,0,2.5157769916905086
3075206,0,-0.8678557598186663
3697980,0,2.6961763777064642
1037168,1,3.2394162597326295
3385176,1,-1.5947562007275473
3112366,1,2.843842746975231
2921392,1,3.1557864645763156
1393365,1,2.924235329372576
598768,0,3.4680377944788514
1381772,0,2.934821725397884
2240751,1,3.1803248730781104
2744935,1,2.720193229209076
3911691,1,3.265981876841076
2208393,0,3.1789543372800724
1717211,1,0.03213661895582126
2749111,0,3.2074087131845035
1443025,0,3.045623479271827
3269146,0,3.1995154500279654
2775325,0,2.99569155199687
3475559,1,0.7598929983930938
1053339,1,-1.012596996556036
931496,0,2.929706220845222
1264782,1,2.889950423359493
3296808,1,2.925741654535874
3203418,0,0.3471563423381868
3328424,0,3.3337441378128077
1619581,0,2.9899624592736176
2989544,0,3.354394707676092
2699526,1,3.5743020107060692
1639488,1,3.162062012844574
2690692,0,3.097905329315811
948511,0,3.1244655988541514
2620765,0,2.8259074329609937
3401937,1,-0.22419178820143704
329980,1,2.8912546116438254
1053267,1,3.1757448582656753
1542402,1,0.29477191838717987
3433897,0,-0.08659256472214215
3325140,0,2.695563621562429
2393508,1,3.2976792964448283
3233435,0,0.09050812851221787
2481764,1,3.317454759937019
2706621,1,2.948937811766199
1660436,1,3.1250257460910165
3180121,1,2.8135398695075367
2279891,0,2.85997218815767
345032,1,2.486313879636326
3229361,1,2.8786623342103437
982826,0,2.6354515823693174
734397,0,2.6792007566916864
1585274,0,2.7964651698925937
2449568,0,3.5213688633797693
3062698,1,2.8920912198464603
1648021,1,3.3280210194588102
1896875,0,3.1936033100079015
3735946,0,3.5830791907563517
2439596,0,3.1002738198802016
640572,0,3.0732064210996515
210463,1,2.916338449039636
2415196,1,-0.4067535217923126
1669799,0,2.8004392854402034
2783689,0,3.2505107512963463
2924787,1,3.1117827874317587
1364313,0,3.2046850326789595
3075618,0,3.0467413739641147
820806,1,3.2908181380359935
1660941,0,2.7438217815945594
378021,1,3.1199228366851246
2912606,0,3.088001949994008
3180225,0,3.1539918289340148
2838386,0,2.7518801989529114
1583861,0,-0.711544328745463
1749019,0,2.895114394561865
2172764,0,-2.569142701914885
1672762,0,3.0623464383446377
3876827,1,1.340957642859184
3024635,1,3.064722994023844
1696615,1,2.992601872483399
3158051,0,3.3702544316476555
553874,1,2.925725431842396
890484,0,-3.0721244680866855
3355011,1,2.691821478503703
3435829,1,3.0598336320847976
2274620,1,3.0252532249605117
974644,0,3.204832230076767
309444,1,3.3454496772899347
2858693,1,-0.1735704259424465
3477730,0,3.061151576596247
3699240,0,3.079470303618761
2129396,1,2.6818723991888658
267411,1,2.866827423097559
3313030,0,3.5018415072161364
884213,1,-0.1552326101927924
1779288,0,2.9020406487266452
1915307,1,3.0621232526622344
2722653,1,2.892221253474996
217079,1,3.1864564771190165
3343921,1,3.1959834001211807
3042583,0,2.5577901721908356
1789528,1,2.864378656156998
1438614,1,-0.01779681921655759
2458616,1,3.136427458966489
718340,1,3.4128549433486346
3672543,1,-0.8834985855168298
704752,0,2.83640455699615
1985622,1,2.7459936118304125
1625409,0,-2.031007806223051
1513253,1,3.1110484904405347
2175376,0,-1.3430588967787975
994780,0,-0.6795455537229947
1477571,1,2.4750515029331024
495489,0,3.113763134754131
3481474,0,3.0797779767231384
3419370,1,3.057175897875698
3861602,0,3.0526532841554803
3783154,0,2.758294183269362
3057250,0,-0.7385198820049959
3455540,1,3.08255504914237
3944398,1,3.4447402072532665
737590,0,3.1144899987863246
231867,1,3.132667486615534
324103,0,2.9865397819173993
2182088,0,3.083937534706511
3916141,1,2.5580268467750935
1050007,1,3.441593194994701
1398168,0,2.7573432557283972
1242036,1,-3.328961011844715
816974,1,3.421957412111197
2028639,1,2.8058327567789205
3404492,1,3.0638159647886622
1021325,1,-3.361012786083062
512846,0,2.782024077775418
1671140,0,3.432459304150832
296564,1,2.6745265510208256
952062,0,3.0804379186846034
1975074,0,3.2248972000897327
1375427,1,2.6805137970293975
2535833,0,0.03878220364731766
1003926,0,3.1015104959706803
2757195,1,2.9164837023577905
3952442,0,3.1782344458369156
1047286,0,2.9305004391995304
1418837,1,-0.9741090578588877
650416,0,2.6972193497047328
1626610,1,3.090741875920327
1836170,1,3.0617350027357735
3717958,1,3.062437465321458
903301,1,-0.7475400104971975
2442788,1,3.4098254741138367
2573484,1,3.1669015677244827
1909594,0,3.0953876365975193
1723571,1,2.4871372842257045
2032085,1,0.1524137820892365
1114704,0,3.1205098250919083
1962306,0,3.0376281904698024
3853693,1,3.3385402852061214
3733119,0,-0.09840834296757046
1202876,0,2.920465544239562
2970520,1,3.0497690500189436
2284715,0,3.074526425015755
3190708,0,2.7711394589178813
2224798,0,-0.08634128615460782
3335969,1,3.689689888416973
840468,1,2.750260765498034
277848,0,-2.340910630142898
1052402,0,0.4858764602430379
2160741,0,3.056217700494126
1605037,0,3.2888479082391506
3033666,0,2.981010373591117
3317610,1,-0.5319961127243418
3465293,1,3.0230543210687624
512192,0,3.0292529721872237
3158496,1,0.36311150998593833
1475812,1,3.0517813581910866
1420226,1,3.1373073143878902
2492321,0,3.21496940707506
504838,0,2.960474953646517
933323,0,2.9345723885803383
1809430,0,3.236180292812621
2482348,1,2.9335149668822655
1699002,0,2.4091913511424266
2748171,1,0.5051823961416306
2064736,0,3.1631740392746317
3775802,1,0.35897812184640754
2596844,1,2.8539485006039733
460101,0,3.120772113572793
480501,0,2.961685910940363
1239397,0,3.3963020505610118
848043,0,3.259708160896222
1560608,1,3.350924862269097
1239963,0,-2.968613669315196
2110220,0,2.872119821149636
1648657,1,2.703436156397056
2110176,0,3.2407420289175213
2440563,1,2.8911269140749174
1702704,1,3.083560842691071
1850943,1,3.502493531121872
2797198,0,2.8162817275207983
1139041,0,3.2855761709778326
735245,1,2.974590737159238
405673,0,2.42649754152331
2758319,1,2.251451513263901
3759542,1,3.2239919856428814
3539345,0,-0.36125307232116366
2248357,0,2.82945473663755
2520797,0,2.938955841388976
3324090,0,3.4025549905894676
367828,1,2.9053745020452824
1686008,1,2.9652235350272944
1632061,0,2.9217268745138933
555746,0,0.14199717748416885
1107713,0,3.1691722623046603
651673,0,2.5311544354151136
3914506,1,2.7701739933691414
3443956,0,2.931181576581365
2605507,0,3.6547407727614933
1385841,0,3.0988385099304194
1865914,1,2.821677958131718
3397025,0,2.9736657868722576
1711472,1,3.0665325669623456
364995,0,3.2801773087804342
480891,0,2.789531205322476
2873829,0,2.9631855202121993
281296,0,3.06835425763479
958769,0,2.8464455831975424
2997101,0,-0.5806522768968727
2275597,0,3.028917847900756
597575,1,2.779537313814093
276244,0,3.1565831964353075
740564,0,3.0852966782415825
1870860,0,0.8008049721132832
850851,0,0.7433817452219524
2677579,1,3.2421548372801308
3200625,1,2.960453979113973
1474557,1,3.472780865075353
1770340,1,3.176264275087736
3395577,0,3.0644194357887735
2800461,1,3.1376241202133155
1205966,1,3.2084421708411486
1479068,0,3.0910280577560325
2440832,0,3.238719340230094
1817609,0,2.82095201079913
3525266,0,2.980628891689048
1125908,1,2.5165443536874434
1102514,1,3.036727665765333
2571052,1,3.2523053643761104
1124589,0,2.8200996488541015
1481094,0,3.1277642488644997
1396730,1,2.788259349703203
3407939,1,-1.4656679397229389
2746396,1,-0.6086112083412614
1857501,0,3.027145811747248
265661,0,2.989353154234702
3795553,0,3.281849497044497
676668,1,3.2375647763345894
3059605,0,2.9192396508845566
3766482,1,3.15739271590466
3730241,1,3.32726254123706
2049560,0,2.957475379255335
2508623,1,2.9456808825758825
211479,0,3.4305238728154563
3243380,1,2.7457620387061814
526454,1,3.317130830265436
3914741,0,2.956668881646158
2528912,0,-0.170032894292853
2257615,1,3.197472479861236
485526,1,-0.2296740548850334
1779781,1,2.5723437779417453
2721371,1,3.3561384947516304
3098825,0,-2.7184849239982274
1489130,0,-0.559091466410216
1807658,0,3.0869118901128374
2228091,1,3.0849759453252044
2749986,0,2.7213714432247733
1331328,0,3.1405495946505746
2568718,0,-0.8638599883370837
1949434,1,2.899000806135305
3407364,0,3.0148028943409844
1886825,0,3.139582815462257
2454292,0,3.094481274122254
2924803,0,3.7266709827126068
1077370,0,3.287514286924619
1431543,0,2.669917131900018
3084301,0,2.6175669012518314
724952,1,2.975114796895796
2610931,1,-0.6066525896206728
3921315,0,2.5095643823608262
3937321,1,-0.34722116354045385
2170171,0,2.7638409527366425
1162364,1,3.1084179028024765
1855321,1,3.226804386462847
2625578,0,3.091780895061681
651816,0,2.6158982816213214
1060979,0,-0.08662333941193429
444577,0,3.172594982611717
594309,0,2.9766412845188137
3726534,1,3.5692838330742114
2250611,1,-1.07460879293783
3697749,1,3.135798647631269
2163486,1,3.0010462319227904
411585,0,-0.9193935252499594
2837642,1,2.9642895981599655
1509452,0,3.001913197814469
1749240,0,-1.056180030858946
567404,1,2.8868958046393027
2409574,1,2.9691965616590936
940384,0,3.2850788943473246
2283582,0,3.0447342853374515
2121165,1,2.948099923823149
1394254,1,0.05521797333748091
563932,0,2.923636968222968
3393925,1,-3.3203111056444845
3517322,0,3.142366531892619
319733,1,3.4156894695850957
1295931,0,-0.5516888442628997
821074,1,3.1723125896127837
486996,1,3.127773261065434
985782,1,3.1564656936873177
1523033,1,0.023724732109074227
1516795,1,2.659901373538276
2544400,0,2.7297224376442495
2567866,1,-3.399259934572754
3319975,0,-2.3728852829688036
1850527,1,2.3777937841015575
1197425,0,3.191245789020305
417189,0,3.542529643755488
2424820,1,-0.4147563218121949
2447551,1,3.4904042524173975
2558092,0,3.074887753402142
1413292,1,3.0177242216294395
2831983,1,3.114959392020429
3081438,1,3.0908603961562813
1036123,0,3.2064531260078835
387438,1,2.5876077684654684
820285,1,-2.9673465352202966
2185567,0,3.301748392244804
1410261,1,3.1740335146318555
2035109,0,2.8258007493867607
301947,1,2.949006543398259
1647488,1,3.238677712493099
3077529,0,3.1358086157167135
1428833,0,3.1408535360223664
1376312,1,2.896928612914255
945211,0,3.1040229635166465
1460345,0,3.2171789582418278
2116729,0,0.37745061444874506
3728190,1,3.1196367290814853
532896,1,2.8444711706921506
801704,1,3.0476201251399675
3867115,1,3.238700365998721
2477363,0,3.06428090291269
1330147,0,3.0906529050145397
2564469,0,3.266461783207385
3186363,0,3.0952829072573538
1438812,1,2.7738635363462536
504988,0,3.0253227677849184
593550,0,2.7250814437332207
3269891,1,3.194123154651365
2251182,0,0.6943566557539963
2137394,0,-0.6835135813031432
1376754,0,3.085283522275256
1751136,0,3.095318931219712
2104663,0,3.171278692087347
1287236,1,3.2891530842550427
2598154,0,2.641047326919845
3326832,0,3.2557609711499613
3342080,1,3.3204405141241917
2839190,0,3.1947576848329917
3517262,0,2.6236919123520384
2618314,0,2.8954736825768244
2399136,0,2.2096013976855833
1792036,1,2.858557243225646
386460,0,3.463292405086819
2837858,1,3.4012329715230787
2716271,0,-0.2487268489591132
2946529,1,-3.1002372834235112
2798800,1,3.39708031485832
2471446,1,3.270825716656705
3336229,1,3.005200609360591
3919148,0,2.5837485382510312
294160,1,3.0946271319968313
3321815,0,3.133230841459992
223755,1,3.0522482323344517
2649412,1,3.0027011557032237
1059709,0,3.031937617602695
2618614,1,2.453851822730857
1354647,1,2.862839293181514
1969107,0,3.0321635796376407
3456330,1,1.3276024416795034
1551324,0,2.807983655845869
1814170,0,3.0415561628492056
3710268,0,3.0335332928171064
2411748,1,3.227922939548509
1562840,1,2.9798439755756934
3035708,0,-2.91851318951508
1450910,0,2.8638664908974065
631947,1,3.257350117672365
1819413,1,2.823202628761155
912990,0,2.956524227774945
3462866,1,-0.8733138771218258
3509781,0,3.374229374311277
1321061,1,2.67643587309787
3840707,1,3.412593791616925
1905876,0,2.881666614450973
3872147,0,-0.9263697847451313
2433746,0,3.0752558976387747
3790012,0,0.6187753993939252
2195194,0,3.2065314142894055
1343958,1,2.9392716009974156
1863088,0,-1.1932941436614397
297278,1,3.0737272329564305
1007190,1,3.1535950363377774
3276687,1,2.9724143431891865
422735,1,2.953334078492584
3384095,0,3.0183440034797697
484150,1,3.531496719172489
2646986,1,2.9096272972499584
302107,1,2.602072417346327
3757249,1,0.5453156972586838
452439,0,3.1061156065694298
1546127,1,2.7546675873323023
457957,0,3.1270806667842557
3778434,0,-0.9427990639972669
3309894,1,2.9491327877330424
3304720,0,3.042733913533235
229069,1,2.815002617187299
3351376,0,-0.6702806958574975
3726319,0,2.698184611632441
295923,1,3.0630912698458435
3920505,0,2.8669897730235596
1266156,1,3.309191633073977
2709946,1,3.0270266872326763
2119399,0,3.2544731048870075
3895792,1,2.777924827634576
313600,0,0.38114267229756343
1120837,1,0.2127227293447798
2521804,0,3.4278711613923702
1974346,0,0.7539613775138192
1055521,1,2.70588913452825
1770424,0,3.281711722745183
361748,0,2.526145693239657
3373779,0,2.9803878930310455
908128,0,2.7435475905538196
2823948,1,3.5615890496431213
3211748,0,2.9516499036517168
1858542,0,-0.6295653902572725
2575550,1,2.807281418910677
905641,1,-2.787758918277038
1919274,1,3.013286865869402
3360178,0,0.3060242083154201
1345914,0,2.7710268850516537
3093428,0,-0.6944216821616345
263955,0,-0.21831197753597564
3184330,1,2.6862932815493825
3353705,1,2.813402490293413
3534617,0,2.717534693794007
3346750,1,2.829083107733586
407545,0,2.5658784127800014
214067,0,2.987147060693128
2614724,1,-0.492456976300046
245087,0,3.080101345728907
3727938,1,3.693352097910241
3244192,1,3.063107609925528
1463829,1,3.3352119895202526
3067606,0,3.1586282826406986
943533,1,2.82375700110553
3873606,1,3.1328556575492374
2205224,1,3.5226778093178206
1900237,0,0.0006219874880838416
2274289,1,-3.4903699405788644
703936,1,-1.783343433419431
2869398,1,3.1811198075311884
1580038,0,3.0286434349088673
1758405,1,2.9459677594611056
3788645,1,-2.572439513891566
615095,0,3.1397890091724507
3726444,1,3.1996799868358647
3444660,1,3.103063602448603
3793973,0,0.10558810439007563
1988411,0,0.4812633165284998
630755,1,2.7295288884962554
3267312,1,3.1917297457163327
2875509,1,2.910654171849161
260095,0,2.9562897503844265
3802501,1,2.820551481656744
1053044,1,2.8589970099301807
462817,0,3.3599170970970578
844679,0,-0.8745136513001859
3512778,0,1.0577848149272266
3914863,0,2.890765611555413
3765191,0,3.320414754455908
2475513,0,2.793855580653561
1303525,0,3.1100430251222
3286788,0,0.4046407801353479
3949126,0,-2.331687597177196
200723,0,2.4161563423419463
1682156,0,-0.2504171766122989
3229342,1,3.1982300714605443
1022986,1,-1.1107482003855076
2543873,0,3.2121797728948294
2285826,0,0.1307421602018779
2495098,1,-0.5008413315981147
1832362,0,3.119243786532596
2234611,1,3.356929201842826
1587004,1,3.1001994981538625
3218707,0,3.2848406351699673
3673153,1,3.0630763932909884
2107813,0,2.949650702250099
1283901,1,2.923084721367201
1407404,1,3.0113739468051537
2708993,1,0.7517148025630276
3289743,0,2.9240205894014357
2469161,0,2.990855669066061
3863176,0,3.220274023875977
2611292,0,2.90875144642988
2522801,1,3.2884849210201583
1294220,0,3.14395757981213
2969786,1,2.945063086539358
1033941,0,3.2680228771806954
1388603,0,2.9513955569165504
1551268,1,3.1357989158897475
725330,0,3.312596841460498
993088,0,3.0961207009028944
532016,0,3.0420730576739907
1129243,1,3.1554536924183476
1310679,1,3.070579108875697
2881168,0,2.9210162550094925
1027701,1,-0.017775032098823
602502,0,3.0075240476779665
3097726,0,3.0670033178680867
1746560,1,2.811822615132746
3010228,1,0.29174511105627976
2796847,1,2.9123673047889764
985479,0,2.9591293657392863
960323,0,-3.21958502983837
2611504,1,2.9464201326298287
2926815,1,2.730414437288951
3100619,1,0.6404345046726898
914435,0,2.774226655304333
3119597,0,3.3579939937488614
3768377,1,3.496971934398007
1859958,0,2.9036637970076744
831615,0,3.29304307201388
2181442,1,3.0998990506766826
1991072,1,2.753708292254105
3508398,1,3.1289804597005215
946138,1,2.795618949244062
1204719,0,2.1062393563690027
2149302,1,-1.0492098559114456
419866,1,-1.0321031860609977
1580170,1,1.3693456810989766
3839898,0,2.887854599792622
3456297,0,-0.29277319232977983
1045357,1,2.760829298887175
2898468,1,2.9184246207638926
971341,1,2.8006892715306244
3259292,0,-1.1569691761450165
2601111,0,3.1383237675029463
2908552,0,2.988247243564173
1566377,0,-0.48219780848236604
1020978,0,3.0969602196852826
1225706,0,3.1632517088591063
2975714,1,-1.808659848047378
3912246,1,-3.234934748230614
723073,0,3.3852488830675806
2555607,0,3.042584281661826
824819,0,-0.5595449755525492
556732,0,-0.4275384956006376
2115022,0,3.0126292150167653
2712624,1,3.0932053215307858
3241461,0,3.0548941170514743
1433996,0,-2.4178980288943035
1207042,0,2.877124807469042
2776869,0,2.9043396160438215
3481025,1,3.211546672086403
1521985,1,3.0341053613984967
1427648,0,3.379653016150632
1358818,1,2.898853478573672
3459751,0,3.2132810274387067
2699349,0,3.132508622286878
265855,0,-0.12720323921744775
836253,0,2.920865359864427
375339,1,3.078156761033488
3054038,1,-0.4470901479747408
2991493,0,3.357393637276931
3142445,0,2.966975110054232
517879,0,3.1617661347293877
2464080,1,2.912767568990099
1227489,1,3.177467611837726
1997156,0,3.039375391054414
2769713,1,2.66512241726913
2220526,1,2.832771371032225
942221,1,3.0960284294992433
2012803,0,2.939485898846394
3788098,0,-0.5684436721408177
2833363,1,2.725232422257237
2210597,0,2.769641018645907
3348392,1,3.0307283687829547
3744561,1,0.27325841022784214
1908168,1,3.3679310012257218
3760694,0,3.0775370575156344
1848856,1,0.6903803317605488
1158454,0,2.832736745825591
2014704,0,2.920660805068997
2029857,1,3.0837942676641745
3484437,1,2.710914260621448
2866981,0,2.6515700531105724
1606453,0,-0.24046594545598787
3011224,0,3.115574781014217
3336892,0,2.503662711281326
1712780,0,-0.8758472055526418
2874008,1,2.85909939922849
2557537,1,2.702610408013412
2063665,0,3.3436490738297495
1700194,1,2.9073172924854345
3493937,1,2.7002890954199468
2933875,1,3.0513179604532867
2765644,1,3.275066252763758
2271618,0,2.932531839844786
1090718,0,2.74958785567177
3257835,0,2.9128747914675017
2732209,0,2.861816715541702
1825125,1,3.3047407932964603
2706046,1,2.7317207555399587
3265242,0,2.828374229929015
1523832,0,2.663372018223531
3839956,1,2.8754518432714464
1289896,0,2.709205528387629
1718700,0,3.055146691407975
684565,1,2.999615236153687
2764378,0,2.986194371332587
3842080,0,-2.5545292190975823
1136253,1,0.29152593844500385
829397,0,2.908106905809968
3493289,1,2.922804057928274
2718965,0,2.9655490540231586
745411,0,2.801950678946132
1261939,0,3.3870885640655537
3471757,1,3.2576558783279395
199329,0,3.3403747983631917
1780593,0,3.0918635954348876
3912282,1,-0.7289009935073555
655682,1,3.046492989399277
349439,1,2.9971413461864116
1671581,0,2.791064223785151
1170257,1,3.230727240169958
2713889,1,-0.7222288227468197
722015,0,2.9430926803419997
3954648,0,2.8181998525996534
2499774,1,3.0516108501391486
394377,1,2.6135260698986937
2820024,0,-0.8034464431539987
671033,1,-0.40366518986757516
2916296,1,2.8163030069634574
1542242,0,2.756478313492281
1332551,0,3.044786385109119
237614,0,2.9807136555459537
3841133,0,2.857810303915915
421637,1,3.213945095277427
2247089,1,3.1396376615204553
3087291,1,-0.28550240954324413
1703133,0,2.6818769638933357
2123045,0,3.1480951992597497
1767983,1,2.8785790161014178
2754997,1,2.8869164731928745
1696068,1,2.89467441224204
3193797,0,-0.7320914117841901
2004478,0,3.2654910638489008
2128001,1,3.2330331982859826
2616988,1,3.198088926659759
1340805,1,3.158870691256993
3843823,0,-0.7599015122532892
425122,0,2.86087505510599
696865,1,3.133672458085732
456289,0,3.0729091899106966
1374543,0,2.498088204354989
3286955,0,0.6300190518113229
3490001,0,-2.8092911369886076
3666349,1,3.320955372039057
3042475,1,2.998806708024903
3251868,0,-2.777663366364347
2893715,0,2.5680396575347357
2729622,1,3.091028144043252
2968066,0,2.7653169010147947
648546,1,2.8544895393690135
2935765,0,3.125588146977871
3190560,1,-0.8948436555921582
230845,0,2.983340100655459
3658233,0,3.2382331852089794
1266565,0,3.185392716761108
518310,0,0.37584023513827436
3894774,0,-0.36164989103480294
1514945,1,-3.244474251483365
3178513,1,-3.3646762408807933
2574560,1,3.261812371969669
1206208,1,3.203595543919982
1989095,0,-0.7304335767362787
3215061,1,0.6413021521115645
1853799,0,2.8663869942990328
3673175,0,-0.3180008173118315
1582125,1,3.262700198341908
3704264,1,-0.2743577974019123
3918297,0,3.28050803303481
1681871,0,3.087755469412772
2425992,1,3.117833093376675
1575538,1,2.739813034640173
3860574,1,3.0363552489974266
2139061,0,2.91884479890791
2139810,1,3.224792955935309
1036993,0,3.0707359826937437
476886,0,2.637508251506611
222108,0,3.1967143940015426
2787995,0,-0.21626484475738667
3108841,1,-0.45594998380670876
3202860,0,2.7590051002063176
3666543,0,2.9238368922700393
1969251,1,0.12259621841637519
750387,1,3.0702730004768806
1099242,0,2.8863724816226384
2816305,1,3.1660582662962398
1965615,0,2.8466562508688904
1549493,1,3.0113665372269782
2179488,1,3.0494013363020662
3929431,0,3.1136297210686745
2579899,0,3.2202251875854713
3253458,0,2.8013450720404203
350167,0,2.750279199822076
3496948,1,2.041446432365219
1374665,0,2.9399143702710724
894673,1,2.9607938416885244
580867,1,2.810245542074998
3955928,1,2.7806343567737772
1888625,0,3.2009609904914886
2731831,1,-1.0233666613326131
3883455,1,-0.3316723569391595
1201025,1,3.549270740371513
1554036,1,2.9260013959160167
3405129,0,2.549827166190826
3519839,1,3.1426430742135207
562832,1,3.358691969682882
3435943,1,3.1900122109014415
3703822,0,3.3047905775416315
1460104,1,-0.0295990401513748
2211155,0,3.0838762857797377
2552255,1,2.7849339656808985
509529,0,3.173230412995694
2721381,0,2.88271790413472
2229666,0,-0.9989522979743077
1625371,1,3.363322925866924
1115882,0,3.150247283606397
3207650,0,-0.03276667730762424
1789870,1,2.9347385027338717
1836780,1,3.56121353417444
1747702,1,0.493074473284152
3433191,1,0.09210728796371856
1499336,0,2.878773122120169
2868981,1,3.209681798988995
2537320,0,3.2661371797735597
2815561,0,3.3455903375009046
541826,0,2.9928913244485083
1448970,1,2.985079803977636
3477186,0,2.7368380926407845
1814718,1,3.371302243138334
1906120,0,2.7359495883092158
2703439,0,2.6740513611743166
3933799,0,3.230960818651872
846089,1,1.3803376423480356
2650432,1,2.9804045629961684
2151737,1,0.6469157296923042
193211,0,3.212213245000609
3799924,0,2.9093315202248236
1751011,1,3.130517071202513
3747767,1,-0.9941493074040266
1018627,0,3.273265753482012
3504168,1,2.9512693707433653
531336,0,2.5543954477223623
2841099,1,2.8050162696994816
569818,0,3.396319596108705
2584404,1,3.2840576097842282
2260332,1,2.7592670943606317
1432142,1,3.2501175629088674
2481175,0,3.0201567023197384
1712229,0,-1.2860159437183736
2628817,0,3.3669445000463747
1694702,0,2.8819199522924803
1858590,0,3.120575443561436
1346230,0,3.2819374063690656
652051,0,3.22304127910469
3226925,0,3.1968148829626197
3395599,0,0.8263631492643513
1635452,1,-2.8471800776103153
3091669,0,3.5260176309632265
3204773,1,-0.18462469936518877
338612,1,3.078595692489782
1019141,1,2.876983048955996
2559443,0,-0.33127146231326976
3071713,1,-1.3662900019586666
473319,1,3.1476284487229917
1837264,1,2.8701630733878085
807960,0,0.0676097777284307
3009437,1,0.22727560733097898
991388,0,2.9966169498960404
3498960,0,3.331555623939687
2579184,1,2.546781943821117
840041,0,3.122163341484871
1547010,0,3.004968430095496
2483336,0,-1.8187603890631165
2629543,0,3.1052225686383172
3297177,0,3.1090114568955496
3268423,0,2.6903270897352694
2279201,0,3.0532544688358745
3542692,0,3.0725559505574616
1006566,1,0.29320793320951494
659833,1,3.0007674114741034
3786304,1,2.895942010227313
244363,0,3.2688024367037354
1006242,1,2.470473303672333
886243,1,3.1215870765320664
370232,0,3.2262162875928477
1780739,1,3.2886535983357477
3368843,0,3.1187278963064298
1638770,1,3.3264830528372613
1201668,1,3.1083087894717156
1036981,0,3.2309352069134367
907338,1,2.5288484153214834
2883253,0,3.112448686400428
3922605,0,3.4537390588841363
2870971,1,3.078338486808019
2545841,0,-0.6864343870312603
490809,0,3.1397232680256053
294313,0,2.867927719371119
1896482,0,-2.0197401634551695
2555280,1,2.8018631227467505
1168802,0,3.01476554873064
872466,0,-0.904809074974952
1584918,0,2.924499496780656
238156,1,2.9410320588107894
2202139,0,2.8832908434900446
2988162,0,3.4814442884315935
1490811,1,2.889247337706682
1218165,1,3.5318721827472856
2218213,0,-0.7807465704295758
455440,0,2.863527041361377
1598739,1,3.1812674388217888
1959210,0,2.9194919273334894
724540,1,2.805231548230232
598863,1,3.23491304534841
2190322,0,2.848954114289993
1342778,0,2.9372887697588643
374046,0,3.0114994523845766
1866712,1,3.2236320292402207
2139819,1,2.853763901382457
2228810,1,2.863768156141665
1373636,1,0.33877939915558475
1245172,1,2.9953575712985434
2511540,1,3.2752202542357396
2580317,0,0.644950654761638
724834,0,3.2010216573635097
3096210,1,3.3012465895307677
1562532,0,3.3310986996927694
2263959,0,3.1288083267918343
1195879,0,3.1337851278837827
2191523,1,2.634018910518964
2281869,0,3.255382240304987
3535345,1,3.3421372850123063
1064864,0,3.1579999975939796
1603114,0,2.9495538461037274
2407755,0,3.183542093505284
491826,1,3.1329102953022714
630481,0,3.127379673457038
2700102,0,2.4525517022555747
3220017,0,2.9540530940335317
946841,0,3.093503106291273
1237161,1,-1.1680518582387702
3420455,1,3.3599799786153217
3254318,0,3.0580217820278146
845221,0,2.952447791331248
535045,1,3.0487771833228328
1230990,1,3.424567126245509
1370690,0,3.2725160060263745
446361,1,3.0570127032059187
1486267,0,3.0416716595917896
3507323,1,3.2977449124063467
3009119,1,3.6086542055811464
460611,1,3.3339661429958927
2618706,0,0.2625949184869133
3732416,1,0.3806466336962191
638690,0,3.119025795153774
3167548,1,-3.1302079218249377
3672609,1,-1.832648039810888
2809525,1,2.9437344594339496
1300063,1,3.3088505150785728
1351680,0,2.784654938025589
847156,1,0.22690124430274572
685680,0,3.255377669294921
3863781,1,3.1813149176512816
866124,0,3.0364602336458573
459794,0,3.0449071842711017
1440122,1,-1.8790996559720132
3418657,1,0.08265676838984462
235652,0,3.1626741363640725
567618,0,2.5263686054596226
339436,0,3.129292473358751
1271863,0,3.056035488913125
2037072,0,-0.8117340066172417
1263337,0,-0.5696762957718516
3732231,0,3.13941748994448
2208733,1,3.257961149131169
1662543,0,3.3348439279749864
3167483,1,2.9928161672190825
3151879,0,2.757317126257397
3684548,0,2.6740056260187224
1914532,1,3.106692828732731
2437352,1,2.872362876180248
1349984,0,-0.18322533289155696
1435048,1,2.9263658487447177
2756815,0,-0.8631651639458586
292688,1,3.4534437657564645
1509526,0,2.755008394000367
1253643,0,3.2539604606364345
1740613,1,-0.7132219049950876
2800639,1,3.390626979488066
1534895,0,3.243569682513262
2025922,0,-0.7004743536732857
3114384,0,2.761107141554058
1634049,0,0.16554071203756243
3352102,1,3.0635596943452
873847,1,-0.6494419482335729
3324266,0,-0.6522562169427375
378817,0,2.75745587946402
3283363,0,-0.30457182520944026
1989924,0,3.0899846149571544
490194,0,-0.8254116717915281
3426617,1,1.6215968274960522
620530,0,2.79712668224031
3391340,1,3.5622253452683896
327542,0,0.14317864100772315
2280401,0,3.5387046201859538
2540359,0,3.118777260763739
1863213,0,3.2787792593151805
3185366,1,2.996601395285672
3530253,1,3.1367418876213953
711758,0,2.8743310854573276
1275430,1,3.1182734936052485
2897171,0,3.088999162784336
3943219,1,2.7081824422606586
2795802,1,2.4254259302714094
2900902,0,-2.1884253113690253
3908579,0,2.869953412116381
2705795,0,2.896828366077845
1117577,0,3.139098887742664
1050641,1,2.6891465424418803
2117927,0,3.1359349958867075
1671523,1,2.9586838338099475
2761152,1,3.03110736414824
3781154,1,2.9045656195657408
1494234,1,3.5109627465689863
3507165,0,2.8070271305149928
724608,0,2.9654044310301235
209997,0,3.061965522188374
2257231,0,-0.7541556366654861
2584299,1,2.937038301503548
2764970,0,2.996893395022121
3209507,1,3.202971940593746
3338402,0,2.657480563141376
1014570,1,2.754069290975292
3679464,1,2.864611206911191
1055998,0,-0.04596663616391599
465905,0,3.1556501272475046
2049251,1,3.0606708965264784
1732214,0,2.9661783773581027
1363420,0,0.6191039917888426
1384131,1,2.6810853729803483
1981746,0,3.369671306464152
662143,1,0.7096685417217903
426321,0,2.840682999748675
2433656,0,3.1873939803822484
3756566,0,2.8178557032756717
1429639,0,3.0470482650243476
1616216,0,2.975893717229222
1104162,0,-0.2415323053017819
2137835,1,3.0199864349777905
3104186,1,3.008148109538071
1981335,1,3.4305583028417757
1933760,0,3.0300913052573413
3862039,0,2.689000271079106
1888223,0,3.1431298442378437
2273539,1,3.009881732747072
2409598,0,2.8321914498800327
696267,0,2.9007465424671994
3311983,0,3.2681461479405676
193733,0,2.966922088674563
814740,1,3.305889457302696
1757866,0,3.261784688048464
1874697,1,2.916042289153361
867569,1,3.1722266808065838
2685675,0,-1.0738130867521598
351754,1,2.9073229926415016
2560022,0,3.112323773787711
825593,1,3.0877818303913784
2721918,1,3.181317568947824
1410244,1,2.9823332290374367
3503701,1,3.1752450832902848
3868715,1,3.4340331960818986
2032844,1,2.7468896477553697
1551245,0,2.7984845635424476
3780370,1,3.0508769671235516
3136011,1,3.4271763811291955
3752131,1,3.126692300213901
1161152,0,2.861112825513705
3347021,0,3.273880819905051
1268589,0,2.2722729749038453
962045,0,3.018463010864627
655009,1,3.461100843023961
2120364,1,0.26995864480438814
3366108,0,2.9178695076600585
1009525,1,3.0432119879959
971148,1,2.965913157750958
2262808,0,-0.9747907779287905
1543992,1,-3.4546016169905913
398405,1,2.5373039218449307
2815502,0,3.5980360287902835
2128157,0,3.076601224039733
3449869,0,3.0265690782828267
3365118,0,2.840665650277667
1160191,0,2.626660736296568
1118988,1,3.3213123719711426
1318865,0,3.189936249743856
2403887,1,2.919537397296944
3103520,1,3.1938063771035807
630290,0,3.3685679322389914
3264378,0,-0.2595645290291173
1367085,1,-1.3772327830195121
370889,1,3.3067278894348466
1757758,1,-0.655948105456295
1309610,0,2.9233401032216193
1572111,0,2.8332777986174635
2500100,0,3.094713576619072
2907024,0,3.248045585076631
1424600,0,1.1768606915640518
603108,0,-0.5583291166913772
3801246,1,3.4371687938275155
2246241,1,2.979866647977315
3657354,0,3.0394660949489727
603019,0,2.7349873209376545
1110148,0,-0.3532050412155154
2117131,0,2.778500549527833
1913402,0,3.1458173532401066
750564,1,3.0932934611453065
807840,0,3.234958843634436
2620554,1,3.1315833143677594
1358347,0,3.2716262629583106
473214,1,-3.1133583649397774
3906577,0,2.871294389247101
3778997,0,3.1527225502455147
3377077,1,3.0238198176504185
3112612,1,-1.4399298088948702
611038,0,2.9922899942162773
1515995,1,3.223100662880293
2849898,0,3.169393682356937
1859900,0,3.1019890317668986
1624723,1,-0.3790712699172125
1004907,1,2.7316418459971303
2569834,0,3.2021738845281287
3682908,0,2.931827497982627
1431539,0,3.408870120557695
2003717,0,2.5618397293195567
2554549,0,3.3428743828171674
865741,0,3.066775320300731
1499139,1,3.3689132371845467
871565,0,2.574065920407459
2454536,1,-0.24546642664133903
655482,0,2.9748648412869625
1384111,1,2.812108853732974
2183099,1,2.978484108033767
3479845,1,-0.5027528151274593
1846843,0,3.2180320099620014
455455,0,3.5193597824677063
384296,0,2.9955453751241605
1223470,1,2.7243694382964603
841894,1,-0.2480640974827225
3422687,1,3.243305831154847
2574954,1,2.8850880582310134
2398746,0,3.2140568438619717
3900843,1,2.84027341895585
1386663,0,3.034809516558543
2921383,1,0.3870741501649302
1809237,1,2.8587909841087593
2872651,1,3.0209946551272147
2553291,1,3.1601833655289244
3477769,1,-1.683540269285645
1568403,1,3.313132350943732
446118,1,2.587054796693391
698502,1,0.8302182917596079
1219519,1,3.242710367432074
1705974,0,2.8096650979425863
3444536,0,-2.322947054299121
3231802,1,3.2005918147966534
372154,1,3.429281659356239
2648679,0,2.651816679924839
3009458,0,-0.439445742366894
1275937,1,3.02196388018667
2885236,1,3.2279501376015025
3339266,0,-0.1316754707455
1421545,0,3.21205233894823
1903662,1,3.1735201103292994
1715258,1,2.843654526895539
1632144,1,-3.3227158464442414
747635,0,3.294866376454048
473204,0,3.333276461576499
3075018,0,3.0936053549497387
1584251,0,2.992627935200026
1086021,0,2.4887390951917605
1033257,1,0.1510935701933936
1907340,0,3.0659459702341896
2439809,0,3.5472272669196436
3468247,0,3.078860965422663
407371,0,2.979732227201179
1367755,0,3.2856245593713003
2245421,0,2.723147426647678
1567040,1,2.8378245300526066
2757427,1,2.8843035538149064
3521391,0,3.2593149886898325
619419,1,2.61739556651521
2649904,0,2.745312129485582
2826678,0,2.4455744413262743
2697004,0,-0.529531063451864
2127023,0,2.9025506583124483
3785121,1,0.7397017703962985
1750093,0,3.271325573114075
3883113,1,-0.9652636095343847
3128705,1,2.7482145578194146
1146694,1,2.996768060031469
1346158,1,3.0230946167552513
282091,0,3.016211665569705
1142679,1,2.794003904497627
2546129,0,2.874331625244945
1331125,1,3.106875874527487
2023165,0,0.30876489664278733
2845800,0,3.1772278363226265
3531217,1,-0.9090118288904063
2453325,1,3.268992410958799
2905650,0,3.181705270314506
3740393,1,2.559235627015184
2824861,1,2.9478053711154835
2921936,1,3.203345339709162
2746893,1,0.16706873911544398
815357,1,2.946004494950314
3244516,0,3.1019299722651654
636696,0,3.1599006386324655
720827,1,3.1003364356119434
418508,0,3.351490444220958
393318,0,3.0804302948340765
1404194,1,3.213610281340767
1877442,1,-0.27716712572622393
3746242,1,-0.9394233204499594
3177875,1,2.59233576792442
2933102,0,2.7621217992988445
2408109,1,3.074265117210577
2049048,0,-1.5892203305329593
3693473,1,3.146286316035369
1787320,0,2.6428822515583352
305139,0,2.7838667213026964
1152848,0,3.339620305832461
571895,0,3.1800978194288567
3446492,0,-0.30462225000438825
741421,0,3.1936695903963006
2739966,1,-0.5289113796072216
3693265,0,3.1476668056175794
2151909,1,3.141597407316871
3361179,1,2.741897321094586
2033095,1,3.063940863155312
1115308,0,-1.7117723127031326
728451,0,0.03113996082950097
569644,0,2.7794932841479474
3807809,1,-1.8671048780616544
1729651,1,2.7690616723244146
3793970,1,2.5868461815926027
3295745,0,2.8569962219465657
2442543,0,3.132116782102904
485900,0,3.1700446568554326
2738958,0,0.6471175765569008
3209928,0,3.067604144758032
2020058,1,3.184322870338265
1568441,1,-3.3060723616900973
3679560,1,2.8383610705240137
1578193,0,-0.27587577263263063
1430422,0,2.9624711254331757
1826992,0,3.1814169095886164
1164120,0,2.529339539702621
1077237,0,2.6308217203792648
371125,0,1.0875597380074602
805327,0,2.921186137358855
1209908,1,2.935653003084116
1168408,1,3.0642913673768986
248805,1,-1.320664768011914
1200227,0,3.2541013110412362
2507736,1,2.8531761143960472
1479799,0,2.995343027890703
826714,0,3.1765522867779863
1299858,0,3.1370372606565766
3095482,0,0.7022853895958096
3452974,0,3.158437469453246
1407974,0,-2.0602745820729056
1319597,1,2.772936064706262
1941991,0,-0.6948014205030275
2861777,1,-0.9453312557361562
1623941,1,3.0933391384905384
233530,1,3.5017898984723543
2262940,0,0.06675058643075751
3210785,0,2.8308078227751503
564736,0,3.3915710464871633
816080,1,0.1114445472457849
2466109,1,1.4871292047360671
3843913,1,2.7315690047989816
3780770,0,-2.6983008498355705
2621818,1,3.1941688121016587
3948743,1,3.019065914680105
1312988,1,3.105339012529188
2200932,0,-0.9537756870717955
2047833,0,2.810096193482027
1878117,1,0.2131048649939111
3400816,0,0.7358811879452394
1081281,1,3.2565625833427188
607444,0,2.976847349990015
1677523,1,3.0513823216112606
3496836,1,3.3493523750043726
3132978,0,3.0172547003081625
1708131,1,2.8405404606098004
3444708,1,2.7077158626935014
1668057,0,2.6497944586893163
2276155,0,2.6771919608256955
512973,1,3.1491941023249486
2271202,1,3.0319516918122056
387383,1,3.0869306326938983
347381,1,2.9556857346147907
1764852,1,2.9711526436378533
2523784,1,0.18361288719094865
981417,0,3.1989561144327796
3076382,0,2.925299055092107
1824845,0,2.7690353217948083
2577246,1,3.1963791064295415
1993966,1,3.2466037407486046
2039387,1,0.7376614541564165
2854206,1,-0.5868330297084825
394216,0,3.056027118225386
1792060,0,3.1523692652038884
3158256,1,3.5599291379377123
1441851,1,-3.2476121727535836
2261044,1,2.8510127576356155
2176652,1,3.0574033667663687
2474616,0,2.9082151955685367
477360,0,2.8503446502262775
985505,1,-3.250104414050022
1916065,1,-0.1291277342198788
2233151,1,3.2387385440729144
1192680,1,3.164328735942797
1768372,0,3.132813580422213
1591724,1,0.6299008740722717
2662758,1,2.911227411993607
2817731,0,3.0453713739537216
2249011,0,3.2925400755181355
2821182,0,2.754026452531911
3383105,0,-0.3909225458457143
2460936,0,2.9859062994021266
637436,1,2.753106716541965
3204582,0,3.1761071582112304
1831639,1,-0.20544943023831558
1664697,1,2.8421676307845236
856253,1,-0.6594218737377379
827296,0,3.1153856576941776
2666149,0,3.19344889127638
1208613,0,3.341648334309597
2897665,1,3.1274636656271673
678865,1,2.771184500998333
1606974,0,3.1563511142026552
2837624,1,2.9681763420041407
355840,1,2.846675000646581
281662,0,2.7303770032095684
1444327,1,2.833860552674639
1519023,1,3.285265600063097
575868,1,-0.34176686060537453
2873689,1,2.698249896149091
1744932,0,0.3844908638918248
1465938,1,2.5717413867813628
3674322,0,2.309958150378472
2647820,0,2.9052091232795956
1423846,0,2.7878404252444415
2420526,0,3.146263410571994
2836874,0,3.4366105062151617
254637,0,3.2289787963067598
2701064,0,3.149284013642953
1239322,0,3.244148485609396
3331580,0,-0.8015098192080404
377813,0,2.9439013716808224
2430771,1,3.0693529987001464
1828381,1,2.896050530069789
1700766,1,-0.4372945397071167
3358540,0,-2.5542290900996325
3777165,0,-0.09834816138707557
