sample_id,z,y
2207952,0,193.67046611918113
3931946,1,310.41399480562893
483865,1,49.805288988540866
3106101,0,194.45319920920227
3307645,1,49.427776439675874
422913,1,-3712.074902286063
566838,1,401.52162872039713
1979531,0,225.04857948912624
3871190,1,365.1372703385962
1811875,0,331.3678651190285
3856515,1,642.4330801857101
1762958,1,326.41626177876634
1335799,0,215.1254756783175
1053436,1,327.1031170549831
2783439,1,-12.104757894135066
1846891,1,311.24024146724065
3423318,1,-34.816377303043794
1268342,0,194.6494180206305
345948,0,-66.28212777542618
840750,1,-2.830198740345352
2536095,0,187.09228556302492
282020,1,401.53865487578673
2694726,1,285.1523956309444
2546014,0,215.34635381616863
3761436,1,401.3229497112955
1952460,0,205.4356365914279
1506468,1,248.53168554577744
2281087,1,525.9805390770251
2585525,0,303.5009322435653
3920560,0,304.3048647880164
2121493,1,249.14143118946185
1095776,1,156.36890658361008
2913496,1,527.233744779153
2430979,1,427.208389961243
2676071,1,284.9505529157351
2941090,1,527.0562127332541
1593655,0,187.52872775863204
272175,1,141.2780337809948
1489455,1,526.5656678251438
2928979,0,214.6826282781038
3059588,1,-12.602006139762409
3832723,1,526.6308951423298
3389417,1,-11.87718720242205
2281667,1,527.0484290959018
470456,0,-72.67488695318983
620926,1,210.76592958411103
3113250,1,264.8318663458636
3670487,1,526.7507846353708
1523601,1,526.7831527295587
2860417,1,401.45336963926076
2649844,1,249.40492885411095
3045855,0,310.81317000793115
2924324,1,526.5554068907956
626083,1,400.71585555432387
598898,0,-73.91060843396292
680349,1,-11.610873372770335
1916259,0,187.98626925921914
3245623,0,187.23084693004992
2114014,1,249.12208110511617
2764774,0,194.1816706087213
2470737,0,187.61302858111875
310170,1,310.40605812371984
317204,0,187.8170780052654
988686,1,314.16412172076
260634,0,304.549263627977
969778,1,310.4011220446205
3043354,0,187.61652087048753
3414564,1,49.36925410636079
328983,1,118.21243037517993
1690742,1,529.5844970546302
3296191,1,427.2801532402091
2973045,0,187.81071209597448
2884474,0,195.10391753103403
3394633,1,427.17705947694355
1611609,0,454.0074979712988
2875563,0,-50.18624498475091
1443132,1,310.14709344379395
1717435,1,-3612.9760948943253
2981482,1,401.6189771377384
1250547,1,526.7784971101437
509689,1,13.12455095625898
1090776,1,141.34212333512565
1126780,0,187.69023693170902
2729622,0,194.96825240519934
276778,1,248.8084448693992
3711084,0,453.8013781187607
2811410,0,194.73531014284032
1164504,1,365.85627818184577
407429,1,310.8482493223001
1882520,1,364.98844087695227
3461081,1,643.8791909890683
2660019,1,401.5410988787769
2275735,1,401.78525432618943
3161210,1,310.0553158429971
626717,0,-66.27067504649466
513597,1,-50.67602418903055
194859,1,570.3619880102575
1738322,0,194.9602178687096
3000232,1,427.7846690496779
1391053,0,214.30467069853538
3004921,1,364.72067614016487
3487243,1,526.6591274625277
1959826,1,438.2224403857331
551054,1,141.02933299333316
3060373,1,248.60739909798588
3118745,1,390.2725687365816
2488570,1,434.53976393331436
896935,1,-3962.13307181933
2707496,1,643.5668557946077
3005335,1,401.6910611609005
639290,1,-11.955756224862855
1615368,1,427.48271026028544
1446966,0,331.7738886544727
1680240,0,198.81988735503418
2972403,1,210.47727215387587
3339390,1,-12.369866852801838
3179021,1,249.2381619082849
3744464,0,187.5015450826795
730090,0,194.34499580379898
480618,1,569.8403499224504
1397095,1,401.6031184364654
1315450,1,248.6296678295087
2468481,0,186.9858013516999
477101,1,47.27027151950759
1217653,1,327.3376161940354
3312263,1,276.3918619323557
3185875,1,248.686696946844
607890,0,-3696.8476853287525
1221155,1,310.70956704668305
1130429,1,327.5055515332842
2199255,1,401.9690958084923
3899300,1,643.350497329373
879418,0,453.5168221888433
3174403,1,310.3243474623488
1862530,0,304.0101568191255
2658248,1,248.6441179610942
971349,1,526.3692079297568
2914152,0,101.9688543841246
3934674,1,40.127055353964316
1147216,1,518.4462990895751
3039319,1,248.39710940395113
3041197,1,210.42505076349573
967823,1,47.15280694158406
1582992,1,47.731877297664745
617478,1,-3749.5864721742587
3950797,0,102.35305377959943
2665356,1,248.1760515306878
451705,1,308.8711980948985
3386419,1,156.27681950596147
3692937,0,188.1710872029491
3271840,0,-66.37447416722222
2114541,1,49.14607388071058
3249720,1,427.27400885801615
1033907,1,426.82694543141093
2907963,1,248.64052722906308
1020218,0,473.5743868840837
1124992,1,470.02920300421226
1551282,0,214.0943259617516
2557385,1,518.0928224466672
1988554,1,247.8160462254897
3777075,1,279.4312669415747
1753991,0,304.16919842538636
1277972,0,214.1557105334335
370132,1,310.50256137374816
2993037,1,517.6205186248262
1896972,1,526.5051678729005
442450,1,265.1145271080125
515043,1,786.6020224501834
3005865,1,249.25807144014692
3844572,0,183.2744799205423
555746,0,101.49980839801225
1108628,0,193.92512401266845
3475143,1,118.03864017079339
2504631,1,310.6385971416538
1136125,1,426.65902412025065
1024689,1,97.19097760144103
2396689,1,309.8063329571547
2175677,1,401.31932512050633
2426364,1,327.2910216604397
473723,1,47.70824985736333
259437,1,401.87556592537163
1235610,1,526.2132446010263
2551560,0,214.49929831354538
1528044,1,310.53909973269185
1002571,0,51.57907304915839
313647,0,52.3099276001735
452511,1,310.2399895072641
2986709,1,310.7780010901564
3264842,0,187.1438132112342
1210791,1,525.9175793246087
3691412,1,248.44834463602425
2803920,1,210.42240849216637
289677,1,401.1655161472292
335100,1,526.3536859622317
259985,1,643.1520728140912
533680,0,187.61486715439986
826663,1,401.11800422172377
3419475,1,238.618534499541
390009,0,-66.68060768816116
1705581,0,132.70599540675587
902721,1,643.1990991864576
3075729,0,186.9036788089592
422479,1,401.36203102642486
2577246,1,661.0327519881346
3660003,1,369.5415523206375
3893753,1,570.44708666722
858173,1,140.82236323877947
2557621,1,156.57402458141317
301890,1,526.4625644217803
3534046,1,433.7849302368412
305002,1,311.1122268284015
1915839,1,365.5433286896929
3772061,1,661.0456604439574
3662030,1,-12.40867228143771
3198725,0,-3955.5918372142546
2741107,1,401.51571798131954
820436,1,93.50114200901092
1637997,1,526.9844620306104
1091982,0,194.61058918464312
2782251,0,-45.63330119682759
2642498,1,310.592936586374
1790811,1,326.06902607151966
1974924,1,538.0022611169791
1030203,1,526.9797249554342
1304583,1,281.98819267603307
1636927,1,365.5592002380172
1084637,1,518.1447237509647
2694631,1,309.3947246777973
2792111,1,248.23136935831434
2192886,1,210.07901091200011
2716261,1,141.14674097588824
1977052,1,537.1965309193429
1265827,1,248.76412276069198
1207865,0,186.96324508391479
567297,0,-66.37608237598516
637917,0,194.88632181186227
280603,1,309.8442841778571
3105772,1,249.2124059880482
3033303,1,426.2386071084992
2152387,1,401.4129175714856
589379,0,454.0682570750259
1831737,1,642.9466967575436
1027775,1,210.85627095868003
2908218,0,187.20176092081448
1854996,1,210.4140180065588
1271422,0,32.06307373061522
2965856,1,140.50294620766462
3077415,1,643.6282003101355
205320,1,50.440352064995686
744868,1,401.99984390637445
2183170,0,195.11753583969826
2605748,1,648.9063546636195
387496,1,211.0270397789067
1091652,1,517.4425927000849
3302085,1,265.76706714064585
3330128,1,248.35200892790226
3710459,1,210.77648237174753
278681,0,474.76694331893697
2045174,1,-3901.320185136916
2700639,0,194.53461112158564
1636419,0,194.37628901420695
3235308,1,-50.87566527845206
2043968,0,304.600916099617
2973641,1,518.0640382815162
1573953,1,364.38760990943985
1220027,1,401.5070348866575
3711895,0,-46.73912579173132
2205000,0,194.6856532861871
2048241,1,643.4814794743244
3136871,1,-77.53499897603184
3894721,1,800.6799334232987
3929718,1,401.9664355349011
3475823,0,-173.9026094519657
834414,1,518.2765220148684
1571750,0,194.51541485236478
2783637,0,213.95119144420516
1287114,1,515.5588019228561
3129416,0,214.7965656754019
1498169,1,310.13317165119685
711027,1,139.85348773511453
2701435,1,527.1864676365824
1988172,0,215.0137920487111
1646286,0,184.6808347948898
2041044,1,299.711892718997
3945840,1,49.129855529100695
525342,1,526.2636662922661
1423377,1,402.24257863124933
1292022,0,-73.11161110283278
2057102,1,-3839.7179455464334
1525899,1,140.02083785539102
2548836,0,195.2604722530695
1576443,1,643.3238368553884
735632,1,310.29624592603125
515260,1,310.76819885145943
2160412,1,49.781124236059895
2593496,1,371.25791224824485
3804915,1,310.90901719045536
1467941,1,247.98956688542904
3301521,0,-74.00620318823238
1695282,0,174.2423123947315
1744108,1,400.90579857225174
1548279,1,526.1553645090527
2941916,0,195.46424893839256
3531503,1,248.4901462131134
2461924,0,215.20090674713262
709149,1,401.6285522313969
1689252,0,197.95988685625719
1911464,0,195.38624146691333
2874008,0,311.5038336627431
3364949,1,309.03667000474366
3883648,1,643.1148124494641
1945327,0,205.31966960366293
3933452,1,155.375452184175
3154751,0,473.74840959494543
971170,0,446.8677371509647
2844952,1,248.63983732715323
3190149,0,163.19839353309425
744363,0,95.62234525436739
1790769,1,248.6399634441696
2178519,1,210.1333762568355
3428888,1,-13.096661775089421
227652,0,453.7116486551488
1363420,1,518.0765550113697
2270670,0,194.05565816544242
485894,1,786.6064518141176
3528334,1,310.3295964024141
1960399,0,226.18026136669852
636348,1,217.950587905733
3262178,1,210.38403021331342
2001889,0,194.58299747684774
2037968,1,217.9840113961036
3031455,1,46.99370292382921
2961777,0,195.15870167227234
1936733,1,23.322308082127446
3689881,1,248.24335696812554
1621402,1,366.0051847858674
2796409,1,248.58843994344716
3936198,1,147.62154553728675
1431435,0,194.0895779405576
2871069,1,309.95162855570914
2110106,1,401.6433301549484
1428124,0,-65.95484609019334
2009870,1,527.1720018455421
2975596,1,401.37423576460554
664429,1,441.99689233693454
3031905,0,214.48762606308273
2450476,0,194.52839024899308
992824,1,156.31544145597454
2631519,0,95.68108619289889
3064784,1,365.60178952919625
3523414,1,248.36309048342895
2774787,1,310.75196755758907
442921,0,453.8125684058014
2745357,1,526.6142027707162
1091450,1,365.09321374008863
983084,1,310.45506868869353
3285300,0,346.10407145280664
3260965,0,194.0667942818971
315320,0,52.34736242001978
1110584,1,412.1146102950274
2250737,1,309.89056548759254
361824,1,-11.795589563047145
3277011,1,155.9679538569686
3914200,1,401.5731319769725
2681715,1,248.69159515607365
1962284,0,194.93452128398437
1064275,0,331.634489056686
3701104,1,518.2388264097949
3417170,1,-11.823463980958518
1337944,1,517.2295253914199
1870760,1,526.846607174707
1201530,1,400.9996218011174
2179857,1,310.9440157847282
2256993,1,401.1573992781677
3722733,1,401.84191927026023
702662,1,49.49441969643447
688786,1,-12.327879182088727
3866026,1,310.2423287560531
3002696,1,248.97996350648467
2059489,0,188.03329563012403
2543639,1,310.34951725719725
302061,1,-3723.594317263447
2652816,1,364.9265769662829
1977144,1,321.10626796091555
1275937,1,401.5153229472988
1892338,1,365.2930501820709
810252,0,213.72123401172155
3098861,0,331.3497946350248
1340420,1,109.23827484968477
3057005,1,248.31120014911184
1615848,1,310.4516627517443
1672762,1,193.55253980348513
2412879,0,122.59200737676323
2981474,0,187.67313821963643
504781,0,-66.22106410867313
3683761,1,526.5905111923814
230611,0,194.20471745902736
1112625,0,187.55244351093904
1826627,0,194.3985670848452
3330496,1,50.02105101030978
2453662,1,526.9935961199579
3508358,1,248.79899384210916
1248457,0,194.8673040171892
857700,1,310.150748544222
1112631,1,401.70151909415
1050449,1,310.9178148530021
3033666,0,194.9601925072059
2126965,0,305.0021846789288
1827201,1,426.20697294343756
3537628,1,49.726962083759005
2970937,0,194.413285956643
539531,1,248.94635510259351
1261104,0,-47.356446464238104
3452638,0,447.10827758137566
1457554,1,401.56042040427644
2545995,1,-12.0141134955848
1251815,1,210.89225220012753
358329,0,-72.90777285153051
2612913,0,214.4899224235705
697080,1,238.94738114250086
1129409,0,188.12583895419033
740990,1,248.24286556749013
1202834,0,194.21804202959268
2497200,1,333.88041856149493
1683510,1,537.4842771037042
695542,1,433.8399216900483
3153836,1,470.2188249480891
1279478,1,139.88560310019298
3799141,1,210.36883505645946
1944547,1,537.3364548294903
3845786,1,433.3150538771306
2131838,1,309.00096693102057
3749761,1,249.2145389560968
1601792,1,310.3698724872314
1841945,1,526.7417410120028
1257396,1,248.0098623325253
3851756,1,47.9576012219716
3835732,1,209.86516130691615
3247896,0,-193.8092278973785
1153811,1,-3632.957553715279
3919050,0,-30.17978434227749
1987649,1,581.7615187173674
1426547,1,238.29040504289705
2157616,1,310.3007813407101
1956535,1,321.4081396692745
3475399,1,470.1137241382617
2657505,1,526.4088179179261
1504599,1,401.2299602056009
1372616,1,517.6337402972796
2763642,0,232.15442547827072
1266268,1,265.7469328311074
858331,1,248.56501369887891
681525,0,618.0331065113211
972484,1,-34.155434076922546
2457301,1,526.7899664269744
221352,0,-73.51202697802631
3329927,1,248.5405322806527
1674824,0,225.32476735093215
2941809,0,213.8497809698
3115142,1,365.93071244149195
2477812,0,446.7226176350781
2826752,1,569.7281944247816
580061,1,265.3490064591666
1543847,0,194.6628613815863
1500766,0,194.4066145708637
3920695,1,786.0978793997306
1008860,1,370.1594810166171
419908,1,-77.73114022873469
1038920,1,-3884.548901809955
3383128,1,140.3877287293007
2278752,1,402.0671721156142
2939456,0,194.18552590425523
1442896,1,310.255707885909
1721231,1,192.9431922865387
695085,0,-46.40147153346445
3833033,0,86.68629286951501
1807820,0,214.51868052918857
1094433,0,193.82700081070294
3218770,0,-72.93394899271998
2505686,0,214.83154676630159
2895024,1,310.58259164349414
3148754,1,660.9907131647851
915141,1,508.156353135587
1852696,1,364.84945688760433
2928321,1,327.2031539682691
2883074,0,194.1651781471496
2395932,0,-67.00464552585582
3130179,0,-46.320409255057
1517262,0,194.39199846793503
3449762,1,12.351227839053255
1697516,1,288.53083920966225
2272465,1,248.21468545628997
1982318,1,518.9022369690482
3137098,1,85.87596185667755
3674316,0,-66.59702061653185
1124997,0,213.93473849608134
411703,1,47.31954876197578
1125568,1,401.43976063480443
1467443,0,310.95068238855714
1618167,1,210.3966469521637
2684374,1,248.74322775474928
833159,1,210.0402890311166
2160220,0,300.2957801768294
1061786,1,401.29390709454486
3103619,0,214.33574696586038
3247707,0,67.33829580014333
3337209,1,265.98738904513533
2860383,1,249.1164200208186
1308723,1,-12.633371396062207
3380833,0,-201.39750521674364
599262,1,-60.228861668763365
3661254,1,311.06442681630244
344979,0,194.9930225036219
875427,0,194.22186527482242
2698208,1,401.5879556737889
2403256,1,248.40972648384601
1606453,1,248.64209547948263
3897849,1,412.7546193711647
3942668,0,194.50087042326572
670498,1,661.173596446026
3239617,1,398.5143989276819
2524129,0,187.4779813500624
321852,0,-46.75986383268375
946841,0,214.4160629920994
2874696,0,193.92044425700874
232514,1,49.87287813339129
2489705,1,210.7507681891277
3127823,0,-73.48620291116889
1948679,1,412.5007808001105
1291257,1,130.9134278913284
636687,1,-42.63791587256678
2424037,0,-46.61143022666218
2599020,0,311.46065094681506
2939610,1,210.67927185288707
2216412,1,265.9090123488863
3694207,1,217.54182631417004
2496373,0,31.366955868611644
3136238,1,49.7140185640071
3479581,1,427.3232918136987
2121165,0,187.1856817570167
2805176,0,194.68358157881838
3749906,0,156.00147208054827
2199213,1,309.89357946784645
3690856,0,-45.93746883836959
1614397,1,364.8788378940063
1302457,0,194.65769177090797
2909937,0,194.76067683612584
3494241,1,326.7667203195932
903342,1,210.4613423020354
3080585,1,274.29857403183183
450246,0,-66.00069630620139
2472477,1,210.93888470617952
1961378,1,519.2763798486916
2730092,1,248.2869411954144
1585829,1,400.88568439620684
3108610,0,101.86481224255695
3940903,0,-58.2075452037947
2619123,0,187.69908045897762
3193949,1,182.97943311025082
1622009,0,194.62967895014526
3012997,0,31.431908616057186
2493004,1,400.74482481384234
1253667,1,526.3702567029729
3497501,1,-12.712890983783874
3834546,0,214.0493131752994
2966377,0,187.40982536769098
3396766,1,518.1803758942996
3743495,0,194.62441451148104
1268099,0,195.35418038222718
2200317,1,265.4479749440536
3279250,1,210.82477041613095
2232984,0,214.594286725516
3715681,1,210.93335614253795
1053265,1,364.7650568525014
944137,1,310.0152319233622
3432361,0,-200.2343897969708
1060997,1,-3839.6647330173787
802444,1,358.67786251357535
905464,0,-25.576102020823242
525285,1,140.60646641172843
901546,0,-73.29276492036527
668568,1,526.7046249588694
3453179,1,-12.181004068436003
3200625,1,85.13179124387644
3836162,1,210.25293354098307
1340329,1,365.34487996279506
2686074,1,295.6862360621751
1113832,1,-3902.215602268204
994423,0,194.08062643611805
2666760,0,231.51698582669331
1569883,1,248.99778285458862
2055043,0,195.53708625878218
1377600,0,310.91289457061526
644644,1,470.36987383024257
1996873,0,194.09479997231344
1543700,0,214.1510475202276
2235999,1,517.8057107029105
2673380,0,330.8400518279125
2987995,1,310.5927478486243
1661824,0,97.68120701955192
1848437,1,248.9695807238753
2988704,1,281.7769097663236
1988731,1,401.1520491571248
3948166,1,248.357213448689
1907026,0,214.40970708517796
681382,1,217.96623762922468
3461769,0,304.34535729695506
2805081,0,331.0511742046592
2393478,0,447.24581493060464
2591746,1,401.35960144397103
3277440,1,237.34735625593137
566385,1,786.0479987634246
1410244,1,310.5226924079998
926555,1,209.8992539923906
2120911,0,-97.69967339675848
3256433,1,310.8239023967395
1327047,1,347.30812081412756
1300200,0,102.16819695377971
1323041,1,210.51643568024696
1404771,0,194.56261792411723
2741390,1,248.48288141480492
1063692,1,-3940.2773143252803
1883387,0,-73.6344641642906
3363477,1,364.4368433425379
2584150,1,248.75432357309563
3401251,0,214.60061339638926
2966797,0,311.11341257783846
418548,1,-12.215028138403495
2782132,1,109.68949590113836
3491728,0,52.47118277385116
860016,0,194.9125262284143
1842406,1,495.6135129245811
2462698,1,643.7496342680184
3842128,1,369.83689376666854
3314689,1,266.4143415058076
1716429,0,112.90223291856974
550251,0,644.631983736917
2176474,1,85.873544252722
1324896,0,-78.011190856133
3356836,1,140.78885249679442
535799,1,238.51461124771757
2898236,0,194.4610882661743
234710,1,49.571588881094634
1096155,0,187.3714421234178
1906758,1,365.02502392763427
2970804,1,517.8124763850341
3427148,1,370.0102248815022
3856881,1,248.3720254044138
1984856,1,322.32729225533615
2452389,0,195.17633688022875
1792663,0,304.79419679931254
433112,1,401.93672334882694
1316894,1,310.39135296325395
3805020,1,401.0844507628495
1079362,0,-3936.0057975279024
3756194,1,526.6311110682917
3870604,0,193.8652994049602
950811,0,311.3838454471179
224979,1,140.19763923545145
237499,0,187.38669031678592
1724077,1,217.55477539782538
2551712,0,194.03967638020922
2199766,1,401.7600461441493
1979094,0,198.71702284276515
609500,1,434.5752641877186
339229,0,-98.13500717711166
1128479,1,97.07436497359058
3659796,0,187.2686224075466
1084938,1,-3633.088901619431
1110051,1,365.70814166564105
2022824,1,526.550980879317
203046,1,50.233495651949035
1689916,0,226.34223525460672
2048121,1,402.1062629229956
1470981,1,400.9597749288728
1648005,1,210.05034821345308
2863219,1,401.2137423498745
3739030,1,179.11676913292416
2898904,0,188.05117164314467
2152212,1,238.6585323232415
2624695,0,643.9907300783058
194137,1,211.05768575621698
3501177,0,-66.60545265213385
1639561,0,311.25877832661143
324960,1,209.91658853176898
881548,1,156.63082640535472
2011158,1,248.83729815655366
2882007,1,517.613902705262
2253636,1,570.2697401959387
640460,1,272.9445415749121
1757567,1,402.00940913857346
3733932,0,193.8541513753733
2257177,1,401.1419993080685
425911,1,-11.899835039024381
2513574,1,248.42519313740323
2041991,1,299.8898511128582
2555888,1,248.36230656989738
1369767,0,187.12198208329144
3477523,1,299.04071227672057
907428,0,330.9836763952983
1757055,0,194.67341944168336
2637956,0,214.22733436238616
2935859,0,-50.23080340073621
2273506,1,516.7101600486935
1538732,1,527.138144620115
3807761,1,310.3254876396814
351066,0,-73.28367280797475
3693624,1,400.7519036941745
1971141,1,228.34649165032
3748883,1,526.4906234429118
1980385,0,197.90114092724997
3917760,1,427.08518140716393
1975396,0,205.79642355981093
1224775,1,300.9176105420322
1953131,1,538.1268367210293
864137,0,194.54731447251717
675471,1,401.5917578257798
2131361,1,427.879610175905
3383415,0,187.36274899392177
1735984,1,310.3423324656867
3257894,0,25.41334169352563
3091340,0,618.4869465292702
3759131,1,217.2718629842568
2187718,1,660.8843553945825
656980,0,280.32440317874597
3659583,1,248.46468778648378
2712207,1,526.8886737259024
662081,1,434.36646049212766
1874248,1,401.20291712401354
1254425,1,427.9185749040464
819458,1,221.2723073559335
3091902,1,247.90734508761915
1216737,1,248.3417600429473
3031506,0,194.67233842959365
1085121,0,-4055.4246059768443
365570,0,453.04782070256437
2707529,1,140.5509789302614
283932,0,102.05075205620679
943296,1,35.58522446316691
3721285,1,527.1905893999735
2674169,0,331.27106050222085
3346287,1,309.9126266833958
1197950,0,177.6560997938704
887760,1,35.41985476793162
3800016,1,310.60244588373155
927141,1,248.3923140044696
1459699,0,156.63147464065915
2740212,0,194.32256890354833
2903827,1,210.53220798245417
1942548,1,322.11480451495595
2593959,1,249.1966064637455
211723,1,400.828294368591
1536175,1,526.5764910343053
3413437,0,66.88419631010088
3493564,1,518.1793596261771
1768040,1,279.4501763615685
2143444,1,401.69733974724517
2560497,1,86.4659746219969
3280337,1,248.62055433567937
3500303,1,248.19441240437033
660922,1,265.7945601744281
2446080,1,365.27727415716276
1410267,0,194.20072091047257
987781,1,310.0128621769924
1617487,1,248.5179025759953
1838268,1,526.5808870740318
2215722,1,525.9114353728121
346665,1,248.3350497959646
670445,1,-4064.9438030103042
3198512,1,49.58422810966046
2861221,1,310.50618924537946
2466038,1,526.5697509946141
1894026,0,331.2328233617281
1662737,1,319.75854928937866
3474850,1,365.3737163366785
303482,1,248.51454528093873
2746013,1,518.092456971888
3524382,1,248.59541421700612
3040620,1,401.4865923151265
2445944,1,570.6761601586093
1503855,0,-73.74838018215256
2845044,0,193.9114706396887
1268280,0,194.69849212967205
445460,1,527.2536058815629
2895369,1,310.76997379568934
1894303,1,401.85287963002884
2517540,0,194.50431535592656
3231273,1,427.8438357572378
2005236,0,194.7794023910918
2012783,1,526.6532381799316
1116609,1,326.6474873482841
2419767,1,438.9827384055608
867131,0,187.54897313916618
3810006,1,49.33663939745473
2240188,1,248.8639783664724
3512763,1,217.71032550314334
2522870,0,331.73136249781885
3910341,0,121.7023014557224
2521356,0,311.500631919238
555849,1,156.03820429464844
474641,1,266.0162009903615
680941,1,-3489.4227867111085
971141,0,188.19362533232353
2973033,1,427.48297727757495
2041875,1,426.85500595631254
1270673,1,310.25592298765827
3777663,1,310.76448498038155
746059,1,401.1698388911011
1362426,1,661.1856166097905
3220391,1,328.11829496580174
2722809,1,310.29391624247853
1414052,1,310.9896518230038
2133594,1,401.08452072421056
3202860,1,660.3661976153459
3718493,1,-11.204067531611738
3926987,1,-34.31659652424457
1701091,0,322.19425993594695
342349,1,-3902.182834933515
2856888,1,327.19490810886094
1741163,1,427.2446523787258
1294061,1,527.3524049747349
2926808,0,188.40851821940637
2192527,1,47.91277527551556
1533841,1,210.449027604922
1597077,0,67.10417155117061
1984129,1,537.7311567649771
444267,0,187.38936723768083
600156,1,238.75756572532373
2130797,1,310.0809596030027
3132823,1,400.98894020868875
857856,1,365.2409626925143
2860167,1,526.0044485983916
1421728,1,401.6022415529423
3004052,1,248.7834325516037
351781,0,-96.88507181697487
3482041,1,517.8971808211771
440368,1,-50.5843480718512
1542387,1,210.5768594255988
495799,1,310.36257760557754
1944461,1,518.6883463678475
2733876,0,194.40941325638747
3225326,0,24.69592674631536
2722841,1,310.4500161427414
1414476,0,194.17907225971672
418456,1,401.2905866729852
401160,0,-72.91597352458683
258136,1,-12.652616373243053
696534,1,310.09769408941094
549270,0,214.81144380042153
3202906,1,310.7584718892808
2138963,1,266.3262252416955
945818,0,311.2887439718229
2115022,1,210.81630575400692
2057455,0,310.66603752770186
2660084,1,427.0698754578663
1575853,0,303.8222615135958
2039403,1,517.9530657986272
2590469,0,187.3017038332884
2391998,1,433.88156921882216
1836170,0,194.49176647611228
2035609,1,527.7876679026597
1580998,1,401.86260797095923
3929433,1,661.401195919412
2653453,1,401.48882787400754
1884515,1,495.60223137802944
1032994,1,310.65766689821993
1985765,0,320.95833685662404
3897093,0,195.01171557485634
2779209,0,454.3167395892051
3882956,0,310.3329205753198
3094538,1,364.8765343511377
1706048,1,-3712.7811894414253
1721005,1,259.1874322037347
2634501,1,401.2181342863446
1437322,0,194.57164521716695
3031165,1,210.5154601526579
2837196,1,526.8565604730516
3072721,1,365.62155784544325
2832447,1,365.55849215862685
3740849,0,187.16238146112875
801218,1,401.0113870243776
3114398,0,473.81885697214886
374022,1,508.06031293116285
3385132,0,-174.94546375046318
2198464,1,248.19111978527076
1974628,1,412.25944853122024
1108835,1,209.9345459699729
1693216,1,529.3375563076139
2284361,1,254.3626365700637
734396,1,308.77920549379854
2730037,1,248.81320354268848
3953500,0,447.3331825667119
2151603,1,526.9017604593689
1023859,1,249.04222382271394
197588,1,265.47339607622536
1079954,1,248.21648165976458
1873697,0,194.49147927890903
2270166,1,400.77703317403893
337132,1,50.00540257855133
1963671,1,259.3296164695421
2264831,1,49.68057541613428
1531122,1,310.1713061008518
3833933,1,309.9239592280389
2812416,1,248.95801506906733
3131010,0,213.79299499243905
3422478,0,-65.85318005960511
753462,1,248.50874369097053
2919202,1,211.25822216142436
2246871,1,309.89183248487484
3231435,1,140.54092137497125
375294,1,661.3200257679408
1385235,0,214.36584374140932
998338,1,48.29628282874513
2195004,1,363.4568740812077
510132,1,265.44357611219283
718603,1,526.8966940123944
3731828,1,660.0573430556359
2168160,0,330.8974292814702
1840592,1,310.5931638266873
3798775,1,402.3606632669745
538574,1,-12.169180589133818
483534,1,786.2156354740086
2445463,1,527.1343548486556
1046830,1,518.1021081293759
1866886,1,248.82883406576877
3874261,1,569.6263482669716
1200522,1,400.8872293116353
3924313,1,427.03271316609425
1949943,0,225.3388873053075
2661397,1,400.82600129604737
1252431,0,310.4406518775234
3910324,0,194.37912319454603
3309901,1,401.40554310473857
3749697,1,248.7846720544021
468733,0,187.7644558508001
2652071,0,194.4100740635287
1059951,1,-12.111331851568744
2806309,1,248.662633234496
3838524,1,65.4153366561061
2278149,1,401.9660097682821
1318921,1,326.76783470494127
3420784,1,211.0495374114829
2779859,1,248.75839797964628
1913563,0,331.873083458396
2880749,0,-50.2576433256502
309523,1,277.27637838981934
1952792,0,198.0551907915421
3800996,0,474.0308777653262
554720,0,-66.69055359103072
2152890,1,526.3345288150771
387156,1,-50.808569007679985
1888585,1,365.7321504096235
1167534,0,194.67259586607238
2236865,1,754.661629501646
1461939,0,194.74644630267267
1231167,0,95.14430168564206
3221512,1,311.224548922323
1766139,0,331.2708179322405
1830811,1,327.15756820115723
3240315,0,-66.09003895031704
2932113,0,187.9937276013068
1080300,0,66.92119347039781
1465356,1,49.723782874383616
2701373,0,214.43782081275717
2002615,1,526.4584125312114
1698952,1,411.9690619221435
1272642,1,310.8916314049032
2938693,0,453.58517234738184
721510,0,214.63553601863418
751723,1,49.75172320984854
1543233,1,401.61223536558634
3392037,0,214.00371479906366
1239839,0,193.8538943040371
3146933,1,140.39715331085822
3959097,1,401.64421902282925
1880832,0,187.73496712771737
2014057,1,249.29763964621455
262639,1,248.3293916525671
2488919,1,248.71882055127546
228045,1,786.360882834002
230885,1,-12.571834466350019
3683179,1,49.69930830045796
3243679,1,156.76347025835128
1447059,1,401.33458532601367
3523348,1,400.9586043194462
3217175,0,-67.1033753310208
1630783,1,526.6099160524424
1296524,1,401.42572297076583
756039,0,-73.609587017334
259291,0,187.05502354586943
1532978,0,-66.28606772843301
1370943,0,24.98814447084405
1379623,1,470.5156396365878
2568329,0,-6695.078656693159
2744631,1,402.0201401329448
284862,1,266.07631062112677
3093375,1,248.5877547821957
251006,1,156.74389845865838
2695213,0,187.8472167718584
239839,0,-65.99933481148433
3375692,0,187.53515307888148
1262435,0,-46.57569959933386
2410598,1,248.38789625051822
2713889,0,473.4919309283878
3048617,0,194.09119879947596
2154683,1,517.9068646966261
1406550,1,-50.809148318028626
321760,1,527.262366871942
2438552,0,473.81004801144593
3738190,1,310.0891891235526
1464368,1,310.47346901731544
3348950,1,526.7308720680055
1505936,1,310.4903157680877
3890516,1,660.8684100387039
1367144,1,326.69176929770464
2803645,0,194.86574418772807
214064,1,140.3284783075508
3767872,1,210.53723175130293
3864104,1,254.16932051594242
648254,0,-65.87133217517507
3679239,0,454.2877004120489
2970039,0,454.3879081211169
3701904,0,-72.98245377741755
3393445,1,49.98484308208813
3695452,1,401.1529273223325
2477316,1,569.923610786556
2617849,0,188.00050168091974
3223578,1,49.60804950691288
2553291,0,193.8902844209248
3145784,1,-12.386359747627312
3725785,0,-66.34512540896318
3150792,0,102.46556064766033
2162736,1,401.2387288193142
3361947,1,248.34950242045412
1581123,1,310.30806130730264
3133634,0,-44.31923444711455
286607,0,618.1363054663602
3197396,1,265.7861741040979
658610,1,50.620298510007636
3264451,1,49.529370132784
1544760,1,248.5940251886
2550730,1,401.71464798196257
1865887,1,210.80455440141648
1578883,1,310.7918747890796
3696841,0,213.96861003020416
3729743,1,140.28150333691417
2130485,1,-51.40628149365229
1074479,1,242.23696301743263
3314500,1,147.3768993672922
872933,0,194.83234542751967
1121535,1,427.08333698421694
3499329,1,248.681462733249
2270416,1,310.3553282492737
3210258,0,311.15205400087905
2105872,1,-11.873017180885975
823462,0,214.09839650807538
1276564,0,194.4757806634339
379408,0,-97.60474321665492
2214706,0,-66.4437227268371
981736,1,401.44308098588357
1905971,1,526.8121047528958
3082340,1,526.459842196676
2014568,0,194.30621700129706
856166,0,194.51539228884613
2404176,0,454.72890836602676
413224,1,265.1831092914938
1345815,0,-66.17628535464154
897700,0,186.88934831837074
2572160,1,526.1944169500604
2268211,1,401.30427549804443
2549139,0,187.70762987149604
1412782,1,400.94960235387975
3133994,0,95.543665127764
1314824,1,141.08544688021766
1820851,0,195.06837005878222
1632150,1,402.3125724557895
1348328,1,50.437233410586515
3165748,0,187.952705108275
1756795,1,661.1849101791391
3393258,0,-73.2032125149456
1987567,1,412.2441152907703
628665,0,194.74936711885186
1942945,0,224.9633654328419
1030184,1,426.8908983647943
3876691,0,311.48502349433284
1837361,1,507.512075104147
972958,0,194.43956835289387
846399,1,427.68655602078826
3006799,0,101.99279824293822
890252,0,304.63712990895493
3930913,0,-57.278479652959895
1434821,1,526.7015424551616
483752,0,-73.72809037849903
2963644,1,401.579847374894
3144518,0,-65.85296811138747
1854922,0,161.59460222282397
3299596,1,4.0680179600876585
1473425,1,310.7185119112172
3742521,0,194.90786625273464
409312,1,526.2021621756719
1587663,1,311.0046401219008
3658929,0,194.7936372644571
3512833,1,401.540312310478
580930,1,218.03048880971247
2236960,1,427.25922620596464
281283,1,401.8535732681163
1897433,0,-73.70637229008453
3388062,1,48.87805092358491
2793792,1,526.6899178457006
2553086,1,248.96258704349745
2163877,0,194.54610920494434
2744105,1,526.3901798397129
3170204,1,518.3660768535138
3147188,1,248.12902466268795
1071845,1,661.389520064228
2767983,1,526.3895382233604
1872357,1,526.5745902520292
2428504,0,194.2027611486719
841193,0,122.22240628606326
239010,1,365.0933779617446
2105074,0,214.2146139244669
3325974,1,-3748.97958045475
2540952,1,238.4663192847275
1420411,1,248.86333128406963
912901,0,187.1544421082303
2551592,0,214.4439660651955
3142479,1,209.48682140737142
3451983,1,345.4753306100098
2759537,1,401.0565842046955
2518279,1,248.71772421699575
1470207,1,310.68130288318247
1160366,1,310.0712166298465
195597,0,-66.86935310156547
286344,0,473.7444623420508
2269500,0,194.86621152472543
748367,0,187.2135035390867
2416319,1,248.46719042340914
1646872,1,326.94243458494645
1879594,0,194.455664872401
2012149,1,470.6360118110689
2812755,0,187.91991237582508
3679339,1,248.79091653993368
3492036,1,427.225361674436
3760169,1,661.2792498609607
1744752,1,310.71216895380803
628951,1,309.68935221813695
3545986,1,248.3362591671221
2945997,1,248.97740565308533
3183744,1,401.31249319551705
270686,0,186.65563907987575
2477008,1,526.3299551243902
3345808,0,194.50240340096127
2158715,0,304.4867088745911
2211831,1,526.1912297528819
2750588,0,195.61067558214194
1005960,0,-66.23002144408002
3450784,1,526.8668740054154
379961,1,526.6589413254616
873961,1,427.47428132564505
2537743,1,85.79232366756166
264066,1,311.2084579704893
2004189,0,214.18338388271718
997859,0,31.46438372913055
3168243,1,248.95660119201642
3025791,0,194.47443599111486
2464974,0,187.53039440481086
2715205,1,311.0387449861865
925854,1,48.362577139192496
1033289,1,310.29215123741596
2837179,1,282.1703051897782
2154957,1,526.1520423581321
208779,1,139.9989185294246
2887051,1,400.76521817611757
1116688,0,310.8040971020687
3785801,0,330.9010951300081
371057,1,266.0458699050332
3668031,0,187.52602646282176
3655715,1,401.403287586825
2890197,0,214.6634102268874
3206728,0,303.9247604065298
3807652,1,310.26337225148524
3358153,1,49.78610618612287
3304317,1,49.559379202504964
3889175,1,248.492877041956
969575,0,187.2914951167879
2018083,1,401.35654354139746
1809602,0,187.2216604967617
3245781,0,-66.53003142519397
668848,1,519.2173623816162
3702153,1,140.382814782821
2796551,1,309.94483065661996
2714621,0,195.0558507500649
227408,1,658.6240187046378
592797,0,-73.25087168081053
2182772,0,304.5540675011112
2443461,0,194.11545188313804
1241913,0,-73.53332600599008
2560869,1,326.893617658242
1950624,1,380.761768307042
1831070,1,247.64392897638317
1335504,1,248.34730773842784
744198,0,194.78547975551675
1942485,1,413.39869873154134
860013,0,31.767322474747893
1967388,0,198.6796147221709
3135046,0,-67.2174820898613
3783583,1,426.41845235237275
1341361,1,526.7788293776363
3014147,1,278.44264018497216
1467912,0,214.73406900856415
3199570,0,121.57749236297363
2749365,0,194.44134005780785
3293456,1,365.65435358787727
1094792,1,364.90421828382745
3511457,1,140.50220626819623
482417,0,303.96141881552194
1013655,1,786.4614841019296
3768377,0,194.48949606395388
3423237,1,248.74670070216027
3690028,0,-66.67314762664864
3324232,1,248.66193280030205
3749147,0,447.444082586052
1966780,1,321.9713682816093
1984942,1,438.5037777394688
1235048,1,401.33049523200674
523443,1,140.43589063256215
492182,1,140.60810821544595
1664618,1,-3737.99570618136
3895895,0,87.35186322693477
1443028,1,309.82733587189625
3145384,1,49.851937487500834
1220867,0,188.06213529565014
1489765,0,188.0929322600889
3272232,1,-3901.9489265867633
3192348,0,214.63115202466426
1810172,0,195.01003326606573
502344,0,474.7240158381076
1231080,1,310.71002402341094
1897720,1,248.73127882930223
2407540,1,156.4775518095429
3880003,1,643.4537924551623
1561739,1,147.25074399339775
1236153,1,400.86100036445526
1133854,1,365.62423881716177
2609374,1,309.97412820670246
2210989,0,194.56289461452434
3057369,0,194.41129158919162
2146735,1,643.3552915152762
1843621,1,310.5065042643265
3742204,1,-12.47967896273923
3655068,1,248.33430871430105
2670719,1,401.60171724510906
3285180,1,139.99264943575866
1048228,0,303.8358105578671
2271277,1,199.07817716687845
574460,0,-3962.8406862630573
869201,0,311.0967898446706
1742948,0,187.88902759090115
3755213,0,214.0112389633432
369028,1,49.138421167880374
3743860,1,310.8656629287204
1897580,0,311.12524831968886
2012623,0,187.8138421833129
1000809,1,401.4353458370008
2487593,1,210.66138425145172
2692387,1,285.8751358094168
2751008,1,310.6974937206458
3416864,1,-12.809822610303977
394693,0,-66.24244781162118
2934769,0,214.24666173157934
2604342,1,518.585749805423
1988922,1,526.931358211835
3512681,0,194.54825062656704
749499,1,-50.12717972574664
3760517,0,-66.02705878879117
2554152,1,786.2563692237105
3707446,0,194.85619596624028
1705388,1,284.4977051139396
3760694,1,526.6977855019688
2907733,0,194.4179548279047
894460,0,194.04731746205852
645381,0,-65.9741352715541
981895,0,-18.417706409264426
3782942,0,214.3633058862853
3182158,1,527.0570907087767
2270603,1,310.6899759113132
1968514,0,205.7133358785763
2055835,1,401.65188646605077
1320039,1,-50.6707150960398
2736108,0,194.210244802118
2716859,1,364.8288959854631
2697004,1,248.70513850678498
3301315,1,-28.512132458451802
233373,0,-3703.125452492199
464302,1,217.2586265863165
2790347,0,194.73800037220738
2700998,0,186.8376376195556
651643,1,140.43247506183903
2395173,1,277.14026694050335
1121027,1,642.9093307074593
2915040,1,85.80274589148465
3913924,1,401.2298517567903
1684765,1,653.7486304125919
262923,1,265.4616913556676
3032842,0,194.4475459262717
3350195,1,401.0676300795602
1161917,0,311.05426009973996
3526278,1,401.4803469925692
1363334,1,66.29188861133704
332793,1,956.4744912426584
2498753,1,401.5141371723745
3493570,1,-12.82916257424111
3432386,0,95.94580565242782
1586435,1,210.97899090890027
449360,1,640.8195946898021
2110844,1,526.8496284840028
3506862,1,47.162294795718466
3078273,1,327.64830222101153
2765353,1,401.7270478775324
1460595,1,248.61845664727196
1662677,0,174.3271009348115
2458793,1,210.48669981586795
395620,1,266.56332265889927
504189,1,249.4977939324078
2429043,0,-66.32391751338507
1904470,1,310.68999509760107
1972275,1,412.45007783850855
1400844,1,310.0836134261783
3245110,1,310.111185564592
1541077,1,249.2024338170278
1242817,1,526.8540199321798
2270821,1,210.6848972693095
3264700,1,526.2504079341936
1696987,0,-39.53994874153345
3369584,1,310.54342001267906
1312093,1,401.7816293530914
274288,1,310.8128026872727
2611915,1,401.96474455984963
3113244,0,303.900528007602
2273166,1,273.7398022260582
3325473,1,147.8185567479903
3522805,1,266.19259933168973
3410432,1,517.4041025005853
1775877,0,331.53770283856016
2495458,1,310.8242179289137
3276132,1,249.10895538698256
3874526,1,156.0906186474227
3158147,0,331.661671357624
501478,1,140.58505075657038
3806243,0,187.7715703565751
3432689,0,-65.94526853763864
363773,1,18.18159147295347
3455455,1,248.75020995231793
2261558,1,235.32288570502865
592440,1,525.7304899283114
3329514,0,195.3068404820738
1142411,1,402.1305347824483
2764570,0,194.21299081282362
2701896,0,187.33323657045054
2232508,0,447.2953480257326
693205,1,678.0593863204198
3850852,1,515.5226754907669
2809569,0,187.44762175159644
635149,0,-4048.4345723426986
846441,1,401.268556010812
2759986,1,310.78058538232256
1988353,1,248.17819861609078
1467573,1,248.32534657245006
2432539,1,210.1904720754164
1346956,0,194.80901111446434
498180,0,304.6798237748815
709896,1,823.4640490751674
1588566,0,303.652469210894
1401660,1,140.2928177236794
3177444,1,495.6231324690438
1341960,1,248.6810706647267
2005606,0,213.88387651058474
3047441,0,310.6356871236929
2416423,1,218.0722216844467
715076,1,400.7422558299071
2476889,1,310.30982047836324
2687701,1,248.96972483994685
1269019,0,-46.79349912952192
2861800,1,526.516812826867
2827030,0,215.24313200032447
701676,0,214.47108279265763
3895552,1,265.62552942312425
3809187,0,187.2601057354689
3323673,1,-11.786330947436687
910715,1,3.5523441107988
3281613,1,433.5688688276601
3030982,1,401.5071317281177
2245627,1,401.1914190317239
1944419,0,197.83549758883234
2625714,0,187.45668811613496
1585653,1,310.374584427995
301230,1,139.86062351749186
1405736,1,-12.376686651665134
1458890,1,148.10407557031374
1107419,1,426.71506992394393
1344835,1,526.7233808549453
1898522,1,401.4438719642578
513545,1,238.0806859149442
1246754,1,526.9884195957382
1890334,1,401.2742932380819
3430170,0,-73.39917827917562
3350177,1,427.03406485076346
3147269,1,155.88062182982839
2136301,1,401.63275423413796
3517792,1,401.0707110990599
1516922,1,400.77624083005946
2836225,1,-34.25440520605363
2906998,1,248.68354804214795
904960,1,427.7818392951064
659221,0,453.8034771184444
3842350,1,569.9507589181036
2032057,1,310.12896362838825
1991072,0,-46.74111197423401
736949,1,248.36368043617628
478743,0,194.52619987895142
3041849,1,400.4540189180528
1768298,0,187.56658373306954
2109077,1,210.7206585482582
3899935,1,786.3968805019355
2001192,0,183.24039428485446
581390,1,-50.67680918773131
367651,1,434.1734411758658
1626446,1,310.5279356142478
422092,0,446.73863145814806
3153994,1,140.2847048445915
3451204,0,194.89645991372151
307218,0,-46.28955775774937
1006066,0,-104.227332037262
2405544,0,-66.49463840358639
3313805,0,-4197.339457630939
3237614,1,140.7566572328183
1457757,1,249.81240251569716
1262617,0,310.5775680879006
649998,1,-12.094561938668182
1114649,1,426.4242578942506
1063676,1,156.826205247651
1482773,1,401.460580601925
374934,0,-46.16310940642671
2654694,0,188.11161755701409
711450,1,50.15625812285695
2514344,0,474.11975846450326
1626009,0,195.2661091593825
420422,1,402.1361314508468
3657051,1,401.1933063773523
3656296,1,179.5986787341443
2266233,1,273.6593785685754
1965600,1,412.5802165972186
1981267,1,151.6359393133362
251854,1,661.0125251135663
1477784,1,-3839.890386684619
1721087,1,76.9377966917322
3364238,1,661.4426002579934
2450848,1,238.66953515185983
1625766,1,210.0693499810652
1296141,0,187.21468185462976
395022,1,508.57222006660993
1228423,1,248.7901579241246
877698,1,210.5295344394627
2599979,0,214.63141159424254
234570,1,140.88333226441807
909822,0,-50.276251158168215
1411680,1,526.7671035398506
1426960,0,304.3647450774408
2205849,1,210.42080226691198
3157664,1,-139.0618475673051
2688254,1,249.1362508277651
2064826,0,272.49849142111077
830478,1,401.5798668420125
2026426,0,214.83413467072785
2684798,1,310.4623761855907
3361824,1,309.82543114396043
1905034,1,401.11742157304104
309166,0,-73.40990011690299
3664541,1,310.7082392973925
901375,1,525.5509450811261
743159,1,210.56197631231217
1021170,1,188.07941536027437
2515852,0,187.23940595269988
323282,1,427.196913555343
884213,1,-11.874035550054106
2729259,1,248.7372956232748
2828353,1,310.2667244405473
2989289,0,310.6418198695079
573489,1,508.2356710531745
1908885,0,214.26299161984662
1552148,1,248.44441599800206
396372,1,117.8717664075852
1808502,1,427.4995369624553
1675297,1,321.2866435969574
1913100,0,-66.53747746513515
3269726,0,121.9379810559636
319150,1,210.6513333153193
2393115,1,124.86318127660454
1366823,0,-50.506870367776244
2011585,1,310.4874867916074
331046,1,-12.326164301270632
1431285,1,525.5810658986491
2671853,1,327.1501794460756
1662490,1,537.726867050907
1316118,1,401.3832980654231
919438,1,366.1713495722005
1677378,1,444.9474636590281
1199995,1,364.0770608673342
2966545,0,310.5230580455498
733149,0,-73.9824953657329
507496,0,95.39785081798243
2527324,1,369.7301991451411
1636222,0,331.06702832199824
619480,1,401.5834477514557
359342,1,401.32770411068384
343143,1,211.00273622451303
1339437,1,831.6987636310879
701979,0,-73.34921180176089
206074,0,195.1542302080905
1015969,1,326.3060056784101
2052175,1,327.43325180274786
3259856,0,-173.88646483869238
1329906,1,248.59412687650303
308727,1,310.8018596594113
2645210,0,-6989.137121880509
581776,1,276.80137996993096
1228915,1,50.38174318647749
3310982,1,-3862.917761588744
1075364,1,-4162.725065620792
2691938,1,401.76899504303
2152948,1,210.61255183750868
2685684,0,331.33888444787897
1062938,1,526.3559601109826
3188970,1,401.37442363953767
3870839,1,248.76492373881715
3221744,1,401.28895758595587
2400693,1,434.8969343018139
721622,0,645.0566249396123
1832928,0,194.12232153085915
634251,1,137.82299931587787
1985211,0,198.18548061079252
617057,0,187.65940378663447
3266792,1,643.4368512092606
3380030,0,187.3482378517097
2483204,1,310.4687293839053
3917205,0,330.69869887410846
2114062,1,248.22786506039674
2855107,1,211.09051737366022
2034321,1,-3940.830434955168
2685086,1,401.6707331684919
3781249,1,526.636963699418
1533989,1,311.0600538944886
3458327,0,162.7853011842644
2452405,1,210.2694583905756
1976360,0,198.4990214543667
2717053,1,248.41672004110242
472153,1,517.6655751463946
3364404,0,-73.07083144943155
1532899,1,265.256534682482
3440548,1,427.4956498875496
1344253,0,305.0294094768862
430530,0,-74.0808340103271
2413145,1,-12.987817507428318
2975435,1,248.5825992569223
879366,0,194.80750181533494
2604685,0,311.51337317816655
2397678,0,-73.62478686762731
752421,1,210.02013958610007
1705642,1,337.633326744401
3081276,0,311.5643935350313
1015486,0,-153.42190322722317
1025476,1,401.14660406294746
2120945,1,247.08441041614722
3202218,1,248.17902459422857
1471406,1,401.4778589918828
759268,0,101.68028914575575
1793199,1,248.64723204396367
3242393,1,120.33721296537081
1171201,1,643.2220350823115
3528846,0,194.1975521381173
2636289,1,517.7913168250418
3374770,1,-43.26669256750522
2639044,1,309.97673213289374
204484,1,507.62943159555863
3230859,1,248.40720648768058
2231097,0,214.18853801686188
3317712,1,660.9203391387009
1668322,1,-3774.005465110001
2775824,1,248.59570705177916
1672468,1,689.949555258693
1274639,0,187.0616817264181
3393556,1,49.55954464335715
2547948,1,329.7745389796898
1212790,0,474.460681316587
1037026,1,570.0994208722619
1360032,1,-12.215826502389403
287918,0,-66.69773665138747
2035600,0,195.37296807298918
3025966,1,210.53356203711684
2019348,1,249.3959148067091
3793388,1,210.88859290939612
3043768,0,24.78821085172208
267672,1,518.2588082442766
2234137,1,309.5553480348301
759036,1,217.86094597693912
3740198,1,401.6350860524426
3361074,1,365.4485023520202
2566220,1,401.486819205139
3187829,1,310.5635944970089
1516868,1,310.4661710581437
289932,1,49.54976620734611
2977877,0,194.00892935632768
3908327,0,447.20130834411424
1441372,1,310.17685111704617
2185936,1,47.42147192606275
2937216,0,195.30857822086767
2474329,0,311.0495021923028
1889613,1,526.1082852700154
1676600,1,259.3487042931494
1258265,1,518.3340909515941
3316233,1,-3901.673010281209
1907736,1,310.3929264235775
1684602,0,198.04410366788997
3351747,0,-193.71086798096553
3404158,0,94.92294620050367
649892,0,187.918925672684
3356564,1,660.8720984301377
2193099,1,248.64225400530412
236694,1,526.6034389840593
2905845,1,248.34055333444977
1674835,0,-39.283387185913405
2019355,0,215.1269337161973
249042,0,-3845.68123298668
1010388,0,310.7740181121787
2038735,1,238.8394380501064
3801782,1,527.4578302399025
1909702,1,401.34361651196417
3270194,1,249.06947352100713
1435446,0,194.45600561685166
469616,0,-4217.258056502327
3300795,1,311.2347137692248
3846400,1,310.2395371166518
3213340,1,-51.620388006336775
2261020,0,194.72169170360814
2971108,1,209.96261824633717
1358365,1,661.8306389557856
1259002,0,194.68242994610728
3433359,1,398.65239750546317
1957718,0,199.20203411457047
1194985,0,214.91451416313075
3156909,1,210.7124091406879
1312082,1,248.3002448287064
3163302,0,195.1106161328258
1349497,0,194.60761895323287
241657,0,-73.13441026297565
2183989,0,122.12385483575622
1342809,1,248.72842540412077
3912946,1,155.9461339984048
3293380,0,122.6398870003337
1358110,0,310.92014683920553
3915739,1,265.69281739065065
3373766,0,-51.43976218673776
1682175,0,635.3555122028415
3112510,1,249.2918628811006
1303131,0,194.3526454465098
2573278,1,401.351606635007
3746978,0,194.47026766825158
1970295,0,-54.61930244336131
2172601,1,310.30333775751103
989175,0,447.53112120443757
3496163,1,427.4372579166373
1774528,1,248.87144844556406
677663,0,446.89807357232274
853378,1,248.9188872172911
569933,1,741.625134648782
2488237,0,194.6840552303499
2991219,0,311.46450901336925
1660436,0,322.352933797221
2531215,0,195.07186007135073
3504168,0,194.19235224238315
3178162,1,199.08684894474743
546278,1,526.99462193636
2395916,0,453.9541831319603
2439048,0,194.6311885649502
1326012,0,193.61881722987965
3041105,0,194.64978160016904
2566048,1,210.01059791307486
2553561,0,446.74984869665207
1436834,1,249.43265706291297
2260336,1,526.9591274999816
3797845,1,248.91134380656135
204249,1,-50.63781415800371
1096154,0,311.1318161901426
3883952,0,187.74152449713338
2443531,1,310.60355775334045
2863028,1,427.0984026557804
3164823,0,304.47767002588574
2889900,1,427.16450031112265
1271773,1,401.6956218433048
1421603,1,248.7256183683187
2878185,0,187.3172220722115
1491021,1,366.12545232472513
3251854,0,312.0155992387446
930879,1,310.82531095233304
2609365,1,401.4584593940702
669553,0,214.43675885049822
2203421,1,210.59632610386842
2826782,0,447.5012627889163
2672302,0,331.49559667887786
2803234,1,526.87911110857
842040,1,97.6698528602618
729573,0,224.6026911083767
969930,1,347.35753776217217
1149278,1,140.28484049691738
1501993,1,49.7092094752062
2157375,1,427.3775908003601
2922138,0,187.45351385035346
990475,1,365.6685555129716
1592136,1,642.9458439491104
357005,1,140.16664478938793
3957593,1,526.4897706237465
1775285,1,570.2978463089223
2696556,1,400.9878560410333
2470330,0,194.94803000576508
829870,1,310.91542052186554
1953348,1,260.07759122917975
1134023,1,395.46555402674653
2116406,0,-73.33536458483016
1694315,1,-3774.3529801603863
2747433,0,194.64415956773962
3941472,1,265.3915219159115
2216865,0,51.79425045203064
1242238,1,-12.488749061603869
1957563,1,480.84074628563513
3912282,0,325.75519303546406
1020921,1,426.9181495101567
3186363,1,364.6542629461294
1016106,1,248.5620797613641
3655599,1,310.51216506541215
3524668,1,401.4572749186686
2399497,1,508.03681971027294
735692,1,526.4142541757426
1780493,1,427.01169387585065
1743631,1,365.4913797498408
1759791,0,454.08614625615894
3127560,0,-72.99273050151211
2671049,0,187.9710284800336
1873910,1,400.98695452752384
431177,1,141.0321032266957
2941028,1,218.38826208316993
2394944,1,218.33408866875052
1214764,1,401.50384363717444
2777799,1,248.7580261853511
2807630,1,642.9401329413224
3729410,0,194.68530219190845
1517890,1,140.15372765842727
1936847,0,198.49097061456322
3391903,1,248.99522919000034
3380460,1,642.7443094107101
1285770,1,265.6471002587122
221498,1,-11.611296684639822
3959040,0,194.55287993406714
2866111,0,187.58658651143253
459955,1,265.1974899207038
880485,1,365.3749942936614
2727705,1,342.1315526292266
3676882,0,474.32067752734724
2136730,0,331.6334436543548
400517,0,327.09254029152777
195927,0,-73.57223822161065
2120879,0,194.495213660387
2545402,0,102.11761894422224
3204682,1,518.3942723593506
1815241,1,526.3109038962658
3026680,1,401.5413418755453
1161998,1,526.6669713536588
1143788,1,401.33611457774236
1386527,1,518.9954811169774
2144743,1,365.265181017236
1320061,1,365.3196130724416
2996484,1,517.7277254643608
1256142,0,187.48547159880422
1950138,1,321.74139467610723
1290831,1,248.44048530455362
1252961,1,141.0850129898336
1628631,1,427.89688196484764
1913234,0,194.76423218004766
312508,0,187.34940874348706
2738519,1,365.2267390094861
2825752,0,311.04629861729165
748824,1,434.56074018773165
2770572,1,210.6447843176997
3101311,1,310.0859602165701
1028690,1,427.6825299191322
1552009,1,310.9764662587068
2663751,1,309.6327172975561
947041,0,-49.75180289816793
2635012,0,454.3063930567344
230559,1,266.0191362383387
1379058,1,248.89302464754846
420553,1,265.90815102734706
3488229,0,31.68460205862002
755791,1,311.0181979280667
802117,1,526.280918966759
750722,1,-50.41412261142991
3073039,1,310.5055740863102
318093,1,140.61992199857346
1342869,1,-50.2345315802387
1646670,1,309.94585498262023
3666045,0,447.4929983300515
1633641,1,248.7659050486263
1688068,0,-39.06748596296361
1397018,1,310.4263120061498
329067,1,265.7659770238284
2811932,1,401.449366891014
2763572,1,526.5963551219533
1766365,1,569.3657507923763
1485862,1,365.4494090948004
225889,1,518.2020636389029
2831088,1,643.1118409764437
1312882,0,304.92700297305385
542992,1,249.11239203227382
1239919,1,248.74770906352558
2045309,1,785.8154393722975
3330159,0,-66.44919021063741
255285,1,401.10193839056353
487821,0,187.4401882125456
3396735,1,401.34501781093473
1002864,1,248.3378604490275
2544996,0,194.21917037620162
968021,1,-34.123180907194296
1115043,0,347.9104815565666
384964,1,310.8478288556999
2718950,0,214.91099319203548
1407870,1,140.62492797313158
1945083,0,205.55917026479426
3877577,0,-46.47446378088115
2695784,1,296.2618840456692
2005473,1,310.800728802356
1196498,0,194.310890394499
2273824,0,195.09620253862954
2709227,1,526.5919210365921
1286377,1,248.48609785449128
735643,1,525.9917871364947
2741432,1,365.9974011245519
3747083,1,326.17458828316165
1576860,1,248.82909284805083
3703054,0,214.47608450714387
3748179,0,194.80179227627767
878991,0,187.01201934493128
2546273,0,194.82605278796436
888922,1,310.89579635132003
1091861,1,248.77785789773404
2973368,1,211.00635308317112
3904342,1,218.29891902679063
1284337,0,194.55348048841336
2144058,1,85.79772523557797
1993721,0,214.78666314001742
671433,1,49.88848964144076
3491127,1,248.2446938047136
3730439,1,469.2124485888221
3477798,0,-97.30089326502215
198579,1,139.82426681715268
2571096,1,526.3133219332481
697194,1,248.840418503419
1489522,1,249.32172909162864
612930,0,454.39274532147266
1193278,1,311.1403916391889
2822176,1,365.3251620094214
295060,1,309.06061594204675
1792294,1,47.90536784397589
669124,1,265.8761661069173
3749142,1,248.78671624062588
3928444,1,526.9365292315425
3372274,1,140.93549798936175
2931194,1,210.56187316119005
3099234,1,347.1775241949888
2971317,1,210.43774874825027
2721624,1,210.74050495063207
1443963,0,187.074728486402
1772683,1,210.40059730908183
3926267,1,507.94449489759563
3056090,1,207.1736214941033
842710,1,661.2193982048153
449744,1,526.1572029390867
1418025,1,370.19170916642815
1214740,1,508.7944172627307
1859665,0,214.80203261290566
436060,0,-3935.7829213708114
995492,1,311.0800977708395
3045575,1,248.46517565858582
706636,1,140.1186501181363
1097510,1,401.32410715103015
1573851,1,401.45389024995046
2910248,1,365.60965312395626
2218237,1,526.8264205177362
1062990,1,427.4991707888547
195933,1,265.6011202804069
2874452,1,310.5571371373833
804873,1,400.93950958570315
1203878,1,786.1986884492566
1233131,1,249.79001443639035
1149613,0,184.29095631845507
614779,1,660.6205452295518
2228154,0,303.49317828709206
550352,0,-65.7003422042474
3492290,1,365.4759683608529
2455640,1,517.8389155579973
3837256,1,401.9486391970769
457178,0,193.67630574157891
1748710,0,330.55416230779525
3901197,1,643.839483612264
802416,0,311.77734056982683
884802,1,364.6936503274134
3073194,0,-73.7156822570609
1001074,1,642.8095669981919
3794405,0,187.8136975281364
3718131,1,-43.743497586277314
1951788,1,412.0267036416555
3361800,1,156.83418621975989
2620859,0,187.54479699026135
3356285,1,265.21701849016586
2679442,0,194.76217840376532
2767645,1,401.52464227398417
3784391,1,210.63576083174576
3765623,1,248.29667001533474
1512547,1,210.3922086952122
3850555,1,266.0284403153943
3479267,1,140.13589192829588
494053,0,454.34450863976446
225521,1,49.81320282657982
486095,1,156.34708781275566
637620,1,-12.181336630096089
1828306,1,248.43464214092643
2286921,0,102.00477725830869
3342690,0,454.03898908371326
2911276,1,401.18612590963215
3032535,1,401.17549328462945
864152,0,-81.96813270936323
1966710,0,199.0920905240906
1239350,1,308.8215898390618
3291061,0,186.9631189387441
3028532,1,660.7886551010716
3727153,0,187.5905007300469
3534018,1,309.0428181181779
439646,0,415.1172403909067
3806585,1,310.4958731217896
1869374,0,473.9577775969009
3369700,1,310.8172406481868
3189437,0,187.68487577241723
1214586,1,248.79827756630806
1163790,1,326.4663595572071
3672460,1,310.70689600019745
2471059,0,187.5004528136827
673053,1,140.4713441496063
2268334,1,12.778695977105505
3546274,1,310.2915747187966
2617518,1,526.9681986862583
2700813,1,248.709040698622
1897533,0,194.4075052349751
495489,1,47.84543789899717
1752223,1,258.15842703739287
3759819,1,248.81015236741726
1238540,1,108.85313309943838
1473411,1,310.65998098166875
3070602,1,209.85998155145447
2569926,1,644.0837376019869
2633318,1,327.25066847976046
1281002,0,214.69248379847417
2469796,0,194.1191319490421
3295747,0,187.76911280231943
1569272,1,527.0723858834959
2013081,0,194.3419703442118
1563088,1,526.3440033682659
248402,1,364.12447640374296
2481852,1,364.7465083007795
1672331,0,-19.162920041376843
618465,1,218.71875175606502
2464243,1,140.06031021313288
702267,0,194.8222703589024
1708449,0,174.27479424604883
295930,0,214.29454977018668
2460971,1,401.0229229228509
383512,1,508.01894778041196
2919278,1,248.88431926234784
1916627,1,310.138995038827
3879202,1,642.895875558688
3693957,1,248.42503008957928
3306520,0,214.65787815020443
3448695,0,311.5553275273623
1283130,0,214.84896984057417
3137198,1,427.17923208818166
2539270,0,194.27855166603962
3084554,1,401.1865176334692
1974308,0,206.03481717880817
3172272,1,249.11407076654794
391456,1,277.43763685718517
1068046,1,785.8605085957804
866124,1,148.02295198120623
1212933,0,214.2627955540364
3230217,1,570.0836812863029
3441855,1,786.4178849388791
1688759,1,412.10193690358034
1981159,1,671.2237942922599
2886799,1,279.81678622841065
1165336,1,416.8112173525116
2197042,1,249.1292870497369
2754085,1,401.4384963077955
2106540,0,215.03887574720937
3059332,0,-73.0805131362682
2059186,0,187.91763835397944
1479718,0,194.87247569145472
3095923,0,311.1439061111311
1334215,1,310.54207166673484
376136,1,310.14285209020795
3672609,1,265.33018948996386
2748093,1,401.51920969172767
3950556,1,401.5823578429055
3665553,1,527.3489339304515
3740262,0,187.3455850162672
2275485,0,214.4649803132976
1309680,1,526.8648741375385
1383097,1,281.2376395535045
2048166,0,213.8793171639765
356030,1,49.10582055785018
3534642,0,214.45254752055808
2509253,1,248.411937664816
3225769,1,310.25287946843264
3210134,1,643.2060565392128
2173773,0,194.38358311755934
3955284,1,785.6670081294436
890287,1,831.0461306977861
1714900,1,538.1720974718537
1765131,1,518.2567096586363
1469646,0,303.8708283096825
3102721,0,156.38991272113256
2142648,1,526.4559928758226
880804,1,-12.927039087417361
2929477,1,310.8908570270922
1991751,1,470.3359116905259
1256479,0,-66.37645224094183
466286,1,140.24300235162917
2218970,0,-66.21655974068376
894866,1,209.775232113895
668490,1,569.2695861690684
3928249,1,434.32075630803234
1789729,1,249.39209077992476
3256200,1,156.5605928823907
2868727,0,194.6599912045387
375186,1,140.47660714305403
894362,0,311.5592449858013
3080810,1,401.29450987159566
3372647,1,310.4404483647799
3024451,1,401.730938666488
3794205,0,-66.81004458951968
942019,0,194.3356908317068
635448,1,569.5930743587836
3669480,1,310.95323988457903
2563204,0,459.0178970941955
2735479,0,194.61735872000202
438322,0,454.235924907867
722139,1,-12.328892964037069
2689691,0,194.74088888713814
2789128,1,401.2433740297988
1919630,1,401.5799590188496
3947963,1,518.1645819977442
2919067,1,248.73514124642
231435,0,-72.91118044703772
1019052,1,211.2840565048375
2974340,0,331.26256208937
525993,0,446.96609303261596
855846,1,327.31923215417277
2520017,1,401.0295243815367
680987,1,249.08682884274967
3835387,0,214.69766210328714
298042,1,508.9030349142444
3101094,0,304.0300644925192
199160,0,-3955.953843562617
234588,1,140.1704064774785
1072949,1,643.7146676124428
620580,1,526.3531873078277
3141530,1,239.32705345281153
1641087,0,188.31493385306706
442347,1,311.0855178998153
272697,0,194.84186468086057
1428771,1,310.7689020856332
1418951,0,187.72433021641507
3695819,1,507.63927806772057
3677850,1,310.16237355557155
2400553,1,787.0606339258867
331241,1,401.05517777313446
1436162,1,311.04150437697933
2707421,0,194.65767839557236
3046885,1,326.67632478637324
1235560,0,187.53627785369875
209973,1,139.70834369751014
3424232,1,148.0527771667172
1766166,1,327.3441897022962
2275569,0,311.4757799282502
609728,1,-12.050217552401206
1413292,1,401.23462858937296
3463463,1,155.63510345483797
2480280,1,427.6637397918525
540164,1,-50.31183108379338
1242935,0,204.09176054162532
3451299,1,-3902.0301538049252
1117237,0,454.3096752108382
2472307,1,86.15764626760013
987673,1,400.81130739559654
2900829,1,526.9826823680206
3935391,0,303.79634499365056
2613814,1,401.0075685947044
1456007,1,279.68286132191486
1312454,1,697.5179385294654
438608,1,140.60130533004167
2035728,1,211.0754346311549
2988869,1,310.7226430674662
708123,1,266.1564887789867
2436247,0,-46.31074627039036
2749647,0,310.9965733626174
267999,1,140.33095483421857
1707840,1,537.1749616447516
2790376,1,785.9060422539072
913617,0,194.5184901512074
693117,1,248.59654288712753
1259169,1,326.73909162033146
705487,1,527.1378630786669
657107,1,49.625361293325874
499831,1,-12.318983733163812
2975759,1,527.128063648702
1085463,1,326.5422541964218
684087,0,454.25284698691337
600536,1,49.7820991349236
1280926,0,194.1548044081282
3502942,1,310.1062366545134
2811573,1,527.2343015831735
882211,0,187.72969820387632
275666,1,140.71385803792364
860879,0,311.09042959012504
704043,1,49.23563775150187
920627,1,363.31280851270657
1743004,0,194.73397331930812
3020676,1,785.5358362610496
1484168,0,-73.51499372023514
2814356,0,-50.27726187008164
3523029,1,249.555390283727
497323,1,155.71356366648445
3805307,0,195.27926529083786
2974100,0,187.66325977344653
2063459,1,401.24618105174574
1662607,1,401.1505794684522
2909925,1,210.0031116474145
1538576,0,214.34576117290666
1566408,1,400.94272246622836
3235350,0,-46.60470689559057
3400372,1,401.0267644813276
1525430,0,-66.46106324786788
220848,0,194.21228256987658
1123583,1,401.29187379339743
3091183,1,643.9600933965688
843090,1,401.3195028513076
1158375,1,49.96162567565726
632740,1,-11.760852607694142
563620,1,527.1854541074993
573112,1,310.5406865235221
2257383,1,-77.73757782749381
514230,0,187.85456626493684
2193277,0,330.8717752066737
2738691,1,310.9710029744777
385495,0,194.40447141926836
2772462,1,248.561594292042
1255497,1,309.863456970597
1582018,0,304.08299711808485
2229144,1,216.74066096184978
2445087,1,469.9157646673475
444800,1,311.1743480867516
3952342,1,210.41221718419771
1836734,1,49.82761030700465
814485,1,310.4569399954063
2875066,1,526.4695583772341
3922843,1,434.3557287126067
3399385,0,-66.84185583092312
3197652,1,-11.8321315924519
1777704,1,-3901.78868679563
997963,0,193.9289837489122
2479680,0,193.83716613953638
2544754,1,643.4839498161119
3042285,1,643.2964159194473
1052121,1,402.1226537247742
2202836,1,442.1917580748621
2947734,1,400.6196638179694
634166,1,786.2588513518929
3752466,1,516.8345372658257
1275335,0,194.35859274017096
2032773,1,248.19675963325128
268569,1,-12.50671239013573
3433037,1,140.88479661503436
292879,1,400.5589537825764
608507,1,249.06312205405715
2942245,1,518.0982036037468
2179022,1,526.170912945003
2494629,1,85.82990786743463
3500387,1,248.37041318164793
3751391,0,214.23370663290376
3887458,1,507.92714090880906
3174116,1,238.14614506822284
2023536,1,248.11152738544249
2765771,0,214.90227972975958
2053068,1,310.47040371933406
1372127,1,401.4272376169689
2930488,1,401.2929283787192
3533175,0,194.31241346711545
661266,0,-3962.5257902394465
1018608,0,31.151102727144455
2036026,0,311.0945716284422
2754403,0,156.01245228110236
2207780,1,48.960379949099504
822342,0,198.16692960524597
2734169,1,-11.830111813817256
345556,0,31.533249381472025
690880,0,214.0284939501966
3760600,0,194.30066568528184
961662,1,309.1485654815038
3959016,0,-57.35932359515091
2489807,0,127.46835959119939
1751321,0,-3936.381084418845
1976469,1,381.3246229604411
2063526,1,310.90326190127223
346139,1,310.9299381091513
2727157,1,248.7105645389532
2477529,0,214.91725069407906
2901964,1,248.78908496743668
1521708,1,140.9562801158921
2723895,1,209.97072297127275
1842341,1,400.900787304244
339242,0,187.85017315564755
3368673,0,187.82499692074447
1988362,0,330.87421935079675
363482,0,-66.68620970376372
2392052,1,217.41024891206538
3230050,1,156.15886593223618
374123,0,187.92855453196128
3384960,0,122.00113263499559
3895351,1,156.24031165505102
1728565,1,248.26094921606358
3030467,1,517.8635632911697
1467169,1,427.2032482501553
2874773,1,311.4241650810205
1662180,1,321.8662477446311
689341,0,94.30562253563023
2043599,1,210.23112270521196
678778,1,659.7213863236105
717962,0,311.73372203337027
3682739,1,210.10339753202226
3220880,0,-3956.3146184796765
2920845,1,401.2294457459376
1054592,1,310.2413448519187
686697,1,18.466803674363195
934075,0,-30.845820998402417
3910273,0,187.5955124072455
1449865,0,214.42646451906182
2848453,1,248.56959411784405
1147180,1,-4101.27240047944
272426,1,265.6365435153962
693607,1,570.259021400865
992169,1,140.19841465023794
2476983,0,188.33381130652538
2995085,1,326.75633951749495
432507,1,-49.708438076086075
925532,0,311.42476776291636
3533382,0,-46.164833864312655
587907,1,365.1112622882198
1257454,0,453.6907577532941
3759371,1,248.5154498901002
3656960,0,187.27105413762888
2022641,1,401.4833178259381
3795521,1,526.8802936649979
652062,1,141.13167212512
2045886,0,194.26718446587213
3430788,1,248.79810108646325
1426008,1,247.90379316770176
3704627,0,304.2206558535176
2724099,1,310.6992857869299
594592,1,279.4164426834059
1229904,1,248.5959086380244
3219056,1,265.41794061415845
2986223,0,194.10478607624478
643089,1,785.803983342953
3519489,1,210.0404394273169
2593594,1,210.2501808315837
1919402,1,427.0195389194917
892552,1,310.4021910404265
1466249,0,304.44032540609635
2814902,1,248.4509935741272
1226032,0,194.77126545927803
2858937,1,248.141040035293
1845716,1,248.0220722736019
3784713,0,193.93050584502885
2435985,1,156.53206977939143
670845,1,211.12425968790103
1339260,0,331.1325520085874
2969272,1,248.9994738678394
1319464,1,255.6126753093626
1547998,1,526.1262733573684
3546131,1,660.808243855698
3270032,0,473.7954473721731
1792203,1,426.5489569188015
3217178,1,526.2439578644656
1061677,1,309.79275790811
212645,1,-3993.8960453674454
3729844,1,518.5151590516858
1284290,1,517.5981191195914
2670919,1,526.7788219529322
231638,1,238.71596589551078
238411,1,265.04434960185904
892926,1,494.9318991027701
2149965,1,182.45293459972936
1645952,0,187.45316796200618
1781353,1,248.14128199823713
2771688,1,49.19424010599664
1168179,1,310.07807371762897
1764460,1,210.72690708926982
3400810,1,310.6849637205004
433034,1,-12.228468599950949
3376955,0,-4217.320824509858
2637550,0,311.4063417769893
2115295,1,526.6727183589487
1569243,1,527.2868405339553
2420756,0,187.4236663365896
3149848,0,194.01049247274207
2137029,1,517.9663320098872
3336323,1,311.11330075975883
696069,1,265.7404407260842
294625,0,31.877472951827368
362872,1,660.0975379405482
3180958,0,187.99209411772364
1275951,1,140.20080511487063
261360,1,248.4244192852674
3952783,1,-6683.451391011226
1081199,1,-3785.8994594887245
946010,0,193.99290486490685
2878005,1,49.02155028175822
3180722,1,-12.674909179990339
645661,1,401.23799071309537
1859250,0,195.1226553745559
1310029,1,310.8521665133654
3078885,1,310.2849256183626
402375,1,660.4813190072356
2702792,0,188.35668505587654
2221536,0,303.68768344717034
602537,1,265.78391717187867
2697259,1,210.34794145075674
1982499,0,198.33629375294734
2742326,0,330.67073519514906
436392,0,-67.07923988985624
2037310,1,310.12143036986237
2572979,0,293.98490871986957
232398,0,-193.2321995039948
2759557,0,193.91294798081725
3275360,1,495.5292850238606
3911619,1,643.9815825543951
650569,0,447.4410937665256
724182,1,956.8364797051888
1426262,1,247.69649317266757
590115,1,309.2923844428673
519232,1,310.14829644689223
2828953,0,187.5003716648204
3508886,1,209.4644813925156
3801817,1,643.0185914417184
528787,0,-73.22555638169412
2765843,0,187.53019378362197
3346737,1,156.62601422122816
2843003,1,400.92712148258767
1882097,0,187.41106236209387
2049029,1,434.4137506432953
681824,1,139.84583792723384
966986,1,310.0213457460379
2597203,0,251.58825087556883
350511,1,434.3030984500113
2727124,0,194.87451164814792
2969825,1,517.9648175575616
2679978,1,210.6198851655757
3298887,1,427.80679094177765
749020,1,400.8811329691264
748851,1,140.59037816501203
2133597,1,365.3238397449829
1682745,1,-3890.5245143927286
3722082,1,248.69739482127585
650965,0,102.04770383707216
2795932,1,248.43478647827988
3260059,1,266.2243707169247
3868740,1,508.8344820016477
890673,0,31.291856766968564
3066176,1,369.9936905596501
3876870,1,401.3200712324614
3432894,0,214.56848935007034
816031,1,290.0284885975766
1519982,1,310.8972079336399
507445,1,140.8759512314023
1807071,1,210.8417489011082
2499785,1,400.84519703484335
1897072,0,186.98309409280753
3545923,1,210.33918172376048
2853976,1,401.28457964089404
2141466,0,187.54950908030057
2815107,0,311.1126654808477
3231664,1,265.4956962858812
1635266,1,310.66883523503526
728743,0,193.70861620124538
3443440,0,101.29419871045033
571080,1,-11.977484064744528
1667639,0,-7277.351195659299
2277827,1,310.54650476216494
2653672,1,140.4517473118363
1858540,1,248.6250480329039
3694703,1,310.2829142092243
2524311,1,86.02004608009655
3866360,0,95.4708888712821
972355,1,48.01880186792072
1194790,1,248.43442119450484
2129189,0,322.27442118729016
2682384,0,187.3032579132394
3659154,1,569.7213749821201
3007505,1,309.84653386329325
2495761,1,570.2402258031585
3069191,1,265.3913095713177
3280750,1,786.2130281211994
1254908,1,310.8130815806373
3430309,1,527.0754369867785
244342,0,188.1493870298557
2140766,1,310.2744122427372
933149,0,311.5305011840322
568921,0,-65.75588873747033
1369125,1,248.49242850430272
273311,0,102.61044053187938
3154295,0,330.7527705293622
2124901,1,427.038350850462
3691271,0,447.01345949186344
3073453,1,310.39786046194746
589983,0,473.9379177340025
1303486,1,401.1581000243994
3478417,1,210.00929247619047
2141209,0,194.46066019253917
2869506,1,401.99056190491996
2807923,1,518.4932709852031
659860,0,-72.94971621683732
1292798,1,365.732524143521
1231338,1,401.215346300274
607682,1,660.9405177569807
3218289,1,401.08311840327605
3758039,0,453.63248989355424
3291447,0,-73.33913221925503
312454,1,248.62726805581667
2192783,0,311.4195269255521
1719415,1,536.9373942281384
383272,0,214.94408067965185
2608524,0,194.07985447761672
2174815,1,427.6587019026829
2457315,1,248.09197008371765
403069,1,469.5685776527207
691158,1,218.35639505731984
3908929,0,299.9795834294868
202628,1,265.73329946845803
1417177,0,187.4817443587753
2014615,0,214.06053849844832
389922,1,785.6603723093258
3026396,0,194.67094439668128
1330658,1,956.5839926416216
390239,1,679.8134161303086
1366046,1,786.104831788475
3034820,1,400.5658466303714
1945247,1,537.8175654906655
1782015,1,401.2120214582049
997442,0,303.82301917794655
2486687,0,195.02033105505993
2449490,0,-47.379575896392794
1976560,0,198.4026676851273
3096842,1,400.6303104670818
2135925,1,643.4979105413643
1236432,0,194.19583758010083
384918,1,248.91755005357422
312385,0,182.44169513963396
1305284,1,526.9199123611166
292091,1,237.73154216813577
1944861,0,205.10406768410593
3926665,1,426.6307109902774
3146447,1,527.1239712541176
3507024,0,214.21113801215319
1497723,0,95.33449167308781
3345978,1,310.34739704029533
3239931,1,518.0573171710289
2198650,0,-65.8799972513153
2537543,0,-66.29878125274355
3868843,0,454.20619854494737
563511,0,-66.74187466012842
2641931,1,327.3575324086214
1411452,1,526.791548997544
247892,1,365.41584399451494
1328719,1,-12.565103514011923
1407373,1,140.4203294270678
