sample_id,z,y
2027518,0,0.6616228638291395
1328032,0,0.44756083333054825
1778099,1,1.0420327856099727
3723445,0,1.20188739330953
1120143,1,0.05678877573545424
840108,1,0.49432177250396925
1325288,1,0.9338631426182291
3408033,1,0.5322804655001776
1284293,1,0.6136510413877903
2810231,0,0.05120705390215541
3239378,1,-0.3122081038626642
3234814,0,0.9321469521621035
3019228,0,0.47067139648484824
203065,0,-0.05360955273834941
2137040,0,1.196647538824752
2572611,1,0.896401125840547
2586954,1,0.40411147687667925
1237091,0,0.7766444552080902
3325639,1,-0.14685674485083566
1759971,0,0.021850019945533927
2747676,0,0.6996990222420112
1882612,1,0.2593090152233441
2587211,0,0.5147262556783861
2169473,0,1.0797968414992134
3022809,0,-0.05110372800849011
2237537,1,0.06809638676904622
2639285,0,-0.268656518374097
755064,1,0.40390900541414526
2252140,1,0.41498925867881314
3948392,1,1.018885038902141
874810,0,0.4831244964045524
2838712,0,0.32491239582988957
2051591,1,0.16394409807435392
3701017,0,1.0006232925983911
1761819,0,0.8090022454963756
1504091,1,0.920103206128083
378103,0,-0.11285659297756173
3326763,1,0.16757353792901006
2902138,1,0.5874217292212697
1288592,0,0.6716717534560679
629444,0,0.36496509570289376
3841446,1,1.1428237118032984
3339266,1,-0.09028931615078264
3731904,1,0.5244898088220061
1728565,1,0.19689174646312604
1445064,0,1.4500910352107335
2049677,1,0.4767142581797027
2918089,0,1.042334635936687
377583,0,0.3335827089820723
1541392,1,0.0032510874018608638
2033803,1,1.2757223866024443
2207884,1,1.5694705503948416
2787727,1,-0.29420286274102514
2820924,1,0.21445262805315385
1443447,0,0.9848419139905042
3155475,1,0.040510507247441485
1045171,0,0.39279123409898453
3297119,1,0.5875024746272178
3318756,0,0.2656875614204866
668767,0,0.7272941695809652
847970,0,1.1047259710133546
3148637,1,0.44536375350211044
1738037,0,0.14502729720668184
1518079,1,0.44185969022942295
3528244,0,0.034937338909043714
1241009,1,0.9596060759080788
1023286,0,0.9613806769547204
1165523,1,0.0390381507133773
3890516,0,0.5708379088999913
827293,0,0.8657248761909764
3062279,1,0.37855135148019503
1958406,0,0.05729112741574292
1401107,0,0.3552503454541619
449913,1,0.2331794133914797
3265631,0,0.6286055245205145
2232006,0,0.16620090357353068
360206,1,0.4327742608296728
234220,1,0.48853103180553736
471382,1,0.23002443371779951
1324985,1,0.561088154311514
1330842,1,0.6428820740288167
3401759,0,-0.03725184143013238
2604838,1,0.4655280093939128
949880,0,1.4229370370357453
2808517,1,0.14815333030008634
3924976,0,-0.09956388576311048
3378667,0,1.0559227559870887
2186931,0,0.36156320279861176
2147839,1,0.6166079210250375
3461749,0,0.8059469533895798
2724369,1,0.20691133625937536
2707724,0,0.9682434315019083
262958,0,0.9105065435477004
1253724,1,0.22700208224682195
2720053,0,0.20760833128131773
3519168,0,-0.0909181404872047
3029461,0,0.7638371347647988
3681502,1,0.4707545770863251
3350639,1,0.5637030801554718
1937587,0,0.6225389110468188
2405979,0,0.5224918253992922
3715841,1,0.42481283873494213
1914108,1,0.3659938969323164
3069552,0,0.9674958134551929
644996,0,1.1540525005442883
3241093,0,0.6928945691781756
1533845,1,-0.21598512906468242
1396612,0,0.33662689510911314
1096820,0,0.5267016119424295
3412485,0,0.1228342018706637
1950109,1,0.07558105498749712
250873,1,0.6205640243072851
2622033,1,0.026487749922440632
2540652,1,-0.09522355177788883
3206439,0,0.5026601731809022
844872,1,0.3517185351614218
2659489,0,0.6921107410288605
3073758,0,0.8183427906896285
3340355,1,0.48066277343008956
1230354,0,0.3167877979852352
870478,0,-0.26513662395633675
1738494,1,1.1494325461990256
228641,0,0.532452353171414
1764317,0,1.1602589647472683
3160429,0,0.8300411621712558
2602660,0,0.39666502524958613
736073,0,0.3921462267782003
3297807,1,0.5164590734680661
3391867,1,0.7916597043289448
572893,0,0.5809472625469763
2129725,0,-0.05623780525160654
1127235,0,0.6428323182930491
800506,0,0.07697508957392918
2160267,0,0.2596583632863465
3520931,0,0.6456341959926901
3065555,0,0.7987777696376059
2486919,1,0.4588874678071966
3144227,1,0.9494857606931282
2665879,0,0.1967644569000022
613568,0,0.7432087651571319
2158575,0,0.35730644733339345
3692844,0,0.9826864370281092
711235,0,0.30794639795745526
1371581,0,0.8065600850167359
3118019,1,-0.35475584160230456
705487,0,0.5475253399178034
2851629,0,0.4491585725155289
1081936,1,0.41382149812989016
2963740,0,0.46767545214569806
3932477,0,0.7372329806796643
2413664,0,0.019152297294901977
1771836,0,0.015356494837129503
738461,1,-0.1737818715962082
2264894,1,0.036257355930204516
559705,0,0.4161058444063198
1624737,0,-0.2539185582516813
2933751,1,0.6597214688765827
1834083,0,0.2018178196593955
3903913,0,0.16367495484125227
1515213,0,-0.03497141057711106
209092,0,0.5522613975473193
1338560,1,0.424248477531711
1621828,1,1.0087707664983572
1688518,0,0.5683782549853125
1137425,0,0.22601120109708905
1994961,1,0.46234801146552995
412517,1,1.178945562654076
2196335,1,-0.25443640273085155
2697920,1,0.5839537520830355
3743285,0,0.339346623265939
3022920,1,1.0866042471442077
2834441,0,-0.48371754569662984
1889014,1,1.6519732975541461
853197,1,0.22907309705083923
3682905,0,-0.38280593107089084
3905913,1,0.8015008796722789
3126325,1,0.9450929482225685
3051188,0,0.36773186346329484
2282064,0,0.8312893946964413
2056377,1,0.7039036496385069
3849142,1,0.6824307661747683
3685305,0,0.5579175825761303
1392437,0,0.916289670965033
331613,0,0.32752817911538434
727714,1,0.48304753152295005
3314689,0,0.8710184661724822
3922261,0,1.753754216264881
3416087,1,0.4024773931870178
1194472,0,0.6339459896821849
1044227,1,0.5861654742320799
557608,1,0.0725086731416558
1918066,1,-0.08032008257136536
833414,1,0.6318019815433025
2861364,0,0.9347227580312878
329680,1,-0.4273334149448984
3061568,0,1.011113823771816
2480396,0,0.40227515116150225
476732,1,0.8656420713710513
2621977,1,0.48550692070219614
3915560,1,0.7330536452742406
2580963,1,0.37498826736143104
1157477,0,0.45271392888617246
1491726,0,0.4673310493478523
1214412,1,0.5194562421179163
882398,1,0.1403282557468808
3348216,0,0.851131026930614
1578432,0,0.21066555900190387
3875491,0,-0.2522233266157064
2676385,0,-0.024923084808555762
2605987,0,0.9905041777274446
3844912,0,0.2183638564708298
639603,0,0.20463008585253203
1592204,1,-0.008323187941607968
317367,0,0.4639004218435393
2118186,0,0.6001090286155848
665003,1,0.7099295194974032
2586734,0,0.9784843784147956
2528050,0,0.3124910170735283
427073,0,0.3876799396170839
3324312,0,0.7532621962901842
757429,1,0.5891168104609666
438243,0,0.611292870913776
1563902,1,0.5513787553781011
3695859,1,0.5961886412411699
946859,0,0.4741913659538238
1351680,0,0.31875923813053186
1875928,1,-0.33668232111691143
3929314,1,0.20360883167223887
3683713,1,-0.3021785095070759
1727615,0,0.5172416000356149
228673,0,0.18349378140105765
760746,0,0.31729723904490803
1321031,1,0.7599458584432355
2900271,0,0.23869398675295672
3886451,0,0.33513027201811063
1532367,1,0.24552611449941164
1865887,0,0.13175551947537084
3094837,0,0.6689706502188848
3317408,0,-0.09447792218535728
604218,1,1.09352725735811
527522,0,0.741421263750656
1528008,1,0.19382545836127915
3281138,1,0.5077434331539544
3229827,0,-0.48762959697063035
3377681,1,1.1264788845185065
3212649,1,0.4499001345441437
1048334,1,0.28181714968348126
1332699,0,0.9115328721509506
2825924,1,0.09347593774904553
2056974,1,-0.48791633248062033
2636721,0,0.7565475067434245
2912083,0,0.1256527771176221
1702153,1,-0.31298792906208417
1476504,1,0.9125682973463778
361378,1,0.26103979581934966
2659309,0,0.6721831728667175
1255915,1,0.34337777319536417
272424,0,0.6244806846693838
2406250,0,1.5811389699014509
2870170,0,0.46179568807959837
1465724,0,0.7338562291358369
1916831,0,-0.1092036502629717
1969730,1,-0.08424801222661382
3952310,1,0.16940255890893405
2733844,0,1.1473633037005777
3673424,1,1.0708297920138705
2689103,1,0.5743415744018205
2836564,1,0.7736315360091142
1773816,0,-0.13847598771704522
3730616,1,0.764305393509989
2711503,0,0.5327042834133927
903862,1,0.3232222682159324
887292,1,0.939102702430853
1225922,0,0.22360354801852086
1442358,0,0.25850849866994574
920281,0,0.391913448726392
1421126,0,0.7473980633771197
3863824,0,0.7989465002865357
3313405,0,0.6485255269097836
3426058,1,0.2289720846406745
233530,0,0.22494528512234174
3533292,0,0.5668779704133227
2647846,1,-0.06515146804674665
1495032,0,0.19617265445011695
759864,1,0.12324571069334977
940618,1,0.40551683257957594
371125,1,0.5713537009433383
750329,1,0.5829720846023309
2275784,1,0.39260830486527487
430608,0,0.6500920275136126
1571884,1,0.727019734710819
383934,0,0.5832612624827688
2049743,0,0.4606102757513767
1327314,0,0.020374817680346602
3117425,0,0.009733226716617416
1708615,0,0.03396939498992413
2051712,1,0.2904685915462802
491826,0,0.13622671646110318
2827383,1,0.4610974540215508
583710,0,0.004838361099675816
858238,0,1.116757243352556
2253361,1,-0.1054790135322264
2568890,0,0.2282955931059787
1897811,1,0.40426615818962713
2877471,0,0.6919390988785369
902771,0,-0.4363494874143719
705895,0,0.5626800556571102
2172369,0,-0.11601855804056463
822508,0,0.7148075372378699
3117749,1,0.8863851277591783
2984023,0,0.9343232340163042
711430,1,0.18397285581743056
205775,1,-0.12753962700476887
3465473,0,0.478417466725348
2903196,0,0.055219119716659576
3473402,1,0.5469315663503125
1388137,1,1.332852686874336
3692731,1,0.7281350985580872
1483215,0,0.5734636724013459
707090,0,0.45397072220784884
420166,1,0.6179627142699199
1935210,0,0.31948424952273946
1729232,1,0.5302573870187831
917684,1,0.6448198130716165
3331333,0,0.6558973411184745
1664967,0,0.3646812945315092
1276894,0,-0.038387230002319916
2912818,1,0.3382631210656776
3664976,0,-0.005445180908371594
2843003,1,0.20677695180410763
2624729,1,0.5624879549445854
3183186,1,-0.0702656966987642
1292707,1,0.6965090725883196
1536072,0,0.10142976204460163
2462016,1,0.6074530534701963
698625,0,0.39288862129111624
3092873,0,0.7513867933003688
2854826,1,0.6601925672928851
1954733,1,0.20836033165218154
1982067,0,-0.37495826303032387
2019688,0,0.21569755210959338
1913215,1,0.8815981036806095
2936267,0,1.33683646139937
1385415,0,1.3416447937286178
1484803,1,-0.045176740889074286
1083350,1,1.607473631038812
2285301,1,0.8784681978062968
3008190,0,0.32893664356892466
3294817,1,0.7873679988330213
1360963,0,0.1706064837309238
1077655,0,1.030211704633682
614698,1,0.051096089748791096
2450452,0,0.48013026777098056
3224727,1,0.7900341796994144
225645,1,0.29885408612253106
536380,0,0.037500587532357965
826674,0,-0.03152628384590128
2154528,0,-0.04991551231371392
3862575,1,0.5365117819585786
2980321,1,0.27054864034736054
683814,1,0.5487677865925558
1728517,1,1.2808842477518017
3367337,0,0.28272501863960736
1916259,0,0.008802266462672015
700659,1,-0.13598414961811234
557709,1,0.5035163762306627
2283598,0,0.25775658924249467
1477026,0,0.5519807026115156
2994575,1,0.14897686253819284
1597762,0,-0.10728001875855425
3714336,1,0.6491270304898401
664898,1,0.5389207811736817
977033,1,0.6260201820947651
2906443,1,-0.0804816694827242
2238112,0,1.1194233568979413
3059356,0,0.8926793099891734
829925,1,1.0186561542715382
1401449,1,0.46554461339171577
1525298,1,1.11379107599922
3896343,1,0.20514770214047345
3067293,1,-0.15968762067926212
1295377,0,0.780882105861108
581819,0,1.3364023272060634
816041,0,0.6692124984514649
3917199,0,0.24490240161592725
3502222,1,0.8645582629550355
1138048,0,-0.44116194997813146
3891747,0,0.5627498238023149
1785872,1,0.16434799416870416
3262849,1,0.480708741338722
1028788,1,0.23538256605563151
2413475,0,-0.20662494382687802
3684083,1,0.6781260608915157
1123443,1,0.9919007948153766
2521589,1,0.12390975663094755
2689573,0,0.16372572583044642
637397,0,0.32898090537138996
673700,0,0.7773626632795776
3686921,1,0.5985956000707147
198419,0,0.626204414056632
375725,0,-0.07491818673870287
839476,0,0.11561156920125543
1774832,1,0.4186404453209466
1690970,1,0.17490087003181154
2281267,1,0.048306365793806205
2236016,0,-0.10432557031336398
579069,0,0.2597118158700963
3870915,1,0.42798001497331184
1222744,1,0.7002400219393288
2180482,0,0.6326320668958441
2186424,1,-0.007767969577862577
3207765,0,0.8026482362213543
3259558,1,0.8288333910471947
3209582,0,0.3488073411660818
255481,1,0.7800851761869556
508843,1,0.11102940796786111
732065,0,-0.29363252786406924
3246013,0,0.05904407152076363
3149039,1,0.6996549304965314
1205423,1,0.08798793302521829
651673,0,0.5488551258347183
618465,1,0.602014371588957
352819,0,0.3654245897881226
1298822,1,0.11753859345177695
657097,1,0.7069771626590433
2865647,1,0.4367625315961012
2910877,1,-0.13696807192597038
2256229,1,0.4010264398862102
1645948,1,-0.07221320308069717
3837743,0,0.7025734921840627
2628464,1,0.703266053028426
536448,1,0.9448998179869671
1110646,0,0.7235548485744567
236802,1,0.5523362711927569
1517239,0,1.0291295857901968
688060,1,0.5784848156842404
2136760,0,0.7773752392115776
3750218,0,1.0787527624103983
1726812,1,1.6465382223273506
637307,0,0.8918903611375082
2564846,0,0.8527738193443327
2600785,1,0.3205285111927904
2407127,0,-0.11815902630796321
1766298,0,0.5609304324561388
3666619,0,0.790677885102228
3776416,1,0.3149877189384346
1262404,0,0.6820805937697838
3543407,0,-0.346444606014415
3749145,0,-0.38731403449294916
2167473,1,0.5468078544509443
323133,1,0.13302040313389826
591565,0,-0.23716993803050423
3687875,0,-0.21344264597108056
2022471,1,0.5344449749941876
3448674,1,0.6550185625067234
1531194,1,0.5142448494413646
3148732,0,0.6945020669785545
1497403,0,0.7679624501849425
517545,1,0.3391972865832856
2421271,0,0.775436711074045
2570888,0,0.2841475791807225
596811,1,0.1142120783492119
962641,0,1.67729685322931
1705272,0,0.9440243275176389
2815613,0,-0.05701095130738332
1401077,1,0.05107964290422218
2042606,1,0.3250496724367963
2262812,0,0.5039622449640773
3284616,1,0.23778180497543533
1019276,0,0.3122563681038467
1515641,0,0.09025664901348524
1027948,1,0.38202118473816793
1771345,0,1.1110500505797507
2063774,0,-0.36119896448044564
929765,0,0.364893710348642
3288180,1,1.0020615909694577
3725660,0,0.43787998608490397
2054786,0,0.5475090572414113
2629337,1,0.6350727770995009
1272938,0,0.7881381512866228
607855,1,-0.2665606144785356
1738736,0,-0.3403142673898229
2535331,1,0.568161052788404
1984942,0,0.01940183876628307
377809,1,0.5612455811415411
2804918,0,-0.361772842288679
1873907,1,-0.1745719783237283
1211754,0,1.0866201495063124
2430425,1,0.1701223776480321
2896664,1,-0.07942642587821036
829478,0,0.5313058806204332
3470868,1,0.27773633178974716
3835487,0,-0.2107828296405303
2818740,0,1.0553425380912498
2652157,0,1.7994260675009783
2216346,1,0.5775983274392111
328800,0,-0.21624366999734546
3319305,0,-0.17652098357204055
1066886,1,1.3372876232033228
1619595,1,2.1700000876804753
2891229,1,-0.20008352842835372
2025765,1,0.03430793053632422
1309610,0,0.4133618519421697
1362951,1,0.8772282347776563
3006455,1,0.32830940696751704
3303342,0,-0.49732407649057436
2450047,1,0.6800722447156912
857170,1,0.8020395202995843
3322286,0,-0.5077219031390168
2264138,1,0.308762883167942
3270423,0,0.2150209983916982
3410456,1,0.1367188663943498
2396208,0,0.2556812781925817
3222299,1,0.8333554865521753
3388019,0,0.34877572622721154
1611525,1,0.31417729003128725
2687015,0,0.7074463234573085
703154,0,0.589082405013808
3060604,0,0.6172635530600983
2205334,0,0.9721434280794208
2999608,0,1.1609317632833975
473635,1,0.9993489431932019
3511127,0,0.5166826915779039
2919184,0,0.3514768051471512
3427013,1,0.3646209691938628
800598,1,0.05121080976694847
606015,0,-0.006206368521318374
2061841,1,0.045361354019709976
3371810,0,0.42507263770888326
3269874,0,0.5366667368885043
2506999,1,1.021217303199097
805799,0,0.05746381548682189
2218128,1,0.9626296879633858
1477191,0,0.26010743050293295
257251,1,0.36952211954265535
1141498,1,0.1926531751276907
733769,0,0.6741629694162388
2936625,1,0.41125406482956395
490757,1,0.1631676957137887
1072473,0,-0.23003214847208975
1855292,0,0.10526198103230719
3427195,1,0.22118184824499068
3024585,0,0.2824921565572942
2054856,0,0.1869298508110789
1409740,0,0.4996820250886912
1960748,1,-0.5537004328823902
2831915,0,-0.2833237340541971
1339956,0,-0.035635116887098695
3271305,0,-0.1655927004149255
2582101,1,0.2713277346249762
2887349,1,0.21122612304718938
2830792,1,0.4371078634159766
3874656,0,-0.08060744041621581
259159,1,0.6616226711584757
1747742,1,0.5124382797171676
453202,0,0.055739751853243646
1168117,0,-0.02284004085250657
2152060,0,0.017680281278428023
1979430,1,0.6754861786460107
944263,1,0.6415905190893482
3111729,1,0.9502933292229455
3932181,1,0.12546832347618042
1807071,0,0.8568289060112666
498490,1,0.6331319445992375
3742136,0,0.19964265747574617
308822,1,0.09714676743915784
1912556,1,-0.2833699237478199
3056898,0,0.22314135305944915
677186,1,0.49146444669701755
1523405,1,0.7466234983592939
2493577,0,0.7505198228682262
3098373,1,0.24017701617070833
1791769,1,0.0730986507095382
389306,1,0.29977652874954763
1140867,1,-0.10604376433081097
3651260,1,0.6244807663386307
2852067,0,-0.2858493654383836
1080005,1,0.7337885977079857
691458,1,0.21965798637655526
1056852,1,0.4075377152335058
2930771,0,0.3288026174428231
1371662,0,-0.16905441547756572
1260707,0,-0.06797364808390094
1676952,0,0.9960738032832528
2513040,0,-0.2803243537450888
1714785,1,-0.12185571784911334
3182196,1,1.2132839384906258
2827232,0,0.4199036488576846
2750352,0,1.115821141040454
2565600,1,0.7074955456033023
332793,0,0.37603023173194294
1620514,0,1.165590598484818
1288400,0,0.12500594686155297
3678817,0,0.17872381065390436
2636834,1,0.8588321573993196
3885217,0,0.6743376048826661
615981,0,0.7820532672063428
2680400,1,0.9571823277447269
297002,0,1.069556413046964
2499774,1,1.140276652556714
1867975,0,0.023980301786823477
3807675,0,0.12890320000764055
272346,0,0.21492201477546244
3240699,0,-0.714644371052626
2232984,0,0.79926853135165
1085599,1,0.4576680556622388
2635352,0,0.7887039677913563
3780411,1,0.39765605612373867
3853471,0,0.6545843674624379
3111902,1,0.3742444452485676
2476517,0,0.14463546016402573
2495189,1,0.7609996900354451
735808,0,0.5341556241388211
3420012,1,-0.042202735746524694
1150446,1,0.06386784031971354
2479463,1,0.21433022180412073
3034970,0,1.3659978941219197
1582397,0,0.2919288135328072
3767455,1,0.6862105987243148
3932734,0,1.072926265329963
660995,1,0.23614077529282634
1763560,1,0.22451324870073996
1670231,0,0.23341301854209642
2105515,1,0.5445886768966931
2976151,0,-0.3202414442386572
638488,1,0.15902395974475958
3112778,1,0.6024437531019086
599262,0,2.053282656103157
3471041,1,1.181736576829674
3898706,1,0.8513892014089391
2727328,0,0.6023558364899917
2627113,1,0.0584758748919485
523765,0,0.7235337763501438
3056167,1,-0.3776767200593476
475310,1,1.2413721286463768
2647019,0,1.000748900172895
2277948,0,-0.219839754596085
1123790,0,0.30538144955701085
3257184,1,0.7757495098238802
2410202,1,0.3774594395444141
1076482,0,1.164479141161015
940384,0,0.5582388593256279
1033391,0,0.4350976028358777
1289646,0,0.5902187607269387
1197025,0,0.15990567276755951
948787,1,1.706552552734561
1514870,1,0.01047082835494531
1628459,0,1.1630604298529406
2678908,0,0.5900710929127433
2204191,1,0.03800458510480653
1540302,0,0.6406864811140303
2575986,1,0.3911072302019231
1967596,1,0.16333585168766124
3190818,0,0.7401375127454644
515135,0,0.5315207997840796
511192,0,-0.21005228857418923
2284649,1,0.4386849359480555
807840,0,0.5932957159759559
2232789,0,0.6829712508902506
3254619,1,0.6468789686694953
1749766,1,0.7911041534553599
1150137,1,0.8856104516514187
3096944,0,-0.35643515225512556
3942082,1,0.970141462383959
1734120,0,0.0455440642937841
3897985,0,1.1538706193284565
1259971,1,0.36318069517742907
404952,1,0.1475725672979678
1414263,1,0.6143701314195495
1287122,0,0.32433316770932535
1816409,0,0.23568500099418901
1586625,1,0.8745696692890399
334502,0,0.6526902011120781
1868003,1,0.9803614211914079
334891,1,-0.4394228187104022
586472,0,0.4856846349721742
3396113,1,0.7128359769167942
1448622,1,1.23075547027435
2220845,0,0.6226713147862002
3299718,1,0.2304937825018785
265171,1,0.7970356393037293
253044,0,-0.168432156817689
485894,1,0.45911592949545954
2874449,1,0.06771689840453249
310316,0,0.0901124691281297
945412,1,0.9006415735294321
361836,0,-0.32236527317666014
3380463,1,-0.35875782454008304
529931,0,0.34381193345384387
3269934,0,0.9216316136872436
3403980,1,-0.1872332396167332
3253085,1,0.7239913388062451
2173996,0,-0.14213586336714745
1428833,0,0.9750900964843429
2537278,1,-0.6345340038271949
326645,1,0.04243544801722876
3359269,1,0.5699089080407378
1438821,1,1.0714366352083073
2623618,1,0.17562513973338645
445385,1,-0.43479922354248074
1733837,1,0.8180588112849934
804696,0,1.2793051738640053
2538820,0,0.8125832145084219
3440787,0,0.6991791478919545
1573953,0,0.67784427773926
1490414,1,0.17233314332320981
1138551,1,0.4199874453477658
3749065,1,-0.2352310979017735
3522008,0,0.6049666578510142
832440,0,0.6486073386112362
3532997,1,0.9775527782434574
2733269,0,0.4792874675805499
3086320,1,0.20180176961441973
3427517,0,0.43881265895923993
3912480,0,0.04140509910796608
329629,0,0.21694974600102315
1006677,1,0.9413318660718933
3335969,1,1.1010324533906994
2913442,1,0.3800173909710852
3947824,1,0.18921505846219028
2834678,1,0.7272626932281732
1708698,0,0.21174885274768931
3075140,1,0.9003999335258461
3281650,0,1.0507826696885703
587658,1,0.2204706012010202
3123382,0,1.7915611741467359
3125947,1,-0.0513390858565409
2059180,1,0.28755930928815454
1100406,1,0.8720106587312912
649921,1,0.5987996300177358
1391332,1,0.4008318819536434
3260965,1,0.5144695675855055
3703978,1,0.01339321306204977
1578332,0,0.37374831897828237
410489,1,0.13740672226684975
311520,0,0.5118101303433225
1942548,0,0.7716002263764874
1702686,0,0.6131165201460518
2990840,1,0.9739304817391008
1267906,1,0.2832442780545722
1319293,0,0.19049031327291788
396372,1,0.36278641670341516
1679837,0,1.4994166527870245
196923,0,-0.14473802041156103
3024188,0,0.8898519910983242
695249,1,0.8068823159863203
2961643,0,1.2496829213513378
2945096,0,0.216087556967374
1640127,1,0.22472181786506917
3045716,1,-0.42901097004801086
2128339,1,0.553866540694943
3198174,1,0.5738192186705883
643577,0,0.12996403355910613
3188713,1,0.4234243427257802
3387833,0,0.38984836050756555
683287,0,0.9049750652424446
3791062,0,-0.17553462964640765
3548768,0,0.9182583407132314
2669257,0,-0.6541948410264032
1291142,1,0.6217503481499294
2703862,0,0.42152790618695213
3903179,0,0.1889280663098154
705143,1,0.41838064979760975
1035362,0,0.26229055663901724
2896520,1,0.3690614330954371
983459,0,1.0729692823882482
1091210,1,-0.12267090174465656
1642052,0,0.44281365907590153
506405,1,1.168440168117996
2684954,0,0.22896426238846035
2412879,1,0.34426033375872156
413914,1,0.3411933176388273
2152011,0,0.05704692296588959
3018647,1,1.079065897691303
3070095,1,0.7301380167782727
2865140,1,0.7669958079703276
1248888,0,0.13314793794512522
2856417,1,0.2445241476379565
1896972,1,0.27120035180374363
1910137,1,1.0433018334691357
3495849,1,-0.024509437787977928
3722104,1,0.4315902121197989
2177040,0,0.9399425178963186
3736406,0,0.9491513725428637
3017364,1,-0.38896116234674427
1697548,0,1.3178214436258322
2477638,1,0.306082610603888
1195302,1,0.6263770140143301
3333498,0,0.9792981199453549
424467,0,-0.06486646406491725
2868897,0,-0.058234281444253994
1058888,1,1.3608345681699885
1354541,1,0.627873125081256
252890,0,0.17003476128462913
2229771,0,-0.36787577300122976
3520277,1,0.9466519543074944
1371393,0,0.7075284196158855
2213989,1,0.68119676458848
1640448,0,0.4336862892374437
3320370,0,0.46892083031269366
2658320,0,0.9011608224491297
3218665,0,0.5788661001261473
2658318,0,1.027011219475169
3862459,1,0.8049267630378498
3034146,1,0.10740033901020202
3546017,0,0.7453725992533362
2004563,1,0.358557802247248
3403779,0,0.27610809248311363
3877757,1,0.04799413866573729
3494589,1,0.9252863875156884
1301631,1,1.1308005727801071
1790268,0,1.109946197307003
3663643,1,0.552853953145733
3220754,0,0.48219630694759885
1003695,1,-0.13628720128328004
2199466,0,0.26991485782000424
3286713,1,0.23534441611598406
2967073,1,1.1395134353489298
1442736,0,0.8199997219535711
2542277,1,0.9571374327821123
1326593,0,0.8452909012853698
1014939,1,0.3550277369620117
2607098,0,0.09818173683787068
1902888,1,0.44227839719450623
2969676,0,1.1391461599368375
1220741,1,-0.2637429889863528
1438642,1,0.2811892361035394
1301253,1,0.6909200750181304
1890675,1,0.13480655031114855
2885417,0,0.48199052153937183
1964195,1,1.1877722129435473
2738958,1,0.4721302350446236
2017833,0,0.586276878006073
3104176,0,0.10018894944035006
3706549,0,0.49456931549797745
3912619,1,0.3205371741700454
2624936,0,-0.312374014929647
3901998,1,0.19682061569730902
2051840,1,0.062092027880584155
947594,1,0.38396412379256106
2830468,1,1.0507620813434824
2146005,0,0.15085089700963328
3148570,0,-0.3207554350679732
2604685,1,0.6520176918812202
1440318,0,1.0570633268875975
3745369,1,0.2986840972517134
3848355,1,0.45423597825277623
1120312,0,0.33657912573326404
253295,1,0.953002432264527
712925,1,1.086729201019327
1262530,1,1.4000134905829635
3495237,0,0.18651645681283713
1425288,1,0.2911536094511784
1739749,0,0.5064617934490002
424670,1,0.11546248864293174
340487,1,1.213675943256613
1630944,0,0.5711220108263155
2866442,0,0.6472257483022811
1542467,1,0.5412242033934729
3169926,0,0.18447629328238963
294657,0,0.5751920068663982
1295824,0,0.07295551319701243
3206209,1,0.20046898455642673
2460845,1,0.3948693307689916
1322836,1,1.3508216765733607
1561848,0,0.6291519677557151
472272,0,1.1506927040277952
230388,1,0.41698635283235036
2643750,0,0.26202105753585264
2421063,1,0.7187432070622759
2216412,0,1.046077505223147
3021071,0,0.6574744205779326
3748749,0,0.7240561788271717
538726,1,0.22983339043185652
1698689,1,1.9036125415704181
3950999,0,0.4873365870663693
978200,0,0.20630630044644438
1412691,1,1.0183417301278996
2841264,0,-0.39537581362560026
684515,1,0.9179805508463675
1701678,0,0.09168231621902512
1942945,1,0.6026309832410367
3453644,0,0.6038128245217409
1083896,0,1.1343637754214557
3343380,0,0.5418462338280926
3350469,0,0.3525787813678208
2041136,1,0.08322190903798865
1593833,1,0.7395463179064581
734303,0,0.9992064221048158
1309625,0,0.10804367896944607
1222545,0,1.1438546321060208
3089804,1,0.28613035657365343
2830259,1,1.7684121766284409
199607,0,-0.1603063224923686
704927,0,0.37643904704343506
1361382,0,0.6523707851099996
240148,0,1.0571712799475064
3344668,1,1.065376879637315
3334941,1,-0.0732202053134886
1201842,1,0.39702938399391635
1670389,1,0.9415364114285174
3951200,1,-0.13279772185188676
567779,0,0.6469215476520005
2620282,0,0.9343086154960312
1754701,1,1.0311419954099688
1700647,0,-0.30669549199214174
501933,1,0.7720049549660153
1024689,0,1.2493207634995747
1682668,1,0.28025221023372526
457522,1,1.0021627977406056
398327,1,0.3862461257644684
3796773,1,0.7544844365019577
3078319,1,-0.07980156515021902
2527792,0,0.5388317715927655
937048,1,0.3342330738768813
3195890,0,0.9014214224143069
2003562,1,0.597840539828883
3193360,1,0.7448071396807878
1360290,1,1.4066694745637158
2220734,0,1.7475543470042512
2104535,1,1.2365405961690221
2125956,0,0.636334152764774
2634499,1,-0.3067838090913573
718948,0,0.7306348771952924
3287381,0,0.6001436879712663
700975,0,0.1659244219393189
1229906,1,-0.41454107553816233
573120,0,0.4023504467956527
1220891,0,0.5883118712349242
1605192,1,-0.15379674671610508
1056961,1,0.4869674960520517
3009196,0,0.10260625924800659
2432255,1,0.4770283072735141
805474,1,0.7104736606036879
3130143,1,0.8871091490822832
1819379,0,-0.20816048057866998
3302697,0,0.24981887790118518
444267,1,0.4675919394222922
3381041,0,0.7419244112381137
950070,0,0.5736000734506039
3372876,0,0.9049259705772903
2254992,0,-0.053643763658905164
2757233,0,0.5372669193370064
1167931,1,0.41321729666984275
3005876,0,0.2671084297348949
603924,1,-0.10262137992607606
1468415,1,0.4226697079613005
2185699,1,0.558063747371906
1888291,0,1.5046183614471853
3721082,1,0.6524315713641237
493416,0,0.02064287442060686
2913592,0,-0.0485288025683836
3050337,0,0.7098960170550723
802354,1,-0.1846104295040067
3389095,0,-0.16313383644999066
1831973,0,0.5843976556043352
3885339,1,-0.07262390057008183
328266,1,-0.26316923855427216
3845282,1,0.5558621185873798
2689477,1,0.5526554736124052
1818490,1,0.2795435420527061
538244,1,0.185546303494882
2985804,0,-0.4070614961103356
568233,0,-0.0029410835473677732
3313422,0,0.3385700300626835
323984,0,0.5434478850395421
1713215,1,1.4020799099506094
1349422,1,0.2336439868584602
532870,0,0.062450123797992974
753814,0,0.7561668871894133
3840052,1,0.06905320420417194
1300562,0,0.684295071640574
1408641,1,0.5042747065012745
3669263,1,0.33368126644755775
3700799,1,-0.025630359065099695
494145,0,1.0171168885635655
1493488,1,0.8254939512794832
1625609,0,0.8564580878909118
1732214,1,-0.1713447537417192
582903,1,0.10584648488365223
2064551,0,-0.32950779871879765
2710609,1,0.4934169462979607
2035104,1,0.6203141091775465
399428,1,1.0605698793038254
3479466,1,0.6492810312734463
3318603,1,0.14807835899784283
3373841,0,0.4460342124955238
205295,0,-0.10309791791829398
2454536,1,0.7616348694062733
937677,1,-0.04531951854887484
3804167,1,0.2752233297106094
1167551,0,-0.17788241254402098
3350518,0,0.8313717635372679
1247430,0,0.29643068744806006
2480757,0,0.4776717917922363
3941080,0,0.523603285875287
2280401,1,0.20130336156286988
2219749,0,0.13465555605600232
3789447,1,0.29339092983645665
1461433,1,0.2833491066229367
364781,1,0.2640447260589648
2445219,0,-0.23501732027721856
2692610,1,-0.20559887644056846
2561985,0,0.3751767760510034
1918435,1,0.5864166874117843
329195,1,0.7434832961300606
1126969,1,0.8459106285813282
2168038,0,0.6953468548711482
3746453,0,0.6425055843032496
2823874,1,0.09769813014032663
750398,0,0.8502780033716858
829890,0,-0.21702812358227147
2512476,0,0.5955973992610877
3950378,1,0.42392955251100845
3522898,0,1.0416485305530094
1729853,0,0.66564471251082
2033050,0,1.4250954430591891
1009932,1,1.0650736722540275
3341406,1,0.28330555230724275
979960,0,0.8656328819448085
1445811,0,0.5859831901605524
825177,0,0.164077511810528
3163913,0,0.18238377265963138
1336614,0,0.49452095481534464
336117,1,0.029210102448239517
1848000,0,0.37796498552440905
3795293,1,1.040586311868803
747610,1,0.07533672490490234
1758230,0,0.5779542633395448
386631,1,0.5144639310389144
2246449,1,0.19470321808913688
3240262,1,0.13696263609892062
2545380,0,0.3879608884624917
1482287,0,0.38664325754118134
2703152,0,0.26521587085413145
846039,1,0.8186758716980188
2180325,1,0.4924501420423972
274666,1,0.7270174242520167
3748165,0,-0.05011572961513128
3120814,0,0.36245356298925757
2131352,1,0.0021581579760551195
2684335,0,0.703806494710792
975469,0,0.46925639093530935
3062545,1,0.17837380534295283
971014,0,0.48509047510667036
647838,0,0.6438541141437185
1476696,1,1.0059524665359523
3167121,0,0.8570175094678423
2398668,0,0.687305940997682
3374419,1,0.20826287770977742
314398,0,0.45940103858888626
2843488,1,0.935504716541264
2503829,1,-0.5632533704945023
3275691,1,0.6586964091747448
3437323,0,-0.028173730491167448
712242,0,0.4456316460991251
3384887,0,0.7436128456387385
1102407,0,-0.07015662324891808
1086252,1,0.19021793383244018
829233,1,0.5470233774379822
3726911,0,-0.38609810353789303
2841325,1,-0.46579710949783387
1266769,1,0.3306744766118804
2544908,1,0.5768419874861124
2150328,0,0.2930447134481222
3784640,0,0.5595728937233756
1478609,1,0.8713787152081489
2921672,0,0.14819854042029743
3534617,1,0.6690931077596487
195927,1,0.11335560366745838
1257739,0,0.40783155939613036
241611,1,1.1122577833715313
2703984,0,0.5623364799318262
1558912,1,0.28602912091534266
605403,0,-0.6808289514225834
3353504,1,0.3448227779842261
1825411,1,-0.0035669280772385736
3078982,1,0.30728423145835787
2565333,0,0.43960796323813134
1619805,0,0.6523455823898668
1689859,0,0.21126945710806805
693689,1,0.9245014735380895
1633642,0,0.18906929582998483
951956,1,0.966375976476287
3391217,0,1.0716247306646094
653854,1,0.2354228116833977
1824267,0,0.15774938309225717
343913,1,0.26286880629947146
3837333,0,0.07478277514182988
2425109,1,0.316585266947764
2173773,0,1.2436828827494726
3505582,1,0.5607690383119927
2056632,0,0.46305385108391295
3138973,1,0.806764325312973
2256497,0,-0.3266702255977019
2734230,1,1.0049603599142007
2226677,1,0.8040620174321758
1222987,1,1.2200248660017632
2627922,0,0.022817763739728908
845569,1,0.0014934528128853763
3413785,1,0.5864327749382852
3798573,1,0.986522903883718
867679,0,-0.010255697045303214
1351587,0,0.9458388183276534
3477643,1,0.43028794431088396
3331646,1,1.157490410554711
1073586,0,-0.1499550227247566
1838733,0,0.6176885719753419
1687775,0,0.48566111534087936
1983267,1,0.2974519297010466
1643741,0,0.3244165567914713
956664,0,0.030059634557683124
246065,0,0.2649797395461806
1111253,1,-0.07132088362462716
3227613,1,0.5480811558537322
1764634,0,0.521466130674948
2651434,0,1.1602609421917984
2996696,1,-0.1414373135707559
1345311,0,0.6961210532689638
1276230,1,0.05761987994958928
3188828,1,-0.21074397026071867
2657930,1,1.1223705557973336
2997295,1,0.29203554002927223
2412080,1,0.48874406816404886
1538487,0,0.6534867093372502
2261604,0,-0.3558496573453505
3663200,1,0.908317581386169
3450181,0,0.6612750484589268
887671,0,0.9846849150859709
3494695,1,0.021746789573004244
1621801,0,0.18135443295366904
3274378,1,0.44262814840235976
3357835,0,0.022800373814909514
320652,1,0.3194888355288798
1534895,1,0.25796136713545836
1254354,0,0.2333112921226611
3098908,1,1.4177506341066946
878761,0,0.5368737737497765
1518055,1,0.7076254108825364
3487575,1,0.09294890301063147
743170,0,0.32206524288470645
277429,1,1.1139900396657985
710181,0,-0.006932384486272092
1028179,0,0.5773457779947917
575296,1,-0.22155598731199488
1199388,1,0.8976990921218633
223649,0,0.2651708500040768
1562849,0,1.1435894367608872
3302994,0,-0.15933554291670338
3118959,0,0.2897234445341491
1386112,1,-0.09908165096161782
558156,0,1.0408488165821033
1727374,1,-0.13035599467288309
457183,0,0.5996148882774819
3737958,1,0.8108319198226148
3113755,0,0.40149674671579894
2477217,1,0.6762395015280621
2562922,1,-0.2432825622882696
1698960,0,-0.14167221173091998
2990878,0,-0.06305465105202768
935454,1,0.5080084424809173
281013,0,0.5826624453767744
3758039,1,0.9523591559561273
3162609,0,0.3106770427951695
3255545,0,0.20360131430924458
2203158,1,0.5656492373477968
2967763,1,1.2102186623978337
2707033,1,1.323172409281186
626750,1,0.12963442951876564
504119,0,-0.2353774525505684
3206732,0,-0.27467980720355945
1273328,1,0.8568142352426584
2535448,0,0.855261486011442
3348842,0,0.3535948229493489
3183710,0,1.3877853035723693
2993149,1,0.0313733206653945
648159,1,0.023310463212627586
2184509,0,0.9053983380145368
1763306,0,0.8324315083920604
619954,0,0.6254044405293482
2189554,0,-0.37187783741147995
2411438,0,0.6148281260850932
2228928,0,0.827085746184039
1208613,0,1.4196918923385895
3043072,1,1.2408518776241657
2860870,0,0.8280112570431472
673253,0,-0.09592791106608078
2592132,0,0.11753572278982594
3096884,1,0.32845361810247004
2522026,1,0.3923440084213311
1998810,1,0.4462813184768842
1768758,0,1.203067603617495
1882583,0,0.7394723818977742
1128239,1,0.6617971863210343
3138375,1,-0.19923768621475657
994600,1,1.0735822818860057
1155685,0,-0.11629135093324325
3384244,0,0.9901114798233858
2279153,0,0.38165440130821643
1486666,1,0.5534288558015289
2880826,0,0.32882605931800724
3426220,0,0.12511696581091689
3088845,1,1.2226397164327147
3656068,0,-0.030857990876653585
594479,0,0.427787295576441
637261,0,1.187689120107521
3064689,1,0.30576336786286984
360740,0,0.4741348098024033
816882,0,0.20654018095171311
3139881,0,0.725512973559642
3495252,1,0.8487025542311747
3018000,0,-0.41673166155737734
494528,0,-0.12107649517735819
699440,0,0.4380615506742427
1062549,1,0.13251777969937245
3734878,0,0.616585732459453
486623,1,0.0011337884260627096
862783,1,0.25100010845067133
3748120,0,0.803267255763592
1163200,1,0.3231250159926741
1091206,1,-0.22867059653127286
3466959,1,0.41272268087580893
1129305,0,0.7306742350353042
743003,1,1.424542926663926
750033,1,-0.391120307405419
605918,1,0.9123672474082075
3313743,1,1.5060388980778296
1872648,0,0.3004685170082153
642898,1,1.040728862496559
1124586,0,0.20998702303988526
1336603,0,0.9191852684844739
896004,0,1.2547399830997696
3095448,0,1.1921572012125663
2581116,1,0.5501345683679822
2567881,1,0.335873765779697
1308415,0,0.8114165553426709
2220380,0,0.5975819801175789
2700639,0,-0.14661778890892463
1753048,0,0.38290067837377684
3913700,0,0.5043564292632248
3461956,1,0.7011834665810838
1219656,0,0.7442718232837668
1845246,1,0.5985530816786104
1043009,0,0.1838679022496444
3940199,1,1.2973389420015988
2712694,1,0.5150408615460584
3181486,0,0.754294647913036
2725025,1,0.6015918096230254
3372556,1,0.26684012648983096
559539,0,0.13286070513028056
3054016,1,0.37507559002240376
337235,0,0.15202748322836002
2010116,0,0.1848483360665939
2061171,1,0.30639262773581166
3910741,1,0.082895335297618
2555609,1,0.4949123958555005
3167919,1,0.7314487617554616
3922973,0,0.3709998498369809
950388,0,0.5598526085909072
2285431,0,1.3240165917361155
3110632,1,-0.7986790182140766
397952,1,0.8737389040532313
888173,1,0.5485062654440827
3908873,0,0.7593124560919357
2870762,1,0.6813683971658164
3045025,1,0.6267212464541738
1559238,0,0.2976728924637717
3947808,1,0.7054285184877174
1715157,1,0.263924428040631
1246238,0,0.8091075468239186
204613,0,0.40103863725254496
347796,1,0.2705397280047468
3416807,1,1.97836629294534
1095978,0,-0.16205301782433507
673607,0,0.4900964022855133
3466032,0,0.7681335397541897
1708449,1,0.9466738635137024
1442291,0,-0.045343290146393156
2174343,0,0.7564253167509347
3464621,1,0.4533051432103141
3835246,0,0.6273796160850313
344102,1,-0.664363687879542
3320136,0,1.4101699895758206
1970900,0,0.06081390816242002
1399410,1,0.6297779013492918
2918150,0,0.29214763278398825
3067244,0,-0.021244760854850997
2209329,0,0.6740337479505001
3309532,0,0.4933629320844636
193532,1,0.6071449016881871
1985155,0,0.34464602445211256
1406055,1,0.7338651424115843
1673273,1,-0.573766866451515
2407638,0,0.3881343111152016
3146608,1,0.9536270559588949
288024,1,0.679943165035062
294715,0,0.4008289913848545
3532112,0,-0.2090070833019234
1085407,0,-0.185535332373656
1342731,0,-0.504909521122943
2260476,0,0.8126651828958862
379379,1,-0.34953318701130315
3393100,1,0.8242086654130512
576353,0,0.20417830592011543
1749963,0,-0.2520955770196685
819006,0,0.646145861274677
3392509,0,-0.004583689854601114
1485723,1,0.007533135840957272
831868,1,0.45960329455387194
3681710,0,0.555215798741017
1664108,0,0.43223975115179436
3406176,0,0.67391295968989
2875369,1,1.2054381357022559
2667769,1,0.13935941383541972
3114118,0,0.6286403035824074
3796914,1,0.21367290798629723
3338602,1,0.5810856431927176
2042277,1,0.8517263615117923
2509265,0,0.8399570138273227
1600828,0,0.5797419032985978
3330924,0,0.562919009216934
927509,0,0.4228180752265518
2868957,0,0.41079159113241065
1035994,1,0.23172223616959226
1087995,1,0.3262713215414333
1517240,1,0.7193001447335458
455652,1,0.00047602965300977407
2125916,0,0.2748719447822644
1661608,1,-0.33149806429426093
1488626,0,0.20927699408112788
2278014,0,0.5721580860176332
2485847,1,1.2181426325512987
1814921,1,0.7521289692244798
1507637,0,1.0565643148592818
2168137,1,0.1652972590480529
426434,1,0.43458922562077995
828451,1,-0.05668249653142099
3246478,0,0.8655414647897451
3735506,0,0.06441555385742498
1948369,1,0.2919958081170684
338322,1,0.7364758119224359
1939116,0,0.7256070725467597
635639,1,0.8793595365055813
3471849,1,1.2996721804234865
2033552,0,-0.17107935459356438
944782,0,1.7313072534402476
1812349,0,0.7006988206960021
1280722,0,0.6614086726492364
1495340,0,-0.3049906607414615
3870667,0,1.0600961753035834
2558289,0,0.3685223596882794
428103,0,-0.2054089580526518
1020485,1,0.7300329460146693
3859824,1,0.813434072206431
1193525,0,0.547865211848785
1487505,0,0.6131014329217164
990487,0,0.09155334909526236
962417,0,0.359341832746649
589127,0,0.7996645313496621
2405401,0,0.07971845956213544
3494839,0,0.24143634715520934
756202,0,0.16302841914661448
3718671,0,0.38910093260286666
2391531,1,0.7592333193685323
2655488,1,0.7845437343989092
3362458,1,0.03854629918662733
661250,0,0.509158983490939
3527790,0,0.46900947425078093
2157375,1,0.8591930098220126
1341279,0,1.3763096368603487
259178,0,0.1768332777718478
1361393,1,0.29560554707078024
199694,1,0.4358568454069596
1612636,1,-0.02373815699661913
1167998,1,0.6016725143534293
634354,1,0.16804631202349535
2791752,1,0.9415266244248089
3005830,1,1.0725566336682224
1241731,1,0.5520404962097772
1502470,1,0.32845049931461484
1889407,0,0.6835864434504891
312931,0,0.7030025666362194
3449038,0,0.7995624404533956
2041892,1,0.48502965464103115
357632,0,0.6068492074213108
1748327,1,0.15477340480621318
1594161,1,0.8162867293435554
1455817,1,-0.06676521961151502
2119390,0,0.58069023193019
563551,1,1.1198870329446504
742391,1,-0.24440459699309677
2259558,1,-0.6865177702909231
2423552,0,0.2117953022660808
1082756,0,-0.2837223886866325
3749795,1,-0.504220958270702
1084583,1,-0.5053196476146868
1317244,0,0.7988272473207525
538906,0,0.6230710551168415
3868671,1,1.2133204542830796
368132,1,0.9586455688411237
1097402,0,0.029293279659047655
3834638,0,1.0160122823871232
850839,1,0.3129989211883968
2851211,1,0.4068924856909759
2040736,0,0.439147647959734
1590526,1,0.6433359518906296
2806889,0,0.49100149384732916
1251440,1,0.44336503752759404
1379652,0,-0.5392027338522878
2185785,0,-0.09231532764560002
1842919,0,0.6000069508143683
426963,0,0.5388490122248198
3955177,0,0.5410886536281531
629927,0,0.22455293898570972
3255610,1,-0.07497497616010323
3883795,0,-0.09287302289974486
3465543,1,1.4425292963431435
1479705,1,0.4552924651949012
1972157,0,0.6404089093838639
1994776,1,0.7820661186352938
1524369,1,0.41456055776168127
2132949,0,0.9057599557360014
2933422,1,0.44552675892106364
1292251,0,0.6468330652197578
1198855,1,0.26917058573038366
1315300,0,0.5013162060592404
2539398,0,-0.10549002696666332
2263289,0,-0.1091818650551416
1235610,0,0.16886316832154308
251291,0,0.23049416472727935
1972510,0,0.12123975615361056
1008981,1,0.4343640439144964
2215612,0,0.17986955818854458
363494,0,0.4827449950646093
842210,0,0.6885062001239488
1686361,1,0.9729239902713835
1224547,1,0.0671370411480976
1088003,1,-0.07349840740889069
1151993,0,0.7003687679988995
2806912,1,0.5855502436138662
1689175,1,0.7586906454347256
1584136,1,0.24822392811544414
3842590,0,0.7598916176600248
3031310,0,0.11065420680449381
989287,1,0.06546079568276425
3083255,1,-0.4582750678700505
2536716,1,0.17716155530517624
3453533,0,1.7217883645890355
312058,0,0.7459190279610911
1056082,0,0.947486470793993
3117589,1,0.41375386141304504
2451921,1,1.4314945454760954
3867772,1,0.7953479330381661
3452100,1,0.9283328576459049
3835732,1,0.07874348906132717
1495860,0,0.29558651816066006
1934076,0,1.2709054625118295
749214,0,0.532024818575884
1761154,1,0.6278295592576386
3098265,0,0.2572700212467379
730439,1,0.2781692102222982
393619,1,0.06283353198567637
1526594,1,-0.08267990672738867
1099238,1,0.5825662511694283
3848928,1,0.15953074565445408
563201,0,0.3898506977181111
2258397,0,0.22856742350826342
2027948,1,1.6397255710825194
328769,0,0.7351105832399708
2042771,0,0.2915998941409078
2402717,1,0.41996948165029613
959177,1,0.7126920395892249
1051252,0,0.4578905888982344
3926419,1,-0.3709476115779076
2629018,0,0.5241121686412598
1812869,0,0.4049769104528884
1966547,0,0.7157738113530083
2931252,1,0.00963122937169833
2723546,1,0.06410362380566892
1546761,1,0.3127818675180772
2272579,0,-0.22015609064807362
928313,1,0.3095236173697997
3034676,0,0.0928341814105581
2941963,0,0.9155811863295867
2624737,1,0.30981425331210016
1819112,0,0.7824503783840379
1146624,1,0.7802719032816376
2446250,1,0.5020713553127936
878974,1,-0.0358429922828046
2894532,0,1.1524734000100394
1433363,0,0.12309426418208885
480718,1,0.7891137856519643
838205,1,0.1386009518998791
3057889,1,0.30724329852109233
249691,1,0.04424278303322279
1589661,1,-0.30104942029201087
1676830,1,0.2828631698470605
2106451,0,-0.5662002470260612
849598,0,1.1860744181870382
2877701,1,0.441326911873807
1918767,1,0.5282023064046614
2626865,1,0.5332262644834478
1062071,1,0.1990766678452263
1642270,0,1.5163227831275625
2685772,0,0.5278295515203658
1373751,1,0.3122645568151129
1168044,1,0.5055802253809866
537260,0,0.3639160923308902
3418880,1,0.20006484915287837
3808517,0,0.146416982354458
3075729,1,0.3337244304157228
3789206,1,-0.03089127670685654
1682682,0,0.6857095339319023
1939509,1,1.5290565153495634
1816201,0,0.6384684953463704
3396086,0,0.9457106657899181
452783,1,0.3708079136632725
1464888,0,1.324858856452999
1148341,1,0.7400450445616509
1558728,0,0.42130666723839044
1640820,0,1.5785861013974025
2557428,0,-0.21264456798244563
3934617,0,0.425180021405413
2035999,1,0.3269101587119403
999047,0,1.114597581136434
1255880,1,0.7304065217943367
3396094,1,0.5247548952180516
922161,0,0.22964664168170312
3707715,1,0.6139375011997965
3089491,0,0.04338036565792927
2064739,1,0.2548179628620197
3958141,1,0.4384249042731931
2621699,0,-0.7545502952352601
1856223,1,0.25637158340100685
1029920,0,0.8867425330964722
1704514,0,1.1175863327715814
1369172,0,0.7606831869392976
677007,1,0.8685107504337597
1535538,1,0.862744633582431
3335084,1,0.07599585202257944
596812,1,-0.4853804464589444
1344543,1,0.23092559724216175
920165,0,1.283373490435948
312026,1,0.9259174717697389
931903,0,0.4373856133362767
1590555,1,0.15554093383616852
2277902,1,0.00352256901102517
703735,1,1.0711799227968233
2837291,0,-0.37884233430493364
3326160,1,0.6482791153132867
3098075,1,0.278516499376602
687243,0,0.009078067052963407
1648021,0,0.06805784802387521
2858047,0,-0.3209497401119209
2635283,1,1.0016985585632083
721453,0,-0.17355972512431522
203889,1,0.5491284563551054
2888769,0,0.07826884624575742
1329313,1,-0.4915776728863289
696522,0,0.897563349428474
1630483,0,0.2961025907927437
3387645,0,0.9787096187848741
3086839,1,0.23253966614503413
2637585,0,0.5320854273398706
2135378,0,0.6540445295493023
2480669,1,0.46671834914889193
548604,1,-0.01937568096433573
866021,0,0.7822785527866165
3494440,1,0.5814315945938882
1948504,0,1.0369536064216176
1589035,0,0.6507720861285459
504698,1,0.10531480940550292
1088466,1,0.8586856651466407
1691198,1,0.14222918160324727
2509253,0,0.20587028141709313
2902162,0,-0.816415916522305
852532,0,0.5404449520114691
3253877,0,0.8384797747067517
2104630,0,0.8660309027722877
3909073,1,0.02341657907654332
904304,1,0.7248702134262679
690880,1,0.45834543895727
231243,1,0.38747941284432924
3740790,0,0.20165156252318536
3439462,1,0.9456360965125921
1675444,1,0.483318202734106
2689925,1,1.1867455758084158
843065,0,0.46117190811752
854292,1,1.2456311632999948
260832,1,0.31247313966760576
3755354,0,-0.1311388758909811
3027802,0,0.2691883690466387
1326788,0,-0.15626709095154617
3370730,0,0.47879550971794627
3665386,0,1.3053437416762768
1950780,1,0.7823835821611382
1811653,0,-0.4155563004988543
2663658,1,0.053370836434059044
2216318,0,-0.21689263876702303
746944,1,0.865146544747885
3047912,0,-0.04892686925973616
1880316,0,0.38128691093993466
1360161,0,0.48721626498161585
3513379,1,-0.013783381670481196
3147901,1,0.30509146713940627
2900297,0,0.06493816597317695
3802273,1,-0.1643427338085941
2627156,0,0.18964518557005838
705884,0,0.5515983350667604
1055211,0,0.2560253859654407
2519136,0,0.7113918539418986
3402558,1,0.39552740932989516
2227017,0,0.07078607550046928
1212126,0,0.22710404757526265
1596876,0,-0.08052769452361436
281761,1,0.7976416978560217
3269950,0,0.483038023097896
967322,0,1.039292809705029
1211025,1,0.2906144775715662
3122828,0,1.045446146105839
3523819,1,0.690982860542986
1030602,1,0.5039674379074159
958751,0,0.19916889143418234
3360856,1,-0.19050902288894753
3151818,0,0.7496539395075303
3460900,0,0.4325727646197122
2749111,0,0.9048941239342306
805963,1,0.9996298910632829
3414550,1,0.9675804748929864
3162497,1,-0.06515129016364085
1476074,0,0.5612023019256404
549047,0,0.5679303637145771
594937,0,0.2156521022259896
3318732,1,0.6616383990028023
614317,1,0.24869064567331206
3051138,0,1.4105746770949015
3714955,0,0.4773198172173657
2970661,0,0.3360580072324238
559536,1,0.3719405435604872
2512014,0,0.7084477054014416
1374797,0,-0.2001362626486906
1339732,0,0.3514227940190388
1215704,1,0.7163459600086122
2048650,0,0.4500110201966676
3451774,1,0.8232738135699411
3461307,0,0.0045420251808697965
1015795,0,-0.8123727190125839
1056885,0,1.0192291678259775
1612762,1,0.8193814317454496
2433372,1,-0.0025991138024029636
1849691,1,0.9084957927567581
630861,0,0.9857150770865659
2713420,1,1.1673046142519365
1593980,1,0.27365569765246395
286680,0,0.7607458005157668
2202068,1,-0.12350540494239609
276635,1,0.3211798937220956
3664206,1,0.7791263013554182
459847,1,0.051955031704032095
3959040,1,0.6341033704662693
1214018,1,0.5087140095168626
3467075,1,-0.0219018415908927
2962559,1,0.6388980309108538
310666,0,-0.4114797701148032
2047964,1,0.8344124462682903
609128,1,0.20619964133427263
906263,1,0.3625294228532644
2583455,1,0.5716761206033892
1508834,0,0.25849533758933535
3548420,1,0.8468927295571436
1902083,1,0.6669028661898926
3415980,1,1.2504903175554383
3060381,0,0.8405374182452192
2578147,1,0.9947665866578661
2229195,1,0.8062805590217162
538894,0,1.130053455721607
2897446,1,0.04039821015970091
1311847,0,0.7949911498568495
2143090,1,1.3160285273249401
2724164,0,0.7106440767269506
1266937,0,0.13423797054344316
1053440,0,1.4209664085380425
3929680,1,0.4877564248188847
3216156,0,1.229662083867324
526853,1,0.33229945454694454
1037316,1,0.015328970686302623
817204,1,-0.34074638992030654
1476023,1,-0.011691757438622774
521102,1,0.6002886442778352
1603420,1,1.4224242963371319
3890462,0,0.7663966979692046
1087035,0,-0.12934723388493022
567635,0,-0.1348366507540008
3528331,1,0.31451460552027943
2117816,1,2.075111315468628
247016,0,0.4502571425301654
3466740,0,0.9860696302729413
374775,0,0.5341980652406206
2150248,0,0.40556379004381315
2745251,1,-0.1882005757399614
1084339,0,0.5185836087491587
3760575,1,0.11152712475337911
2901680,1,0.10418845420818032
2593087,1,0.45931690755515353
2627155,0,0.602986704809138
2900538,0,0.38235361579665117
2675885,1,0.5347177169052681
3136831,1,0.5573028813495642
3527290,1,0.4111453004036576
2788319,0,0.15272921368405742
974711,1,0.2376014250645648
1352412,0,0.9515469919423876
3379103,0,-0.2966213512181667
2283837,0,0.01014015160709536
287292,1,0.48683273330270493
2143348,0,-0.5337719653110586
844138,0,0.8404554875014622
1037743,1,0.5761776252131056
301769,1,0.5274056405159733
1561774,0,0.48524266816152467
1957178,1,0.30246148196014244
3706639,1,-0.0887333232506432
2146346,1,0.661867105136483
3539557,1,-0.3795843689239974
3735350,0,-0.032936237671757934
2638463,0,0.6593602744552779
1368757,0,0.0895803033268199
470209,1,-0.16435959589747828
305802,0,1.3370923726899382
3194083,1,-0.36560549120807334
1360311,1,0.8203903219280808
3765073,1,1.0035896705276353
214560,0,0.5630934310672673
1484494,0,0.9459042847752642
1553732,1,0.650792461957181
2728463,0,0.3451019150053458
1275623,0,1.2261923395938235
1290850,1,-0.023236578832873556
1406072,0,1.5766610721100154
3474402,1,0.46487055400093197
3019576,1,1.2266603564775742
487240,0,1.042801104101222
947623,1,0.607284125003841
1951147,0,0.28789722596827144
423214,0,0.5247297178516702
2571013,1,-0.31087360316546353
2436581,0,0.1949290963784202
2605447,1,0.4772370980592159
3687056,0,-0.07159170321841664
3462304,0,0.5445278236302112
610459,1,0.8691643647997791
2152671,0,0.601034619291797
979782,0,0.2144736128176733
1540712,1,1.0491036521573052
3863383,0,0.4873208429236333
3890158,0,0.11919622684723907
651474,1,0.5267052094778752
1315378,0,0.42404804885491565
1431221,0,0.6281025051511863
804608,1,0.39460580835889525
2817587,1,0.4152025124801715
1980102,1,0.8511813413849076
1957285,0,0.398212491136156
2029936,1,1.80480783872329
1160323,1,0.6129598693756675
1997213,0,0.9019717690559328
756314,1,0.004657301622177867
3677850,0,1.165523709998269
1569330,1,-0.6604212780605865
3876572,0,0.16280796312306212
2228091,1,0.9742824972825455
718102,0,-0.04598770775973696
272425,1,0.38116925425171577
3782831,1,0.11857052086510361
620547,0,-0.06632052632480867
2925663,1,-0.13469003348877134
851998,1,0.03518051799417127
3740874,1,0.3807932844118538
3186561,0,0.41464197256115987
1811458,1,0.7076709632092814
1721753,1,0.24357447407780156
1361387,1,1.3246093092932023
422092,0,0.09612301966994286
3406664,1,0.7055521152466856
3737537,0,0.11848510512579036
2717942,1,-0.11537261849024749
1438729,1,0.4479495578379316
232203,0,0.26872509106490544
708729,1,0.39445089960454194
3292030,1,0.021646635148124316
3127734,0,-0.7698618227597328
3848557,1,0.37342012496298804
1127785,1,-0.1651829936086185
2282305,0,0.1325569466083805
3273211,0,0.40232162317427667
1967205,1,-0.10118508869115389
840323,1,1.017747078925627
1436281,0,0.7712168338755258
199180,0,-0.20115374031174038
3208119,1,0.2583764101832073
2837714,1,0.9243214351969224
2639085,0,0.4889775574019665
1907134,1,0.8528180331825115
3049471,1,0.3073726575649965
2554984,0,0.900983756837979
219140,1,0.5951042398227911
2531555,1,0.9724828440107879
2037461,1,-0.3325801427788358
1467326,0,0.1708781584383554
509119,1,1.005551177168703
1465989,1,1.7086917436992564
1594633,0,0.31531130153100007
2207745,0,-0.03080665559563861
3838163,0,0.38334488440055536
723127,1,0.5003950867022469
1332744,1,0.1586422747598938
2456643,0,0.9279405576330191
3018355,0,0.5397274915944489
3228122,0,1.4458701368036442
2926364,1,-0.14596957342234496
1074035,1,-0.2838688870806994
1867888,0,1.215521931873041
3221420,0,0.8705127550929697
1108290,0,0.6826835314813202
302809,1,0.26050384369146423
199687,1,-0.1784769755040652
1635070,1,0.37891398503046664
600128,0,0.6077181144809474
3292002,1,1.4106155877252293
2415906,0,0.6693899944236492
3801121,0,1.1244228452207012
3022338,0,0.14090966432212548
363071,1,0.6370646747183799
1231297,0,0.867754591562091
2665770,0,1.0317985208438296
1246210,0,0.23668744086467575
1199023,0,0.1962151713147595
1699002,1,0.23394986560631237
735437,0,0.5676421759484747
808615,1,0.7225083877996396
2706936,0,0.9735847158314705
745823,0,0.3106978148993176
2878657,1,1.0493225003617686
1456228,1,-0.16415622451144446
2757364,0,0.14266841211451434
2413921,0,0.8857686582827896
728092,0,0.542586909650606
337283,1,0.18298636984314515
575105,1,0.7761431052707162
3102483,0,0.5240478992694039
2911828,1,0.25837393952980564
458769,0,0.6148960774871538
2432657,1,0.6854991020454796
1598739,1,0.5680963043455194
1341289,0,0.8585057900886203
244306,0,0.5025106807558483
281296,0,-0.041657980805945904
3208120,0,0.16522734773164283
3522026,1,0.8866244507415986
407764,0,0.4012265806657419
3774696,0,0.1881402116504261
1516795,0,0.3763051586529186
3023281,0,0.6288056520565923
2926145,1,0.543903985231337
283696,0,-0.11522305355256096
2483590,1,-0.4097922599298109
383559,1,0.7209045691372413
598770,1,0.8215756951005797
3278066,0,0.1368739548900902
2480297,1,0.13518897400146854
1467826,0,-0.0224157342937103
1535001,1,0.22819690002927623
994749,1,0.19274604658502464
2582711,0,0.3165012112422951
2500109,1,0.0054235208542822155
3010940,0,0.6808649371105744
2283857,1,0.6362100353375256
1267499,1,0.840685400874774
1107111,0,0.14368229785424014
2846289,0,0.7291514614683562
853703,1,1.282618578900689
413422,0,0.8326585189566689
591283,0,0.6291125053346978
978335,1,0.7765814007549173
1290341,1,1.0497288219312504
3209742,0,-0.13367392200101436
713350,0,0.41694098907257826
1525666,0,0.6138281554210413
3928773,1,0.8837210528183188
3139848,1,-0.23267818293070924
2122195,1,1.0629686075795521
2940476,1,0.39504786390692537
1725953,0,-0.06776569011566502
2027747,0,0.421985226521556
3445944,0,0.4844973154127079
1244301,0,1.3268080781538458
1937728,1,0.23255196011434567
1473937,0,1.2024292172413213
1543509,0,1.3244968335386083
1339424,1,0.32730170176021084
1027961,0,0.9335611251663485
2650908,0,0.4221167369086225
3861084,1,0.7436415273192425
3724722,1,-0.24570090618613807
242224,0,0.08088522892335298
658229,0,0.16134630199911565
3882125,1,-0.5314451324398706
3289519,0,1.3837743853998863
343601,0,1.3321756516646226
817923,1,0.5258340826130834
295695,0,0.6324538939858412
2552255,0,-0.05939076161324941
1606904,1,0.289700974399807
1634931,1,0.08029258935540229
3360500,0,2.1072987872476117
2766349,1,0.5196407997962508
542553,0,1.2839508470792675
1561129,0,0.06539669001428777
1478917,0,0.6728491904401672
2435267,1,0.8568291092345516
1509512,0,0.4297144229259285
2158395,0,0.9287957232939434
2970107,0,-0.3609794656017089
538531,0,0.21572161276887472
1461338,0,0.9497275530612042
2249095,0,0.673636449916918
1126293,0,0.5299430901214561
575369,0,0.8385111721376175
1649612,0,1.1738889426738783
2549139,1,0.2714188780865707
1908101,0,0.8769141944620422
3062268,1,0.5996502286039687
1616418,0,0.31328661005368885
1265681,1,-0.15197453586489262
2489944,1,-0.5847854560856536
2614635,0,-0.10199640966257528
2538805,0,-0.042069368786175954
2943887,0,0.3598031926710863
236644,1,1.3808459088347655
3926301,1,1.0261129046838458
1594378,0,0.8204993413596113
1937844,1,1.2163435871644577
2973033,0,0.7814039801417193
3287183,0,0.5063270943662839
419744,0,-0.046642457531237635
561337,0,0.09238526579782835
1075295,0,0.33280119612793074
2213036,0,0.7601415516037171
3360176,1,1.4527538562731357
3660181,0,1.1768597174960753
2870118,1,0.445616678315042
2995073,1,0.9529688884603967
2163643,0,0.04990232219404267
3480809,0,0.5250807124630037
1426047,0,0.7605724950483808
610138,0,0.6053871504750817
1277691,0,0.17367469976096245
935636,1,1.0287774241306566
2820907,0,0.40297949610513134
1226559,1,0.4271321531036912
3918099,0,0.922820711772075
2943967,1,-0.284130454764951
1420333,1,0.08031590485499307
3790230,0,0.5976683347787052
2877807,0,0.4008388527018369
3296108,0,0.26455402388806204
2059539,1,1.1849671103191268
2925984,1,-0.7830176040413276
3716155,1,0.18033692734598225
2009538,0,0.11079684464376366
2411082,0,0.28556737859487763
734227,1,-0.05462227880887904
345973,0,0.9104231599409208
3183157,0,0.9129943236990776
588361,1,0.4134967832237973
3678158,0,-0.2612585391367436
1198658,0,1.2633722076327252
3694491,1,0.09161656203044022
1668632,0,0.12036835191712597
3026021,0,0.40884021007208843
3299059,1,0.35829254286363743
1852355,1,-0.24355387943285922
2008685,1,0.989386419855257
3439163,0,0.6122819189110308
842413,1,0.5149283597908013
837396,1,0.15706146638214802
375294,0,0.5402762115666998
3539297,0,0.4540043173725197
935936,1,0.4235924593330504
2131361,1,0.4023962334615272
382005,1,0.8328823389105777
1150052,0,-0.32069362892306885
3460713,1,0.8079582602074116
1553873,0,0.6697527098306922
1810835,0,0.3191053032697187
3930732,1,0.6186133719288861
1300072,0,0.414041549264314
3546288,0,0.1509537662129256
3020151,1,0.07492361125345409
3894481,1,0.4897577341598036
1777721,1,0.5281111063291757
3349252,1,0.5139100755571333
3278837,1,-0.7170440932829839
286695,0,0.5916698257909325
2173704,0,0.8355856029348462
2599467,0,0.2978863470466594
1746925,0,0.130218903585944
2104624,0,0.9057911188310688
2249650,1,0.8668397594852564
3286117,0,0.024395981821379087
3022428,0,0.5833604026990672
1087656,1,0.6485083475162777
3497333,0,0.32648088769520556
866152,1,0.8937939103783054
2723559,0,-0.11373344736843216
2766461,1,0.36127036220477543
834547,1,0.4025846223304651
2754822,1,0.42638798772010955
3389571,0,1.180450476786853
654829,1,0.36944673908532977
489825,1,-0.09243227064095288
727014,0,0.24969680148185963
1689486,1,0.02686360865522197
1340419,0,0.5613666674997453
2693424,1,0.9926461431625127
3315179,0,0.779303461351462
2464024,1,0.07182984577474372
2396049,0,0.6392104798981288
1278521,0,0.5417587496342338
3896808,0,1.0575430439783413
3796726,0,0.6399383699777581
3205997,1,1.0471943914520687
1744958,1,0.5778102128240343
1994873,0,0.7202161272230535
2208354,1,-0.8148547642761633
285104,1,0.22544367562303752
2464725,0,0.08652763871032731
1085680,1,0.4619290931131342
1603365,0,0.23621181331550004
3160838,1,-0.05201767951945141
2052220,1,-0.1347579541150396
2735392,1,0.7930351523377249
3400663,1,0.21515011921716787
3800016,1,1.5454843446525275
3481292,1,0.31547614835400983
652466,0,0.22974503629292575
3137579,0,0.7484451633836842
2753973,1,0.8509785674173402
498520,1,0.5338454613583419
2580565,1,0.8254902270189187
1498554,0,0.5897262491769657
1034380,0,1.0036219377969666
3292371,1,0.05143154350501333
982841,0,1.117808882154534
512069,0,0.7078210636649473
667806,0,-0.42775991471140495
1087248,0,-0.1339648736934954
2884581,1,1.060167275645152
1935870,1,0.23628346556699237
1393527,1,-0.13103997303450338
2165260,1,0.011093156321598185
3122298,1,-0.12158641367458234
2392544,1,0.26537601239684716
542271,1,0.1759109934882124
3193127,1,-0.059116721378693726
2174750,1,1.4314760270917344
2013527,0,1.4126478244816372
3524165,0,0.8580016353763572
1063555,0,0.22022563849459367
2566174,0,1.156886668706869
3205168,1,-0.20059474274130418
1903897,1,0.45265422852655957
364256,0,0.37613736345222964
2914316,0,0.5746961412927368
1933761,1,-0.04191766461605545
2021713,0,1.0488616341546062
1126170,1,0.5727616954051474
3883382,1,0.44185300577254133
1886404,0,0.7827031892542229
2635422,1,0.5996729787461631
819005,1,0.15225363318046553
3000419,0,-0.24755800539346665
227408,1,0.49318813034033593
3168532,0,0.12096309065643257
3739120,0,0.38710235983695296
599078,0,1.4719166276204052
421552,1,0.737751303034187
2135068,0,1.0079498643362927
2414226,0,0.25631977205195733
716608,0,1.2430791709348914
710655,0,0.6879249663582107
665047,0,-0.3003811224751917
1585665,1,0.5742750924153674
1581984,1,-0.033486338586022846
3106727,0,1.8661977804680303
1523132,0,0.5676455515135016
2773075,1,0.5823691881774906
3443670,1,0.22168865614480512
2167456,0,-0.825306951615958
3081206,0,-0.01480313379461412
362868,0,0.7149859569563688
268246,1,1.0617225831403327
3784094,0,0.9348869871966092
1551671,0,0.12059123731650395
949717,1,-0.5971512008875159
1126805,0,0.5499066997669606
281917,0,0.5218383971439842
3492027,1,0.31609687932651154
3448195,0,0.615742197899308
3304754,0,0.6219418066554161
3280407,1,-0.0007515278526821073
1399690,0,0.43580492887381284
2559386,0,-0.43265363522574013
2763631,1,0.5245820877845213
2269884,0,-0.19271163479394723
523107,1,0.2572142079670634
2052918,1,-0.08654818804311604
1078674,0,0.05520898124799578
2588761,0,0.9231367597857606
2054230,1,0.6002196412061903
1353185,0,0.8565453910565481
2001716,0,0.07702905907893104
3859816,1,0.6200688387276846
2449942,0,-0.22499361869173518
2192760,1,0.21595898737580288
3707444,1,0.6107367968265318
2707048,0,0.7119797499918481
689316,0,0.31086737206364584
1661361,0,0.34890254569154233
1746413,0,0.4504088975714555
2999989,0,0.831286257527017
2738722,1,0.22808447290809067
1649459,1,0.843560613057115
2188173,0,0.644627649951283
250422,1,0.5255877964381068
1607556,1,0.8696852000481046
3746957,0,0.27931431931254436
1025273,0,0.17545084574209913
2846427,1,0.8433212202979357
1532049,0,-0.10312149430085621
1384604,0,1.3515729246129453
2281177,0,0.41935002654998255
1433851,0,-0.4861712753579787
3444416,1,0.8980205127004215
816291,0,0.3402037183858672
977543,0,0.7012296784930302
3843569,0,0.9392242526031134
1396553,0,-0.26030611932759196
344691,0,0.691406294235672
1353974,0,0.8872324030520103
1140884,1,0.4980722357678398
1984772,0,0.41565236819240015
3744241,0,1.3824268340874302
296773,0,-0.3764139217887892
826214,1,1.170533602057954
2262418,0,0.2817274795732711
3904273,0,0.43707492883315435
3477787,1,0.6058956186022691
2414045,1,1.072140319921084
856598,1,0.5102068503723133
3653989,0,0.9534390410615508
806930,1,0.329376111321261
3864494,0,0.6441844287636183
1760632,0,0.3536513212690584
3700932,0,-0.3378093394650128
289617,1,0.3370219894594528
1524074,0,0.6633879110427684
1224352,1,0.6938165430916963
3797273,1,1.0639611361717163
2994961,0,0.9744374314366306
3087384,0,0.48664411786740397
1264955,0,-0.229553776452155
715731,1,1.0154700137801913
3198905,1,0.7697188882330236
2013503,0,1.0044212684978735
2422137,0,0.34633103005458854
2759606,1,0.1924010531361726
860364,1,-0.6068664814805497
416010,1,0.39059161375068063
560694,1,-0.6251346354103686
3250913,0,0.4494633986250719
3474781,0,0.3195579059916603
1792294,1,1.6941200309050206
1443030,0,-0.18986405976465
3251207,0,-0.04790557527843636
1408998,1,0.38916763289048606
670478,0,1.227317535339452
3439632,0,1.3502181339678283
727366,1,0.091555444815213
3672759,1,0.5030745003111952
986887,1,1.568635625901901
3346151,0,0.5978380965940124
1858727,1,0.6500516772431221
1171302,1,0.3996179217423729
408251,1,0.6128975011621376
685948,0,0.7293052050525415
1270831,0,0.32379180309767747
477272,1,0.7836273075832647
2858748,1,-0.2192340693782518
3326843,1,0.12824508264966583
2474802,0,0.011756751825265921
1326735,1,0.5462464919728403
584583,0,0.16835810012389266
1843344,0,0.5968191338241033
2125182,1,-0.41936677075974493
1844709,1,0.26924705489693473
2895483,1,0.14091088421643722
368463,0,0.0019156298083220502
969870,1,0.5063854320693145
883058,1,0.6882154133913636
3254296,0,0.26929795817253865
2451701,0,0.4925680525802372
3187367,0,0.508385791564653
2714488,0,0.12342480804537326
1573565,1,-0.03304451296820515
2561928,1,0.7951640910247801
3893522,1,0.5090206200244843
2877741,0,0.5488786225640591
3306960,1,0.1449462375544811
3373196,1,0.9769789980083117
1711719,1,0.8675399036270349
3780256,0,0.43398704136304084
3171381,0,0.4941589039872152
3278330,0,0.79829136268463
1394318,1,0.28948421235611915
983642,0,1.1302406039903825
2439281,0,1.012749971126484
3191856,0,0.3163031110504217
2996592,0,0.6157107201009084
3673029,1,0.7438404387310933
3856137,0,0.29854659590349186
2247370,1,0.4967902651089975
944978,0,1.0633406321286052
1414052,0,0.7707207250798932
2876261,1,-0.08392869196593888
3233633,1,-0.05386130476299966
354212,0,0.008937968148469366
3760928,0,0.7305494126006498
2995577,0,1.2544737094377683
272685,0,0.6894657729407921
3289537,0,0.00048783001152374883
2142173,1,0.3943437564985561
609714,0,0.24760744730032203
1386205,0,1.1632982828465543
2403486,1,1.0981315333212085
357824,1,0.12797261149783445
2474299,1,0.9867267707501628
1334170,1,1.0003695176145653
1603349,0,0.4538050563870364
959030,1,-0.06734145358505061
194671,0,-0.04262361185035965
2444076,1,1.0562070853556988
2817070,1,-0.693036667325859
2196534,0,0.2885592115421828
1388052,0,0.25986850119367644
2638608,0,0.9122769916848739
2170971,1,0.7140909965543256
1679552,0,0.3625218311848708
1672068,0,-0.1394975834933065
516677,0,0.5708298353199506
2414686,1,0.10419057915030545
3125828,1,0.5215857224451885
2621818,0,-0.2523635473658385
3472324,0,0.5286327560746777
1399542,0,0.2685253464726643
3653421,1,0.06420960576360502
1222383,1,0.046733849832792745
2644633,0,0.3702279112970644
3168243,1,0.5935115286935841
3152313,1,0.032209079732722856
3496894,0,0.17258006332528825
1683654,0,0.776515413960672
1701632,0,1.5722221763214694
1362173,1,0.1922369573186456
2711106,1,0.056068908593367106
3543089,0,1.0110087768731995
355840,1,0.5733281852420973
1934046,1,0.6034926531028115
899944,1,0.3526267643134477
1540370,0,0.7491749072835902
1556198,0,0.6015442971399849
492225,1,0.4641453942747636
882135,1,0.679796923887569
3395392,0,0.8779519836883529
2566269,1,1.0611208093579036
892606,0,0.417771326613657
1253493,1,0.08345915351240923
3670481,1,0.9149861888317208
409127,1,0.24651578357104087
1567812,0,-0.2812546076531003
3665553,0,0.5364495122213191
2410723,0,0.06099268210928528
3223825,1,0.39272678087735574
2715205,0,1.0009050612372865
3090739,0,1.5532868254786019
3475399,0,1.056433651555695
1139217,0,0.6197657338752919
3103247,0,0.5735265700296123
3549160,0,0.6983302893060035
2654322,0,0.22553568229479853
350744,1,0.07391432893109318
1258575,0,1.1624801488053098
982986,0,0.6369290405722242
2915224,1,0.7445508855681002
3524151,0,0.21456565765350358
1824792,0,0.902270749616016
355944,0,1.1563535624583312
2972020,1,0.5479739787598807
2796191,0,0.6011242709533539
3797607,1,0.7716691350250744
737882,1,0.39215635873085575
722828,0,0.4971572910913739
3679995,1,0.5995769575332293
3063648,1,0.1627215177710416
1698450,0,-0.12586935499991492
606321,0,0.6045770303646485
3104238,0,0.8764046677999439
213917,0,0.09263647485061755
1340949,0,1.1438173030202394
3924123,1,0.5016663151449743
1062206,1,1.379623294827927
1045158,0,0.5973020617046205
3028093,0,0.334365069374257
2108202,1,0.6115772800915287
278681,0,0.6149260692269147
406358,0,0.6446290635944458
2003083,1,0.11761810326177902
2826838,1,0.10340143602486371
877202,0,1.0207600907211423
1006747,1,-0.016846535525803147
3402339,0,0.37956242017170144
3302623,0,0.01961819655778925
1381624,0,0.07331035555762105
1665625,1,0.1300752604238023
1775108,0,-0.5097977486448698
1751300,1,0.5616519660483054
2010359,0,0.4108226208836948
2533015,0,0.12152587991748033
2456526,1,0.46401914146229617
3671765,1,1.4049004290650249
3794979,0,-0.07172159945180256
3291061,0,1.0657104228686745
229346,1,0.26628996770065383
944567,0,0.7113544421995184
2923706,1,1.2768962716638563
607960,1,1.0548927040947644
2450936,0,0.25389416511660157
858995,0,0.8107166649511264
1751827,1,0.33732600478410585
2408449,1,1.1986731533431172
654124,1,0.7550651441072307
375938,1,0.9887457348354096
2503974,0,0.5748136614429705
2796348,1,0.5560226523124159
2216662,1,-0.2058004212781252
2055452,0,0.6182511862412401
525882,0,0.5190008653018903
3145243,0,0.86368372016924
721510,0,0.7030110739167903
3711077,0,-0.12811525722591538
237838,1,-0.36329162038704277
1943414,1,0.7648358780406119
3913014,1,0.9554850054201296
962172,1,-0.6041426858575263
2969137,0,-0.25495063521950695
3116067,1,0.5454611400146981
1671022,1,1.7190596230953314
672816,0,0.3899258555416477
2935058,1,0.6982767019626828
3368613,0,0.7383218555206189
1562840,0,-0.07147588318016565
3807676,1,0.8140638992391469
881402,0,0.0942631133036885
2723098,1,-0.011162744871431596
2618706,0,0.4670177886246609
1533877,0,0.38366680814572857
966652,0,-0.4194635934928089
2623993,0,0.03630611631844405
1769384,0,0.24405192228826267
299892,1,0.837781863086072
3282800,0,1.0921483641754688
1409127,1,0.07777835483946527
3298263,1,0.34078838513323717
837138,0,0.47987711121796583
1436141,0,-0.14861132162131524
876449,1,0.8580430720543635
3283316,0,0.5217617248450834
411863,1,0.11514277574801593
1457061,1,0.47673158214267203
1948569,0,0.3657328494992299
629149,1,0.7021433145461585
3862080,1,0.9475850405003596
1941381,1,0.9980571763116262
2559320,0,0.5370441904479245
1349725,0,0.17825062831118615
1891863,0,0.2455112279175567
2767827,0,0.04247682710727263
2609714,1,-0.15866774662563904
425803,1,0.5384533533243964
1139048,0,1.4767121114653419
969365,0,0.9001314931455691
2528021,0,0.6550568918272335
895404,1,-0.5577307125667748
1027119,1,0.3668923006793947
572716,1,0.3791256301958238
2199905,1,-0.18059438060768163
3238776,0,0.5509312122393654
2721381,1,0.6040982782778799
560466,0,1.145899838394207
632491,1,-0.3981686354334029
2516492,1,0.9467466278203054
1289916,0,0.39332099469458937
277848,1,0.39979404456804063
1539872,1,1.3128548977428376
3775740,0,0.8487529746584777
1225916,1,0.5491819180152272
2526832,1,0.2882261328733017
861140,0,0.4021541793996567
1597381,0,0.30050961501690265
2982165,1,-0.06776605759417342
3488413,1,0.23305036607955354
3836060,0,-0.3570005860087884
1955754,1,0.09948298796319166
397433,0,0.11690257638190266
291297,1,0.36462615578774993
1344155,0,0.9491346499262208
846441,1,0.9376717341080142
2007671,0,0.20155808015911247
3020311,1,0.3009567162359183
806819,1,-0.13293448429765498
2935412,0,0.9497799450185851
2798127,1,0.43385971161525416
607941,0,-0.6970896175770283
1148899,1,0.20734054261600218
2565103,1,0.26774635003550584
732938,1,0.4954669001671907
966849,0,0.08921582125809743
3236366,0,0.8654219377088375
2220363,1,0.5082268164547437
2935979,0,0.3621794707132113
3105765,0,0.20409868362543543
984880,0,0.24919400910922118
2862465,1,0.9650287592108455
3127200,0,0.30189796994286927
2238002,1,0.6577019245146749
989647,1,0.8400521980862036
3409925,0,0.29126295910972927
2945664,0,0.1711484922922752
837118,0,1.3975558713144707
3236121,0,-0.02029687457206672
3180951,0,1.4305118718294771
1277931,0,0.5677360633433268
2114451,1,0.3018282839751989
446364,0,0.7275946352850344
3080479,0,0.6196631301403843
1016527,1,0.4884082971546082
1604378,0,0.04206988062551015
304614,1,0.5745796415486033
1544100,1,0.3841075312397488
3110528,0,0.34801725509260073
1511135,1,0.09511132896931276
1529202,0,1.1980680277935858
2604914,1,0.4867665001532888
2764762,0,0.4852878391036351
2579539,0,0.14880807002380853
1276292,1,1.2656593909636462
1770424,0,0.8276894221679414
2647051,1,0.14794344415942162
3235244,0,0.2629211833102654
2060662,1,1.3522274104243652
3469699,1,1.488415308518511
2672613,0,0.9355685645409083
1438052,0,0.4404578076741774
1137023,1,0.3346564220740442
1072297,1,-0.5293481091666743
400255,0,-0.16278534633280944
1361606,1,0.508775347549454
3407043,1,0.3437084237168086
2255214,1,-0.30769580990406115
1283128,1,1.636742401382699
479950,0,0.2759335537446407
1814405,1,0.7171555466766862
1502922,0,0.5137174624594265
1772491,1,0.4785972321164522
3706318,1,1.121971462997057
3304567,0,-0.2977906074887753
3475913,1,0.5361339593055611
3150627,0,0.17984248564302202
2488919,0,0.8997056051660217
1510017,1,0.054727436743934835
648511,0,0.08264598431577314
3722428,1,0.6266873370814902
3028883,1,-0.22977620425094147
2216702,1,0.9892525674994375
3939591,1,0.22929293042171411
2179412,0,1.2744574146932413
1332362,0,0.3259549932928074
1482526,0,0.7249317783331044
2497794,0,1.0584039279586233
2842760,0,0.0016514340533124727
