sample_id,z,y
2565200,0,1.0069922782366463
3844643,1,1.1186461193319566
2578451,0,0.7953842922987667
715811,1,1.1796711283020018
3376228,1,0.9650553353266529
3533745,0,1.3157159577030795
2528992,1,1.1793423658197653
276177,0,0.7239501346878817
1745730,0,0.802662704880901
2651090,0,0.7215444656713901
3733299,1,1.152799693372085
3033874,1,0.898044787756904
1031741,0,0.78401841476888
2626624,0,1.1640761658624283
1458109,1,1.4498324229028399
1388706,0,1.0084351654586883
716068,0,1.2542064728759805
1250337,0,1.078803636029509
2673763,1,1.4459774331869795
598768,0,1.2325706608596392
2198182,0,1.3210012568899334
934440,1,1.2890392842846095
1011933,0,1.2980470906375685
264736,0,0.8316766385687351
332594,0,0.9756479635524844
3235315,0,0.9506201696016364
3779407,0,1.180061392808227
3316427,0,1.1460666094191518
2704222,1,0.7126538327717485
2820936,1,1.1776269267629855
3798775,1,0.7721725608214256
3058372,0,0.9227938160519966
741843,1,1.0975721300799741
1669998,0,1.0016515176192577
1555989,1,1.0293522300524094
3206748,0,0.7145349140053049
1582368,1,1.0393249989069413
2237488,0,1.0663436937967397
1991095,1,1.2744579903001756
1044807,0,1.100106875026723
2521555,0,0.6601787863964426
1029211,1,1.2537474396222474
3486174,1,0.7881340137112817
2973543,1,0.9061780627152434
362591,0,1.1702717265706926
3078014,1,1.339577539242621
3706969,1,0.9386420633104805
3108994,0,0.925719818884124
1540129,0,1.0801721482456623
1952702,0,1.1554287455337253
1440318,1,1.1991068492048713
913801,1,1.0137570413878672
3182210,0,1.043617030398623
1830673,0,1.2475266488635568
3454818,0,1.0886420794030711
3875402,1,0.8268964488277603
3404547,0,1.2108936312652798
1790449,1,0.9571618445715712
3477205,0,1.1471694656533256
2167767,1,0.8789477619303796
1411680,1,1.1063432714230326
412118,0,0.9625242852800167
3482307,1,1.2008742091016378
2771929,1,1.4224710042976136
281835,1,0.9097794970610721
3118619,0,1.033736792615833
1273157,0,1.1297647374629596
1569330,0,1.0055535706282228
3079772,0,1.5436961026700051
1753006,0,0.8647804517159368
331159,0,0.9625875164618909
2544185,1,0.9496022924951203
1866278,0,1.542925007966839
503864,1,0.6593989040937371
2573371,0,0.9023578116024409
1235651,1,1.3493568855371512
1686486,1,1.05582562517737
2896867,1,1.565983719843342
754966,0,0.9425467520728216
2475739,1,1.0628869878855698
1468775,0,0.8325367096157826
3432202,1,0.9783729908553175
2513078,0,1.014217983393845
806819,0,1.4896182802647275
668730,0,1.0563273556624853
2717053,0,0.8371180864570847
3472993,1,0.7468864319192201
2025853,0,0.9380347149367843
1939404,1,0.7803783319847439
3684082,1,0.7279285900735719
3245189,0,1.2208744418169117
229587,1,0.9360095605267449
2920138,1,1.011019713531508
683630,0,0.7507682854343606
1959247,1,0.8490904948404456
1827122,0,1.073097974987593
985596,0,1.2027893408637922
1553802,0,1.040569844218913
3487243,0,0.9179198060523293
3939595,0,1.0399348663711505
1335224,0,1.1945032273139922
1314516,0,0.5232767367589944
3678573,1,1.1338361496463611
927874,1,0.9918610500942264
2636921,0,0.9921633671907559
834414,1,1.1436227468698874
1440707,0,0.8406752843603498
2610659,0,1.0261299125835412
329025,0,1.057474027193564
2225711,0,1.247229204963326
2575575,0,0.9577311606745955
720294,1,0.7606449830372948
399818,0,1.1297606352542302
3838188,0,0.9351787670815406
962163,1,0.9605426397905322
1387872,1,0.5934399253413284
645667,0,1.1707873055368845
990517,0,1.1682612401472219
595758,0,1.1556401200919542
3197351,1,1.2982007094360446
1717670,0,0.8297073431839768
1590640,0,1.3770080921191874
1624295,0,1.0596636393977277
3222664,0,0.6302043153879217
2918267,0,0.8575501645683253
521414,1,1.2317065114590193
2168137,0,0.9153162532126788
493416,0,1.1117677757536601
2774023,0,0.9607845825443952
3046756,0,1.0415078430920708
2242568,1,1.3112952209271336
2167465,0,0.8395725092609242
3740965,1,0.9923754386217526
259504,1,0.6807550437773288
3484748,1,1.2090864615671422
1585829,0,1.4315096633348063
1489130,0,1.0468339333494387
2257462,0,1.3099351759055993
3118071,0,1.19933949835198
2995029,1,1.384284598280273
384242,0,1.29103862216105
2419893,0,0.8235899462707584
2738316,1,0.9452294351506231
1107398,0,0.9880911033917633
1321584,0,0.6658396393001769
1574366,1,1.1321737461632146
3189985,0,1.4095380836839675
1206618,1,1.2351319357746884
3442982,0,0.921198531611892
712476,1,0.8649742257652686
1638955,1,0.8064998931153712
1945132,1,0.7597936677399162
2140739,1,1.399519229825036
1400172,1,1.0662264894303517
419443,0,1.0238444578757628
3937691,0,0.7404678161026548
3932478,0,1.0980674165867406
345255,1,1.1072787840503224
512973,0,1.263651906810241
1051338,1,1.1275544735365184
918985,0,0.7686678602760008
3661731,1,0.8192366788530362
1020218,1,0.9055081453353733
3926863,0,1.2484687667813006
1028873,0,1.1368807458809078
2644099,1,1.117733740718354
688064,1,1.2445273195211188
1416250,1,0.776681649552755
688103,1,0.8551268140860954
969949,1,0.8911009681892322
2394238,0,1.2576712795876919
1214480,0,0.7678141075407432
1621456,0,0.7734235210778277
859228,1,1.312719283807229
3224432,0,1.3959425036509032
2821101,0,1.2603547895574907
3069795,0,1.105712226672086
332136,0,0.7943476865676555
900654,0,0.974986004955186
3484306,1,0.9511803132467467
2424680,0,0.8641014774722146
1269774,1,1.0524254600758374
920981,0,1.3521337920393375
3061633,0,1.037611867257347
3671758,0,1.2709892324676457
3516776,0,1.0689027659918766
3677304,1,0.8521319703438
3007038,1,0.92350044846784
966045,0,0.7740178833075015
637792,1,1.1039062350035405
2269867,0,0.9601415258612016
1013656,1,1.0822248747341643
284273,1,0.7371640370871759
316940,0,0.9778076101382854
2015532,1,1.482797512944851
3308527,0,1.3573687109670542
1052101,1,0.8150194393874648
2850031,0,0.8938602939253892
618383,1,1.3072944985144197
3885252,0,0.9589050893894325
3327854,1,1.4886296773394603
2256434,0,1.163985524337178
2232071,0,0.8575218005422868
2519136,0,0.9457042435663817
1137624,0,0.8616492509561056
346718,1,0.8992745277592222
2756055,1,1.2282575546914176
1546761,0,1.1913478713119718
285122,1,1.2940402205604646
434190,1,1.0949810049331392
895250,0,1.0662850645750217
2159739,0,0.9117013172595083
494151,1,0.7941300398961995
471295,0,1.2060998718071554
1126116,1,1.0966189007674094
1152624,0,1.0668683866752833
2690756,1,0.7817714450955533
2454902,0,1.185795919487262
3246189,0,1.1133151658763543
2670288,1,1.0503144400814133
916396,0,0.8652113365493098
3166283,1,0.9987526023417316
2622050,1,1.3667987581352155
2129490,0,0.8527261553706067
1032720,0,1.1053215564529557
3318732,0,0.9743141676181315
2045775,1,1.505174042931455
3961164,0,1.3251627320039463
1360519,1,1.6424873822502608
1984171,1,1.3030972818403412
2743012,0,0.5614605799247022
1070755,0,1.1565962426646759
193744,1,1.0587219268662709
539603,1,0.9706864589025559
811894,0,1.0126905854991852
390395,1,0.9146718397357558
3724471,1,1.6575758468720023
3654956,1,1.0573482359356874
3517845,0,0.8241709584144945
3514174,0,1.112269532210273
1499336,1,1.1824470193509578
1148017,0,1.1184780671031345
3706445,0,1.1162818864754926
260118,1,1.0833304078084343
3110033,1,1.1515326201659508
2589097,1,1.215562336725829
2808183,0,1.2425988441172986
2826843,0,0.8541908883871794
429444,0,1.1456866629052112
2277106,1,0.6944836336414393
2891524,0,0.8026705934119122
2978358,0,1.0170659802673319
244342,0,0.8247632065384651
2172049,0,0.9393834098775109
752191,0,1.228473314613991
893360,0,1.1993254792751722
2810235,1,1.249611055391559
3367468,0,1.224696858818401
690508,0,1.2895073678702818
1810489,1,1.1325409836817955
1354622,1,1.1243999062834393
2027258,1,1.2927365594126952
2512123,0,1.1442892876431792
3408399,0,0.981308198009739
2203421,0,0.9962040679928056
835288,0,1.0188217901663188
2626774,1,1.28312772439599
2525300,1,1.116857262823152
1861072,0,0.8397676420750201
1858771,1,0.9271565561305836
3202252,1,0.9723227584906667
336470,1,1.285465259025292
1167534,0,1.0436382067371963
203065,0,1.115923263482415
1254206,0,0.935232832107938
3434751,0,0.6826162598722425
338052,0,0.960816850544027
974670,0,1.1102297505174974
2174138,0,1.0177470605283536
2699028,1,1.226326868212402
872574,0,0.7894455942790704
247294,0,1.4036650570970333
1531006,0,1.0209166001246643
1422439,0,1.3978916702515929
3151074,1,1.1235954529647292
1682699,0,0.7087505906696832
3440960,1,0.9793264027722222
631933,1,0.6556391397455583
1227489,1,1.428916235103822
2624458,1,0.8997102091853756
3663048,0,1.3354449931696777
2763350,1,1.20743373673357
3356354,0,0.5503376570363707
2257965,0,0.9173866267831459
3471354,1,0.8788967348832063
3181687,1,1.0156923223265981
3722279,0,0.5563053375000933
1706997,0,1.0376926944146265
558696,0,1.647339938278054
3101455,1,1.1635737013278948
811654,0,0.9953604556324174
238692,0,1.2730790642581453
3366082,0,1.2853396944128792
2521960,1,0.6749465158508599
507309,0,1.1124774094337355
3958168,0,1.3496539943739236
496489,1,1.1205147322159554
2144830,0,0.848366289791192
1326012,0,1.2416491479893836
2058233,0,1.1917385618164373
3075832,0,1.0683407635532933
3453101,0,1.2100743965331113
2916058,0,1.0381803599871298
1260292,1,1.7272043837539985
3116167,0,0.6093229837655714
508843,0,1.4234556896983044
1576885,1,1.0715776661800278
735683,1,1.2646050300161689
903342,0,0.8832877414412827
2602926,1,0.8144458468723563
572920,0,0.7555974998599974
439262,0,1.0483099535912346
3301726,0,1.0500218262114704
2559981,1,1.2920730447557933
2485108,0,1.2694289173870597
3912169,0,0.9603738075846774
3702317,1,1.337801659660939
2929457,0,0.8512554539811987
640490,1,0.9574120652265051
2748128,0,1.4012689227803976
2142715,1,1.3814113163581108
1195511,0,1.4012374237091456
1562532,1,0.785657294200502
2019748,0,1.248288160669868
3085883,0,1.006769682801277
1535820,1,0.6542795790862526
2040155,1,0.847043103138325
2027707,0,0.7937964478701222
2219684,1,1.001234706263309
397313,0,1.0331919691641278
2400553,0,1.1426537866233832
2902730,1,0.9432315053851993
1163626,1,0.9467300395431963
3142159,0,1.2560484113026855
3367885,0,1.0190510030232283
1946092,1,1.1221492575878362
1866186,1,0.9412433923871768
3692348,1,1.1782244833282174
1738049,0,1.4610468977411735
3855436,1,1.096717974709574
3791947,1,1.1428231443842367
3308401,1,0.6493773449649052
609346,1,0.9835154343933402
3024664,0,0.7116911689318552
862586,0,1.0248568010627808
3793355,1,0.952849482897556
258963,1,1.235799112054897
579069,0,0.7906078472855123
2037072,1,1.2437766559627947
1871987,1,1.1587243109930379
1294592,0,0.8905168160373692
2859449,1,1.190331184458683
2984033,0,0.9382657480417955
1608579,0,1.3018276171997214
462885,0,1.2905111138454166
1239241,1,0.936833084334012
3388019,0,0.7649862943748498
443056,0,0.8718816136289826
3944728,0,1.1440544238247905
3510794,0,0.8195239804847497
828557,0,1.1539726434877686
3162619,1,0.9951679834886444
551171,1,1.0264302040509155
502775,0,0.946728053063915
3041330,0,1.1247416465840632
2736017,1,1.066015747963007
3168619,1,0.8688518208369395
2644144,1,1.4331482897676624
3795408,0,1.2975037433483667
1511135,1,0.6370579721475488
1609642,1,1.3763843908070748
3890219,1,1.498561516814123
326727,1,1.006582208597988
2724570,0,1.4615605169955852
360206,0,1.1405515301712583
3256231,0,0.7093650703790317
1199388,1,0.6593985052970781
3012187,0,0.4644004590815559
1809237,1,1.1702741895408635
3072542,0,0.643080612135225
335376,1,1.1381143109689336
3208792,1,1.4856910992788501
1580577,0,0.9926526060265335
389880,0,1.2049694866733502
1032487,1,0.574464185502285
194171,1,1.5113641530954274
479649,1,1.0463449888302856
3256107,1,1.1762152505274766
332374,1,0.8808733002329405
3549230,0,0.7349552473740003
3450097,0,1.2381227973344315
333267,0,1.0853449586166728
2216715,1,1.094084813690048
1033273,0,1.0400815655514546
1044505,1,0.9926516827596622
2112678,1,1.3874614686553979
3426930,0,1.0226729663161316
941672,1,1.1300333282603974
629734,1,1.4172001443468951
1287884,1,1.1290687414738807
421339,1,0.9462969984645762
938422,0,1.0249528338435818
1829957,1,1.0574029980164745
1507180,0,0.8559511253453497
1829097,1,1.3982737680043469
1383824,0,1.396837666170189
524305,0,1.1611619882420565
1634986,1,1.1891223763377554
1005081,0,0.819562180725772
3746810,0,0.9464079936359109
314148,1,1.2826354876972585
629064,0,0.9681861516035903
2755365,0,1.3253704448257875
3841586,0,1.0515679147811567
1153781,0,0.9931648726461799
2141507,0,1.3532021817269029
2688015,1,1.0540127660139005
3165094,1,0.8083932019349572
2442788,1,1.1254527229007876
2452546,0,0.9027725740752182
2878778,0,0.955739169405787
3414985,0,0.6787587069274658
2497406,1,0.8506076016178571
1685166,1,1.3676199757091556
2397977,0,1.0070596369009601
2167878,0,0.9779833597749008
3920844,0,1.2413368260553983
1901903,1,0.9981561025512896
3053020,1,0.9271159387958515
2472614,1,1.2213569648412204
1553392,1,1.028841769824912
1523838,0,1.1156714832806027
2121412,1,1.3234434449166983
198257,1,1.038001897465632
500134,0,0.7275522890834825
1514800,0,1.2704450667890723
529008,1,0.614085238335425
727131,1,1.3335413439457016
1731626,0,1.0878904672657586
3841103,0,0.6549245747336145
494357,1,0.8183492159748641
3531560,0,1.4205572766459453
1607666,1,1.0471973938067907
549053,1,1.2042809211476015
2987597,0,0.7825932931850905
756149,0,1.1237176133299633
2527792,0,1.4385096042097372
1494914,1,1.4034393864374066
526232,0,1.25522488890143
2851933,1,0.8761568697725495
892467,0,0.9895776613393299
2934168,1,1.0359649092573828
1328038,1,1.0116979989162849
3099350,0,1.0172985001825119
572205,0,1.0041484201012063
2667511,1,1.371250167256974
2866670,0,1.027281339133213
1475303,1,0.8669439996992291
2839934,0,0.8093221348181355
2510854,1,1.0384240895692247
1875390,1,1.269628120805463
3094576,0,1.142946116638772
3470357,0,0.8931900714708398
3864450,1,1.0785348644258415
1492248,0,0.9405386506578
1495540,0,1.1100089604251817
1743757,0,1.0248256528803
482779,0,1.5409954136236437
835107,1,1.2776404614388257
2172968,0,1.0194138007260045
909942,0,1.1786500692683433
3796773,0,0.9023440201480276
1807783,0,0.9036868994396823
1301166,0,0.7357286787817723
900231,0,0.47467500832339593
3314677,0,1.5444113697297612
3111855,1,0.8913631057219111
283932,0,1.2469406721339917
1080824,1,0.8162614726785721
814059,1,0.6114730065689666
2806912,1,1.1750247961417803
922667,0,0.7070601643105793
808154,1,1.1178623237560346
1248638,1,1.2881789648937079
1525073,0,1.7526955603027714
404796,1,0.8844091469593223
279863,0,1.021730412973591
1760190,0,1.0079569343244292
1308225,1,1.1056203576150487
2986725,0,1.0743781845085938
2479044,0,1.2483188927531583
671439,0,1.0669169447589164
3406830,1,1.0809290509488945
596298,0,1.045954687499916
1246058,0,1.0038647986489153
3938644,1,0.7696737300865655
3058964,1,1.0742810787113126
1874215,1,0.8388750691355905
1580782,0,0.9734829500219196
741471,1,1.0918780762033067
675269,1,0.5677892992619856
2012149,0,0.8166322372392156
1195085,1,1.3644332379347754
3288992,0,0.7573349045015765
619836,1,1.074973321202321
1992045,1,1.0821348988656467
1942485,0,1.2125202503681707
503880,0,0.9249429048119667
3448695,0,1.5675447340349136
3846169,0,1.2206074699796792
1935810,0,0.9502399765421004
3504865,0,1.1189269392800465
3807687,1,1.164789157328917
1161414,1,1.0781644251759592
566305,1,0.9762896846899911
3134112,0,1.259988773916706
3875087,0,1.102379455301891
2424037,0,1.0625395996781104
1910666,0,0.7505591569784684
3389580,1,0.9685695610330173
1934914,1,1.0786867111131957
1128017,0,1.468911646782077
1012192,0,1.1591425612618291
1861616,0,1.2741917015354742
3358676,0,1.2770726263632743
1322266,1,0.9220454176486986
1528329,1,0.7562275456172687
2766895,0,0.9479767992890091
2869249,0,0.892156733341814
543489,0,0.8289380272175249
3121633,1,1.1367101594776436
2770383,0,0.7580244003185546
2489496,0,0.9736534397939176
3916470,1,1.0870749179950747
1201568,1,1.2389105884131046
225015,1,1.3046787305610557
1266587,1,0.8939306423988286
3843052,1,1.4677149254181752
1008938,0,0.9988010185092406
1583561,1,0.8201391087348955
3676817,1,1.0351224661165166
3248736,1,0.9785882770701021
674837,0,1.0881382714833774
260823,0,0.8455763275591217
959846,0,1.0177458258691061
1767764,1,0.8517012919983297
3765475,1,1.270912048171164
1617542,0,1.1706152335184552
561658,0,1.096453734418689
233030,1,0.9755013890075732
2182179,1,1.1415086245750055
3419423,0,0.7221026476932975
3402352,1,1.4160386620472463
359965,1,1.1972479929237667
3457732,0,1.0776987415039134
1030886,1,1.217981063335972
1671645,1,0.829563013864862
1819545,1,1.0861499158015526
598317,1,0.7375459061271257
1611726,0,1.084330431432773
3216156,1,1.3567403444325825
446772,1,1.2584961789862155
1292405,1,0.9211913716907978
2513049,0,0.8816395185302894
2720062,0,0.934561821639359
2571576,1,1.1359455662755638
1222204,0,0.9362975220035392
248068,1,1.340857869492488
3893309,0,1.2008644052349977
248506,1,1.2887115164914134
2423530,0,1.407183815158679
2501840,1,0.9566490726973417
205147,1,1.412285556157515
1671436,0,1.0822797594290228
2235299,0,0.9594730026055636
1908118,0,1.0743081218940078
1611661,1,1.2201410684107785
1459224,1,1.1689971545520834
1639725,0,0.9563997328264324
1290526,0,0.973385672646133
3833461,0,0.6213965488745345
1718344,1,0.6951914744116073
1059132,0,0.5713797038898649
2984222,1,1.0966802300928857
1582875,1,1.426666328921363
2023324,0,0.7554824799286305
1912184,1,1.4704061684861456
2447352,1,1.3324233166055353
1200587,1,1.2698360022990403
2013340,1,1.1701382113659982
223039,0,1.459265900077931
3247048,1,0.7338960181532663
2604320,0,0.8476197402366689
1692011,1,0.8420014636370632
226810,0,1.0241651330715453
1635843,0,1.035523878321569
659860,1,0.9785105757818101
3221978,1,1.0910988920437001
3692302,0,1.1329331900070096
3154700,0,1.0149866597754351
3299603,0,1.189259742956473
1484073,0,1.2467575427998145
3758644,1,1.028513571044841
3454064,0,0.9972826435087982
2265942,0,1.0777493018007647
470644,1,1.2494147955545478
1452930,1,1.074559403946136
3528532,1,1.0553679901294553
847190,1,1.4424085128822244
249772,0,0.9023952637226821
1479849,0,0.9752272536901112
1125566,1,0.8784540487004563
606140,0,1.54133828395451
2166041,0,1.4121625557146793
3957593,1,1.1624558158964602
366485,1,1.1486850460885762
3160876,0,0.7113865272745492
1756742,0,1.1210404416435518
3725027,0,1.4181447717028446
2559975,0,0.9429239459265009
832929,1,1.13098682356766
2041563,0,1.0194775559018778
3461175,1,1.1196462678737351
891747,1,0.9816813995207302
1903476,0,0.9484089101993465
1843344,1,1.1329603937093728
1951788,0,1.005252832824777
1429573,1,1.05083063316642
3179961,1,1.0371769708374283
548239,0,0.7506953675873816
582903,0,1.1216994534734475
525646,0,1.1632140201728347
2049552,0,1.212686688818648
3088652,0,1.1678052623738093
1903381,1,1.1430845409365582
496841,1,1.1326434820000546
1640449,1,0.9551184962990223
2226315,0,0.9693209091230399
2043985,0,0.8710007958695705
222930,0,1.1611445955059712
3895552,0,0.7072704554428851
3931461,0,0.6804645706938119
2603951,1,1.248507309544378
1829197,1,0.9146791349980176
2694004,1,0.7029348218843823
2948496,0,1.0926738480939575
1376172,0,0.9093185630708421
1054634,1,0.8087246520926411
978052,1,0.9333873525421346
739805,0,0.8316290927281252
1090776,0,1.1133815606404225
3167073,0,1.338659749092671
1165010,1,0.9240930443286375
1404586,1,1.2077975620519377
602507,0,1.0382235978120338
3319770,1,1.2435721508493836
1346027,1,1.1843989193055622
841396,1,1.1335869903178741
2469613,1,1.1416160774135284
1469118,1,1.0739385675069808
2232296,1,1.0106331659207168
3755249,0,1.0215772963397511
2714341,0,0.9766344492371062
269071,0,1.138971062279638
2967159,0,1.321027046411329
489030,1,1.0341052040647312
3666119,1,1.0448648862101797
3066596,0,1.0007137489501532
2618044,1,0.9656532958298165
309066,1,1.1675123509187235
915564,1,0.8397954823660261
283545,0,0.7459123076899761
1288227,0,1.081236387160358
1584918,1,0.8058239740832717
1741319,0,1.2035302483357029
2595677,1,1.2876823265706923
3181787,1,0.8552977005579958
666246,0,0.8982063609822282
2509585,0,0.7525824597775883
645065,0,1.2055828253963554
906100,0,0.669886348702375
1324963,0,1.024753363758347
2394393,0,0.9093526906156866
3834978,0,1.155458156521875
2631869,0,0.9324004722798387
899748,0,0.9005462480959228
1598586,0,1.0782464664681688
1061691,1,0.9995755021953944
338612,0,0.7497015098456121
817160,1,0.9164052381355464
3272223,0,0.9925048388289858
1910940,1,1.3511413099170662
816080,0,0.8433789464034019
3063505,1,1.0999601131306884
2578420,0,0.7188345679333514
3033650,0,0.7152086284354298
1965003,1,1.173834165728236
2035310,1,1.1657017579029214
541296,1,1.0709998952314945
1253835,0,1.3789015304317345
2576435,0,1.1407027369746872
1597583,1,1.3581199926225203
251811,1,1.1595977215909066
3710123,1,0.8483035162691951
953077,1,1.1311277462364433
1253709,1,1.1015132314315508
2923065,0,1.0653729501261349
1533672,0,1.0550600386481996
345049,1,1.3146407689676631
1770064,0,1.0040851032435556
3876386,0,0.9554741144486654
2914860,0,1.2354651533943297
3038239,0,1.5765777116779764
328800,0,0.7190178081010059
3850719,0,1.0394679066592247
1364738,0,1.2676566822291113
3323831,0,1.2324369334797176
2456805,0,1.1805042110846506
2528711,0,1.0009965444620215
331631,0,0.8714669175469039
1772578,1,0.7996090308951044
3373766,0,1.0527185751593384
3486072,1,1.0417442595290578
1574656,1,1.3138482462798153
3491127,1,1.334299635522558
901134,0,1.3395037133228307
402606,1,0.8138128430111253
1757721,0,0.8272804109506284
1380563,0,1.0337895714189158
307662,0,1.3179372658596744
2749700,0,0.9506968087454222
388739,0,0.7976613520673475
2747987,0,1.0026684198115046
1858239,1,0.9295812998262646
1582335,1,0.6203363129277365
2836576,0,1.1081234045549446
1309040,0,0.37022342603631686
3020246,1,0.8563866052852805
1954514,0,1.3430157536442073
2213036,1,0.8865930776314308
196059,1,1.0199027839140504
665184,0,0.6499079506159995
1026147,1,1.0879088910964914
1574136,0,1.5637959868486462
2188183,0,1.1997624473102162
1540121,0,1.2190610120002257
3189002,1,0.8568138933647504
2467237,1,1.2546128593762311
1965600,1,1.0748101397680907
855914,0,1.1015738781769195
1635411,0,1.207545807542106
408833,0,1.2045542050913478
1624708,0,1.1216700804174982
3298391,1,1.2624719607635384
1816255,0,1.111593741588416
3119872,1,1.0284081186555238
2551009,0,1.5885534089831501
1525430,0,1.1912728909427668
2174802,0,1.0300788098829599
728778,1,1.1169763926195084
3493538,0,1.2535449736864042
2728094,0,0.9566898130548452
1301903,0,0.8841969116385993
1140887,0,1.2759514506209735
652659,1,1.5732000968680346
280645,0,1.299929201534738
204271,1,0.6207165569816244
3788495,0,1.2432005842960385
2945986,0,1.209484290001946
586365,0,1.2058847086307836
1042398,0,1.0384870505458303
3328391,0,1.07213391456562
1320142,1,1.2202726649734126
621817,0,1.687618945191649
676256,1,1.4119898527667294
1253798,0,1.0804376387714831
3182797,1,0.9880822882877003
2159037,0,1.0187812052626388
2596659,0,0.5240463373899404
3183238,0,0.7183188815599992
1818596,1,1.0011836854678167
1373227,1,0.9741770985403372
1891097,0,0.8252463451446002
1693593,0,1.370878865657784
3777339,1,0.9511615195484959
2670136,0,0.8218158932841921
386602,1,0.9916704146706017
807766,1,0.9643828843050256
543997,0,1.175668314828367
1026542,0,1.2554351785518645
3783474,0,1.2973112036885972
2176915,0,1.1695966896277088
1820244,0,0.8990200446617251
1373982,0,0.8688300467638452
3206044,1,0.8184580694511763
3165386,0,1.128038802607921
1373636,1,1.2403221738929613
556221,0,1.1428669878662172
444974,1,0.9566031626698807
2214483,0,0.8596066529135786
472532,0,1.155295200423261
3674542,1,1.3622436611356927
2939862,0,1.0596493751305724
2108662,0,0.8990115678070367
1366909,0,1.0338983755091073
1936142,0,0.8845799016833097
2004414,1,0.8633485250187956
1023859,0,1.1321693693855488
2432539,0,0.7696939985745439
227974,1,1.1926988927670532
1117536,0,1.0827789733704716
870475,0,1.0909912171176384
513048,0,0.9416848932629281
1758196,0,1.0640529367486298
1953889,0,1.2986349873203211
1532760,0,0.9821598544432559
374520,1,1.158775629934374
3002896,0,1.2726303994304338
2890215,0,0.7931084220830513
2890064,0,1.1337439576046993
2281777,0,1.473870612512736
3466117,1,1.474996630820033
2390656,1,0.7001140975404752
1020375,0,0.5741559356985261
484283,0,0.8556182766645208
3740016,0,0.426189032738134
3530172,0,0.6935685313188595
869453,0,1.0857419636796306
1399087,1,1.2965911556744096
2529667,1,1.1503395726846168
3788856,0,1.019709180748304
3367860,0,0.9027814331770285
1867711,0,1.3838860434420421
1506919,0,1.1640229143144543
2674106,0,1.1230675754218356
961039,0,1.0783078728874411
3687311,0,0.8806008155045044
420166,0,1.2156605065220765
1519072,0,0.5608660284359359
415232,0,1.140550003319981
827296,1,1.199187083420133
3044105,0,0.6478396724195022
1520820,0,1.236450626510155
863607,1,1.2196018080280147
199615,0,1.0403377951834811
3390658,1,1.5938256035674172
2994683,0,1.1743707076621381
323313,1,0.8095108256321837
662482,0,0.8753984708486506
3059329,0,1.0269334850285372
3460211,0,1.1454739255518807
1565283,0,0.9229050503821871
1914350,1,1.5105211217143726
2781990,1,1.0883883586179108
3348950,0,1.1696164695037365
1449898,0,0.8600124728010685
1624824,1,1.0353633497720596
1707219,1,1.1811797943219096
3281650,0,1.1938014429914912
3191901,0,1.3669252412007102
1738417,0,1.263052276231923
1490811,1,0.7482322375145654
1760329,0,1.039524992264714
861168,0,1.2581410456954156
959319,0,1.2712628769763645
560614,1,0.6784772662725284
3877108,0,1.055736710237581
1982953,0,1.048138059885074
1222987,1,1.1924819256567785
2492145,0,0.5121614230539594
2581291,1,0.8535673719137282
867539,0,0.7980725862963409
3012296,0,1.2474582011408477
1296837,0,0.895660705446865
562463,0,0.9936028455564042
2439282,1,1.2636278922950932
2215474,0,1.1063770739082444
1294634,0,0.8391913198052504
3367624,1,1.1914692104003213
3850412,1,1.0615420928860144
2834445,0,1.1105970601441897
1452401,0,1.1911252694859291
442921,1,1.4066221361473183
1861687,1,1.4934292440693153
2725529,1,0.9104933356154332
3350195,0,1.052227980079949
3171851,1,0.7803639759871009
941266,0,0.719065522190582
3019767,0,1.0249283554617001
2277635,0,1.444326595672718
3793970,1,0.8946696253805699
394693,0,0.9388678408745911
3272928,0,1.1603677237845582
1988676,1,1.1521340190174156
930903,0,1.1117119993415616
897940,0,1.286681075903286
3832552,1,1.3826787221009726
2525801,1,1.0475479960032246
709374,0,1.0602272193198874
738214,0,1.3505826841516444
3365677,0,0.9824017511860295
3303102,1,0.8192668402354487
369028,1,0.8593695231735805
1671037,1,1.1595176916774037
1744932,0,1.4150695833513205
644637,1,1.0774760347787002
1741759,0,0.8686752567864349
3429399,0,1.021856094814632
583880,1,1.4730780897973086
885683,0,1.1413240441137933
3147248,1,0.6992179055400467
1351336,0,0.4752199723313004
1509202,0,1.5006966161160937
2596773,0,1.0191203639896746
3334134,1,0.9219385706524489
950343,1,0.7854121894600665
352848,0,0.8588630545245776
3326763,0,1.0483203612403809
3916525,0,0.9959718793769514
2683424,0,1.2568967032536713
1142557,1,0.9597456653167356
3502392,1,1.2037018297954614
994882,0,1.0316889983976771
2395155,0,1.3205339204485427
2396148,0,0.7370897555559699
3229407,0,1.020988371589968
3419993,1,1.3755785576201693
3072793,1,0.8251285069891858
899666,0,1.1803132629909132
1918017,0,1.1170498504068296
1230408,0,1.2132822302058366
3435957,0,1.1213686567277232
1112833,1,1.0485056998173166
3323568,0,0.9438394289487457
1661824,0,1.033487672894694
805022,0,0.8952344190023198
3338020,0,0.9597396227485018
1443758,0,1.3690818762112504
3779691,0,1.4814608139785241
2428908,0,1.0693359606088795
3901195,0,1.0729221206560675
1125690,1,1.2302257573504953
1808641,0,0.9953004252795566
3266892,0,1.0589448649622342
1397528,1,1.3422705969884476
3003725,0,0.4664765521671833
809072,0,1.0952700021830923
3522536,0,1.0268104346513294
3788729,0,0.9710482549044572
366864,0,1.3227759246491457
2254800,1,1.318809595178821
2797678,0,1.1138318143466641
2786208,1,1.2635974518638364
3717420,0,0.6694978861569536
204011,0,0.8193854317858604
411747,0,1.1568395036004144
3431313,0,1.0325525481506057
3052751,0,0.8579284750471977
876377,1,1.2689215525083806
2045749,1,0.7590515547802846
2713100,1,0.902534707041033
3931337,0,1.1661759802125877
3788210,0,0.9804487657293959
978568,0,0.8746064073238695
3779544,1,1.0770649010335596
732120,1,1.2094029254250873
3368501,1,1.0037237171853852
3695402,1,0.947873571856994
1160584,0,0.9134663244019279
1422955,0,1.2109285857327952
3513230,0,1.0191432336504995
3387753,0,0.8918896187269236
2556581,1,0.9014209998473447
2725015,0,0.779171198951015
3080807,1,1.4911843538545337
2735969,1,1.1489073905547642
3454358,0,1.2526177724885112
2517169,1,1.3612157969650587
976406,1,1.255074780590634
910078,1,0.8968192908100288
1680598,1,0.8635019978103156
2624890,0,0.8209159185675798
3951169,1,1.5235046225059508
1607005,1,0.9661887657252994
639089,0,1.1612752571179665
3532103,0,0.7129793829500399
2441971,0,0.8971151248167184
556186,1,1.1147688398835967
1587533,0,0.987901527641441
3502520,0,1.021915382213642
1194386,0,1.2736041324913445
2995495,1,0.9632565625315889
897101,0,1.004043097304622
2513575,0,0.9404713818903871
2883335,1,1.2295326838039653
2774404,0,0.7708820350806935
508846,0,0.9964049354409035
2219879,0,1.1471909352318168
3426063,0,1.0474790779792864
668976,0,0.8713835899263511
3293375,0,1.3456700519891895
1328751,1,0.8191749235889934
1890334,1,1.1981626033464559
1255610,1,1.197084525561293
719844,0,0.8354212295125354
1158668,0,1.4175177317979668
2261931,1,0.7327023733060838
3917960,0,0.9802898678875438
3858325,0,0.9559089546782624
1910375,1,1.2694002232574426
1218058,1,1.6986929230199117
1382607,0,0.8876738149370625
3471993,0,1.307978618567398
956144,1,1.2331129585429506
758714,0,0.7243029504698877
1701591,1,1.1957838519890296
900229,0,1.079277181951444
847113,1,1.2112894050381398
1708131,0,0.7988626042743019
3849976,0,1.2722131353968407
2914256,0,1.3448675157468024
2727593,1,1.0635183088761664
3959992,0,0.910194606681435
3750753,0,1.1153073191374885
214500,0,0.8891501703060337
3475669,1,1.1152749875146635
3135281,0,0.9517119502835103
3516195,1,1.0300585405555267
712433,0,1.0721143011547283
2883762,0,1.4136470491199287
2866022,1,0.6203826227792921
1445682,0,1.009566390882395
2503011,0,1.2129965829556832
727268,1,1.3262824865465954
618550,1,1.2730585424416752
1640662,1,0.9180983095576972
225420,1,0.7661493756503097
1149800,0,1.1098413014224946
337283,0,0.8121567926798959
446910,0,1.3917310570544583
3190745,0,1.3872255951921815
1684289,1,1.057056367067933
3714131,0,1.2859564066811489
757268,0,0.7884790196817512
1940063,0,0.9414974041074776
469853,0,1.3389426779190676
309444,1,0.9094743692569855
2471425,0,1.2784318820108835
3756189,0,1.18385386538299
914295,0,1.021989287838908
486439,0,1.0773098479499652
3462890,1,0.9078129240200938
3312640,1,1.0236375778159532
3919391,0,1.459637508541461
2206591,1,1.2098212848231702
3150379,1,0.40177912507965263
1523832,0,0.7472605870688509
198050,1,1.5399985759113473
2285301,1,0.9653225459131713
1366799,1,1.1189518175205662
2690470,1,1.249618740662155
1849078,0,0.9809240130112102
1487915,1,0.5833336700674485
3008541,1,1.046892542235359
3673257,0,0.8896190055815871
3764767,0,0.8725203105183887
3701718,1,0.8776513636311665
1260079,1,0.8710731272779116
2935804,0,1.1530843405879858
1437123,0,1.015548789673163
2237353,0,0.9007602356382798
3076911,0,1.242111170684464
3728643,1,0.7506335011795653
388995,1,1.3211138083897667
3492674,0,1.2569929519588228
740591,1,1.3245241438675537
1227093,1,0.933147031916672
1267182,1,0.7657894856131677
2514136,1,1.221542595869039
1505568,0,1.0885405800199324
2432181,0,0.8933129864984752
1909927,1,1.1553405243709869
1056328,0,0.9537123504224279
3159086,1,0.9886992386385294
3442793,0,1.1144975009570943
1511972,1,1.3647814760613077
907660,1,1.2313153232411516
565597,1,0.9995420279816799
665682,1,1.0247474718665013
2729193,0,1.5019364693495518
3700990,1,1.2498076772425086
3071384,0,1.1273739722632834
2496691,1,1.2035023768049078
690684,0,1.0401678340337304
3297834,0,0.8484052404914644
2427815,1,0.9093765652477408
1378068,0,0.9800140033765231
1065919,1,0.8665535741676448
3020192,0,0.6233460739906346
1858727,0,1.2757259774489755
3160483,0,0.8509223934434906
2275887,1,1.1024421636486663
269491,0,0.6571606189929216
1839885,1,1.5419100987590455
3332805,0,1.2093016795257436
2869235,0,0.8641923156645602
3851634,0,0.9747818489205898
2898506,1,0.9100084354358444
611579,0,0.9892883354550361
2823217,1,1.4559902283481798
1330502,0,1.069500319025227
278361,1,0.749815757574845
1907340,0,0.7844607531178699
1965199,0,1.2329061814142819
3147047,1,1.0039309967504417
2432675,1,1.0869485564892647
958779,0,1.150499516022569
2106255,0,1.4460174869794744
3024022,0,1.0540993738025668
3264783,1,1.154152936272465
1664450,1,0.9927687984725218
709669,1,1.1087394931756276
1106616,0,0.8643745734651411
3135697,1,1.1138362903880807
1878827,1,1.203755486926878
3318220,0,1.118017369340761
2978508,0,1.2759309768618339
3804599,0,0.7547248148531833
863050,0,0.7529549811139311
2423812,0,0.6364400836249549
2184504,0,0.8123216717393889
2230487,0,1.3518282387721663
3297149,0,0.9378703423005565
1069870,0,0.6220142656350081
2844438,0,1.1239317109580511
1071100,0,1.0354593307230309
2617556,0,1.216441336227615
2008273,0,1.1584068871982072
3894774,0,0.8942355766760431
2455186,0,1.210951965816368
337726,1,1.1136954292365182
2703870,1,1.0142372564072244
1460517,1,0.9565755679176551
3400168,0,0.945735107809177
3941799,0,1.3292165668667515
1602468,0,1.1018984305358293
1485962,1,1.0665467337220993
2164950,0,0.785980285178549
2022687,0,1.511581350940385
3515497,0,1.244204307716718
3264209,1,0.8180331560426944
1236142,0,1.1004010352473619
1639085,0,1.0536549592771713
1624883,0,1.0674247363632816
3321006,1,0.9388469032369731
194527,0,1.081657490936852
319464,0,1.1804737542498545
1622296,0,1.0457222308254461
1159591,0,0.9455586088109441
1343586,0,1.0780889142465724
3692918,1,1.42654997762129
2114372,0,0.7444371076682339
1093995,0,0.6548737378405969
1991804,0,1.07817310193078
1643905,0,1.361198070242564
2416617,0,1.193706116756563
1666421,1,1.1511504817272744
1623200,1,1.0435134374860129
2501348,0,1.3874908938018338
647683,1,0.9914678310723298
2405126,0,1.3814631743982484
2494752,0,1.3299084287258045
522429,1,1.35633448248209
3428676,0,0.8021161942928646
2760310,0,0.8470007682080876
386460,0,0.9431451970134666
3229115,1,0.9117624632820028
2166609,0,1.3360169686947967
578721,1,1.2934477983383401
298993,0,1.1256643419745636
3726362,0,1.038949723634902
3434826,1,1.275780665540071
3675197,0,1.0254262905722835
3680053,1,1.3074924925562175
620875,0,0.6585262516012782
1006999,0,1.2977273745887374
2262622,0,1.4962734719104094
3842128,1,1.0423755297438397
3297119,0,0.795699103117552
1936733,0,0.8253734239487038
813340,1,0.786262588898285
439126,0,0.9951090028871103
3363978,1,0.8717996874435103
1830836,0,1.3235842499110089
3256593,1,0.9231115161478325
3283016,1,1.0863008522446598
3712300,0,0.8688779595582322
1625671,0,1.035753565814356
1402344,0,1.143324825800752
506018,1,1.2796174196973964
2908861,0,0.6645322589849953
470087,0,1.0840004846828657
1130164,1,1.00880653127849
2693392,0,0.7465627701807676
1393130,0,0.8636695485993608
2874033,0,1.233618465843551
1635560,1,1.2136248852179796
1699227,0,1.327002287144321
2897446,1,1.2755392733665616
2207342,0,1.06426306165847
3700799,0,1.0059113046376946
3762347,0,0.9963341214614253
2229526,1,1.3567731071578675
3340425,0,1.0345938518837734
222974,0,0.3287872421018203
524662,0,0.9902978381195181
2635283,1,1.0390706182975713
1397862,1,1.2061912746442076
2144737,0,1.0807846982415736
3779862,1,1.3314596478139737
2609577,1,0.8908404317342304
2685554,0,1.0684083536488276
1988696,0,0.5918829103097298
2975658,1,1.014613792955846
1242666,0,0.6962070218442002
3486037,1,0.8910316747940046
668702,1,1.0350314777181284
3846554,0,0.774173632681585
2526145,0,0.6576796637562512
3520548,1,1.0011614797339061
921639,0,1.3578904018652675
3881672,0,0.751921665217677
1277040,1,1.320737898834111
1943447,1,1.3710257201124187
213110,0,0.8705049923687207
2991463,1,1.228501492085884
3889578,0,1.0099505588038171
2481979,0,0.9628336670773405
1939706,0,0.8354257050273924
1607657,0,0.7366346952518514
1854548,1,0.8168497623646096
2114127,1,0.6343995715341738
1988322,1,1.1065773093667235
748559,0,0.8179417305206828
761423,0,1.5077796880047651
344979,0,1.2268802634908738
1702967,0,0.8242180402513616
3355583,1,1.237228876700974
207997,0,0.8901490278138572
1452058,1,0.7696439066373664
493559,0,1.0757345722342262
1251510,0,1.0735333029432859
1892491,1,0.6680664273294801
2890022,1,0.836685606256189
2938500,0,1.3222290547634772
2677956,1,1.0858380819104676
3896038,0,0.9820670579819273
1707858,1,1.032964902717841
3171161,1,1.3115507164036397
3056930,0,1.1161156909316712
320058,1,1.4179005438582213
3192575,1,1.187284720626284
1957229,1,0.5850102275767154
1298001,0,1.0886899583710277
2668262,0,1.2854034235964575
1979622,0,0.7816185265426647
647114,1,1.116741657662112
3089700,0,0.8945731380591532
1991733,0,1.3275566384864717
2212156,0,0.8819576452467903
644721,0,1.1453518100549118
1037416,0,1.0800706206618045
748367,1,1.1624193325268248
1328063,1,1.3629018349664943
2821703,0,0.7554316620961311
2913980,0,0.9604587515426776
947026,0,1.0132054348040997
2402120,1,1.002820149709189
1302383,0,1.1871153409865474
1031364,0,0.7905668765556204
1526872,0,0.5902794554377405
2556415,0,0.7296138155766159
2783016,0,1.2022608148084544
2711356,0,1.3108040021243792
2488290,0,0.9641724813038375
2987496,1,0.7867336326291436
2580715,0,1.1153612743608792
1731412,1,0.8915946699924967
3666511,0,1.0405270825797566
3772570,0,0.7631686133947406
1603114,1,1.2639203584595018
2026661,1,0.9523885791942684
907574,1,1.2255262364035935
1962793,0,1.0787041535945452
2832160,1,1.2839223232238377
2578380,1,0.8054914102249864
194113,0,1.2662568148175348
344102,0,0.69266398198369
3525616,1,1.1251109160651513
1003551,0,0.918988288232916
1883965,1,1.3100380864024934
371699,0,1.2728525737371528
3394596,0,0.9884195662629518
3900433,1,1.1330071287800096
2922997,0,1.2513804716211883
3743040,0,1.3341676122431365
3526848,1,1.0558119175988752
1986426,1,1.1618029848169478
2113644,1,1.2904024354027297
3847469,1,1.1793962602880657
3530697,1,1.343736533922649
746824,1,1.3941609610183368
2847370,0,1.0966659711943354
3201545,1,1.1038305542219813
1731666,0,1.2504006606230407
1020216,1,1.19807533251355
3436024,0,0.8956730638888432
3181799,0,1.1221786311156183
2631235,0,0.7304889762687723
1016020,1,1.421748871988647
2608162,0,1.1773911474069734
3917279,0,0.9770519746138141
2825334,0,1.18296100791789
2116874,0,0.9744563860545054
1346701,0,0.979708706218232
1271686,1,1.3108482346636312
2033173,1,1.0782268822559307
802117,1,0.9253898414499754
3006231,0,0.9764562516782768
640762,0,0.8177999588293197
3418390,0,0.8666492319479908
263900,1,1.1701798144320623
2045589,1,0.9823931375943069
2139061,0,1.0269528110146193
2511102,0,0.7452216510487174
2660336,0,1.1729496991843011
1152717,0,0.5600258392160626
2148301,0,1.0081909352294742
1437831,0,1.1397270303939806
3418657,0,1.1089697217239578
3739521,0,0.9795013353631401
3870939,0,1.3035411541607096
1502805,0,0.9697570562982158
590647,0,0.8624851046041937
3517770,1,0.7816002741449638
1014818,0,1.2290708068082967
1428426,1,1.5633346233196552
1055211,0,0.9306157020936929
2637260,1,0.9759221933579183
450215,0,1.0498583436488724
1280711,1,1.0415004937352987
2566888,0,1.404059681070085
2514344,0,1.3240066320972117
746944,1,0.9803731051162358
1997482,0,0.8522895987908453
3865898,1,1.2667526120482735
2206739,1,1.498212664666157
2162831,0,1.0447243660545533
3723528,1,1.4199643809214204
3003310,0,0.734007569130745
288848,1,1.1071635411247942
3754092,0,0.8725970850929257
1000621,0,0.8985769961360087
1511073,1,1.0885858881230714
696650,0,1.1985078175886594
681563,0,1.006647452203934
2476501,1,1.122311949949276
3472922,1,0.917015518103748
2717146,1,1.1488097879575667
968440,0,0.4193945618283209
420775,1,1.185904060727048
948253,1,1.3225891721383833
659284,1,1.054756831213842
2770920,0,1.2229212970217553
3369770,0,1.1702871558411116
1160962,1,0.9225250069735801
1980060,0,1.1016957275802666
1272205,0,1.0872617687425554
1634049,0,1.2473359079766406
678659,0,1.489951245799991
437244,1,1.1695747514969108
1808900,1,1.2930928123825158
1117391,0,0.9830669558912136
2274108,1,1.247575250140712
473514,0,1.2419679436965496
2419829,1,1.30666970260513
1029367,0,1.302386168526425
3140527,1,0.9580573478843173
528233,0,0.8901342063411217
1993629,1,1.298014270784405
739270,1,1.3441202859860215
1757845,0,1.3773898376147558
2435867,1,0.680781164642942
3868919,0,0.968524130991876
476658,0,0.9372164252225014
3228591,0,0.902358046452688
3294765,0,0.9235934693950135
2910400,0,1.2006446991542654
2260120,0,1.1039394765425548
452439,0,0.9191470718753305
3002646,1,1.0268126139840594
1492633,1,1.4072288483189628
1126908,1,0.9675465435572163
2111168,0,1.3290638416461324
2743333,1,1.487506758982881
1343958,0,0.9910105497062118
1785412,0,1.3880165502753887
1569083,1,1.1317730605895495
3166552,0,1.0328512900055746
1438032,1,1.0293853505813928
233373,1,1.3890086804917456
1959912,1,1.2280254460029076
2612397,1,1.5797672952906683
3900388,0,1.107590333072867
1336093,1,0.6978157840779529
2142954,0,1.2828764825941803
1215854,0,1.4217584995395223
2138426,0,1.2824001236778597
1361239,1,0.8160461299732278
3940911,0,0.9522561497996176
1159845,0,1.0357420830109854
3083551,1,1.1555105904543184
2456526,0,1.1399299084003014
354200,1,1.2203805144082964
2648235,0,1.0369978218649034
1100930,1,0.9545189959507498
292883,0,1.050012724079183
1447333,1,0.8279146053590722
341813,1,0.8465107501371891
2724844,1,0.9142972525749178
1838965,1,1.0440359330406155
3873212,1,0.8048726449947612
3385176,0,0.7775802222298278
3019315,1,1.3105370511497114
1692103,0,0.9418132987539573
1824383,0,1.1958428577493032
2210842,1,0.9934761145569243
895637,0,0.6336923261975893
2586313,0,1.2366469310164716
2666858,1,0.9522166708637505
476202,1,1.0654159016145683
2916702,0,0.9919780423976745
2532045,0,0.9203469509498313
933210,1,1.4917015907426163
2822727,0,1.0580758440537676
3763849,1,0.99619832086396
369712,0,0.8718479125935809
3000071,0,1.470531493873395
3685095,0,0.46665574970295676
997165,1,1.4552336500291427
1102668,1,1.2407134185014905
2243230,0,0.5670090792051861
2492729,1,1.014546660814323
336397,0,1.0238725197667249
1395689,0,1.4242660029827463
1950559,1,1.2221514499563675
1807002,0,1.0990365881724935
2874492,0,1.0142658177111088
2708803,1,1.0955667834248972
1140858,0,1.3862618092529257
268437,0,1.0516542995127345
2598625,1,0.9536305679344967
1107697,0,0.9691569360685882
2601150,0,0.9874857309450419
3074714,0,0.9589814103090388
2817731,0,1.174515485938377
1316397,1,1.0211726942870945
2514473,0,0.8255456591758338
3417297,1,1.232353439858342
1696852,1,0.9132622690666063
2699135,0,1.1646970357239141
745183,0,0.9932870543854163
2539751,0,0.9812216826668776
374791,1,1.4274464738732833
3172756,1,0.8271964244858676
2699409,0,1.1971998103713741
1702344,0,0.8692625191963194
2687073,0,1.0813016898787193
234762,0,0.8542579290054126
360422,1,0.8050654392737661
3120266,1,1.1505719952350804
3683472,0,1.2176239921557335
980877,1,1.000331702475666
602932,1,1.2239296309053622
2133759,0,0.6600244661995476
2033833,0,1.397557664313633
803922,0,1.2632432173442572
2481288,1,1.3592295055464128
1201025,0,0.7865724647159249
3846678,0,0.7359249638957911
3699922,0,0.6906988665030451
434575,0,1.1965563615789327
3869338,0,0.9759851086875152
3507822,1,1.1796431802418066
322070,0,0.8609069121364862
3395777,0,1.25568917348728
679246,0,1.0192544079947756
514948,1,1.1436147366628513
3422096,1,0.9981325187157148
3177757,0,1.5400420484173785
939927,1,1.137155698867544
2113721,0,0.8568108335911979
2401732,0,1.2189336257713648
2190586,0,1.0506283352301091
1052124,0,1.0072468056563542
993821,1,1.2439566603680325
3466959,0,1.0787738907201974
268246,1,0.9942578586612518
2203906,1,1.0654657809018329
266884,0,1.4323276244901428
1900975,0,0.7800963118148749
1557901,1,0.8375730379356097
1521931,1,0.9467454623800128
1031380,1,0.9962090278833631
283488,1,1.0420557977204439
825789,0,1.0125749133744588
3288500,1,1.038800924103752
3501017,0,0.7418917358944479
3935269,1,1.2781949014000038
2845116,0,0.9485591037172247
2740190,0,0.8588418310367991
3473360,0,1.1239195594973197
815777,0,1.1053395283339058
1758374,0,1.5355165957014698
1673174,0,1.351324114116546
1953008,1,1.226143841114857
3070669,0,1.1880838102157596
3458904,0,0.7995499941659854
2505686,0,0.8929942491723062
3855731,1,1.2670867360946974
1294977,0,0.7481245781814384
737782,1,1.1141238854684423
1666296,1,1.0131629655645542
2480346,0,0.9986542333536373
3405184,0,1.0441865342840462
1326183,1,1.4351427425774808
3502545,1,0.9319770171756762
2929517,0,1.0466628168839722
3884225,1,1.2874290236158765
1455266,0,0.6132507198453764
2930173,0,0.5798026657589519
3350639,1,1.1152099602555836
3844327,0,0.8557808676922722
2431503,1,0.7512076601304903
369222,1,1.2693986585935657
2166451,1,0.8737952860066546
2412578,1,1.001216909818494
2022988,1,1.3258849118574914
2555744,1,0.9122895546690224
473835,0,0.8463594433686648
1664432,0,1.3748499012468822
393619,0,0.8400436029768041
3337209,0,1.27386801775324
1409388,1,1.2579731259733682
3218289,1,1.262712919735012
3184890,0,1.6548381281491218
3781911,0,1.2341613943547194
696160,0,1.4327631400396799
2397240,0,1.218248428252544
685567,1,1.0380421335892178
3543180,1,1.0384151292350332
735700,1,1.2894441716279565
1724508,0,1.2536086124920602
865081,1,1.1832604080447466
1765276,0,1.1135650411451699
2033282,0,1.2422045220637465
1736549,0,0.8902490090484
729891,0,1.1786716124661245
1990852,1,0.8260832873962416
2873996,0,1.3012190210006174
1934136,1,1.039262625962903
1857068,0,1.3069399462953104
2730467,0,0.932672995573539
1469189,0,1.279872625134633
2729078,0,1.1463176589201471
1937634,1,0.9562315930625359
3274364,0,1.2167058981897485
704937,1,0.7540485220667776
3382948,1,1.1686993881493457
739482,0,0.9664318326765236
3744451,0,1.0975900188066057
1952221,1,1.203375700051359
1436017,1,1.3052110077776315
3887483,1,1.1314162143691169
3744345,1,1.1517796988591265
2940747,1,0.8807898716358256
1886820,0,0.9110705394854486
1118727,1,0.7936286982469848
1606841,0,1.1007422733548886
986351,0,1.0112841494602867
2486919,0,1.32792436084085
3500903,1,0.7760312313220781
2616030,1,0.5988589933770199
1810295,0,1.0333005225114194
2946295,1,1.3166324175677633
3905759,0,1.079643722068527
972075,1,1.4341856480056085
966505,1,0.8834584694698937
1768413,0,1.0616838328399496
483717,0,1.6179870651281403
642122,0,1.0790599230974782
2062684,1,0.9390128927656742
2860625,0,1.0011962165561523
585647,1,0.9643052282411295
3912342,0,1.0376353599864174
2727891,0,0.828664125902732
2948988,1,1.1503360713313626
3503344,0,1.2173752896040433
3323311,1,0.8108591393471041
2553086,1,1.1454276936615062
3021658,1,0.6830515964657256
1193984,0,0.7314974125465596
2696535,1,1.2792899904509802
3688698,0,0.8996063723000902
2775390,0,1.2200954438745089
200450,0,1.1602223316564357
616091,0,0.737677491259314
1418442,0,1.242823223512677
1739369,1,0.8968771428143205
2811901,0,1.1712723469254291
3066929,1,1.1571650089862866
1388206,1,0.9771335029575696
1533983,0,0.8650765024195253
1258867,0,1.0867815791144813
2646109,0,1.282798660394877
817520,0,0.6936057368313218
3744333,1,0.9648429751685311
472225,1,1.1498642871747067
1417362,0,1.4891999277623338
2455509,1,0.8377881306121447
2270078,0,0.39719842798080696
650915,0,1.0893719663856247
2641297,0,1.0750250338333105
2649844,0,1.051468901665719
2398978,0,0.9827277063601928
2878400,0,1.3586307987077397
1942724,0,0.880439339879737
817265,1,0.8954435978110599
1863206,1,1.2272192498104504
3326194,0,1.1103243310091642
1811513,1,1.2608572261438693
2530758,0,1.337850578848807
1473425,1,0.9954311222305796
3953380,1,1.0352505407408257
2015033,0,1.2035560307766602
648282,0,1.0675372013431772
296841,0,1.1745120570250762
1518535,1,1.0859243014582602
2669594,0,1.1062904430688347
2014918,1,1.0791860202352992
1588228,1,0.9838400337215596
3832462,1,1.11482750487726
3019132,1,0.8653385998290832
3775534,1,1.2108400350204975
982841,0,0.7613345427767914
3269017,0,1.1976724200866522
3130169,0,0.9479335468349969
3504856,0,0.9377329430132972
3021327,0,0.9410646392451384
2728442,0,1.4149079891545653
3238866,1,1.2971498169756344
219600,0,1.4856050287709852
1862446,0,1.3515692918420925
2804601,0,1.017160200031936
2506999,1,0.9271228556616693
1204134,0,1.5874927013430336
3682908,0,1.1074097292205438
1335396,1,0.8575917773414592
1509623,0,1.1234145267975393
2144014,0,1.0237855013784862
547464,0,0.9578718494712315
3732167,0,1.1040821276998156
1826135,0,1.3090519883096803
2049963,1,1.1005941661815004
3274737,0,1.103609442971131
355944,1,0.9774750074467602
1197354,0,0.976546499945649
3885551,0,1.1013014414606912
3314102,0,1.313258650029102
3517719,1,1.13788702323364
2106687,0,1.1244592002925675
3227559,0,1.3711304800609143
641632,1,1.2173698803078843
1517489,1,1.4094805573766112
485363,1,1.1555817714936356
589146,0,1.1790982878180019
3443090,0,1.0666692130213375
3679232,1,0.7378816667841894
3343969,0,1.0682222625162805
3492577,0,0.5386186510633003
1883045,0,1.0211755561765756
248812,0,1.104134985545155
2616949,0,1.1050540122878287
3481742,0,1.1833980136144084
3429400,0,1.2806839923209172
862533,0,1.1150416279919018
3063461,1,0.9151181231734344
1089093,1,0.9500720511966187
2751262,0,1.3486498455598848
869444,1,1.2327189500804938
2248605,0,0.716237127613132
263553,1,1.034021280032367
1977351,0,1.277057260814552
961932,0,0.8995742307312008
571728,1,0.8352936083198059
1603610,0,1.2178638547754654
1107008,0,1.2053532267839284
1089248,0,0.8365525290292007
3950595,0,1.3031124867300123
526756,1,1.1587709024170612
1063208,1,1.3795919190442714
1709436,0,0.763517881937081
2012584,0,0.8383740288579729
574656,0,1.1444468387447517
3020151,1,0.9154867425142788
2592030,0,0.916768479416425
2753677,0,0.9981012425320868
579354,0,0.7649250557827239
1703043,0,1.0372435394243795
3202186,1,1.0372609522354463
3705291,0,0.5787358598168013
1993526,0,0.5196567170938855
2242464,0,1.142776700478247
276698,0,1.4619576043735347
2684707,0,0.9210789735794773
2941366,0,1.2541394187518988
989663,0,0.8683982074006287
1566072,0,0.7038738431084115
3031633,1,0.5824647897102179
2271573,1,1.142938620205006
1405245,1,1.3817312902092513
2683684,0,1.1219308528842653
1851228,0,1.0668681544023297
856093,1,0.9941201265377099
200083,1,1.2285122555423953
1737038,0,1.3301689104867964
1025190,0,0.7353106699934246
1014390,0,1.1646506660380167
1390820,1,0.7147883539239217
1353125,0,0.880132780558901
401958,0,1.5224485150466966
1806923,0,1.3042406546468
951357,1,0.5962043355517609
2178521,0,0.7458656008901774
1196834,0,1.0385257483689216
743058,0,0.917241215588228
2679586,0,1.1052721520173694
3061877,1,0.6357346569831253
3158195,1,1.3653709535095746
1112451,0,1.3234557425769216
1701610,1,1.0353416167947844
670632,0,1.2508834360465284
379212,0,1.1235192876903028
463979,1,1.3943622258099333
2761829,1,0.9643872931388471
555192,1,1.3819106120033464
2639591,1,1.0979893146598942
2145637,1,1.0873451724498324
3344572,1,1.1576809153988135
1785770,0,1.0868649215465234
2276773,0,1.1376865074980818
599394,0,0.8353375889665268
372069,1,0.9680164480753201
2204051,0,1.289144915071894
929056,1,1.2384983851512885
1140225,0,0.8733731091801311
1763705,1,1.1979472190782727
2521356,1,1.181861393590097
3754380,1,1.2530236527655407
1665212,0,0.9592356572136816
2107054,1,1.1096641604818844
2716962,1,0.9670298072404367
2398630,1,1.186687052745553
1937309,0,0.8799082210635057
1758536,0,1.193550336186324
931171,0,0.7855051497497074
578763,1,1.1327931241571356
1973361,1,0.9860198268370413
2402317,0,1.3836885389399678
2393013,0,1.1121787201228517
1626009,0,1.2259308208845268
582992,1,1.0078704131860814
2434747,0,0.9449685669003653
2873201,0,0.856649450686112
1457365,0,1.1392830059342558
2889690,0,1.0240481851652354
1514382,0,1.1483973750340783
3019474,0,1.0485948838540156
3865826,0,1.1641644570552143
561411,1,1.3167314508368366
3683501,0,1.2703186860421087
1040224,1,0.8569718346832575
1852498,0,1.0688677897733385
3703970,1,1.286800274037775
856693,0,1.1285757515551316
2535302,0,1.0428659112757463
3932380,1,1.597205061816181
2772472,1,1.2337344768852776
1574011,1,1.0862742634676639
2789669,0,0.7589832125785294
835499,1,1.6649008155492302
1168511,0,1.0215776103215388
981458,0,1.5091558816135242
1314207,1,0.7160392041438856
1066862,0,0.757071944152082
1537654,0,1.060833353662571
1919138,0,0.8056795939241642
2167871,1,0.8759166856599092
3515734,0,0.7063287536430896
600335,1,0.9704285224123163
1216760,1,1.3233296070283043
2243014,0,1.154140838448314
689530,0,0.9570788658856553
1837991,0,1.1583520774910405
1014282,0,1.1178026615632528
3469888,1,1.2443435911998213
633336,0,1.265611164986979
1892320,0,0.9583060709351426
875584,1,1.2281473688926308
2561694,1,1.1811204180731039
710923,0,1.2624523493403632
217669,0,1.0990936577569432
3195722,1,1.0436754923070524
3542985,1,1.3523340198809337
3538772,1,0.8309204909405445
458041,0,1.1008128717673051
2695483,0,1.1077687200993995
1086933,1,1.030291740381073
1780787,1,0.7822214422164396
2763164,1,1.288065547557151
375490,1,1.2759967843723967
3838527,1,0.8812458812148232
1438491,0,1.1771228901038793
3234341,0,0.8242258171498934
1558861,0,1.411752609567078
3407032,0,0.773499095496984
3150949,0,0.9147483867578772
2994168,1,1.29593006127029
1872894,0,1.1745543429905854
1770185,1,1.0377131829692756
2014757,1,1.047091288553429
3202555,0,1.328982385305382
3360777,0,1.2322179612183564
477337,1,1.204650883439909
1144233,1,1.1523241044912267
2973573,0,1.0706316713441926
3928772,0,1.0476760683922386
1747265,0,1.151638863657889
3407800,1,1.0655850084573375
2239082,1,0.7674841560348746
3743050,1,1.1770588468997563
2423863,1,0.8799107453142374
3406914,1,1.2023094499903921
3711002,0,0.7439940393508129
752963,0,0.9612543417485035
3712054,1,1.165138799791182
1111179,0,0.6913475012438854
510502,1,0.9688758031972045
1618103,1,0.9307765714235862
3795113,0,0.9286733629150824
2418170,0,0.7730067827211577
625923,1,0.8472514986704691
1544358,1,0.4403889476438667
1030077,1,0.9027269233763273
1756795,0,0.8997254017134053
3205407,0,1.2434152596458548
2515514,1,1.1159946547105324
281385,1,1.3728186060559726
1589736,1,1.1268838252204656
1702976,0,1.1033919194174806
2130486,1,1.2714904928835293
1241819,0,0.7052881646633
1520600,1,1.227985839523796
1264288,1,1.2387766755079097
2605566,1,1.2807862986236376
907424,0,0.7720905279655429
269072,1,0.9774764659019946
2265235,0,1.0716983188623532
2198560,0,1.144000705453315
724402,0,0.6212244448701797
873961,1,1.0118884311782135
3500345,1,0.8495537716287287
612071,0,0.897816277497586
397180,0,0.9610209735255603
2883690,1,0.6731531005821694
409566,1,1.1699651733853391
1494234,0,1.071277480815502
3372766,0,1.2548783856854493
233772,1,1.0289127096530923
1059306,0,1.3881676433532397
3921227,0,1.3236515850552237
473635,1,0.950382848255926
2105654,0,0.8178816472900794
1939219,0,1.0964755425975614
3362848,1,0.9821138007333466
1534439,0,1.1761335896435345
2276085,1,0.841345683276693
2861296,0,0.5175150692387137
1761487,1,0.8043792013326806
284155,1,1.2413659264858494
1687293,0,0.6577457593126756
2064427,0,0.887903962231559
2158552,0,1.1697453574427636
1192023,1,1.1070486703255031
2626478,0,0.8191104030813696
2836874,0,1.2523805404229555
431351,1,1.3736910197088774
3404618,1,0.9154558057296542
3081067,0,1.049953473368144
2118716,0,1.1571509067614096
2843903,0,1.073695770121359
3810086,0,1.230425127001886
1316485,0,1.0174236488066322
3093816,0,0.9033847971902639
524009,0,1.2254011220580752
333712,1,1.2227676610355964
2206525,0,1.0786107107327414
1777238,0,0.8650342922424481
1959826,1,1.3636120795961602
3435956,0,1.0407889973332274
3188780,1,0.8799226699408572
2404904,1,0.9474632335303872
865767,0,0.9658841256888083
3143351,0,0.9249775286412665
2114947,0,1.4095436391737994
2823874,1,1.4638696536745819
567558,1,0.9833589581009665
1131578,0,0.8186715865440466
647005,0,1.0337598585499022
940510,0,0.858348207761612
3361876,1,1.0023761399878042
202079,1,0.8504024767641398
2266623,1,1.3428059974366986
1975316,1,1.0965281103199054
1158074,0,1.140230147183769
3873539,0,1.2794465638450476
1683860,0,1.1254428474868938
354266,0,1.2903563260708515
1043009,0,0.867130541058839
1627881,1,0.9689436129702085
1957564,0,1.4039539955079996
225797,0,0.6876802198834399
1865173,0,0.9219214924478726
2447551,1,1.1263809341817386
2411082,1,1.3005072318221969
1288947,0,0.9732177982052135
3781753,0,1.0264830628054509
2422491,1,0.8652419687332583
3534845,0,1.329913600923482
1288346,0,1.1300264594753062
908955,1,1.0702751750777282
667780,1,1.224935578179578
1471743,0,0.841504936815958
858911,0,1.2823952298589585
3300991,0,1.0421018769209254
1141364,0,1.1777702235245824
1150831,1,0.850712738392519
282108,1,1.373082627971383
3183355,0,0.7185240565194493
3796798,0,0.9762699455605266
314164,1,1.3861899624113319
2723778,1,0.9509632185089585
2027661,0,0.8642081324633542
3207799,1,0.8698755348255144
2725637,1,0.6132719510111029
3180746,1,1.2101849755463703
1220896,0,1.0021877817124438
2282267,0,0.8186278766384428
291585,1,1.2315958974393508
3887900,1,1.1070136736379188
1105997,1,1.3471663432060486
1217653,0,1.2434892913197682
522893,0,0.9040894442884702
1912432,0,0.8677719079734472
3765663,0,1.258884838768188
2858413,0,1.0736165322185824
2460127,0,0.9845776720420543
2137458,0,1.3502065647523676
297382,0,0.9913913884899643
2472711,0,1.1185569271762403
1665135,1,0.9790312492300908
925535,0,1.0033010741151016
339504,1,0.8170699678681973
1612809,0,1.1661025811963528
3062391,1,0.879423434056975
1152938,1,1.098054076055084
898185,0,0.8205220785119731
2163890,1,1.001049041762196
3495880,0,1.1773829908904168
1689175,1,1.0019170465308767
2231657,0,1.0576940313341718
1028930,0,1.5065712535890938
2279656,0,1.0500436383020306
1568403,1,1.2699935268369633
411585,0,1.2062379210461756
2235263,1,1.1594343764353965
702911,1,1.0006036477253575
1900232,0,1.0020131899922236
2250639,0,1.2404404871672394
3269325,0,0.833622400191482
2129358,0,1.2037111748315221
1591532,0,1.014005467674426
607926,0,1.0730051912862748
2423478,0,1.0402262129876827
598454,1,1.379458246947618
3142329,1,0.9017249347687492
839741,0,1.0481609068202464
554926,1,1.3238724602371987
892311,0,0.7282598571252932
606952,0,1.0244691085803974
2186941,0,1.3510729023926253
3890396,0,0.9379198531283086
3686495,0,0.9837772658798476
1954989,1,1.1707605082033365
1759994,1,1.106344499629095
2003844,1,1.4970878179575386
319375,0,0.8910769187270373
3096944,0,0.7959526615746455
3784071,0,1.1628419924768982
1139167,1,1.0498147180908204
2685950,0,0.7887895415172214
2605251,0,1.268503828593699
2770937,0,0.9322843482166866
2037449,0,1.0416836664142046
1836278,0,1.305512941006245
309199,0,1.2418335591521468
962045,0,1.085014871026716
427029,0,0.974191711487893
3132332,0,0.6241282632825964
1735660,1,1.0024271133109424
1611644,1,0.8707547159853841
2771064,0,1.2898667549627763
560211,0,1.2354611365902552
747268,1,1.2190492653884646
2186881,1,0.9498132277875685
843303,1,1.6655021934937597
2035600,1,1.4197805790282363
1762325,0,1.2346291084394494
340723,1,0.6977094879922524
1724490,0,1.436615891063596
2846586,1,1.4479205184620338
398379,1,1.551612836851513
3890255,0,0.9303875089408606
662143,0,1.0328105227527296
3465543,0,1.2223951176054821
394826,1,0.8346738559467537
2944992,1,1.2015344744459795
272928,0,1.0661992099604432
882831,0,0.9065074453183604
1317292,0,1.151299052136172
2203104,1,1.3282516949025736
1851121,1,1.3158003761252262
3496899,1,1.092811940594032
1003816,1,1.083584641542789
3101806,1,1.039245310310295
3137247,1,1.363092927881337
3780253,1,0.7783727376333351
473390,1,0.9192420772860393
482794,0,1.369835707071904
3156105,0,1.2467487620793614
732874,0,1.1446001507464416
1029183,0,1.1156162238127223
215006,1,0.7230582441729541
2908327,1,1.0007254157695074
2465579,0,0.8223013318831608
3081551,0,1.2246285082430242
1645688,1,1.0956534841107752
1725733,0,1.095083587107975
3768126,0,0.6825549662262125
1078310,1,1.116735782801069
738294,0,1.2024245541956684
2705133,0,0.7890519875395334
3762145,0,1.0720022209788982
3750065,0,1.0691609117111534
1255341,0,0.9327753335605597
357557,1,1.0198588892989813
1965751,1,1.4901937724118757
3235497,1,1.0947143856401342
255375,1,1.1539588285985114
3073391,1,0.6252556482431142
1962590,1,0.8008552103619594
2419514,0,1.0600910242879253
3785914,1,1.4111451075187642
3166165,0,1.2543961186292156
2735384,1,1.2389117134382843
632958,0,1.2211962304051778
3020671,1,1.019125074795708
3496001,0,1.1063974889158925
555684,1,1.1682114805816932
3745154,1,0.7827583539188494
580340,1,1.0347920654339644
1427481,1,1.208418558978029
2806154,0,1.3261726875243347
2573829,1,0.9986362810187561
1040251,1,1.31062248998291
2923734,0,0.8339180845827706
3474470,1,1.159912791794796
993434,0,1.315629414627836
3102170,0,0.6882748814860951
1193301,0,1.1393317790282242
1758991,1,0.9204228100547472
1807006,0,0.941147270580697
1257593,0,0.8771247427757187
3263376,0,0.7848608477374576
2678037,0,1.3345701474267473
3851446,1,1.0457499391448164
1054372,0,0.9201643566167124
2021134,1,0.9564468384418412
1332296,1,1.2090861223599856
1149283,0,1.1573814302121705
1126007,1,0.9570105004347589
3285094,0,1.1692028919852422
385959,0,1.3185764252734589
3949571,0,1.0341243817531733
1998856,0,1.100168862336617
1026300,1,1.1136281826769603
2901857,0,1.1899157417692092
1358347,1,1.0844950586728825
2501665,0,1.3809229339561422
1432602,0,0.7375382407787157
386183,0,1.5557639991019296
1482117,0,0.47254661158237365
2771007,0,1.2075902571072215
3413379,1,1.250857093364159
1204454,0,1.2154266681351138
887760,0,0.9819000218765055
684543,0,0.9623130290747562
3777765,1,1.2356385505799892
2909959,0,1.628504570727674
3262671,0,0.8213793315244773
2790763,0,0.9154387113722767
1852036,0,1.2767208720971939
1338501,0,0.9565959157373637
2626609,1,1.1763713048541795
3171563,1,1.386981659032561
2638815,0,1.0572400301240419
1862761,0,0.5894380789207827
2392386,0,0.7050156872195255
3737580,1,0.4081125445826401
1097546,0,1.3476540333620706
1779543,0,0.46656277128397594
2898244,1,1.1081293568573094
1479102,1,1.045928144769607
3435355,0,0.7297173140710828
3348709,0,1.0476599458704154
3891127,0,1.075349223936797
3421080,0,0.872486833721692
611207,0,0.9490770241895429
293591,0,0.9274257419969468
973679,0,0.5798151086444612
2199953,1,0.9275667702924503
3248003,1,1.1187581131227466
3831843,0,1.0544815748671095
3862618,0,0.7690613105922812
2272828,0,1.1632763951958391
1347549,0,1.3866198308594027
1944459,0,0.957200957364825
228236,0,0.8952073998912424
3445549,0,0.5267882648431778
2822637,1,0.7482590713113128
452246,1,0.8667067224451157
694773,0,0.9586370557860845
3889880,0,0.9270754731436521
578938,0,1.2731129726591182
3832099,0,0.8043364677601306
3744464,1,1.338669114346076
1519870,1,0.9907192929672697
1850204,0,1.079065715552287
485844,1,1.0181223581283962
579090,1,1.4430365594309575
485286,1,1.1858459028795085
897279,0,1.1077898380831626
2177187,0,0.9890359863793113
209902,0,0.8779737524934998
553744,0,1.0853175008167377
389414,0,1.264094799015661
2022384,1,0.7149955959648786
3082470,0,1.189490590460803
3900075,1,0.9666919912241311
3096008,1,1.0663667747157954
242456,1,0.6601423639973079
3198174,1,1.1501336855272084
3921140,1,0.8818756399871057
3265078,0,0.9688359347782042
3254437,0,1.0269140088433535
1846151,1,0.956643900839365
3172879,0,0.9296278940954801
2594090,1,0.8788061033649142
233171,1,0.815321672715289
614880,0,1.2568381603009267
257079,1,1.0897085191754285
634357,1,0.706674607408815
1448205,0,0.8616081122404918
3350672,0,1.0181177299098307
293104,1,1.3596105849117186
1037941,1,0.9311209579247912
2184021,0,1.4106346137289767
435539,0,0.753033300566178
2721402,0,0.7774302625981391
1821815,0,0.8943596011080845
2790264,0,1.4033613834890513
3180577,1,0.7962147210082138
2668660,0,1.1126788827119183
2649849,0,1.3256140189018084
2559738,0,1.2286418544350484
2820907,1,0.8170362053157683
1314502,1,0.7241127221714936
1500608,0,1.0713764948092657
3767999,0,1.3084611282954073
1759946,1,1.1720999836591126
975377,0,1.2515479757950438
1672524,1,0.870655402019926
3875821,0,1.3142150929295353
3276569,1,1.061871369173175
279705,1,0.9026377321288052
2432761,0,0.716395418408869
2551542,0,0.8534160646855513
2760654,0,0.9844096229062155
2624932,0,1.0772625784542473
1415086,0,0.5997932423196841
252035,1,1.1329060033943672
3308682,0,0.7241964407991726
2606656,0,1.5743136069021706
1405824,0,0.703948213645498
1676830,0,0.9893890370609496
904017,0,1.1749441549423334
1160907,0,0.8706093759153886
2225857,0,0.7224930616259589
2524860,0,1.3606334501278272
3380832,1,0.7971751783614445
403157,0,1.210945213254842
1699174,1,0.61445168750352
3398024,1,1.3039182716413822
508689,1,1.176303016012998
1337611,1,1.2845862224689812
2024106,0,0.8779960041830811
288422,1,0.9524046235740088
3533111,0,0.9550728952089875
1232910,0,0.8768955126187362
3479313,1,1.234180208351923
2673712,0,1.0671088516098575
1126136,1,0.8734688044628613
2505453,0,0.6725348775895075
3411117,1,1.2032791492491128
3490855,0,1.1776472480014615
833476,1,1.258724081343441
3794162,1,1.5117560491887623
2885487,1,1.315590850456491
3320426,0,0.8558217790585376
2774129,0,0.9940983322768253
3924583,0,1.2263531663930962
726303,1,0.9016948819033822
1388603,1,0.881479940295993
3722227,0,0.8526759089298122
1679409,1,1.237698803645118
2730405,1,1.4755115086335286
3285220,0,1.0031931798799831
3749867,0,1.013350152070297
1015969,0,1.0307638909839099
3787246,0,1.215037073059241
720004,0,1.3367736810842297
1206069,0,0.7260967532324278
2395362,1,1.304590183557616
2146317,0,0.7064799070772207
2424424,0,1.111415673146806
2922414,0,1.4483237173715724
1784505,1,1.127661285081099
2644535,0,1.0442750888397834
384958,1,0.9184580113366779
2281087,0,1.0456104978073566
246701,1,0.7400123972210315
2847916,0,1.2956707532828553
3711653,1,0.9138235379744225
2915124,1,1.0907583126496876
3023212,1,1.2307192707791739
1353190,1,0.9600276428610772
1608629,0,0.76035451156647
2276975,0,1.0015198166932768
514982,0,0.7776167144066675
3441194,1,1.0195612233187823
1355556,1,1.1249649207290395
2217951,1,1.1441628353854756
428595,1,0.953822011588226
679284,1,1.2571277598327808
3356564,0,0.8040354139958781
3424395,0,1.1508109061098237
1607646,0,0.9442505265220659
1821793,0,1.1434016001377112
2037107,0,1.4468972347866125
2490058,1,1.087922037888921
2605507,1,1.003474012367576
3479936,1,1.676229231543122
3764837,1,1.036711871171447
3788957,1,0.7417171592230309
834022,1,1.4170582263499218
1733582,0,1.080577099125754
3840235,0,1.1927476671400166
2766668,1,1.4204386082472311
2805561,0,1.0613215745809501
2000961,0,1.0894142678320378
802522,1,1.4844221594894353
3090739,1,0.8194972771677737
3312430,0,0.9336756184381764
1988528,0,0.9779022394573829
1907126,0,1.1999932134952604
1330459,1,1.0007710562912253
2584637,1,1.1100751404418636
1277660,0,1.0931749260945594
3467537,1,0.9560929734439677
3904932,0,1.133048271159428
3005222,0,1.058389843161219
1060994,0,1.2839394013272056
3504061,1,1.0469989668817392
474015,0,0.5641174152460435
224427,0,0.7090122730182344
2271478,0,1.1807388061412385
530368,1,0.8534107482935656
1025472,0,1.1638017199382384
3202292,0,0.8457502474614179
1049834,1,1.2160415652615468
2460446,0,0.9957674529538374
3693473,0,0.9490544168006093
3102421,0,1.5558710702937526
1827721,0,1.067831204978054
1758856,1,1.0946655057456205
306150,0,1.0206632728959781
2277009,0,0.9107793558433834
2809656,0,0.7934498154368506
2696557,0,1.0084419069179305
899743,1,0.8551427603447974
1868198,0,1.4275970940627856
2680708,1,1.4042680521201942
2979878,0,1.1374323030147857
3256168,1,1.2198875747820472
2421045,0,0.8025658533487025
2900121,0,1.2769772436904663
271309,0,1.2091339479154941
2752133,0,0.6464494371139611
3952463,0,1.2700102253088574
2765915,0,1.0376926465786476
1716686,0,0.9922110837430727
2277713,0,1.1772871077433626
2684591,0,1.1256688504073709
3488174,0,1.1249442629810924
1154340,0,0.6708495979121889
1768060,0,1.1193980268583548
285751,0,1.1200494108655328
255910,1,1.0922675417415735
678840,1,1.1538476191378157
3835465,1,0.9540452290893913
3063823,0,1.0215629710206013
2411977,0,1.099162374046701
2948692,0,0.9124119812420148
529256,1,0.8943895690500276
2597661,1,1.032439319242894
2171981,0,1.0132284374979892
3182806,0,0.9614367694482279
3405171,0,0.9711849475608052
1676085,0,0.7643736569710828
1066480,1,1.082040338640655
3072859,0,1.0386732614975902
713080,0,0.9763261765956797
2759101,1,1.1987334893471269
379710,0,1.0280441389638155
869260,0,1.0973835546458344
267087,0,0.9754655841786107
3007505,0,1.3309511617365422
2831915,0,1.3445740745676298
3145448,0,1.189259635271414
2597057,0,1.2008613659716922
3739820,1,1.2017640749543155
3159480,0,1.4604985955995415
1981420,1,0.7146434009593132
2892313,0,0.8145361386956568
3254296,0,1.4030629883256613
3542031,0,1.0025860092317582
1446294,0,0.790044331994596
2108142,1,1.0717060849172044
1900205,1,1.353758951827389
1686813,1,1.3337205052382504
1968029,0,1.1244811401919357
3510598,0,1.0174928915540489
1223470,1,1.1772965999003997
1692982,1,1.248077795396555
2470310,0,1.1807908343094256
3744515,0,1.1231328177202788
1913813,0,0.7398669917679366
1385211,0,0.6679183177792606
2605447,0,1.0659144253237793
2677157,1,0.9457879303052049
3883623,0,1.2521668446442202
3231117,1,1.255764538787558
2886091,0,1.0521722112418253
2590974,0,1.251737155607365
2846496,0,1.2388566599115856
1553663,0,0.7981819063914564
1450568,0,1.3141289002738032
1893960,1,0.9451822259448159
269791,0,1.1465741052784408
1898052,1,1.1306102892653425
3275080,1,1.584910156705722
3282877,0,1.0341453990112897
1575618,1,1.5021193096375094
2732626,0,1.0510166236651677
3139289,1,1.2766279579182087
2881915,1,0.777513356447706
1130887,0,1.402986306371963
3181311,1,1.0006423935604787
1018653,1,1.001468496264579
2859823,1,0.7922037251144523
3538937,0,1.226699930670438
1764894,1,1.1890825556584073
3257387,0,0.9357895825142288
1728596,1,0.8827882825551359
863295,0,1.4768332574413605
2668422,1,1.0331918102503554
3535602,0,0.9535696118367686
1729720,1,1.3371703042764196
2268524,0,1.1088820250084481
1500766,0,1.1359261450958782
3184493,0,1.1662195333911929
2776795,1,1.418654103671876
1159077,0,0.7496492675553028
3660726,0,0.9877429486324577
1950508,1,1.0615767982568094
1662101,0,1.2008906382703262
1563101,0,1.3137273338243862
2423911,1,1.3039199949931364
1826992,0,1.0229366860131803
2803198,0,1.4504533631082501
2844984,0,0.7689800718852993
2982226,0,1.2684165606468523
2491627,1,1.4077704409361145
3908579,0,1.1192185174384723
2791664,1,0.9343885672226924
3700903,1,1.357377337190402
2700604,1,0.7415598819603053
1592245,0,0.7531993800342331
3479115,1,1.2698897289379705
2143191,0,0.9522161325959662
2158973,0,1.2141097760516686
1646922,0,0.8459423361581428
2908948,1,1.064925838056495
3284901,0,1.2421587848513596
1937517,0,1.0558004588685284
1399344,0,0.6303333202896932
865754,0,1.0057913294926026
2714595,1,0.7819166308568104
2733805,0,0.954035397041417
395022,1,1.238191771794161
2819290,0,0.34967427432272913
1244883,1,0.9416460600834329
3113864,1,0.9750104582211959
1697385,1,1.3713871500622783
2264260,1,1.2319242304901308
2416298,1,1.2427002856599794
3403534,0,1.1308988165098488
1035264,1,1.0923060520916603
3938051,0,1.3202098518097787
3089192,0,1.1427562687176698
487850,0,1.305784857958237
3349823,0,0.9394323719947916
2980326,1,1.124726792510952
3113495,0,1.4049961459565565
2806725,0,1.280783875730528
1944066,0,1.0357265329755823
651816,1,1.2707879290761361
2187852,0,0.8693962418361489
1269592,1,1.289108835019617
3938499,0,0.8737723189602177
673452,0,1.1265349825506341
1299137,1,1.127718690013023
600851,0,1.0715783729602342
1547752,0,0.685814347643406
3289830,0,0.9662949751018565
643983,0,0.9141003262109765
1438495,0,1.2866199595752315
3040736,0,0.9758769697377074
3031905,0,0.8095308605086444
2039275,0,1.0574007425529446
3401759,1,1.1931059299135172
374541,0,1.0186537270160216
1569233,0,0.9697434442980015
2531831,1,0.9808315474339957
3937825,0,1.0640839465168912
2243461,1,0.6638744836224215
1401505,0,1.0886597474369315
2665924,0,1.136030483642361
2231322,0,0.9419466702365743
1774479,1,0.8388450856371008
