sample_id,z,y
330144,0,-742.2969775103821
2185784,0,-1233.4864342213116
363308,0,-1121.074426434768
3072595,0,-944.6996040581141
758088,0,-645.8326431587525
1973086,0,-1542.4332660821487
1272394,0,-494.6979028924322
2833363,0,-395.2621128499515
3377528,0,-305.863603167437
3372134,0,-432.750411779736
3422358,0,-227.96119023663584
838971,0,-771.6600546972633
2168077,0,-228.7736350772312
1745523,0,-1291.6854319167355
1915630,0,5247.0053334741115
1912434,0,5569.54248513825
210578,1,-334.34784331612667
3439851,0,-231.07914236510268
2259322,0,-417.0929736899803
694053,0,-408.2970297695124
677643,0,-704.4436485314933
616439,0,-758.1780790816683
2127754,0,-417.12981433189134
918678,0,-818.6004265578824
1056961,0,5483.402867520906
268163,0,-643.3773920512998
2587461,0,-292.33030305928526
3182752,0,-482.67478562354603
1436989,0,-429.4318908618324
2048595,0,-847.1731180860737
3049525,1,-55101.07734565097
1482836,0,-794.4984853518525
2518088,0,-495.3943589989717
2576730,0,-479.3569309241713
3177875,0,-363.2895635541878
581761,0,-343.7215819302549
341499,0,-667.799229881759
3521612,0,-744.4884435476409
742579,0,-245.56119537131042
721516,0,-1119.6820770334784
3068496,1,-458.11464881053644
551282,0,-227.84885283700567
1520678,0,-253.556745415826
2000073,1,-30097.50489093938
2436247,0,-696.3371172513645
3729743,0,-289.4422720884314
3473284,0,-397.08469943141574
3202355,0,-298.42661836133294
1984856,0,-352.75739391036666
538348,0,-306.0817887024706
1005850,0,-554.2024828879481
3261743,0,-220.7049708885527
743747,0,-249.2861915983553
1468732,0,-371.4231283751634
1366240,0,-667.472220159469
1163103,0,5412.100710814142
1400809,0,-344.5099463166094
2398151,0,-64.8626701102006
2746929,0,-432.1232294847397
3151547,0,-504.6097800526819
1241230,0,-204.16753972498248
3431648,0,-668.226544118115
1571459,0,-967.4139296497915
3181922,0,-319.3391735536881
3458834,0,-1314.64143201262
200998,0,-429.92999768715623
3923702,0,-970.0978667451228
2253197,0,-719.6123358781582
3497974,0,-417.2442701709088
243642,0,-549.3686706045959
2993659,0,-566.2280953670452
3412329,0,-653.1842975203883
937571,0,-564.3100738987606
3489274,0,-350.50678072554683
3294817,0,-744.2820721622084
3548970,0,-302.916702783214
3702489,0,-507.7582079931702
1127175,0,5635.950892537454
3378862,1,-653.8691098815585
1504707,0,-417.46251687286303
3464906,0,-594.0129160078482
1254108,0,-2668.746004399525
3882983,0,-311.8569665165631
1127484,0,5535.4881028733325
3387753,0,-355.8769511278712
1628353,0,-121.19799817739239
3389619,0,-243.511207966983
2483753,0,-810.2834605013893
501518,0,-858.7617403564116
2745497,0,-196.00663721344557
469853,1,-216.51740656070774
830303,0,-452.60085189818045
3924933,0,-231.06504342387885
2106063,0,-975.2718917640635
605501,0,-361.50784302240436
252385,0,-236.25396469955825
1915839,0,4836.402436016107
2141174,0,-1286.5347168851179
272800,0,-402.73733161014053
3940350,0,-843.785398657263
2806963,0,-580.7357539879712
3934562,0,-468.06690394529517
513545,0,-177.93822209617778
492488,1,-1962.0680738395372
2873943,1,-49280.08669523121
3737394,0,-803.5722624040899
3908420,0,-289.09486946900086
562890,0,-326.2555874770659
2582000,0,-976.4368921076841
1079733,0,5463.647486975539
1467326,0,-1184.253482028043
2701896,0,-226.97531884925914
1406390,0,-361.22125758430116
2911178,0,-670.3276429116426
831504,0,-285.00027229646474
2865036,1,-30130.601919734858
2743617,0,-431.2429547178268
1961042,0,-1297.7144847014022
2928483,0,-273.46808987622336
446905,0,-582.3233400510894
2849438,0,-342.9186056393825
1041620,0,5395.566517646149
423046,0,-489.58491161437996
2240439,0,-290.8785316374281
1561069,0,-597.4638055296697
1319816,0,-252.72645108122714
931027,1,-315.32438473115695
2467199,0,-431.2500362782261
1254206,0,-944.5914554438802
1539928,0,-960.3157650261943
502766,0,-488.7245154821335
1647111,0,-417.06843072980865
374379,0,-273.5009008251326
2136979,0,-479.8858164920252
1428334,0,-982.0103545842146
2564697,0,-1212.5158147417958
994103,0,-503.7420936980976
953505,0,-292.17293079256547
2848974,0,-303.16878884672207
2244543,0,-266.4155024999871
2539282,0,-202.5189465013337
738024,0,-575.0068670143401
399713,0,-376.22581966360195
2029018,1,-30097.934191016775
3743285,0,-877.825766356013
1663030,0,-484.36701905349054
513065,0,-38.251815086113716
1080425,0,5208.340107148463
3094252,1,-1589.9965775994142
3921124,0,-410.3296452479737
2747261,0,-317.7831287274207
1525837,0,-844.2848968961572
672139,1,-751.9501012770527
198717,0,-653.677580463599
953328,1,-677.8459968211451
1195422,0,-379.73591677322054
1276853,0,-998.8819399756042
1910037,0,5340.497928427059
2513381,0,-169.8115500743348
2107054,0,-351.47155004516947
287377,0,-175.80879297145083
905641,0,-681.6750182114644
283545,0,-352.5269636981645
215989,0,-187.8273453668385
3351788,0,-195.13281128333517
1024482,1,-30204.565720676466
380762,0,-405.0941930592275
1866685,0,5639.549156057793
1557505,0,-417.01378618816176
858146,0,-178.71976514832116
1544135,1,-857.4775518227996
1854326,0,5520.147699882073
1463053,0,-546.8686644191567
1449898,0,-754.2909963915871
2885223,0,-295.9112383306475
276318,0,-365.544528510024
2140388,0,-659.9619326009713
2583252,1,-55095.51819548938
3896226,0,-782.166815724827
2450414,1,-30180.69160501294
3941938,0,-322.31185844890985
3385108,0,-374.38154758709413
2239074,1,-169.85272630457482
195754,0,-341.7693413483714
2162013,0,-817.4306362625666
1483599,0,-555.0174169869622
1915709,1,1272.9081123087583
2030427,0,-786.4490484253784
3231384,0,-744.0331958699602
3682700,0,-791.914508096769
1524993,0,-709.099175313633
2671961,0,-863.0352635891328
1768984,0,-591.096106632762
3715063,0,-666.5792416198891
2728437,0,-317.313173745918
1218058,1,-556.8093508145889
2465532,0,-24.45591563728235
3011200,0,-416.6631711972244
3778754,0,-379.14701017886904
415045,0,-645.3992743789987
3340238,0,-929.2032219685638
3016733,0,-316.7580258333298
1017182,0,-904.3800051967349
1005960,0,-935.2311562212523
3231664,0,-202.9172391818382
2219651,0,-389.85592420280716
1532455,0,-276.4542969420284
3133072,0,-771.8528103255543
1571456,1,-661.3258780759917
1322506,0,-366.1005984386331
3353232,0,-342.96871787432235
2696398,0,-367.1698332917735
1395638,0,-320.180766763116
3795521,0,-225.50728937990365
1196869,0,-228.06490185792882
3036761,0,-403.29584545727636
1880949,0,5460.346058328224
469378,0,-224.1536600708248
3389417,0,-981.5068588184392
3960633,0,-362.03077277011806
1345875,0,-624.4652539877433
2057834,0,-416.0336268204172
2242909,0,-365.02798158954204
734238,0,-129.56814579637117
1914015,0,5410.364862261059
2945986,0,-191.77769208663577
3843369,0,-475.55431682729403
2044543,0,-503.9908807066261
590217,1,-592.3741155140567
2783583,0,-350.88882215604747
3943733,0,-646.0600296013619
2030953,0,-763.8021207853006
423341,0,-906.5415383681103
1405328,0,-174.88001072938425
2636226,1,-30096.812992413365
3270400,0,-486.3926374588347
3707878,0,-253.29160150425614
2605955,0,-1971.9135566560128
340802,1,-418.9965895395964
3724282,1,-791.3344322525243
3535421,0,-1056.950132661157
2148645,0,-530.2532182340184
252825,0,-755.9455018740265
376136,0,-984.1965455698046
3371530,0,-796.64079579748
1741759,1,-1093.4019333517133
2528762,0,-653.5773844174364
3453466,0,-1546.5394722069243
3079476,1,-55075.13967402479
3664472,1,-869.9670530121808
3342617,0,-425.4236252616078
3335880,0,-431.3509510762131
1349209,1,-600.8636750027583
2016039,0,-524.131596093401
3029809,0,-128.80362360679047
1341025,0,-441.95437944125666
1417502,0,-499.45268842620163
2752116,1,-514.7490263064053
1546262,0,-238.61654371531446
3095135,0,-327.26090972586593
2413613,0,-356.6616055344807
2848909,0,-192.3319199481623
3947361,0,-1069.3659432486438
1439656,0,-342.19462812562864
1345890,0,-682.7738604187211
3485334,0,-970.6938253952079
1916482,0,5072.595545874745
2160246,0,-483.1387930453422
3053190,0,-991.5320418870053
1454022,0,-218.36660346757424
2264410,0,-372.65622074213
3717224,1,-55077.411481435076
2675320,1,-605.7169246267028
3730807,0,-91.83049454153257
916445,0,-984.7394225890046
2627113,0,-723.0151736338424
2689934,0,-366.07702866594104
825593,0,-510.1120165718838
2182795,0,-511.7727200098625
250521,0,-413.03633448436045
1237588,0,-343.34618282048336
1816599,0,5332.111234673391
3889175,0,-467.9944076590776
2995293,0,-489.98329912173944
1698625,0,-262.77303875556277
1959826,0,-176.89971731122256
994169,0,-342.3590957403126
2207745,0,-675.6379643111768
392863,0,-526.9645826704402
3277858,0,-389.704674135172
3660606,1,-138.17702634469728
589675,0,-417.91340464679104
1738417,0,-326.77221403832476
1942878,0,-148.65252363869703
310491,0,-610.0181927123384
671034,0,-407.15428196897307
3943730,0,-410.1382814219446
3311107,0,-320.0901445211677
665239,0,-605.3059097577602
2180325,0,-505.2442761485126
3041626,0,-959.7906131230385
270255,0,-582.3831060653188
1083938,0,5084.208656680668
1858014,0,5174.709388938438
572971,0,-410.55002939034637
1582263,0,-916.2318909297155
2710400,0,-648.7010469709976
914947,0,-200.5299171862943
1901540,1,5401.186816092039
1157083,0,4968.985529735259
1818075,1,5241.509750815916
3515936,0,-925.7175786924615
3063128,0,-430.1208197748731
3101677,0,-417.10116796030144
344090,0,-489.6201875512279
1818375,0,4114.110776244916
1450297,0,-437.09188984914573
3739236,1,-583.7413845409551
3724536,0,-1287.4715526831897
3739039,0,-856.9603572227875
3865839,0,-796.8828489209119
3326832,0,-248.79066765886424
3477869,0,-285.25912540644566
2401635,0,-743.271953590962
3073850,1,-623.1679647161985
449783,0,-649.9615306209995
3247896,0,-653.0262635760957
1941147,0,-386.50311136238963
1144253,0,5272.766157242448
2640058,0,-371.7978263724225
1420582,0,-219.15265855769215
971440,1,-1060.6203786525873
720989,0,-599.727002941831
1229348,0,-161.67969014706713
726782,0,-537.3302091997392
3248169,0,-489.5624059758201
1140941,1,-49802.13858439379
1205253,0,-728.5651143195471
2166035,0,-432.5226917395381
3656993,0,-319.4899846860739
2536444,0,-267.1973289086855
2148907,1,-26022.900146692224
2938549,1,-30235.658551799163
3920180,0,-667.7348228657256
1151639,0,4942.911874208845
1772767,0,-775.3216719328777
2061171,0,-351.80172991367
1388715,0,-617.0016679543498
817811,0,-347.31251014262
3260460,0,-723.6094343701604
1949434,0,-497.0535745225885
3332913,0,-182.35516925023782
1555566,0,-1032.514161451684
1223209,0,-351.4213951601994
938173,0,-291.7355850454059
2553103,0,-443.2810788904326
2281267,0,-490.36846949101
1300908,0,-416.7945941072566
3738398,1,-647.3113122388514
2901335,0,-502.1017746694692
3838887,0,-360.78864665973333
1644483,0,-416.5295580389213
3165094,0,-229.05837492140793
650544,0,-567.8776619953834
544827,0,-567.7436552605129
3417076,0,-657.527146157918
3957875,0,-164.01302773672802
247599,0,-432.25459265091297
2478297,0,-461.31618705554536
2902467,0,-647.4654098844118
831148,0,-568.2229101735318
3376470,0,-917.6194883729465
386384,0,-350.9206123311093
3799127,0,-971.0060520140969
1104323,0,5459.715639717706
832145,0,-977.2720152528507
1548986,0,-767.0952427346986
1275036,0,-503.2753503934253
1153790,0,5422.767713432539
3494962,0,-728.7687312524318
2014183,0,-549.0168323606159
3761830,0,-389.58749438756405
2534936,0,-643.2395650046888
1383097,0,-1047.3051282890406
727949,0,-804.8222741358248
589930,0,-761.4684146700084
3099969,0,-1120.2819655350816
3894142,0,-366.23595263627357
1230302,0,-302.97251291285176
2509120,0,-809.7735489945366
1905038,0,5361.168297010172
1073895,0,5236.097040721635
3456817,0,-841.2558926456863
953834,0,-217.81015923303625
3313076,0,-25646.560165847175
512020,0,-659.8136478520074
2168038,0,-734.0058962355198
3909987,0,-582.7735672664774
3404606,0,-1128.2600261862278
3941292,0,-469.3605105785642
2544725,0,-186.76473890884958
653854,0,-177.93958400309677
3543313,0,-977.7106496130436
1079689,0,5160.431773751237
1623922,1,-651.5251378165319
1462322,0,-126.95423238748805
2927438,0,-708.279055296288
3534408,0,-504.63730083480414
844592,0,-432.1120576994427
1534248,0,-417.2163857901553
3242151,0,-895.2585497446343
3884661,0,-550.2311489622513
202330,1,-55076.841778720074
1237824,0,-699.5929833783061
2228962,1,-985.0851747930665
3257225,0,-582.4063490495826
1620052,0,-682.6197060732467
3434549,0,-342.29239149269375
900902,0,-410.7532807003148
1108356,0,5497.762267751153
3048414,0,-865.2662726027927
370132,0,-503.7961064145867
546610,0,-432.40081239001864
652659,1,-484.31023014521264
1906465,1,5047.3550395304555
1423003,0,-124.70549588866349
1566182,0,-664.7478279882922
3315295,0,-305.26415559264746
981860,1,-494.57174630722085
1555794,0,-366.30618750540754
3342836,0,-794.4965517113548
579245,0,-462.09763988792344
2711188,0,-13.008169009766464
3269085,0,-312.77343805141027
1395846,0,-845.1544927641249
3734530,1,-55101.73055295568
1758256,0,-242.50909857973653
2827285,0,-431.4782833578765
3172360,0,-361.0770017976295
223741,1,-433.98623685849816
2985182,0,-1845.7163244263095
1436559,0,-366.07014110966713
2814873,0,-365.10486866601644
1215324,1,-1038.217487334071
3799536,0,-156.59536084719088
1136005,0,-20272.32186024493
2712023,0,-149.27100150516975
2631235,0,-450.23878319078716
3197945,0,-344.58589930129943
1878603,0,5637.035157301508
3432894,0,-586.763560704071
3419272,0,-341.1572501385782
386552,0,-306.5210577017435
3711869,0,-283.76456075436755
3869372,0,-351.13584115426903
3549275,0,-650.7406780342637
3798503,0,-1323.8583335271949
3025054,0,-429.6022557240782
2186479,1,-1185.3284693049645
1478504,0,-844.9832785455661
2872003,0,-25197.910640804344
1370514,0,-363.4234682312418
1075537,0,5396.19897171592
521837,0,-918.621239415284
3032939,0,-488.78771043712027
3113897,0,-336.11657808895063
1749244,0,-25108.166565830397
2869210,1,-54912.43453658739
2167473,0,-1015.4424111407518
221046,0,-460.52737874116985
2662083,0,-429.3609747053367
1313497,0,-397.9735485127305
2395458,1,-433.8481965264592
2252213,0,-580.0515678423171
3376350,0,-313.0263645012517
2551628,0,-463.0025926871331
2677375,1,-426.51609107066855
3317536,1,-840.3335015835198
3536395,0,-429.03701798495297
1511029,0,4890.964915126705
3739371,0,-298.09815893656696
1981394,0,-702.3858672452541
2176915,1,-992.429843881185
1769939,0,-304.088812380848
3082553,0,-776.6512063744062
1565787,0,-422.32271045927246
885196,0,-299.6365867127021
3476485,0,-643.7515654391842
3080711,0,-786.66159110069
2916175,0,-505.2034090699793
2513247,0,-111.91181636190727
2776472,0,-575.3207313615738
2269501,0,-152.77727559016785
1032238,0,-473.9508528139353
1328140,0,-637.6347894607695
2554192,0,-415.12998487863734
3053878,0,168.62807627262654
1816962,1,4846.324382806519
843090,0,-475.89407361990726
3199705,0,-432.9228794238971
654359,0,-157.21882434448423
2148206,0,-460.97221043705065
1940599,0,-238.71996476964972
2205225,1,-873.1954693927672
2420692,0,-549.1255670926287
613067,0,-467.9788843786012
1714515,0,-639.9776980483692
3674352,0,-969.3338492846605
330627,0,-365.6311381698558
2153707,0,-653.3239369611591
2614319,1,-55077.744739463546
2483373,0,-720.0744537854813
2988536,0,-567.9242439193896
1701607,1,-571.1472554561138
1526556,0,-378.96434040983985
2121191,0,-110.71851210174037
1295200,0,-1479.1540497585065
3272188,0,-352.134688930766
262933,0,-305.8318346577954
1525392,0,-858.358433873912
1311883,0,-691.8562400930043
3880268,0,-258.2045675276011
1624735,0,-572.0067036511728
2554814,0,-206.33383523155862
231638,0,-417.31360211347584
425348,0,-366.0339831912202
2779859,0,-1219.6545468497293
214737,0,-414.8638541855834
695466,0,-970.2439392340823
3656090,0,-312.4774061193968
2762300,0,-1476.4803061095142
2731174,0,-1163.211624764909
1155258,0,5436.930910967253
1041264,0,5599.389832884219
3296295,0,-1119.9992186262234
1878827,0,5502.853499444786
1318209,1,-55076.29968831043
3673987,0,-891.6746890543523
3848190,1,-21.518338025206138
2395546,1,-432.0177473698743
1149820,0,5278.009866314678
2825970,0,-320.1658543872319
1542056,0,-2670.807298512502
814828,0,-962.1921746401696
3888551,0,-377.8666339582543
1318510,0,-429.5340921831959
3473360,0,-755.282901724344
1603310,0,-411.39030847064697
2174342,0,-675.8606012487634
2154665,0,-416.8975498920913
1703996,0,-403.4433203440088
1870641,0,5181.469688424274
987237,0,-410.3853470894676
3071559,0,-289.06400948979706
2724301,0,-413.1738406537126
3749495,0,-411.32128444907534
1833419,0,5396.654225826972
1574067,0,-1170.7770006371131
491482,0,-568.361531598234
565860,1,-3096.456037347282
3881468,0,-437.7828654410083
2452820,0,-30653.346424165018
3733439,0,-88.82125209730738
2480815,0,-329.0549467268573
2943770,0,-1034.7144270802207
1303664,0,-561.1567900298511
1909266,0,5374.894015805965
1013015,0,-718.7143819364046
199745,1,-654.5195504133799
1824746,0,-19640.00628202582
663035,0,-371.50082336399896
1780313,0,-431.4653419108
2395073,0,-715.619224282728
370979,0,-282.07827925073235
2401434,0,-114.89187078626482
1446972,0,-486.7051884625322
394770,0,-581.9812901741278
2995507,0,-853.135505646309
3035413,0,-425.729256485606
2740420,0,-983.8267766703203
1056612,0,5409.549051556203
2814939,0,-150.03227749983043
2266320,0,-190.57577875111795
968239,0,-287.67938092211466
1045656,1,-49324.407111541856
855631,0,-739.2635752911473
2751385,0,-202.46396959475229
315382,0,-484.11153665539547
3406686,0,-548.4111879222778
2238335,0,-352.0381273812881
2936850,0,-440.99322795696423
3053303,0,-292.051231567174
1950477,0,-238.46858478691829
379857,0,-212.20293750221413
858001,0,-929.7337847376705
1905244,0,5090.818427503692
1275975,0,-425.4225589052965
2618945,0,-838.1127983518709
1840659,0,4783.270288409082
2189096,0,-764.4139897019231
1404373,0,-293.35967974456474
3664710,1,-287.0071523032921
2138461,0,-798.1123455413571
3780637,0,-497.496490240786
814819,0,-454.980218972838
242225,1,-358.5747037304585
2493640,0,-958.1679602585681
3760170,0,-958.1521373911795
2875389,1,5058.651941518451
2279921,0,-487.56765455368406
2676002,0,-245.29513328370138
950070,0,-703.0261366755543
722753,0,-339.59451176611617
431622,1,-293.178955982352
3286554,0,-306.7321993726431
3529030,0,-743.6878422535717
906770,0,-1141.777394452466
2675268,0,-497.84912872245906
3242848,0,-798.1122856893469
3439762,0,-1202.414967360078
1418173,0,-164.87228549357815
3526813,0,-702.6561312194333
2941358,0,-328.45472700605
512569,0,-1171.5830428637857
2149534,0,-490.42586255092164
2026066,0,-431.77525394176445
3803501,0,-524.9613692210569
3764967,1,-1199.8869819066554
3030549,0,-733.4576950900512
3265588,0,-1015.1006859609848
511321,0,-291.6731438530889
319823,0,0.5753953954055606
3075140,0,-96.385062616433
1759393,0,-790.7645052043865
2700026,0,-236.57328625015407
328951,0,-372.2828488092404
1144254,1,5511.432285853318
3752941,1,-880.7455764290069
2892400,0,-256.5184456541738
1063007,0,5464.773375365178
3476773,0,-524.6084823446106
3344222,0,-443.35053787701247
2570288,0,-569.418757835811
2187410,0,-645.5958701918025
2170183,0,-431.23597914244016
1732125,0,3.024465195648431
943051,0,-323.6983500164305
2793187,0,-619.3248925991566
1831465,0,700.7893292031137
3117432,0,-1120.571903462359
747026,0,-112.82894867204978
2627575,0,-431.9994244288619
3195236,0,-163.86051418182214
3276307,0,-984.2598334451438
906705,0,-497.2260343778657
1004111,0,-270.2792695325983
2879974,0,-496.7084018535764
901375,0,-894.07227017769
3202670,0,-108.10987549175753
995788,0,-88.27118095531877
1136184,0,5079.975696414865
225367,0,-844.2119567003772
3899960,0,-415.08704586277344
3901197,0,-666.8648534198117
860209,1,-564.4262247262745
881485,0,-374.43829939400274
3931564,0,-342.61182529854074
1111835,0,4838.175352469125
1661831,0,-729.96870594971
2128001,0,-840.566808618213
852532,0,-659.2582708894419
714120,0,-558.2877632873386
896051,0,-755.1785743295774
2928438,0,-417.2547350113077
3461186,0,-273.37868313112415
451877,0,-757.6413198904739
2182229,0,-756.8081129594974
3253458,0,-445.99741587166375
3223394,0,-568.0501740702963
2489993,0,-453.5529335703634
1648498,0,-417.7806192791694
547885,0,-568.4903977799586
3030179,0,-526.3390050820625
3495923,0,-589.5523038617207
3723634,0,-224.24131450059443
2912488,0,-366.3189575740131
2704701,0,-883.6551005009402
685948,0,-490.7765850275064
2725519,0,-917.7370988930525
1904299,1,5518.621560729452
1474320,0,-787.9882623647286
1363926,0,-1107.7602864856872
2561824,0,-105.41168961907516
1808171,0,5382.451321714983
3415740,1,-570.482404171524
3164845,0,-675.8459872436675
2501439,0,-236.5377290438502
535113,0,-408.0368814503097
2537842,0,-967.9294204160943
2185775,0,-891.7412145349342
1607338,0,-891.9562233815238
2499255,0,-409.7750307534571
2693399,0,-482.44340430677056
2486147,0,-192.06233045946206
1735806,0,-351.76446866156965
1433903,1,-26537.599600332847
3082397,0,9.51826602674675
2594597,1,-642.6688244543138
978604,0,-364.2330122162642
1819816,0,4853.012133661922
3760939,0,-475.5377121295838
1078188,0,5590.575055179324
3031310,0,-501.72948685265044
396783,0,-1070.2187220544379
3131629,1,-430.513600826493
655009,0,-408.0244602088088
2049032,1,-30643.008846863882
2520046,0,-583.7084968338778
3705636,0,-490.11204281395754
2992892,0,-379.65589430532924
3505147,0,-406.2895822275604
498542,0,-433.70158972468454
950388,0,-643.053486876387
3502905,0,-450.60344088094297
266602,0,-589.4823583439812
284751,0,-643.6372316424764
2166276,0,-646.2013455424607
3919148,0,-454.62130718875204
2506999,0,-299.24903947725596
2929323,0,-175.4533550130852
584270,0,-489.42683767153335
354732,0,-343.09947574472613
268132,0,-243.37625272811442
913455,0,-784.8775590433245
3909249,0,-306.88968515166465
802306,1,-25413.975465527234
3791242,0,-840.7117877955269
922853,0,-228.47827431961673
2141385,1,-850.1940941873806
2048754,0,-348.86194094846877
2026943,0,-921.6063882491901
2967583,0,-257.314419709267
3021297,0,-417.5308313455449
965479,0,-312.3611770932584
2035999,0,-496.87339617772056
1884515,0,5640.074383792251
804762,0,-836.1203081250499
339593,0,-489.37013856395
1873264,1,5483.108308385334
3361665,1,-1400.2573430548634
2488527,0,-438.2297411814151
1949361,1,-332.78121999710913
2932785,0,-410.27341964285404
3888785,0,-421.7416741781167
2766895,0,-1308.3763324868182
254365,0,-1110.7586933054079
739546,0,-288.2591295894319
3738190,0,-959.9022039729736
3103304,1,-484.01229430713244
491195,0,-1160.9560939798582
2539068,0,-252.84538431469232
1901377,0,5309.504642430327
2848404,0,-418.1577128394263
3038659,0,-569.8196686525904
2707631,0,-380.71783212267667
1627987,0,-312.45917641410796
2570367,0,-540.2742715421958
591804,1,-30172.426063340543
2731824,1,-1883.1400795338202
3475545,0,-981.4487953812662
1253952,0,-613.4026355006023
928496,0,-437.39893800437153
1672479,0,-360.8475995622823
2128111,0,-497.47455560398953
2889801,0,-291.3827810160965
535283,0,-407.74433696497925
2655488,0,-363.254720701304
3373551,0,-312.288789758774
1851675,0,5310.403234646437
3888211,0,-409.71613497654727
385060,0,-893.9074838004304
735010,0,-997.5149411401223
1015620,0,-642.8447257849207
467377,1,-2606.6457308503273
1855893,0,5337.982668832247
3765522,1,-30632.514528459396
2411438,1,-1845.7782393923505
3919285,0,-414.7408891226842
1487007,0,-305.03212488508257
1120544,1,5393.285749021994
2186219,0,-351.08478859780763
1492835,0,-410.51924822749584
2985557,0,-416.9784407391406
2397859,0,-667.325081898196
1846397,1,4533.284077497521
1827091,0,5319.769145496318
3148745,0,-777.3238628104011
3788123,0,-316.7766507158044
3774982,0,-823.1201193239721
3660128,0,-465.66095175521485
1899622,0,5467.998641326051
369659,1,-655.7955025954177
1713526,0,-176.82897240147653
2143914,0,-296.01112622304856
3235135,1,-1136.5259328060522
289449,0,-305.9278842157056
1495860,0,-496.9172110334483
2488530,0,-2550.3217046259597
923956,0,-781.0744156152383
2459757,0,-306.0738534965063
481315,0,-582.8234642752001
3181114,0,-504.5173645912719
3959908,0,-229.24371524432792
1747896,1,-55093.16236444296
1687382,1,-54828.94690018718
814117,0,-568.0237695421741
2392190,0,-681.9385463955964
2253700,0,-2503.5289418484663
2622806,1,-586.79568540745
912446,0,-488.4624164773386
532156,0,-452.96380144055775
3400411,0,-565.202281537799
1093989,0,5046.311454059796
225421,0,-970.1060181579423
2482692,0,-319.85517284762403
3208171,0,-990.7358390811894
1632346,0,-664.8586630043388
3228618,0,10.873793461332612
2996407,0,-343.0469791103209
1029211,1,-55077.727313761156
1510664,0,-372.1144078487135
283583,0,-1049.9594667857073
895215,0,-552.309123854204
2651955,0,-742.9194311257285
480166,0,-567.4256497146386
1646327,0,-652.8744296867835
1258009,0,-398.6791422817083
3021536,0,-804.8370455526514
970602,0,-288.9395348850003
1525053,0,-432.0491959721058
3764253,0,-503.73886558311455
3897503,0,-790.818214368089
1707794,1,-732.14769433139
1636158,0,-503.7704636679453
423823,0,-806.7310996083721
405470,0,-741.475568751948
3380648,1,-447.1503945939238
3500211,0,-425.2046798373417
2556381,0,-282.35101252401216
3374382,0,-218.42992181048766
3311953,0,-356.38414172474546
3164376,0,-400.60894606510357
202435,0,-19569.66482957331
3952310,0,-291.07181889958156
723127,0,-541.6196406613092
3367360,0,-252.48096826508674
623394,0,-379.16177009351327
1788134,1,-454.6825873673492
3234525,0,-194.40691967205382
2544037,0,-82.81668729115817
1144824,0,5063.15214293057
3743990,0,-917.5094789470556
2789114,0,-205.74269857374597
3218726,1,-330.725854737914
3236146,0,-1020.4019690983241
2855798,0,-461.62972004099163
2565223,0,-579.9602739424006
2538693,0,-165.0852937404172
3712737,0,-429.43915242053004
3908578,0,-970.1496058336904
1077074,0,-49567.66991923562
1015730,0,3.576908276387272
2032923,0,4933.877225474594
3112699,0,-949.1941027976587
3893868,0,-70.99842173640873
1328221,0,-542.424557966774
3912402,0,-83.01297510790302
1772406,0,-805.0208516754549
706455,0,-170.8288906505481
3055391,0,-213.2098003299137
2538767,0,-501.3835930779302
2838477,0,-231.01008343594128
3542692,0,-501.0982326014512
1919123,0,4857.132026233337
3290374,0,-344.54691635400854
3513455,0,-434.9730006967521
1279507,0,-652.4380957235156
3143475,0,-918.617218307751
2247119,0,-237.45460667755265
2939748,0,-19709.53242868566
1088206,1,-49249.8736425617
2894875,0,-438.1349765545231
3079232,0,-970.7533676912051
1055708,1,-49249.96869209543
2836862,0,-526.8462939892972
1074543,0,5461.094080393384
2020987,0,-406.78835372381764
2594910,0,-1004.2374108736859
1664720,0,-361.4425791327808
1632643,0,-87.77042255482776
1514222,1,-566.6348935251315
1533992,0,-367.1315332668556
2750130,0,-425.33240730114795
1593165,0,-245.465924790677
328348,0,-290.1249531809876
1473341,0,-576.8444989521372
3248594,0,-1120.6618597700792
3425421,0,-243.3651405412966
2582258,0,-77.34074141194321
1037700,0,-25417.39640565918
1825134,0,4822.768013150759
2277164,0,-642.8019449337573
3018173,1,-631.7434508266465
1295892,0,-414.0566205140113
3957825,0,-417.95683538404586
1362104,0,-567.8461719736853
1821115,0,5017.643801057693
3471737,0,-460.2195151191228
896704,0,-810.4748987176831
3248736,0,-25268.89751150676
807039,0,-669.7793435909969
3361316,0,-1134.9472943693345
1124866,0,4867.251475478654
2466456,0,-371.6595291333718
3338136,0,-854.7618691041995
816068,0,-984.3328390216662
2252737,0,-432.3508116428264
1164074,0,5174.022080909641
316490,1,-444.21026835252405
570601,0,-652.3749540570209
1828805,1,5160.167587315066
1132741,0,5453.962666832875
1010259,0,-438.51129575765833
1899415,1,5676.108381226762
2802326,0,-437.6117013797767
373891,0,-417.1235322125895
1958682,0,-352.5495841266766
3449213,0,-143.41709701091182
1619593,0,-252.653318031144
1585696,0,-1167.9291415044906
3743461,0,-918.4188776292523
2779019,0,-431.30544499888555
1361747,0,-418.64764732970224
1410582,0,-847.3051320063751
2042555,0,-844.201620220635
1377473,0,-19.726421555491935
1733115,0,-483.4936542691327
3141361,0,-806.5069916914194
381970,0,-395.51428148851693
1688068,0,-475.20349970705144
1595842,0,-673.0218101343969
292900,0,-201.49973092963748
1972948,0,-613.8367500641746
2674057,0,-769.0377942434556
585601,0,-582.186706979976
1528755,0,-442.77737205716727
1423648,0,-312.9545427664784
2898962,0,-576.5930663581534
2738409,0,-582.4404897626856
1160191,0,5808.196069834189
1228282,0,-168.77537831092513
3092849,0,-366.19795753944953
1999329,1,-30104.26983656974
355769,0,-1485.6007117152858
3222973,0,-252.47209275071157
3454909,0,-929.6964037184196
3898134,0,-299.1282849015203
3205050,0,-649.7533991419062
2019662,0,-717.0309557338768
2231983,0,-749.995289003081
1491447,0,-436.6941487487901
1426059,0,-462.0115445834564
3408796,0,-1280.107438561206
508843,1,-608.7045231104368
3248106,0,-1058.30834366189
2985343,1,-1044.1566550761208
1349380,0,3.132955494452964
3782433,0,-858.5492048238606
3749325,0,-841.1823775356966
1380808,0,-403.79627636174877
2929700,0,-701.7150167066652
2520084,0,-250.9067741343167
2857160,0,-381.62942120683897
476588,0,-318.1619671329637
3731800,0,-2157.9075669253602
973376,0,-444.993288480827
2549504,0,-161.14689623791045
1967406,0,-770.102022888466
2925984,0,-1004.6216183094486
3192394,0,-150.799521091918
1246935,0,-498.48512230666944
3084341,0,-831.5592566102182
1541991,0,-933.009617221222
3321817,0,-365.75931431956974
1293184,0,-341.87012874032666
2780369,0,-334.2447719751139
2533825,0,-977.7303069193323
2832181,1,-30113.00460052874
3309398,1,-199.82521856518503
553874,0,-417.0651463809202
1482351,0,-305.9469590824879
1947945,1,-30143.385190252484
2218774,0,-1055.613532044071
957531,0,-265.96683936751737
3402574,0,-945.5135558489833
980856,0,-356.9377729921043
3220422,0,-404.2886744321868
3940161,0,-415.2526932076676
579978,0,-642.6303147443701
1097163,0,5410.302274108914
394241,0,-198.21679256572992
1322125,1,-30109.64642523657
2820370,0,-416.8146410766661
841964,0,-756.1123440685884
201467,0,-1053.0440202720933
3686250,0,-456.70755204462654
2026869,0,-285.26389786921936
1864428,0,5323.151434871414
907424,0,-858.4424345200807
272902,0,3.5902339608525136
2462935,1,-535.4363342660349
635471,0,-582.1931932566314
3199141,0,-302.927486723103
947787,1,-471.8177960188894
1362712,0,-646.2715576868927
844102,0,-776.847672249706
3224586,0,-319.35543016186597
1914689,0,5603.011105796742
2109815,0,-273.1530495005155
751900,0,-501.7777030714807
3429375,0,-862.4833484955459
255642,0,-407.4621999189154
2033335,0,-539.8170077767767
1623893,0,-759.3498566259606
693117,0,-486.32429237493176
663927,0,-734.443360900404
1758083,0,-467.2215632829751
2591679,1,-30206.21914426521
3195281,0,-558.6543144019993
879418,0,-444.20554393502465
1967824,0,-330.2470079966749
3119399,0,-417.23724824923215
3061914,0,-367.3098760398992
2494508,0,-780.2784504624836
1347007,0,-1402.1106347885532
888922,0,-407.29270850182905
1367282,0,-99.14948987084952
1339172,0,-231.05306317675587
1852839,0,5536.031859718882
2860625,0,-416.93152941325167
1028116,0,-417.3504211312543
1477191,0,-433.3918176627133
579570,0,-421.6150567541126
1721005,0,-1055.9236329144815
2594969,0,-164.43627830948853
2698921,1,-629.2328002506038
2214563,0,-841.3654080790537
3911930,0,-299.34855112762386
2897858,0,-603.4864678524564
2030862,0,-287.14973480808567
1592993,0,-643.4164202605
2255373,0,-258.0141535637463
2211829,0,-565.1756379237607
2256965,0,-417.23652485584824
3045716,0,-524.2763574409225
1309229,1,-678.0500582345433
239757,0,-431.6725302643983
3908926,1,-257.60662646534166
865341,0,-25396.904828308867
3357618,0,-196.53735144140785
1294718,0,-580.2276214647185
1636457,0,-591.5082848633856
3100841,1,-30108.706086783757
1276759,0,-432.1031754538452
2780386,0,-212.17206460073857
1641099,1,-424.16104834392087
3540645,0,-1056.1858841333285
960328,0,-653.3151110073916
224832,0,-582.9818347848025
1691691,1,-388.5210485309768
3699145,0,-518.4454581786563
1246205,0,-432.42621388521474
2540780,0,-431.60169932557716
2188732,0,-206.58349426622226
583269,0,-704.2396526132709
1050449,0,5412.3352931266145
2004488,0,-348.4188448973703
2024564,0,-665.805502484361
1951853,0,-287.00047231413555
2219940,0,-190.98344731017428
2795238,0,-297.95918681995647
3168807,0,-237.69561176128803
1002322,0,-275.1350549303904
2418502,0,-486.6973581215576
3260325,0,-735.1484250758418
388513,1,-944.3861407350647
1672447,0,-278.20745168900953
3067244,0,-859.1316104602694
3517246,1,-556.8150690399733
3275691,0,-969.5200287474471
3932259,0,-663.0189384798277
690276,1,-30112.40494145501
1627482,0,-1204.65756106551
1945267,0,-722.5327536842144
3404242,0,-177.4455841782221
1105862,0,4517.299618964807
1257454,0,-474.9380506073792
3377671,0,-272.5451641255038
869444,0,-279.17719826278113
2162264,0,-455.14859667502196
3118061,1,-412.07951557236595
2008069,0,-903.7967861375731
3945175,0,-468.5692844123706
1766837,0,-483.0449906289606
3285711,0,-505.9062507994647
1633516,0,-775.1297196075204
3130179,0,-283.98345394878805
1490936,0,-569.4689119195708
3763398,0,-476.28247825905396
1216460,0,-863.0231822062377
1394212,0,-351.53865523866233
311449,0,-668.894008318807
3710968,0,-271.2570284301239
1020216,0,-348.5198247115398
2930746,0,-645.6986557375482
2184021,0,-152.86903639139055
851341,0,-973.5650932577647
1157438,0,5598.316406597606
1533845,0,-319.6904117508663
914812,1,-528.7828251645104
642679,0,-653.7229036131669
2917331,0,-403.7364189412758
3467080,0,-358.9179974663894
1646048,1,-55077.05943076041
2264935,0,-502.39876598909876
2586901,0,-290.9108419551865
1311035,0,-869.2829676168939
1844191,0,5495.4691156244835
809713,0,4956.832718779533
3114234,1,-376.4573610488636
499813,1,-586.0257015038169
1354627,0,-415.25440496750787
2781457,0,-749.737611169158
2279656,0,-540.3915470043762
3456575,0,3.4374369412906667
1529743,0,-597.763491121408
732792,0,-111.97279439549521
2765520,1,-371.5686919866285
1850104,0,5259.34995814968
3751710,0,-496.5992973367405
562166,0,-306.6444407995863
3954573,0,-172.77870075075705
3055222,0,-226.4781339227049
3747852,0,-408.0645303397498
3653619,0,-417.6586734185862
714693,0,-545.8194756815345
3002238,0,-998.0344427299701
956421,0,-291.78941205060994
877202,0,-329.9240467959308
963103,0,-794.7788219102131
971069,0,-945.3050507230571
1439564,0,-298.6778887269409
2840146,0,-180.99182852662946
2723135,0,-403.1653930483822
1040764,0,5568.23294964849
3237974,0,-772.0864377257526
2879601,0,-684.2814258613622
3154635,0,-312.053042631121
2862810,0,-489.8124231575417
2734253,1,-30098.91021039783
3445668,0,-307.98335523049377
1215903,0,-566.6013221778933
401605,0,-431.8646808423248
1551943,0,-258.2708463310884
820748,0,-344.6560206253586
1966145,0,-259.95438251440567
374566,1,-669.761022761543
1716059,1,-30098.101513928446
600573,0,-834.7557399558948
1222881,0,-664.223523531349
2521253,0,-258.6355799328826
3542295,0,-787.0734253127399
744756,0,-1527.1481135671172
1452877,0,-990.2365738709159
3343506,0,-244.47185300530666
1764634,0,-281.6366605886979
1666054,0,-101.28554858305915
1051169,0,4856.792146444541
3218031,0,-1035.8556220153353
409515,0,-568.484052147827
694781,0,-285.8192655279228
1687032,0,-786.3677096105652
585604,0,-526.8698339016855
977621,0,-1444.4092822604573
2618614,0,-96.52682845194175
464632,0,-129.3244778347671
1012929,0,-869.923276179078
2516470,0,-1005.9647768228322
3304236,0,-194.74746170461583
748600,0,-422.75022812466227
1897258,0,5060.4822888498165
2758689,1,-521.1842599111327
2421271,0,-903.8471522373981
229912,0,-468.36006300138257
1444323,0,-253.0120462036581
3013392,0,-1212.5363333333728
2823574,0,-299.3240117966568
3452494,0,-140.04167304364657
2663437,0,-1054.6957975221585
933678,0,-548.9571577799649
351568,1,-5291.228251764749
278361,0,-150.03343443400365
919489,0,-376.9071984760135
2407599,0,-454.8732674305691
1209992,0,-697.9569202636661
942488,0,-583.4453087540255
816212,0,-565.4989361731614
2905347,0,-487.3249191504522
2882605,0,-582.2392483887983
475586,0,-291.5183819293304
2121273,0,-331.9100038385856
2238619,0,-344.14788610056837
3530014,0,-254.9557592563479
485265,0,-488.2665527570928
3330101,0,-809.5684665093318
1726603,0,-1508.4397023361782
1697154,0,-228.32486649789956
3155860,0,-165.23936237419076
2932297,0,-598.6010041997087
2035823,0,-1117.7062430424737
2855107,1,-360.97987344145565
2704067,0,-55676.37011959329
2277827,0,-797.708939107725
2451877,0,-365.43173790698955
3302250,0,-956.1297299256132
1069193,0,4993.6441990249095
3403152,0,-561.5048250740559
3434941,0,-984.8199928965274
900734,0,-2260.2938970592527
1073471,0,-19583.482025626538
1041231,0,5151.473402316817
1607666,0,-275.28929512518675
977242,0,-202.56113574126752
1956175,0,-275.8145085632244
3873212,0,-262.3846480949233
596252,0,-472.83966758354757
2117712,0,-785.8948539680839
3767604,0,-561.3439867914467
1910141,0,5181.403561250603
1911062,0,5133.128599199406
2976734,0,-549.1494739988549
1504989,0,-969.2970662862363
1676756,0,-417.9723028614094
2823719,0,-203.29948321386993
1025711,0,-982.7953123490745
3437886,0,-365.82136364238244
3770751,0,-428.76116195759107
2703267,0,-350.4408071016379
3036255,0,-329.3215962774542
3780522,0,-970.3349615300149
3891574,0,-344.78935479644
1220896,0,-358.2951174035985
661534,0,-414.4464624867023
2720112,1,-273.916063242414
1787605,0,-410.36247164828114
2044129,0,-1054.8662790224207
2925865,0,-30727.72158861704
2904432,0,-294.9491545250988
883043,0,-348.17982541717663
1755292,0,-517.5982671521616
1543588,0,-319.9900416572832
1237178,0,-902.1113563277744
1312657,0,-1043.283775100804
2584226,0,-451.8201736520252
1900197,0,5426.596925092044
925832,0,-312.6091495729171
3526147,0,-306.34356787153587
3012548,0,-350.45928179306935
2412148,0,-255.7006387167556
3145346,0,-645.419979664403
816031,0,-438.29750442997135
600839,0,-304.56177062166097
1391541,0,-556.8560605000367
2711783,0,-273.6225950749526
2428735,0,3.1484398497344257
2615585,0,-409.5109689705619
1775879,0,-291.38527225585955
1622851,1,-365.8428941370594
1882488,0,5068.192391029234
916883,0,-524.6144352631221
325262,0,-351.39717612899926
1812091,0,-19569.28703778357
1843455,0,5545.206103397462
1292526,0,-252.36679851329
1346876,0,-562.0493359553758
3494695,0,-584.4411335934773
3327087,0,-297.4017638277191
3399195,0,-91.9928145933707
1460443,0,-606.1922066886387
1826906,0,4874.261687966745
3774990,0,-669.1245594648238
3662732,0,-291.41663204996104
2222711,0,-808.687517189788
2591746,0,-1046.9044719677695
3488729,0,-802.3305886931647
3135298,0,-316.9437404646449
2692532,0,-1161.588408080314
2778399,0,-517.2328572767316
612097,1,-55183.61285686084
2748806,0,-245.7838771219704
353410,0,-25657.363344145437
3529095,0,-579.5955478704494
1462831,0,-198.41418904697395
3747037,0,-1607.688537016524
2834943,0,-653.1886441561132
1606264,0,-227.61772881066832
2724238,0,-284.98617644374855
3118599,0,-1271.387480079352
2640643,1,-635.5973080407299
3170100,0,-363.0820828098014
3681056,0,-305.0254873649501
3047045,1,-362.2854960524209
2232820,0,-455.7309774416535
3857862,0,-692.0861540730363
580822,0,-417.0919241594455
1624417,0,-1069.2992125444612
2721829,0,-219.05050105250552
554193,0,-295.0371084981789
3837748,0,-249.92395901154526
1917821,0,5406.001501510739
3112755,0,-179.69668151344314
2569640,0,-653.102816478843
2621481,0,-416.7834803073162
470650,0,-445.4857597488586
2476342,0,-256.53117121617436
344815,1,-559.9004091471618
1354541,0,-911.2331336091512
720782,0,-291.1055923082255
1242759,0,-966.4280614119987
1852504,0,5461.131573603951
551171,0,-416.96309687328386
588839,0,-767.7960510421897
2876583,0,-92.45420550747596
707647,0,-417.1581255946771
1226961,0,-302.70316335429436
2563298,0,-345.2810381927009
3097161,0,-468.22739350066337
3546497,0,-742.870150131849
2061161,0,-848.8714304366151
1325289,0,-1043.9422013276796
3268250,0,-190.91812906918568
574652,0,-850.0666335173056
1352955,0,-764.9254327669227
1111416,0,4700.369931208623
3785801,0,-921.4755878725349
932582,1,-675.915189663521
1598348,1,-426.25235081634736
3112264,0,-6.288891466482888
3656337,0,-347.2255796267481
3835700,0,-876.1520243885326
2180290,0,-960.3557090502459
562287,0,-1214.3577622196474
412330,0,-137.75627978790004
1597751,1,-419.44045262555676
2976394,0,-489.8530660305185
1736532,0,-140.0860677041693
3033086,0,-417.6464673790578
1936028,0,-293.2076831786691
1322260,0,-518.7559111419006
3859058,0,-858.740059824261
3892224,0,-276.4845861328078
2467088,0,-349.4859229882518
410277,1,-378.20838750754615
2934412,0,-489.7297691316691
572960,0,-494.7413599614411
1828690,0,5395.673295334639
3763988,0,-856.5369994736826
1279992,0,-410.2839515689848
396372,0,-918.8187322134212
1293886,0,-349.1876189410286
3789345,0,-983.8765439312144
3792842,0,-1039.835195329828
2524978,0,-358.79435930768597
3892761,0,-379.3239706817422
2412591,1,-55127.7803499539
1551282,0,-1432.5409442481728
1394734,0,-402.7594994880292
1040362,0,5210.3702521478335
275999,0,-258.76171077163946
1854268,0,5124.33365981273
2036913,0,5030.851509088521
1954740,0,-583.2438446474313
2636645,0,-653.2803851170759
823193,0,-995.6701979351905
932401,0,-917.706493143587
668628,0,-190.51753123268378
2921510,0,-16.97123346557529
1272824,0,-666.957597872279
3895948,0,-430.8999412788445
2625238,0,-351.072534436427
318195,0,-652.6535494902306
607960,1,-359.12746648092127
270206,0,-291.9574708013766
2494088,0,-670.583565812263
291183,0,-404.8020197712818
970485,0,-582.517603727584
1493551,0,-730.354071695123
1318522,0,-561.2629613745862
1405066,0,-306.26772992003225
1073909,0,5726.575026517253
708289,0,-235.91572536338296
1727964,0,-321.1900711682983
1898025,0,5395.546780075693
3172151,0,-432.3284021412926
1607139,0,-495.7844028247343
2808144,0,-512.1454049805932
224509,0,-303.57040316052746
2476983,0,-432.4838999661421
2241353,0,-554.5157651990344
3548442,0,-784.6145188171068
3151306,0,-407.73326145555654
974644,0,-237.72878492306376
2884481,0,-355.7269852481255
1708292,0,-500.68323913840123
1793659,0,-674.0648958032991
2254800,0,-345.2137502153503
1677605,0,-1003.8848382482541
351549,0,-401.3336131039103
272229,0,-431.98758423306106
3710284,0,-1233.9867740642576
2883707,0,-25328.26422045313
1636078,1,-691.6086982224384
1807466,0,5563.248071499379
2439305,0,-631.5146860359315
3255315,0,-638.576954656917
2244584,0,-409.05230956688297
3832429,0,-1567.434224137359
3325503,0,-289.496842767746
3353551,0,-301.9144409086514
741850,0,-288.02911032013793
752080,0,-1056.2299094984432
3342444,0,-291.3243603141106
3527790,0,-365.6441981339652
195728,0,-237.35112654938916
1136940,0,5456.19631858246
3547623,0,-567.7606663797849
3256699,0,-25547.26600563241
2010969,0,-424.1033383729607
3853927,0,-984.1509374594325
2663711,0,-1015.8572170703166
2439303,1,-224.1615775296095
1343341,0,-379.43228925662004
2126613,0,-306.1937192716678
2875219,0,-374.2558352795051
3456343,0,-238.238381061274
2473528,1,-55078.08095936371
752963,0,-416.903079344751
2727744,0,-299.5651651341513
280603,0,-705.3131224862946
1602925,0,-1253.0809486389267
3448732,0,-283.86768512942183
3270526,0,-252.70771724988575
2171415,0,-1135.217570468579
3160207,0,-148.51872248228827
3103430,0,-934.7534730065499
2018978,0,-664.7646957691401
2174802,0,-747.4875477198482
1811284,0,5310.180757091041
3243437,0,-431.48351834120285
1723934,1,-55100.200418789995
3415869,0,-228.9515724975863
2226160,0,-202.56856675052623
708657,0,-744.3402713612369
1592411,1,-440.3602722956224
1231132,0,-397.0731202818244
3763828,0,-697.0786757822798
3848387,0,-163.54920789548902
741425,0,-680.8448134685567
1645764,0,-1792.5885116112868
320649,1,-719.8099329130504
3221559,0,-1039.220506369377
2602934,1,-55100.094533325704
484676,0,-848.8965235726087
459847,0,-376.3446112049186
2572341,1,-30148.3459508203
2114062,0,-266.9435359388417
2620658,1,-2676.266088245182
2141625,0,-482.52367243697887
1402344,0,-398.1139439097767
3022739,0,-474.97772837738427
2633760,0,-533.5878317111964
1099096,0,4977.528938463118
896500,0,-290.9578693013336
527806,1,-55077.34898316311
915009,1,-55191.17468409543
3714417,0,-668.9517701145783
3807098,0,-25259.634180987676
2398899,0,-523.0286994012916
3138794,0,-303.32201123732074
1440844,0,-414.83860288700924
3064632,1,-55077.67563524559
1584486,0,-547.4902545497511
1435843,0,-508.1037285179547
3364692,0,-649.6468562285226
555038,0,-365.5342049694137
2992743,0,-750.6592924729466
2019795,0,-558.0408116917303
2773566,0,-544.1843387413278
689818,0,-1719.4586948173176
2213989,0,-757.7601198411506
2669335,0,-653.4057144300212
1017154,0,-208.87347376951382
3074310,0,-840.8842931517958
3360033,0,-1022.6631221392332
3346722,0,-231.2084628391355
2945823,1,-55077.2020864131
1245253,0,-575.35907090277
2425903,0,-266.2316433742434
1438654,0,-378.71624508990215
1939869,0,-231.44575616294588
2599293,0,-245.21965894482415
3113699,0,-234.5194740237853
3175399,0,-958.4940937014895
701962,0,-297.93081652786026
1644278,0,-1205.1747577762067
2177187,0,-1310.4325760679826
2140467,0,-19.354155622313993
2778204,1,-569.4494662387807
2662361,0,-286.6294409027329
3449801,0,-300.16091180552655
884756,0,-652.964550238908
2586506,0,-260.2907660286217
521949,0,-826.2649163886775
3436024,0,-858.0672076043393
611244,0,-581.1408882796138
659072,0,-347.3575267643565
1675498,0,-240.15586987417012
681505,0,-304.58257859547075
2248948,0,-1172.9438440063916
835095,0,-281.9325221429549
1894690,0,5514.9281519472
1455266,0,-688.7703918569616
466563,0,-1041.9208580666846
2761025,0,-858.3002611544766
1511916,1,-306.4113962485638
3672377,0,-404.46700355345973
2796408,0,-586.0315028239706
1330299,0,-410.20254720271754
3207076,0,-351.7392999731895
3862103,0,-415.10891148796213
1488384,0,-338.6957800416286
3162592,0,-597.8071003871711
396138,1,-30158.724986357047
1382967,1,-55069.35623084231
1564456,1,-663.1824785454698
3526049,0,-515.3618268532738
3487548,0,-244.09246849632868
333250,1,-2728.2453267027377
2163188,0,-1173.6501020152466
2752918,0,-242.0932197348716
1744398,0,-271.2510905827813
3959483,0,-796.4386788575847
1124382,0,5547.41945240034
3656640,0,-658.0531047068921
3941057,0,-417.24669243916895
3538871,0,-431.50408329864246
1835009,0,5659.616093048391
233819,0,-343.3663156749607
3006900,0,-802.3284853280754
567516,0,-558.1408599786892
2747389,0,-327.31756422023636
1116134,0,5642.370132468706
2567881,0,-281.5020295849712
2202249,0,-771.4869553157265
502533,1,-345.32745289164365
3651043,1,-676.1190530163428
1951147,1,-920.8657558487539
1317700,0,6.117605482755628
3745345,0,-859.1990032637109
1127583,0,5448.574561640061
3920165,0,-792.9677847089198
239197,1,-30097.49748334802
3263171,0,-526.1402412822529
1934095,0,-1212.1040926591468
1405547,0,-55627.073936270375
1867041,0,5398.507854434384
2673813,1,-2001.0326112297325
2638063,0,-342.50986859115363
1389953,0,-411.04134609557207
3755155,0,-417.3081732834341
888394,0,-319.7397002165849
1613856,0,-421.02722636969173
3055294,0,-396.31382292112426
3216699,0,-582.4991134812875
3462937,0,-143.32406340840885
3673257,0,-344.0719941349977
699203,0,-790.6068823132078
885428,0,-784.5555065723946
3666268,0,-3041.085997682777
870950,1,-219.68083595198698
662482,1,5172.925590151889
3095625,0,-1032.162777106614
2252630,0,-567.766916682314
909470,0,-230.83224396974305
2948049,0,-112.96985164412258
3768709,0,-897.1440209625293
882775,0,-516.6133886111342
377962,0,-516.7715523336717
2608090,0,-574.9769149121686
2572823,0,-825.5070771288623
1297736,0,-202.6246972021236
3875064,0,-365.8339338135116
623690,1,-503.3153824707172
690022,0,-100.98279306314026
1462484,0,-304.5165140925656
3804222,0,-372.21951683243594
204363,0,-462.9523023494239
444834,0,-219.69946588295872
1806763,0,5262.568585087688
918985,0,-312.10600761886974
3473484,0,-416.8492260018109
2656720,0,-918.6364733987949
2011328,1,-55091.5188006567
753622,0,-351.5076378277781
583492,0,-302.75300532769285
3530156,0,-487.84477479969775
2882185,0,-252.01198029240646
1475857,0,-162.23435407672173
3111473,0,-177.17136944424925
807816,0,-418.16493506859405
2534173,0,-342.300955468057
644892,0,-252.74113888972227
3185943,0,-426.1305928077444
514573,0,-429.4782120438746
3234396,0,-530.3334895049276
697589,1,-55151.04057642356
1983800,0,-401.28276483584875
1636927,0,-1226.4121256585495
2494408,0,-416.7719357908432
2418062,0,-345.1674017362195
2624670,0,-463.31424423955565
3034413,0,-802.2578165711598
3844895,0,-374.02363172937225
3528126,0,-1056.6250557526562
1141810,0,5235.782054761957
289617,0,-416.439912080988
924478,0,-652.6913009595313
2532191,0,-255.99704712302213
409447,1,-55097.82587812931
3955415,0,-526.274196879458
3945948,0,-2300.836218321858
734114,0,-871.9870630462233
3116333,0,-970.347764701162
2528711,0,-351.40705899673094
2883074,0,-218.95190621936922
3925366,0,-434.6913953508431
2935811,0,-1204.3377691218247
2234435,0,-418.55177664422445
3052654,0,-303.6992234055867
3345808,0,-366.23704863440975
3920389,0,-784.4929368257792
2646057,0,-390.5075190013362
1934468,0,-526.480181006671
2823874,0,-418.05846706972466
2273743,0,-366.46219391085197
3880026,0,-440.0974284181001
2836718,0,-549.2053447307912
3402254,0,-306.529052531261
2628509,0,-424.14233504857344
1911538,0,5423.128786653438
3206722,0,-445.33261729162183
340703,0,-344.53305079078854
3251488,0,3.4096688422441077
2022016,0,-219.44183503160542
457153,0,-901.3712042321548
2999989,0,-503.2793251318201
2284312,1,-1361.739897051731
904339,0,-819.9810974967231
881079,0,-238.11336896681027
3486290,0,-181.32337941307506
1601212,0,-473.54724894172614
3115264,0,-109.8857604290516
1997269,0,-603.6935106984862
1319638,0,-497.4077732686344
1418843,1,-1712.403989352367
2578996,0,-423.91942275351096
2577478,0,-356.88292261799927
3797268,0,-831.7974030824167
1839573,0,5391.521480484452
521230,0,-776.537927852496
985237,0,-844.5086052199772
1736008,1,-865.296526411341
2105756,0,-284.20688849535696
2842346,0,-504.80289161385707
3021422,0,-175.52545659215212
508846,0,-559.4139659686247
1685044,0,-251.7369088020985
3905360,0,-1036.8493809037927
943714,0,-284.51509391095834
2419115,0,-182.82624256604066
3461037,0,-848.202451516558
2268066,0,-117.08306996246465
3525631,0,-838.3339628200425
722073,0,-760.2986592003911
3323831,1,-338.9657536066129
2492356,0,-628.5820297360817
1663801,0,16.338048318648312
1112134,0,5470.9139095126875
3721214,0,-197.39436765310728
1957613,0,-201.3373520748409
495708,0,-431.42828001861653
2122694,1,-1235.2560895990982
1696574,0,-328.48051670650784
2176875,0,-567.9064849076888
2706227,0,-667.262841170265
1293067,0,-915.9961214103068
3887986,0,-351.3322603762215
1546757,0,-1153.9575951095162
2459791,0,-859.4738109771356
1768828,0,-313.82663576563965
1204195,0,-578.4233650321357
3063842,0,-110.68539535805314
2482880,0,-438.03766323662023
526075,0,-380.3282872070442
3390107,0,-197.4948011208524
1824248,0,5244.538783872171
3036150,0,-251.70119242731081
3421080,0,-818.7003939043127
1104222,0,5476.487806347015
2793792,1,-293.3506424581499
3432911,0,-818.2339999803036
1095146,0,4735.292685085898
1826518,0,5528.290485546905
1949492,1,-269.4468694457928
2196753,0,-452.97380645831237
2826146,0,-197.81562859052445
734035,0,-121.98173552935168
3870061,0,-407.38891864397
1559606,0,-1205.1542201833604
3863981,0,-313.85777402541794
2997186,0,-1135.7365402373587
2666077,0,-312.9962839427729
2011637,0,-505.52233633659995
1904153,0,5622.304213658351
1900022,0,5193.730449913233
694630,0,-401.50108943426034
2284500,0,-1579.3156851168974
3231551,0,-561.2574344824056
334399,0,-472.2686299403034
3448511,0,-526.8781651706415
1988174,0,-572.6538018034097
3373151,0,-781.6037720019135
2470519,0,-652.9148922391977
231005,0,-281.91104605070035
3905578,0,-417.11757958593586
2628817,0,-260.0837663894397
820821,0,-605.597603729736
3495899,0,-343.38657688041906
362461,0,-285.99207650393475
1070578,0,4785.073683021675
2484305,0,-446.11559861574267
349633,0,-440.8324116195143
1222710,0,-358.4372709952565
830074,0,-666.9538468929221
2151802,0,-796.1331546067199
1734002,0,-347.80811728647666
3475143,0,-358.25150638197744
3738202,0,-598.6844321581807
2701806,0,-1181.0617334945491
1663453,0,-180.51389852219305
3186561,0,-837.6304784469726
1490465,0,-356.03224556029323
615465,0,-304.62774944839265
2826986,0,-489.3567959238084
1077655,0,5398.093266414685
1455318,0,-273.92588152835407
1086387,1,-24261.37568879043
1516392,0,-25723.006680396917
2680377,0,-818.136047001693
1205938,0,-284.29684511052665
2702121,1,-314.2344904772888
1259792,0,-534.6837264704099
657755,0,-355.07073475599606
1078107,1,5585.971772064091
970226,0,-475.380563818075
196188,0,-1579.7946442707632
1955723,0,-416.15243404810127
3304542,0,-609.8773565862969
3159360,0,-291.6546790629302
677989,0,-645.119793343654
837732,0,-260.37272790861255
2578869,1,-288.89545587327365
1050838,0,5186.376022003085
3347158,0,-431.8062416302285
272615,0,-417.5645684978382
3655046,0,-1246.3593508094937
3948682,0,-320.1770744520127
1781806,0,-1110.724995321758
909779,0,-858.2408111478318
1857402,0,5413.2133000737895
1053272,1,-49062.07468514488
3357595,0,-438.7793022758187
2765448,0,-659.9141930583852
310924,0,-667.1137364493624
760646,1,-489.32456601922866
3724175,0,-645.2406615093694
2276239,0,-351.6374095517587
3652270,0,-926.675800543663
2219526,1,-481.3351085123097
3090117,0,21.374249298933385
1055058,0,5055.555432582173
2416590,0,-918.0523366271336
821797,0,-55072.72284882441
1972165,0,-644.3385682893555
1916967,0,5293.946206766061
530257,0,-496.43076759369217
3762786,1,-55076.96586616181
2649412,0,-365.76220039137473
1975614,0,-1204.8528475253484
700975,0,-149.62113231794916
3164625,0,-897.6327737670865
488268,0,-800.7125836665335
2170829,0,-583.6067590402195
1166545,1,-20131.299380968685
2225038,1,-857.8442860992798
3748055,0,-919.3088938139994
2525152,0,-1114.0572970667129
2940399,0,-341.6124230802213
635879,0,5396.236698261482
2753159,0,-235.00246644843097
3232247,0,-431.59055297683386
1661167,0,-492.0623687762292
2939188,0,-269.05968570125225
3665055,1,-55074.64589867742
3059470,0,-384.38546280265655
2472755,0,-668.1610277840598
3428488,0,-1120.4874952698074
326497,0,-432.6609449725412
2721321,0,-511.8146723030447
3073477,0,-137.7307493372893
2251479,0,-340.83690663335983
197995,0,-488.9279766389265
1358592,1,-256.8788154774695
569146,0,-416.7150443545681
2481198,0,-694.6755825681528
1158136,1,-49246.723358360185
866974,0,-467.78751823838263
3686387,0,-204.30038879743628
3679218,0,-551.6079167313977
2038961,0,-818.1484472504463
2850054,0,-314.36120580705176
2862545,0,-491.8352569330774
1370176,0,-432.1551478941827
3263580,0,-701.9216320357002
1636848,0,-409.5630330636605
2653344,0,-984.4331104879066
206813,0,-944.4176250109768
3115416,0,-517.2420553979711
680815,0,-304.9231754585021
222391,0,-703.3008825555111
1151513,0,5545.2893762224485
416991,0,-317.05688337921885
1334362,0,-30647.839548111093
3391217,0,-356.5225266080226
945851,0,-1138.9491107603133
3313921,0,-340.6155686557854
2909399,1,-30118.72564822514
711592,0,-567.4192821708654
865694,0,-431.7301997767769
346665,0,-667.1775261054171
909355,0,-712.6907705858041
3482328,0,-825.8082949222039
2680228,0,-432.2436285416611
1940286,0,-491.3159371601729
228182,0,-363.5389541027201
524988,0,-482.5888809282409
1264227,0,-191.2417713162602
431270,0,-491.42370175665803
874655,0,-306.7807345773965
2274408,0,-680.5766155161284
1390208,0,-567.6348566600539
2763960,0,-771.48654154007
2477826,0,-188.45136005969684
1540335,0,-284.0150708614328
3248849,1,-548.4246018497323
1697860,0,-184.7037203320031
622859,1,-437.00028427533584
2848697,1,-54283.92506616586
2894313,0,-683.1067338800053
1817524,0,5535.444180892753
1146394,0,4954.916003461742
2008535,0,-513.0156462798077
722732,0,-205.3548619291399
486513,0,-568.5017439046699
1889623,1,-24298.513059176104
2736466,0,-135.59136749476934
739922,0,-667.6336378203866
1958312,0,-365.69498479563595
2059675,0,-282.94482461782366
372063,0,-291.24122934116645
858002,0,-25631.881762103712
3250913,1,-25165.04191107044
2575125,0,-704.6526940662118
2668820,0,-577.3504891252022
2412612,0,-661.3615645186524
1146313,1,-49241.75535685091
1789079,0,-363.0047616592757
3206044,1,-1320.8058796025705
3113864,0,-417.3381899520252
302502,0,-1268.77908577846
1494928,0,-503.7268865573327
648161,0,-970.1094671992375
1090969,0,5462.210766316862
3221966,0,-1057.5961041604746
3059644,0,-365.94163179139724
683971,0,-309.5393167176182
3290131,0,-201.86545642509083
3534196,0,-1115.141929432151
1898522,0,5246.784127137212
3539742,1,-554.2958278081637
3256107,0,-407.60082014487114
2927268,1,-30169.028826993617
2225629,0,-734.2037044626637
459955,0,-1056.700051873475
2611247,0,-358.8588499190757
2870762,0,-141.07774429510366
3954869,0,-252.37958216571846
2595937,0,-204.9883761444486
2482904,0,-87.22919305980284
3259508,0,-25884.168262660638
3479745,1,-645.5474110104801
992169,0,-682.0885907513762
2771632,0,-1070.2884431850662
1366208,0,-417.37384904430843
846500,0,-912.2679035616468
2573664,0,-510.14090809157005
2284493,0,-446.32818586006715
1858108,0,5144.758949727266
829233,0,-194.16540516946276
283932,0,-365.7727761902755
2614128,0,-218.9686469420976
3289490,0,-47.81034827562159
3662830,1,-582.1339659243475
2729596,0,-518.5565857781954
1832133,0,5398.197474227319
2494866,0,-415.06990442907477
887817,1,-1079.3090111268964
2414512,0,-302.2138814746144
357062,0,-503.9988577676802
3016674,0,-376.80948928342445
261648,0,-1170.7634182230354
3433247,0,-481.5389554601149
1762715,0,-462.18024544756355
582720,0,-284.07080831676257
3376046,0,-958.681127894698
2413921,0,-366.09216147130013
272247,0,-568.9518370784684
1725190,1,-55074.64696164704
2054912,0,-736.151163610358
3029327,1,-936.8572437493744
3204242,0,-264.73266681376595
2226834,0,-666.7305710531145
2041892,0,-844.5446698023177
802738,0,-55628.0194745791
1846614,0,5528.1291829321735
2155025,0,-405.41914486403556
3103156,0,-754.4144867804199
1953728,1,-512.7605535936059
1050508,0,5055.395939331075
367897,1,-30097.713043841148
632848,1,-1703.0498322081792
2776207,0,-432.68084550831327
2865140,0,-494.50664527787666
2784150,0,-348.99920840526704
2580776,1,-30118.097456494474
2279465,0,-1985.3006781402537
2158074,0,-703.772947222048
2278667,0,-1038.257350329644
1223781,0,-483.6114637631443
1723390,0,-373.00866003851826
1987439,0,-25203.379195253478
1323412,0,-701.4236237555182
1613273,0,-310.3988754441579
1984999,0,-981.592351444967
548876,0,-970.6643513395077
822187,0,-998.2051006169999
2862941,0,-595.5484637734108
2000731,0,-300.0279704139723
3265282,0,-356.5425589522706
3853134,0,-775.7450928787017
1573211,0,-424.66666642422933
634624,0,-834.0973321687682
677186,0,-376.8425144739602
1150501,0,5832.358135317734
3045310,0,-438.0297376351096
1549502,0,-911.870671250586
1534261,0,-583.1836530361327
3037600,0,-899.8611156841406
1734641,0,-236.0902242256873
480409,0,-505.3533065769102
1475898,0,-168.11959558562282
670100,0,-228.7976271522377
1956536,0,-838.4025220084254
525485,0,-438.6676501339965
3782033,1,-1715.859088160243
1790076,0,-1056.72692738035
3244608,0,-291.63481119786036
3447205,0,-504.01109214347116
3180957,0,-318.06319425024844
297493,0,-653.3452426823299
2665642,0,-342.826459637968
366950,0,-243.6715165093531
1940273,0,-300.7378922385034
524836,0,-275.6686288941372
2592133,0,-504.75075009446886
3515793,0,-734.7940322354091
1034788,1,-55076.78174005768
603446,0,-958.937018738033
1292629,0,-652.2948280010237
2615170,0,-373.5164476201375
2056690,0,-660.4532128569822
3735623,0,-1205.035446679319
1371187,0,-417.67763280060535
281618,0,-558.1830791882309
276636,0,-417.0298030259329
2583897,0,-218.9862954328004
3449762,0,10.305054951898496
2566611,0,-367.6509189649483
1346230,0,-415.2944276611548
589445,0,-403.3124941657398
2145940,0,-1035.45775666872
3928746,0,-869.525492740577
2276514,0,-653.2867057186671
298637,0,-345.14215108920183
3260075,0,-956.6273602122726
971196,0,-183.34326512564223
3947345,1,-55099.889615602166
355350,0,-310.02461518975343
1609943,0,-281.55034412813785
3028154,0,-423.8464796877392
1415600,0,-416.9853217612945
819323,0,-290.95602634513347
3806495,0,-879.0408230315517
3357290,0,-543.2456536993685
2705730,1,-30640.750687105377
1556367,0,-851.1539586826153
2905088,0,-48.98943278820827
3526278,1,-1007.3955622188954
2778435,0,-581.9350623587974
414481,0,-743.7262815132683
3524570,0,-658.7451569409448
1979808,0,-743.3490369566094
333739,0,-431.9417787674101
3767918,0,-1198.6306811969532
2415969,0,-292.39425083596063
2944874,0,-417.3588538488903
882885,0,-289.48158080261874
3439316,0,-329.4309375796468
2119569,0,-673.2774753534745
3246328,0,-197.0625054872135
2248466,0,-243.62288486443433
3051965,0,-372.0283693968628
1915208,1,5154.758221969374
3143225,0,3.931273196468127
2722841,0,-211.64981535341215
2740190,0,-480.3539767328597
3256716,0,-319.789358515818
1597900,0,-288.78302088553346
2609714,0,-909.804498688961
968617,0,-653.4503164241826
3031886,0,-809.4524835991941
845954,0,-477.8417347250728
1766159,1,-55097.62016710491
659898,0,-242.53438804963682
3789956,0,-702.4030866293359
3920818,0,-201.15393290517062
527731,0,-371.8586876553307
1548443,0,-1197.691726647017
1432164,0,-485.8485673869508
3653225,0,-488.87750040022155
2285431,0,-298.36156230947466
3771235,0,-758.8516764969846
2480294,0,-100.12811503758509
571682,0,-431.23413513215183
235917,0,-253.12591638640998
3390973,0,-785.6720762446677
2513575,0,-620.5559333327583
640160,0,-699.0852055162599
872476,0,-598.1764762978194
3901321,0,-275.08378451494366
1166773,0,5485.35515423388
2104939,1,-276.45531623719995
2245005,0,-580.4608496794049
1620309,0,-314.1081939394103
1020921,0,-584.0517594109725
3258785,0,-438.68539705176164
2532156,0,-486.8941667686207
2529827,1,-487.3124135707464
3278576,0,-306.5330703585872
879460,0,-497.0526046632075
1346021,0,-584.1115239509778
983652,0,-411.0110257714313
2476071,0,-643.7425658038741
2600942,0,-350.8327163616902
2172393,0,-433.1184027039753
3848081,0,-335.56588111596625
3110400,0,-1196.6404043660325
1148413,1,-49359.19682848199
939371,0,-432.4401960785481
2525829,1,-677.6574018642385
1530767,0,-834.6753385903797
1139317,0,-19436.191540427517
3340867,0,-414.50128819765797
2026786,0,-161.36433205367976
3527280,0,-843.7809255817715
1615229,0,-504.9403225359195
349065,1,-1055.7061747746334
900518,0,-896.6983938780297
1948272,0,-404.3484452734227
1753869,1,-30205.202166539104
2634372,0,-265.4573317470455
420255,0,-365.1023832458052
1524991,0,-995.0187463361835
1610934,0,-583.245354064312
2671871,0,-501.3397750617951
3182806,0,-454.87820831624185
1946040,0,-644.208264422725
2263741,0,-326.1479451584671
1699491,1,-30112.76151983649
1955582,0,-290.15336174117175
3187255,1,-1194.1898114568269
3122083,0,-712.8347424844503
3386490,0,-1134.3284944788404
800916,0,-305.75696275862424
3954244,0,-289.2742491664964
2662836,0,-440.53821304017663
583378,0,-474.4917031542414
2930179,0,-496.9307012866269
3079738,0,-618.8910394512612
1465975,0,-482.4482667118452
1062774,0,5559.879719368202
3184914,0,-546.3812123886688
3661005,1,-1326.7725649905979
3429399,0,-911.7622288470983
1132835,0,5338.404659723826
2020037,0,-472.55490561325803
1915925,0,5375.031784382411
668798,0,-305.9457549010819
1694109,0,-550.8957294394894
1223548,0,-188.03822874613428
2228218,0,-640.6550334077572
3419678,0,-399.2523123623348
278997,0,-652.8600693917492
385627,0,-290.47718325601005
2916556,0,-633.9776410223669
1325363,0,-841.5044189844821
3457918,0,4.100856891201829
471382,0,-215.75965962291176
817847,0,-567.9281591577503
2743995,0,-1529.373023181748
1507667,0,-306.0857585187623
2530758,1,-675.6804670528167
1863563,0,5100.4720628697105
2417837,0,-697.1614605949327
3868715,0,-213.14225452933576
2146076,0,-509.8997262987884
3262799,1,-528.7598623399318
2787074,0,-984.7440376376554
1449893,1,-673.2021791839613
3840780,0,-354.1935448572519
3765380,0,-402.48364045538835
1054978,1,-19468.1518939052
508275,0,-407.52930455648203
1829197,0,5381.160716537164
2793765,0,-661.5849283490326
3180702,0,-928.1516466626672
734522,0,-1455.4911166733914
983727,0,-566.3015987293759
2471160,0,-257.9198473433667
2275910,0,-366.4016690066885
3075049,0,-658.7009125175122
842690,0,-652.2239013771872
2250560,0,-597.5934924244581
2998723,0,-717.9464995669116
3279917,0,-513.4779276946199
2246814,0,-438.3203170524921
1329220,0,-219.33069133828945
2798546,0,-307.6786560333757
1617809,0,-480.98068476514294
3180463,0,-687.4457631794354
1533011,0,-435.8819433202846
1299592,0,-2182.971308276469
2815349,1,-389.22819026168656
3483211,0,-758.1489162390118
2895359,1,-30097.97240575056
3803563,0,-250.4688907781209
1338541,0,-348.8405154316059
652336,0,-668.5125543475401
3787759,0,-518.4796763022298
750234,0,-302.97319346436814
3854321,0,-748.9406120439261
2045104,0,-510.1760008140529
1523863,0,-432.09849612937103
3844697,0,-429.0322665083841
2994315,0,-653.2754081811493
3431179,0,-510.8448537769246
2928386,0,-491.39813916727354
3168400,0,-365.92516158093554
3495792,0,-581.8325922610701
2113793,0,-156.41618283569528
3676843,0,-554.7935351813474
351018,0,-431.38715484248314
262284,1,-330.1325257034542
303766,1,-55077.459383321686
225154,1,-512.288892565125
704420,0,-1570.1763740491792
1842886,0,5052.4236611611805
963067,0,-907.1190980440576
479788,0,-409.2331680161815
501691,0,-1135.0570307112957
3164725,0,-238.0858509914265
1879353,0,5536.831888259445
747061,0,-402.15603899430863
1314009,0,-540.2548939934194
2199378,0,-505.6292262573642
1768567,0,-218.41075079491895
3340294,0,-157.00031155735783
823631,0,-761.8222910506606
1126112,1,-24307.999079938327
626794,0,-303.70196207550015
412943,0,-851.0746372578351
2160260,0,-595.8504684951108
1400058,0,-591.1063503813629
1114591,1,-49249.17643375491
3923147,0,-305.70179792161974
1394457,0,-296.87086137372967
3836681,0,-574.9405305759467
1129342,0,5302.6590036156595
1504395,0,-489.1771744239984
884213,0,-983.9664997530657
3322925,0,6.136655088784725
1011732,0,-414.41657798316163
3542985,0,-365.9595584022814
2196471,0,-291.86941745871485
2744069,0,-298.48749765051423
1229461,0,-415.3819635951276
1129409,0,5544.379524120472
1606301,0,-270.0419620946444
2632554,0,-94.78769025023612
2658633,1,-55077.35736765062
486819,0,-667.9521705555313
542926,0,-787.6346796449355
1039769,0,5514.8968322776645
3661161,0,-410.4529803673118
1285274,0,-422.0144745734516
2021713,0,-495.7851600735804
204382,0,-257.31761470186206
205636,0,-518.9999621206258
1355769,0,-237.97465872444687
3132090,0,-1221.0179582626618
1359522,0,-252.36451761936215
2812556,0,-348.698280018755
2570207,0,-188.98220101465492
806553,0,-1757.4878250377349
1735232,0,-572.4337101530652
1618076,0,-503.2903563415799
2510451,0,-347.41423916839983
3026923,0,-298.64449518035775
342317,0,-191.08416373666194
686847,0,-582.1525847031094
1816425,0,4882.764413709057
413422,0,-947.6621833472338
2669544,1,-30173.479270010757
3942315,0,-366.6009149507347
3219663,0,-657.0691232872925
1764456,0,-502.8321198329415
2537953,0,-414.808458728958
2452159,0,-120.42864550106987
1819912,0,5492.006619143089
1466139,0,-253.81445701396234
1478538,0,-1196.3397237659651
2428373,0,-431.8948846948509
1847713,1,-24383.678804072075
3086447,1,-30112.572942159448
2849529,1,-236.95603069641487
1141329,0,4850.766624039904
2047676,0,-407.1294907485783
2973543,1,-350.4971861186573
1408487,0,-606.5265273884976
199457,0,-695.7143668473992
1807831,0,5235.849568552872
421226,0,-652.8124621761256
755064,0,-237.35196545400157
1275674,0,-407.8177136001815
2695884,0,-30808.048047023676
3041876,1,-447.1980721799909
3089374,0,-445.2380877710988
3033272,0,-442.12347514427086
3124837,0,-730.6033528399679
1439816,0,-576.4504084656218
1636419,1,-507.74966668839204
817704,0,-417.3618678673482
3801810,0,-692.4825206848709
3952671,1,-450.07232839049163
1201185,0,-1003.2303846158202
3956090,0,-292.4982395869716
3401954,0,-326.6568408015377
3543320,1,-548.2857469014207
1339388,0,-288.967010646042
1194831,0,-560.5493567029321
1749586,1,-1601.6923510747108
3718967,0,-206.3329759654293
1646403,1,-691.5748888794506
1750040,0,-582.7180397675155
526026,0,-357.87647726187754
1777061,0,-497.3046662429557
1680629,0,-526.8124666468245
3673815,0,-357.03641896152754
1077370,0,5207.778173979458
2246014,1,-278.0347778421586
745615,0,-417.1458992381332
3142200,0,-344.8410061365219
3362183,0,-314.3731975878525
1349641,0,-365.35540214208305
3090349,0,-840.8299067041837
3234063,0,-584.5495735213015
2002431,0,-408.70496591739544
2209538,0,-556.318260567265
3857552,0,-490.4469545254224
2930397,0,-365.9409662511463
367489,0,-321.98297006019004
2822782,0,-575.3203275632768
570282,0,-743.6301536947526
211479,0,-489.5001702517067
2158270,0,-541.0614415523013
534681,0,-653.2342689693436
3466117,0,-276.8635074927078
1548079,0,-417.75486080024103
1284293,0,-790.2790261155321
1050784,0,-49249.71534669288
2966237,1,-2163.0445718838228
1699470,0,-845.1211186750121
1331302,0,-503.7763291138318
1548171,0,-643.9161256121748
3744819,0,-25268.87062116944
3171769,0,-432.1253281459742
2858076,0,-344.22156449999505
352386,0,-504.52086246064636
318544,0,-465.96812074248976
3273657,0,-220.0014476292495
1710065,0,-923.6104929730035
2539563,0,-186.02969403929697
3540775,0,-494.3285638192673
2122102,0,-696.2583989857756
2042014,0,-343.3948364973997
3036609,0,-836.4695884593868
589115,0,-668.0018837354174
801216,1,-30119.688154814434
3171313,0,2.9671207188137574
1919693,0,5518.086224595465
1763709,1,-1142.982806862985
2249198,0,-411.14848311876625
2545743,0,-732.660296195467
1827450,0,4868.435108623593
1268853,0,-652.3917236530294
2607254,0,-55618.12148835997
381559,0,-266.54542378863755
1942485,0,-345.5798351267172
3247052,0,-431.17988426861604
1946298,0,-1705.8899870946575
2187982,0,-480.2655879026167
3462620,0,-856.6643686105143
805379,1,-21492.313558080143
1238628,0,-114.39963640686996
2184388,0,-463.55695689880497
2599165,0,-243.95827538866874
2970661,0,-650.0187813860636
510023,1,-1113.2371226422467
282560,0,-489.5410738910996
2201972,0,-283.91007495027054
3542676,0,-235.2989884178842
3739820,0,-582.3880538863972
1683654,0,-636.4117081742868
1447806,0,-379.5601308388305
1730901,0,-805.6569510639675
2776320,1,-411.65214285772686
282399,0,-444.92041622183467
3068917,0,-483.1193622395185
2992491,0,-509.9913545379959
1124435,0,4594.003488181852
2696036,1,-566.2057242958491
1290773,0,-482.6306654724507
1230990,0,-303.5099338543605
3188224,0,-613.2643629337364
3263376,0,-897.0329440929506
264903,0,-383.702316695061
863054,0,-25622.678968009943
2989995,0,-115.53715412008481
1431197,0,-437.19500529919287
297530,0,-751.8396013791292
3956863,0,-281.62779271738054
2762563,0,-499.88186310173916
3477186,0,-305.37394387314714
274649,1,-490.2393203305175
655674,0,-191.8729562083619
3038948,0,-878.616672963636
3398184,0,-546.1877598872642
2519206,0,-612.2318206865875
1763777,1,-30641.34976132427
3787629,0,-50000.14730890038
1517630,0,-389.26792082007324
2878485,0,-336.46554125522556
2147475,0,-485.9070920867676
3323311,0,-513.7997142609548
2037310,0,-582.9516664595916
3903899,0,-825.4960673765222
1168665,0,4931.1786411997
3800855,0,-184.69711138749102
716783,0,-190.98555119616907
492256,0,-1120.9546862566351
2868033,1,-30090.551943276918
1519361,0,-251.9754609487012
3071424,0,-371.97798950238956
2468733,0,-422.16959879386945
3544346,0,-856.0235845279452
3250989,0,-582.5941347420313
2779557,0,-154.9407950868546
1919655,0,4773.199209606501
577966,0,-834.3687015447015
737537,0,-38.9663300560889
3458557,1,-437.0064280605135
525359,0,-1277.4442418097126
3802207,0,-591.1638456365446
1431033,0,-429.2076684857605
1972366,0,-291.95074915934606
1087564,0,5417.706515081919
1252648,0,-568.8270980942441
1761608,0,-184.92856687266595
269549,0,-432.00795945504615
2999214,0,-848.8838974344136
1342809,0,-654.0134758977829
1266268,0,-856.2702045381974
1313233,1,-2009.1874894664443
1350504,0,-565.7395229161876
621574,0,-452.6542271270147
225333,0,-351.1481894078946
2668494,0,71.1056766365888
3745930,0,-339.16502383332966
1284676,0,-660.4734088746142
862533,0,-438.68575879485064
1649638,0,-294.5118711471104
1782283,0,-1134.9989628188373
3057944,0,-252.158582584647
3173764,0,-380.4718196693185
2724578,0,-205.8890905562927
1999882,0,-534.5483286593836
1397528,0,-473.37717670788925
2192188,0,-357.0165161985812
2783272,0,-898.1222121147902
219600,0,-237.79127801955278
599827,0,-305.9520751874548
3711459,0,-333.3296490973756
1823812,0,4692.380490954615
3889121,0,-292.3933428274225
1616751,0,-976.651590139407
1713162,0,-375.2060079592856
3044462,0,-795.8235951182257
3333078,0,-186.8856593414261
2605217,0,-584.3710292985329
612334,0,-343.71704485623167
1902209,0,-49800.665201393895
1681100,0,-357.4315665948035
1626930,0,-1100.435558607101
1950002,0,-632.3737736174301
3917222,0,-468.86201747772907
1492505,0,-766.3156583835611
3365290,0,-482.88649903485936
1907287,0,5185.857343305751
1828434,0,4113.786653059403
1689958,0,-50.9059749315423
2860557,0,-20538.60619128228
3228419,0,-107.58171814815717
474806,0,-306.437827197588
1245787,0,-750.9943743327328
664892,0,-1556.7817872725539
1752069,0,-205.5319939043434
586390,0,-352.06999216124643
3262573,0,-442.5063637008136
260969,0,-241.4003806565241
3439580,0,-250.40726034808918
3027800,0,-342.5725732997485
1614441,0,-917.5084816181097
3524385,0,-1035.3381893460887
533389,1,-427.60537226638723
1432520,0,-963.5821749181894
1911057,0,4861.558052951901
1286130,0,-424.70881009085707
3351119,0,-306.0880749923048
852401,0,-931.3283104500279
1263687,0,-292.532543305796
