sample_id,z,y
2706936,0,-2.5483424413552616
856712,0,-3.309697273058455
1438140,1,-2.6100692913037897
1133808,1,-3.3460494040304596
2829575,0,-2.9603976588854533
3532824,1,-2.583685302240551
872847,0,-2.779413765138064
3776886,0,-3.2497430603032718
2602316,0,-3.474077056644798
1303834,1,-1.5389580193497767
1947356,1,-2.634717063714532
1236934,0,-2.7527061992476827
2156032,1,-2.634574992856339
862987,1,-3.258723785152686
2792034,0,-3.708129968627411
2924114,1,-2.8441685497196936
3547810,0,-3.510802019254847
2522993,0,-4.486151704092987
1357568,0,-3.071674206660033
1965938,0,-2.642299677154812
1733637,1,-2.3391882402080504
2657772,1,-1.6006060410669107
2156688,1,-1.9580698944693893
2393733,0,-4.438942935847564
1228291,1,-2.7588628828557167
2455304,0,-3.40212390908898
2691379,0,-1.8206494227559293
1110830,0,-2.8300518920002578
2832666,0,-3.8105831504650807
2802740,0,-3.5611426428082975
2107296,1,-3.525033578128348
565876,1,-2.605268313033617
3936913,0,-2.6103151751488243
1251839,1,-2.879063451970578
2052757,0,-2.790473519031927
1257115,0,-3.3329122255177706
3074658,1,-2.867357770431242
1471954,0,-3.259473996354474
2645938,1,-2.666467290338372
1575344,0,-2.9319435432958794
395641,0,-2.714655742603774
3762190,0,-2.0802572560992614
3363477,0,-3.500702030157493
3289109,1,-2.711037711649603
525485,1,-2.273529287329297
2902255,1,-2.130809494150417
2740231,0,-4.43585581138509
665521,0,-3.8971203179459124
339157,0,-3.4200296741658516
2480698,1,-2.665075459963129
3200100,0,-3.234367559928654
622365,0,-4.223275951822792
3075018,0,-3.687290885461415
2581429,1,-2.4103106153487204
1071065,1,-2.482749047494051
449468,1,-2.5697933152298975
525865,1,-2.1859485638548173
909779,0,-2.9154659206146767
3908302,0,-3.641088833259896
841247,0,-3.677596742251849
1406375,1,-2.5525706174277785
2885223,0,-4.0389669877341685
3287116,1,-3.3394363727731213
2216100,0,-3.386137991835201
3000090,1,-2.0115363273185345
2242485,1,-2.429194527064176
3748148,0,-2.952871627576854
1342845,0,-2.530499365474451
1311828,1,-2.100944677758916
1686813,0,-3.1438346212213157
3185325,0,-2.9162303020388967
3314388,1,-2.7716699072659154
1576460,1,-2.6221478209636495
2407384,0,-3.1151435691566567
1195696,1,-3.0162038904039736
1043825,0,-2.0481010522539824
553920,0,-2.650419384502344
1876973,1,-2.2675214354123323
2216412,1,-2.2582001075437996
3090621,1,-2.824872586898793
1167609,1,-2.4652383285530792
3164066,0,-3.8144051977515794
1541089,1,-2.626363168852418
823069,0,-3.4050353589415927
3294987,0,-3.3070542969206755
842730,1,-3.305106275844086
888957,1,-2.4711478794020607
1870272,1,-2.7297723136804133
1616704,0,-3.929074037746207
356397,0,-2.434991120817662
1621092,1,-2.507255135775329
2864039,0,-3.6018329196584173
1911237,0,-4.756868855190461
3146933,1,-3.206854469022465
3201361,1,-2.4545290209375006
3751714,1,-2.377747925313347
2509145,0,-2.4181302707519268
1639281,1,-2.44324323372052
314398,1,-2.1990781146703418
2813756,1,-2.138729986842857
343131,1,-2.6279308436162143
702422,1,-1.9548181386445767
2393000,0,-3.21279971127318
1325034,0,-3.030571593333795
552811,0,-2.7181188429334697
1913417,0,-3.1596202507636746
1559924,0,-1.7158586279987487
3266717,0,-2.9716580781054254
1044933,0,-3.9395413039034306
204958,1,-2.314069308951039
2578098,0,-2.787736086045314
3385728,1,-2.517899722137436
1779875,1,-2.844789911064366
647951,1,-3.1275547755852604
2903041,0,-3.6295051456596163
1076900,1,-2.5756316494265463
1581984,1,-2.5781963636554965
713052,1,-3.0669957439561033
3549275,1,-2.972982680310807
1060154,1,-1.7217310903172707
2061123,0,-3.273050516690671
2468901,0,-4.182813904329607
810545,1,-3.1853769678544808
3652449,1,-2.788148219367926
3673327,0,-2.8596975744124395
2537641,1,-2.2542663365986577
3167333,1,-2.379169874023683
3412481,0,-3.1427043361830584
646130,1,-2.890733538494275
3476805,0,-2.8638459452383067
3728812,1,-2.554121461678862
1095304,0,-2.518657280618902
960057,1,-2.7117644974835047
3525964,1,-2.411509889888738
1761484,0,-3.5869356664868848
3043338,0,-3.060740986149746
2637852,1,-2.802579069183573
3763633,0,-4.639088753068545
2125047,0,-3.3475901468732943
2803314,1,-3.272538016642918
1855228,1,-3.1045466469485024
2194014,1,-2.323073740746534
2771919,0,-3.9820555077796422
1532539,1,-3.344959715606089
1893333,1,-1.6546432137584182
3081997,0,-3.6434304919291187
3273169,1,-1.784532886776442
3101035,1,-2.8613806440068217
3235495,1,-2.988884096449073
709587,0,-3.4950486457193066
1473572,1,-2.7043733945900064
3720561,0,-3.879428800197378
3792287,1,-2.383991121823735
1458572,1,-2.7822523998703135
298709,0,-3.053528272771579
538103,1,-2.3063369480248066
760444,0,-3.372811797071348
3251868,0,-4.5674166440147985
1513052,1,-2.648043101904515
2512757,0,-3.1281770658522405
2125795,0,-2.8912169134060486
603108,1,-3.273734748440118
1596880,0,-3.825524937087206
2449813,1,-2.2230233757724807
3022186,1,-2.59085673989441
2259779,0,-2.989754557758094
1527013,0,-2.95265068915428
2249696,0,-3.4403270854306713
2176949,1,-2.506568894763595
1554353,1,-1.5998703955035838
1214607,0,-4.290156963336827
1405327,0,-3.4793577046142206
814553,1,-2.4992767990483675
2699905,0,-3.746368358038568
3781330,1,-1.9251657543092042
2658259,1,-2.4053154661541805
833241,1,-3.003511666203505
2504120,0,-2.867188075465852
870008,0,-2.4280335581001453
722979,1,-2.405374324935708
652463,1,-2.6075788864646903
3067293,0,-3.6391839439564304
997712,1,-2.4149651797361362
2447334,1,-1.7733951527493605
1475789,1,-2.913581262667009
1327465,1,-1.8586820316410293
2107359,1,-2.672757947151615
2752050,1,-2.5103812012448015
3932811,0,-3.345115630619177
1936641,0,-2.7401228248322447
1885818,1,-2.3454699864210427
2883931,0,-2.8487261373991117
515783,1,-2.7154415854425897
3675348,0,-3.5912420121348543
446843,0,-4.634753306575705
1374508,1,-1.8822622120622805
2724960,0,-2.9014016100681608
2977834,0,-2.6832940847910667
611471,0,-4.536749154687684
2850004,1,-3.404243202283723
987732,0,-4.076792510107273
598944,0,-2.646091491278937
3216829,0,-4.054874739967865
3337683,0,-3.6078183600085847
3221048,0,-3.7222438990960427
537805,0,-3.3098707589359675
1530206,1,-2.229921336105838
3704513,0,-4.415008047517478
497536,1,-2.222525010582677
1625279,1,-2.754166428680395
1205777,0,-3.8517842431203775
3792326,1,-2.5063427497725668
3095204,1,-2.506194175423562
982275,0,-3.7817083065738046
863009,1,-2.1532368323915803
644770,0,-3.562788438394562
227519,1,-2.7204895932348094
1294263,0,-2.7211611797214905
3330787,0,-2.15081652160905
1140512,0,-3.8763155046045834
294459,0,-2.4077733077447587
2941025,0,-3.184235034922838
3751204,0,-2.893265373570796
1513161,0,-3.520438214670135
3901723,1,-2.9740682882438074
3354186,1,-2.6516574264156874
3904445,0,-3.862242966023525
2412089,0,-3.444865398832044
857026,0,-3.067851842326958
1821893,0,-4.221277366082279
2854266,0,-3.2814480743177605
731153,1,-2.4670859924274455
484678,1,-2.856856550602939
2029736,0,-3.90901628437966
2733666,1,-2.500551633401882
757852,1,-2.4730596228463195
2145251,0,-2.4015088983964037
697764,1,-2.652101783083387
2593407,0,-2.487448130829077
2459791,0,-3.6537974921930805
1260051,1,-2.375081445500739
2988316,1,-1.8522493410111958
509928,0,-2.9884296452268715
1123673,0,-2.9823368489024054
707048,0,-3.8442810773264138
2479047,0,-2.8728470199477325
841964,1,-2.3749180562340992
452206,0,-3.1143149427714296
3320328,1,-2.489384515527828
2636134,0,-3.6401531951136556
1135669,0,-2.562154078837546
416010,0,-4.248726945651219
260866,0,-3.2736619926808603
3856621,1,-3.120036724370353
3540775,0,-2.9547262677909014
494568,1,-2.0283988862159106
588929,0,-2.719504974198904
431225,0,-3.081571224362555
3430749,1,-2.7376936325602106
1046071,0,-2.919641208972558
1354073,0,-2.814445749721814
974514,1,-2.4272153964755563
585604,0,-2.9911298200306966
2457313,1,-2.2232566388514776
3778696,1,-3.1575012314757647
743158,1,-2.6316274064272775
958182,0,-3.506341005690762
1581973,0,-2.7955051636447243
2437352,1,-2.2142954516582316
2183581,0,-2.6392364554919854
2033050,0,-4.412354046074163
3041504,1,-3.107266517028085
1625538,0,-4.130359894466775
2192737,0,-2.646193054424947
199357,0,-3.5182298709951234
3391903,1,-2.381120678016484
552738,1,-2.305350501175423
1889198,0,-3.5417175625695214
2546610,1,-2.397090275611713
3290070,1,-2.9445994196767034
1020733,0,-3.121877472959742
479646,0,-3.554177219888421
677699,1,-3.6075882112669597
2754370,0,-3.693026981199652
2239676,1,-2.817380609415016
2681623,1,-2.055268120893392
2813318,1,-2.2604510316698248
1484756,1,-2.8891055262928536
3132331,0,-3.3756000853293733
547194,1,-2.76804232233091
656829,0,-2.5528346890368856
2930211,0,-3.069988853208688
3498131,1,-3.0227571610113007
1906609,0,-3.8888770282940306
1137624,1,-2.483520514629464
3247300,1,-2.479633722866746
2561495,0,-3.4316242427286423
3426961,0,-3.3600222190788402
2910248,0,-3.3038570659385247
1114591,0,-2.8334815976665233
1045398,0,-3.467363462183997
1731666,1,-2.7805595822507363
1396262,1,-2.284571495116157
2692382,0,-3.286019354903687
287150,1,-3.1959934743190344
2283598,0,-3.655508707752883
2005800,1,-2.3028870565136716
1166583,1,-2.579237395312472
1959826,0,-3.305202093371293
1841789,0,-3.2246669041516847
1707858,1,-2.6745267073226864
2684031,1,-2.177543446058729
1907222,0,-3.097163927913275
1323549,1,-3.0288969405123543
558443,0,-2.583257230874393
1295702,1,-2.784059200461839
3961212,0,-6.0818851612105345
3504958,0,-5.259458984276546
1592229,1,-2.3296106360105218
2548487,0,-3.4073336743600504
2697517,1,-2.839569189731635
828268,1,-2.7668272818898805
1440961,0,-5.088737562353871
1514823,1,-2.640283855515116
486781,1,-2.562188518315016
390660,0,-2.668129037842467
2480668,1,-3.6377228926004825
282782,1,-2.2357703490513012
1264163,0,-3.9753323555491082
1763473,0,-3.7247915806219147
961925,1,-2.4633223614177897
1322192,0,-3.932254713368417
1454882,0,-3.4315941016039857
1260625,0,-3.5122096465831047
2949271,1,-1.7291140296199248
442570,1,-2.044682089100246
216646,0,-2.6552152833191736
2609740,0,-3.6902414032481845
3769907,0,-3.781813360735355
1724008,0,-3.45380256116119
3080497,0,-2.8952371311999765
1618801,1,-2.079365535997956
1709288,0,-2.7342727624173664
372827,0,-2.9500163954121725
2048241,1,-2.1655918021047116
3468356,0,-3.333148539477044
1279429,0,-2.9485632306579164
1059093,0,-4.32954950648584
1006481,0,-3.085311227360065
3921940,1,-2.3044023763537096
3189040,0,-3.0913627072608834
964041,1,-3.159936305443056
2601254,0,-3.8588771578295797
3747460,1,-2.3565554899578816
2186218,0,-3.3757617133989877
2568847,0,-4.798218351640154
3468064,0,-3.6825769616834094
3137516,0,-2.8339817684145756
3302469,1,-3.0825651841267017
445915,0,-2.9437843143526528
679811,1,-2.3545966878956834
2225579,1,-2.7904515574209143
2052257,0,-4.1795660424062495
1409533,0,-3.4272372071327006
673859,0,-3.631182681970149
2938564,0,-3.1703576004649827
1811284,1,-2.884022616049985
2230721,0,-3.444249813584312
3889894,1,-2.7771445708875855
622570,1,-2.5943832037414323
446382,1,-2.097132392745595
942019,1,-2.990407364744885
1000324,1,-2.552884200678852
3856035,0,-4.922751325167202
2806550,1,-2.1137607381149386
441130,1,-2.5169961926155344
3943688,1,-2.647365351604401
3906148,1,-3.102000612911541
3544705,0,-2.9467224201331805
1264346,1,-3.2219374210892133
3928832,0,-3.4607973512769643
2981482,1,-3.0172124659287722
3742449,0,-2.5136218529302123
1867356,0,-3.083602751433684
3073977,1,-2.2179522577356354
2930052,0,-3.0781870989184297
3410391,1,-2.77761376501019
970384,1,-2.823481331459156
1918825,1,-1.9468518603396308
1842995,0,-3.693041169518945
2874382,0,-3.630503903887066
3045151,1,-2.5906602155690286
3663238,0,-3.0847321563697463
2943967,0,-3.2190662024566525
1640448,0,-2.9414015873606623
2986134,0,-3.466728859309213
1559225,1,-2.68647789934045
2047676,1,-2.6729412408513213
2990268,1,-2.998508426434481
2561306,0,-2.987925135559411
3725066,1,-2.561776278007223
840746,0,-3.278878918349328
3395392,1,-2.6061691684312147
3922533,0,-2.8175796967523628
683385,1,-2.6509668931477375
1813072,1,-2.476382749116315
323886,1,-2.842854371441679
1531326,1,-2.7374014683016883
2015630,1,-2.6291770072286127
2281008,0,-3.9128568648541218
1642740,1,-2.5358138657247724
2610201,0,-3.250245933992211
1479275,1,-2.3592371228127824
2849250,0,-3.1434822719049085
423830,1,-2.521132974524411
1252787,0,-2.8889428995832263
2639403,0,-4.391981129097056
421758,0,-3.074848087211546
209348,0,-3.139031108414379
1702232,0,-2.736967390390311
2791723,0,-2.6139016840855045
2565223,0,-3.473558235796339
2597270,0,-2.8599671226230203
3182824,1,-2.812438272214511
3729743,0,-3.4006191899573532
264736,0,-3.129525992744207
3177867,0,-3.4469599393332047
1144753,1,-2.401707685960253
3116681,0,-4.1331716151866225
1360005,1,-2.7977299827700985
2275853,1,-1.2060673210032218
2720743,1,-2.1215217512025593
3187638,1,-2.8507686549679816
3904246,0,-5.200780489239028
3037622,0,-3.4836882777916394
3660726,1,-2.7989520000869272
3278679,0,-3.7393313926518643
1992418,1,-2.6149397276247144
2886016,0,-2.878899436898844
1916935,0,-3.3774324364200554
2166205,1,-2.0946209547458112
2059489,1,-2.7522969382387075
3141380,0,-3.0381088413513964
3517262,1,-2.749446457367444
3279106,1,-3.1904695882941345
3039293,1,-3.4595558712189796
2673770,0,-4.500147790265468
3735920,0,-2.564750080540435
3137694,1,-2.5961995147089882
2452831,1,-2.721252375452133
1526713,1,-2.826146988388828
3213280,0,-3.580501349184784
1842811,0,-3.5909420038817657
2968750,1,-2.4409853752114876
3899906,0,-3.158390479938202
3089238,1,-3.4886607121617184
2636721,0,-3.9426201476605303
849997,0,-3.078655230473941
3120014,1,-2.0522581404066638
3019047,0,-3.081717036788962
3084419,1,-2.669893812579213
867207,1,-2.2877109731591108
366980,0,-2.9202903006555854
1287742,0,-3.392115193431514
2986296,0,-3.2120864959131907
3884288,0,-4.050869125200823
2843111,1,-2.841424057533907
1899441,0,-3.4241066441150347
1271863,1,-2.6129698775751513
1867410,0,-3.57903199745022
2582083,1,-2.1915453735966586
576313,0,-3.698082243230522
431785,0,-5.172037460326259
1262335,1,-3.171785898434279
694101,0,-3.4641954025462507
2539681,1,-2.399888970300427
2636452,0,-3.5674668846160293
1902333,0,-3.034477595634499
380084,1,-2.611397144833518
3296053,0,-2.335257156295724
607990,0,-4.302670810683362
1050125,1,-3.1163841320320946
3889242,0,-3.8501166474515416
2266833,1,-3.0839270579918807
265921,1,-2.948759811786385
2902240,0,-3.956263202440256
2679620,0,-2.406765094029324
1518712,0,-4.340024180859396
3152909,0,-3.067505336164395
3732385,1,-2.504549311774593
2544213,0,-4.0279070194849815
1904931,1,-1.8080698001527256
1902182,0,-3.4535198808943592
3364437,0,-3.112253381932828
205920,1,-2.455935001393967
3872898,0,-2.8308136780969955
1974814,1,-2.8533018761066016
2891814,1,-2.7718968020221677
698013,1,-1.9244729205057602
1530336,1,-2.566411366770615
2812977,0,-3.508019541085136
1402332,1,-3.100171401203424
1483215,1,-2.304306902947454
2637489,0,-2.10591266252404
1255857,0,-3.3216017491577348
1243689,1,-3.0008529875176
1986840,1,-2.490623564760987
452773,0,-3.129563136946169
2116760,1,-2.9299564158943006
730807,1,-2.4969984411048824
2249650,0,-3.66324684952027
1612595,1,-2.4674213670452314
282335,1,-2.029860799134874
2537842,1,-2.559404449408819
2949179,0,-3.2642238842171154
1348551,1,-2.437499656715998
1059955,1,-2.843011819876244
607654,1,-1.842166325979111
411555,1,-2.969859890195337
2803198,1,-2.9856088456875916
3434119,1,-2.2373227923323213
1275623,0,-2.6885963494308345
579473,1,-2.383120612193377
1433735,0,-2.340532247644841
3926053,1,-2.850404621596883
3170311,1,-2.364081349647074
1958174,1,-2.4228641832388513
1792777,1,-2.396062962346379
2456477,0,-3.410843455810528
3712141,0,-2.6142455643243583
3457461,1,-2.3570268473421234
2746792,0,-3.916014060645367
376380,1,-2.640935517790073
2663763,0,-3.810605263073249
3692384,0,-3.021631913966254
1121626,1,-2.721881764019384
3668721,1,-2.0641090389346743
2534209,0,-3.279361631068843
1563479,0,-2.5037957332177214
2478817,1,-2.8717405402175666
1166460,0,-3.7956835716272486
1573471,1,-2.6465493301573524
671123,0,-3.4606013522199284
2639591,0,-3.913000568962206
362293,1,-3.2800726062340253
1822261,1,-2.1524009345432074
1373078,1,-2.989876394978623
3500387,1,-2.6874231097329297
2030814,0,-3.4540100113379983
1381686,1,-2.645609060436518
2118467,1,-2.4457377851647637
2271063,0,-3.915297703881234
1006674,1,-2.618122011930035
1507547,0,-3.9097565783766566
1130609,1,-2.247078532418608
404174,0,-3.1131019516051857
1156392,0,-3.3544937894323796
3790498,1,-2.487419552168257
559438,1,-3.31011348811963
1848384,0,-2.8680984278382415
1661854,1,-2.526859904507166
2752174,1,-2.3077397242584
1290341,0,-3.124759939882202
2826906,0,-2.9959782861031323
2395173,0,-7.226055206953783
2229962,1,-2.2213870146318553
1249933,0,-3.3052750146524232
1349244,0,-3.424370548491722
1632767,1,-2.5403725699665434
1066862,0,-3.3462361817178357
620700,1,-3.4021075036847686
1991804,1,-2.7868604923315776
977311,0,-3.4463629929792923
2175094,0,-3.269086692386434
3513274,1,-2.0428439749389606
1445263,1,-2.5112412384519107
2895884,1,-2.3005071995424933
2613288,1,-2.618404314440494
298829,1,-2.651608509521213
1487998,0,-3.556316829268197
290512,0,-3.033507406677717
942221,0,-3.272711427254976
330745,0,-3.0048412589352096
715114,0,-3.7867991552480116
2573116,0,-3.381871734939526
1992405,1,-3.240436834086973
1883206,1,-2.9021804912496423
926699,0,-3.1147279522860405
238156,0,-2.8807401357095967
644959,1,-2.9454347512680625
2395483,1,-3.011650873170151
2539068,0,-4.76483838299471
421681,0,-4.000228700511557
3389111,0,-2.3683260163629782
3350617,1,-2.378954592452932
2022170,1,-2.744948201355455
1525578,1,-3.02125657348792
2985417,1,-2.6812102146727046
3074602,1,-2.1262166690832056
2152225,0,-3.653283358257866
1987136,0,-3.718849851271517
2774787,0,-3.534620815753198
369712,0,-3.5659961563273574
2258743,0,-2.856863921265669
2753201,1,-1.6711322764444798
806209,1,-3.1612057959336286
3523703,0,-3.3963418866119253
1624628,1,-2.401193940456001
3097091,0,-3.3779054565668707
2627074,0,-2.9208036913521638
986598,0,-3.37955417950125
1779874,1,-2.4451564676780166
3079329,1,-2.636286781061475
1107004,0,-2.972871042611737
895004,0,-2.9098393409041297
1741908,0,-3.5069891870232937
1088983,0,-3.42633546782058
2122900,0,-3.46231747999879
1872973,0,-3.3624775898991426
253277,0,-2.954992785380995
408021,1,-2.4992764207299984
3672382,1,-2.7742835261512253
1201232,0,-4.090256856347029
1632643,1,-2.541546786529594
1630566,1,-3.211867615202672
3368669,0,-3.0579503934739662
853470,0,-2.718537833410715
1901431,0,-3.1592583888108026
1707113,1,-3.048606901473012
1066362,0,-3.7862020451103775
1610692,1,-1.793499503333397
3738292,0,-3.8352357535955917
348541,1,-3.2557000196134935
960337,1,-2.5720170706761336
214617,0,-2.84417395526454
484771,0,-3.5473958222816173
3350493,0,-3.677956029023524
3874532,0,-2.420874645597683
3335597,0,-3.0323435272106085
3089524,0,-3.2370448487039143
1728340,1,-3.1275251370789454
1954308,0,-4.348008991484132
3871540,1,-2.4784223433030577
1050363,0,-2.9635576782432484
2113814,0,-3.1350033992740167
530472,0,-4.51180870722802
2993670,1,-2.9368259660152227
2644913,0,-4.103457080561961
1162513,0,-3.398092588949398
3659677,0,-2.8125593096284898
1171061,0,-3.4787630569020203
3160579,1,-2.7358813289453856
1100259,1,-1.9234977938212001
3081661,1,-2.23116076740414
3659460,1,-3.2659309216348547
971645,1,-2.8682721938685667
3161463,1,-2.71826064898559
248812,0,-4.373068903168534
3062268,0,-3.9980612663345116
3319926,0,-2.829078234084892
958353,1,-2.82346283549436
3544495,0,-4.099038812513142
3336082,0,-3.1264378055736533
2591214,0,-2.9022266132437498
1632805,1,-3.6726716445690624
606140,1,-3.0515808475550843
438740,0,-2.6403511109727713
1297240,1,-2.6928766479204196
649170,1,-2.108237430944119
1419310,1,-2.733619802627849
3888409,1,-2.3109512075307683
3190644,1,-2.408314605795738
3009429,1,-1.9706942195787827
453942,1,-2.754608523271614
2592765,0,-3.457105543817602
3385834,0,-3.0745704202514803
2776895,0,-2.7959297856382803
1372578,1,-1.692610746452087
2536946,1,-1.9723156874353684
1007477,1,-2.8909499771466196
1738970,1,-2.381506318857287
1548058,0,-2.8666797760946157
2026833,1,-3.2844843980174154
3866884,1,-2.0053719972949624
1663432,0,-3.44363335143872
3112514,1,-2.4894215391624104
3339415,1,-3.32483324849043
3754685,1,-2.6233048489891284
2565311,0,-3.3206963624848367
3929046,0,-3.541224200748427
3191521,1,-2.4124704171706552
1693475,1,-2.8146579089610175
1903681,0,-3.4934614938270476
3380528,0,-3.5844912194520884
1218772,0,-2.810598383435957
2013081,0,-2.932696335628237
1144631,0,-3.203212386816735
2885487,0,-2.7251163153882776
3953295,0,-3.6501227954593833
2839450,1,-2.7229339732848237
1030981,1,-3.3616572886422054
1397195,1,-2.712685320135435
1727840,0,-3.2682657163211877
1508576,0,-3.645687804417771
2900297,1,-2.2556111459324546
2964045,1,-1.7584210638172926
1766679,0,-3.7506707616999733
1957835,1,-1.9358751371065366
418507,1,-2.4751849087228313
1389317,0,-3.3955284694474064
3522019,1,-3.149903368881195
1068892,1,-2.7204152883868638
328717,0,-2.5684803378946164
1848077,1,-2.486496568816503
2007356,1,-2.460753418202596
1333183,0,-2.6610364981978796
3451109,0,-2.7139128933286236
3783154,1,-2.6007657120434353
1540824,1,-2.671984115260161
2909959,1,-2.901864522590375
1201780,0,-4.127498848316628
1201345,1,-2.6472119959534917
3732340,0,-3.7076439104642795
2559923,0,-2.745802095535669
995461,0,-3.953355025050075
2510302,0,-3.550176790794703
882509,1,-2.8933558531555814
420118,0,-4.137128128345377
261350,0,-3.0235547393795854
2616871,1,-2.8957385174173202
2222853,1,-2.520972080683201
3351862,1,-2.6434879638194304
2499764,1,-2.4690374978647536
2468210,0,-3.2519123724848273
1046418,1,-1.857516778556862
2886170,1,-2.77744442652322
2777493,0,-4.194703653862874
2500185,1,-2.150960192138438
1483201,1,-2.8055820181378808
2995275,1,-2.248553371648671
2680616,1,-3.152741927950455
242224,1,-2.389909193591113
2784392,0,-3.841325698377958
2666108,0,-2.7863748150934677
385508,1,-2.6815355642980565
723148,1,-2.7807733932542216
3718777,1,-2.6288257234090633
3099595,1,-2.452198937426493
994241,1,-2.6545898011160927
2793712,1,-3.3517816575600525
419667,0,-3.759137276865575
2609714,0,-2.765429614407198
3219056,1,-2.378994708987736
1954029,1,-2.3468748270920017
2945150,1,-2.6855620280727743
356794,1,-1.860212018983868
2860101,0,-3.3690244544062575
2799026,1,-2.2894575030017705
2409614,1,-2.2106439885961904
3445944,1,-3.074710920453626
3661121,1,-2.4740112784366497
466664,0,-3.1862588135416603
2038833,1,-2.4501301786644993
3881468,0,-3.7060054518417465
3199230,0,-3.8557769471329184
3023563,0,-3.881312468427107
1976041,1,-2.914086058368892
708043,1,-2.907328943927249
2633970,0,-3.510744261335301
3934674,1,-2.6369139448618806
3165497,1,-2.8902439093056613
2600329,1,-2.7015367694932624
3278033,0,-2.617528950923732
2192863,0,-3.1997095873263435
2213060,0,-3.5773269837980415
3198512,1,-2.2516775508229077
2699135,0,-3.59016728868628
2867255,0,-3.864862066599229
660984,1,-3.1219995751705043
1056671,0,-3.3678734704402338
2004452,1,-2.4354128416264342
718820,0,-3.2158872816897355
2130309,0,-3.462705288142467
2472917,0,-3.9987206893933553
2450510,1,-2.344682789099444
379307,1,-1.6627703890560546
3480205,1,-3.3359985579048965
2472773,1,-2.667778571553767
1161280,0,-3.933814998601132
2271573,1,-2.7694285163955454
2818747,1,-2.827038264893279
1763005,1,-2.5876934784684615
3505158,0,-3.1268635271454297
1287230,0,-3.3537441467900484
3652645,1,-2.753830747105268
851653,0,-2.9287260976627723
1888963,0,-3.3623432588571394
1563190,0,-3.0563856352831102
2229771,1,-1.934119049186595
1314657,0,-2.84051362180608
3458755,0,-2.938142986569465
2582410,1,-2.8037084793040394
597367,0,-2.5149358115186438
3067687,1,-2.7269861347625577
1010145,1,-2.357602051096121
3276307,0,-3.456452134209266
480305,0,-2.6411185017030805
595602,1,-2.8165027014218014
3339300,0,-4.254118505719888
1583938,1,-2.5374433554539984
1680591,0,-3.3432756911709935
2921666,1,-2.664211992306753
605823,0,-2.5500745239095024
898920,0,-5.617466081955804
1701091,0,-3.3980238289743503
3947584,1,-2.3964173719839166
1785432,0,-3.4496742426737357
3878250,0,-4.120649733601048
2134382,1,-2.9925305827171353
3075832,1,-2.4294743078454784
2038261,1,-2.2922683520896494
3728971,1,-2.9553754705469895
1855559,0,-2.6519350792489726
2511656,0,-2.6151451476396907
473628,1,-2.965469159953723
1892183,0,-2.881300664532726
2743438,1,-2.9850522475320735
1881023,1,-2.267641486691724
3292624,0,-3.374464379767173
1257454,1,-2.520286666555014
1987540,0,-3.233215610227539
1349209,1,-2.7232147689621877
1298712,1,-3.1262793989011133
822443,0,-2.5041609992735587
2049441,1,-2.3596939524245752
1628938,1,-2.2510391521876865
3216342,0,-3.4812444959068123
207887,1,-2.211164533962969
3899555,1,-2.4202463206743134
1053264,0,-3.417563672024274
711254,0,-3.3293135303827994
3175944,1,-1.894685321683272
349539,0,-3.9908849012730196
344102,1,-2.3507221794100235
3338195,0,-3.319913079882842
3110111,1,-2.3400572103062296
3185460,1,-2.94229716259858
1250547,1,-3.4030308570081345
3093116,0,-3.2205371990789535
2272590,1,-2.6282847840693813
1123912,1,-2.3514676991532033
2196248,0,-3.5562088619766605
2803396,0,-3.529513249757718
1121446,1,-2.5252485626589514
3850353,1,-2.9247768007657284
3110397,0,-3.6910639531631553
1039258,0,-3.5532452642043864
3794011,0,-3.9480416516143797
1963165,1,-2.660399378474993
2591649,0,-2.899372712978093
3338610,1,-2.5284221859669396
1467428,1,-2.4876678002905135
3691451,0,-3.5504144438587977
271469,0,-2.8686187312985076
3793667,0,-3.4371717237020953
822121,1,-2.761252414269639
1336452,0,-3.08551603259429
2904119,1,-2.164465346788786
3732500,0,-3.4591334933385403
1221252,1,-1.7776886858079943
3054582,1,-2.0209019741006755
2788258,0,-3.458942725282655
1360009,0,-3.0108794974874264
750994,1,-2.4811494077369383
282846,1,-2.3987497932890993
1915321,1,-2.451305268449444
1900588,1,-2.508725176577408
3800247,1,-2.682145023942065
2948353,0,-3.3087185611260495
1790071,1,-2.434455931424695
1558024,0,-3.308903767957475
1703804,1,-2.4169012381501735
2439394,0,-3.336187702946018
2483237,0,-3.6653221398648204
1834083,0,-2.771733707616649
1772305,1,-3.2954614978171914
872359,0,-3.5803969092686057
1548960,0,-3.39888056985093
1402129,1,-2.727539318086492
875578,1,-2.1199147755602215
3519568,1,-2.522258321147769
569349,1,-2.7611989379001347
1937762,0,-4.225649099133409
3359412,1,-2.2977106448066174
2566998,1,-1.7566158923473778
1914520,0,-3.3274417255235935
3421645,1,-3.035754542931369
1251240,1,-2.391966297344056
3695452,1,-2.5119483186380225
3106970,1,-2.3820890330249065
3801768,0,-3.2120178761608424
1153781,0,-3.348120255840375
3093059,1,-1.874684533907898
2974806,1,-2.5064876235440816
3852865,0,-3.4588427943626385
2429484,1,-2.633045135746322
850762,1,-2.805251599681436
3534232,1,-2.543577074093333
245520,0,-3.134922575072123
1634527,0,-3.5051690083436027
2867670,1,-2.7976869639189594
3006830,1,-3.0223609747335467
3480189,1,-2.0655329798404694
1446707,1,-1.9718743558779783
1620942,0,-3.4843304467966036
389306,0,-3.0876980902614055
1551477,0,-2.698747147382925
2155886,1,-2.563110894122728
740888,1,-3.000888619988895
3133634,0,-2.8448401961134344
1423210,0,-3.014206583425144
1227422,0,-3.393891427851055
1014803,0,-2.543324288884929
2036330,1,-3.373911130120495
2982633,0,-2.9988882427111667
1079263,0,-2.2525281413444382
3664766,0,-3.140367685362976
2148024,1,-2.167149104732162
3089864,1,-3.0131474272443968
3499438,1,-2.0656080585627112
3729929,0,-3.47590566196378
2267102,1,-2.9065692792711193
3126250,0,-2.7969362314923023
2014809,0,-3.5238938687461263
1694280,0,-2.949008984269874
2272712,1,-2.5171521502655456
1728517,0,-3.4538031755935803
1840406,0,-2.832318251115245
2613440,1,-2.6257288302505906
1133462,0,-3.776701860080542
1557090,1,-2.716642946409131
2274357,0,-3.169223407164481
2894468,1,-3.078323179931287
995277,1,-2.8581975080356234
821534,1,-3.044121636488939
3526158,0,-3.3427337091891656
1820384,1,-2.0938042277338313
2040949,0,-3.9920233140853307
2462273,0,-3.3026191235599867
1222453,1,-2.330009355629163
2711503,1,-2.489637785722783
3329870,1,-2.8391790421964216
1976084,0,-4.029815427053708
552090,0,-4.943006718988013
3702095,1,-2.0916423867073664
2746013,0,-2.6530698083034423
1066297,0,-3.6314494428051853
492212,0,-3.818566928788253
3313076,1,-2.6077149552155245
2906131,1,-2.448265947871447
2731831,1,-2.339352359553672
865081,0,-3.080361952988638
1306935,0,-3.4891570901773314
2880446,0,-2.699530986629584
3930704,1,-2.697239590232299
3358643,1,-3.407947335708641
2783784,0,-4.216452199481516
697285,0,-3.2029819527626406
3044403,1,-2.1873524954985974
2919047,0,-3.2989683504904246
3148684,1,-2.530556491535149
1716239,0,-3.7567557872688138
3356511,0,-2.8948006527048804
3147191,1,-2.0463458922689832
1825897,0,-3.536100781439193
2613277,0,-3.8501773966641846
2899593,0,-3.339084110705214
1644723,0,-4.435591437891516
1231997,1,-3.2197094181585655
2856441,1,-2.7957481164847695
1712945,1,-2.966882175070604
3135602,0,-3.2461245027759777
2735384,0,-3.664984157800876
2933581,0,-2.655750840487557
2715103,1,-1.7899889670906897
820802,1,-2.5593175580303003
1358203,1,-2.215026100467662
1064164,0,-2.876268164362154
1742605,0,-3.6620394752025516
569818,1,-2.2976343586566936
2730067,0,-3.7849671284252553
2472477,0,-3.6589148472706725
1408502,1,-2.585421850130944
2637346,0,-3.8387704541092926
497864,0,-3.8361172248129485
2728463,1,-2.202193610366356
3158587,1,-2.847192254236146
1077060,0,-2.7276529382929344
2474599,0,-3.2211233937938406
2511793,0,-3.5595864654927745
1565969,1,-2.8189959216933898
1062765,1,-2.602230527084047
3912619,0,-3.1608485357814406
2023536,0,-3.560580903291117
2617100,1,-2.36647971655097
1764085,0,-2.7663372012585117
819323,0,-3.840277048624862
3222486,0,-3.2552851025847334
2765448,1,-3.032532445277394
2279935,1,-3.356973011246225
2008007,0,-3.2462621665249003
1160589,0,-3.1265836883179317
3354699,0,-2.7245169025130824
268687,0,-2.5622883216306076
3263327,0,-3.3863473912219675
2222429,1,-2.8657914973492944
3041125,0,-3.8042046548470863
916726,1,-2.4509256384755296
3258536,1,-2.4765161635573465
3092604,0,-2.675664200040644
1991960,1,-3.10218950731195
2911904,0,-3.608444849273327
3928013,0,-3.116440570348373
3373803,0,-2.7938229151073304
3937602,0,-3.038141711417361
1966646,0,-3.345620168788515
2522627,0,-4.070008116484997
3182383,0,-3.2968006940090673
2616930,1,-1.9496331425696058
2509120,1,-2.7802175085024463
3494596,0,-3.3131212335120095
353542,1,-2.5960549105984114
2195605,0,-4.548126088346888
691897,1,-2.1938032271389187
3024635,0,-3.7406810121724363
987835,0,-3.6093141495136423
1773523,1,-2.857581080182715
631746,1,-2.2925971339431865
1465569,0,-2.8301753479733995
2041146,0,-3.6572337015650724
2211652,0,-3.3195545670001603
1905954,1,-2.6224109845734573
235484,0,-3.0920714452861398
3370869,1,-2.6717310388344937
1345000,0,-3.403478578611819
994882,0,-3.2129918406779296
3374426,0,-2.53967824771648
3801703,1,-2.1450815389301456
3305514,1,-2.9449670736352545
1579808,1,-3.822394255291876
3078723,1,-2.279435167502802
3345381,1,-1.8979230662813267
3837755,0,-3.2624782132638472
1986914,0,-3.6128985489969994
3478727,1,-2.4868288025285037
3133748,1,-2.90822239696078
2798174,0,-3.824518641200585
3354294,0,-3.2841792346431586
1555234,1,-2.6606095210282708
1779244,1,-1.6738383422209364
1453340,0,-3.7430644719172093
1068399,1,-2.1340939078244605
1501928,1,-2.92279725690382
1160191,0,-3.3114477455703755
1374339,0,-3.0811426509940816
863915,0,-3.2848871177557606
963890,1,-3.1290659525421987
3680669,0,-2.8939231314737874
1163930,0,-4.789403421833907
416053,0,-3.9279793280763426
1258208,1,-3.0218765101414267
3541165,0,-3.6108789861707784
3358127,1,-2.699248006792014
1145441,0,-2.8817838541138556
1222405,0,-3.6248752620925093
270188,0,-3.5057971106604002
217305,0,-2.7064787377359507
390187,0,-4.332039998334112
2206007,1,-2.5445803455151963
1780739,1,-2.9090361948324475
1908980,1,-2.114209355697555
1470121,1,-2.223375738405471
2637792,1,-2.197833198485169
2705158,0,-2.7095604397112507
2477984,1,-2.775858020871604
437783,1,-2.5524240780125136
1818599,0,-4.592831359908731
3241630,0,-3.7234558049506035
3273111,1,-2.577625476319845
2412882,1,-3.0667678361183692
2967993,0,-3.0397669226791666
549294,0,-3.106908116056603
1160303,0,-3.82636146205461
3043161,1,-2.752914007914473
3255901,1,-2.1926280050894613
1232353,1,-2.7761867522934276
228270,1,-3.042393969020287
2155842,1,-2.945467457313985
2511817,1,-2.274830710857734
1327278,1,-2.018242559010403
1726154,0,-4.2751759237913305
2224807,1,-2.373802656699842
1896272,0,-3.4085541706638676
2430557,1,-2.32665277480261
1358007,0,-3.6314430686035313
363830,1,-3.9374041804379933
1894179,0,-2.9061346363563567
1596319,1,-2.66634374731108
3511231,1,-3.577675421433676
3004714,0,-3.47372282097707
196322,1,-1.8363727164287749
2938622,1,-2.1272052567559947
327900,0,-3.799198942865444
1744212,1,-2.9542437855386603
2538135,1,-2.2350129549357853
1670144,0,-2.8451722171279137
2168405,0,-2.612968346305567
2676318,1,-2.428896348177442
368455,0,-3.4855211006739863
2567722,1,-1.9592373198177233
1054372,0,-2.8621549380093665
3785352,0,-3.8594595206070865
3339995,0,-3.588751544283944
300818,1,-2.9774391725501963
753878,0,-3.237536409693142
1772202,1,-2.1021003775427913
2769471,0,-3.541718447358011
1193094,0,-2.646876834374086
2750316,0,-3.394389664166345
262156,0,-3.0499440935689717
3277520,0,-3.8374005401687756
1843171,1,-2.2702778630573794
1156169,1,-2.158718847705379
1626973,1,-2.2196142779817314
196627,0,-3.7090948093829414
2399241,1,-3.011231589180674
3375665,1,-1.9266862396060853
2662894,0,-3.3473203133655507
1977589,0,-3.50850600553947
3385132,0,-3.0802261303499994
2157833,1,-2.3405737797971446
1561680,1,-2.340742884466481
3765766,0,-3.4149487770700797
522722,1,-2.6520819157861064
1771945,0,-4.201852875418749
3710741,0,-2.947903733839926
3022863,1,-2.2922941425014915
2633891,0,-3.1001159756964194
2282313,0,-3.1590420268357975
1811716,0,-3.6336756320839374
667917,1,-3.5532176830308595
2420061,1,-2.0706193597383664
2179541,1,-2.4279104047705524
920477,1,-3.08937598475577
385495,1,-2.246277415821108
468809,1,-2.57211476534062
241867,1,-2.30292652356186
2225346,1,-2.0973972166703407
1734702,1,-2.267222898241932
610440,0,-3.244328334603328
1300217,1,-3.1149016860001133
2630476,1,-2.3829720933890366
311038,0,-3.8571594974631243
3147686,1,-2.501721581486889
3262799,0,-3.5155940072367695
2525823,1,-2.111463334093218
3748808,0,-3.056357878524346
3343320,1,-2.147075233611546
3367885,0,-3.8841600750426712
1914689,0,-4.0061212174593255
1005244,0,-3.3808892178052403
1508523,0,-3.4066630364306
3280382,1,-3.575907277921332
2213432,0,-3.6126302329973576
3720619,0,-3.3232884078360234
261292,1,-3.1531487750760756
613053,1,-3.1589032435652946
2520147,1,-2.537063922450098
1431632,1,-3.084394197318729
3653220,1,-2.8630202279381662
2846768,0,-2.560700238415611
1350152,0,-3.280688805437536
1438385,1,-2.2615222399141306
1547060,1,-2.45075348158139
1282927,1,-2.1634836949270575
1632247,0,-2.925615971047795
2909704,1,-2.49539618956394
3243176,0,-2.9200542188766643
1983366,0,-2.774761108781528
3808888,0,-2.835070159453124
805474,0,-3.6243284518348933
1862761,1,-2.3105944250220647
2426932,0,-2.581961250720966
3726930,1,-1.7920693873492823
3318732,0,-3.545924990621646
299030,0,-2.47367009508862
2853139,1,-1.6002117346474676
235793,0,-2.99874541310935
3049219,1,-1.9454517305249395
1394494,1,-2.875362824404877
3279822,1,-1.9270185825281678
822030,1,-2.8912441808677927
1214794,0,-3.7087593233474974
2550868,0,-3.7278235696987188
3355386,1,-3.069853566039582
2599171,0,-2.5644383222108638
3951061,1,-2.724143441398822
3417693,0,-3.0595502467218285
3720121,1,-2.1919544044967187
3361788,0,-2.5178980019697796
880262,1,-2.6155934426548546
3867496,0,-2.312632170416958
417561,1,-3.0307645352148556
1419183,1,-1.5145405545812667
1578324,1,-2.9589449723833887
624371,0,-3.3854680101273704
3935213,0,-5.4757699792507
2481979,0,-3.4172123917664647
851153,0,-3.089012816210042
3059573,1,-3.1633447066636506
1944791,1,-2.437678422717434
2221220,1,-3.2418907244037074
870801,0,-3.301114425705763
2513293,1,-2.8330605791646493
1681411,0,-4.047811071889169
3051733,0,-3.4714920283584205
3721769,0,-3.56291235858612
3945421,0,-3.5948226971292425
1247848,0,-2.9805846609754627
3181178,1,-2.2880376986640183
259496,1,-2.8159603698856523
2809425,0,-3.220812250975785
1590526,1,-1.6179907053018245
568354,1,-2.1808961718761646
284423,1,-2.523146749091512
3389728,0,-7.0234860104749295
922784,1,-2.749943304061712
1215303,1,-2.980933575668223
1876181,1,-2.8613150421627775
817024,1,-2.621462261273415
2611538,1,-2.5552091087797284
1298473,1,-2.150202912619508
3463197,1,-2.162294848606672
897138,1,-2.6859575190685927
2559746,1,-3.2500203160001417
1316764,1,-2.716304100852071
2287473,1,-3.574044850316573
1962412,1,-1.8824510303095865
3480809,0,-3.632605665007191
3741935,0,-4.229179876006923
1423963,1,-2.542070671688516
2003932,0,-3.6263964709827237
2023730,0,-3.440182210325701
2926046,1,-2.724448959449649
2152793,1,-2.132316114368236
1808735,0,-2.4978942235654777
3755804,1,-2.5911328357578647
2210260,1,-2.3722042609311904
1088446,1,-1.9437179650278626
332470,0,-3.0090011812451207
1664633,1,-2.397515766320305
1555696,0,-3.534372211766025
3223140,1,-2.9928142499101127
1028179,1,-1.8285777350898442
705895,0,-4.214780221059593
193825,0,-3.2095621256688114
3413745,0,-3.3202377325990624
1234066,0,-3.8678513036639868
1118647,1,-2.3578414090302005
1723645,0,-3.530000043984381
1247430,1,-2.9430118268666767
3268421,1,-2.562051328229062
441112,0,-2.998635644906427
2442145,1,-2.8439551953715188
3686173,0,-3.3347978559518063
3475070,1,-3.3158533022134047
2038481,0,-3.02508824863745
264282,1,-3.5212723618155635
952210,1,-2.0593529708280527
1961419,1,-2.405555080628752
263900,0,-3.786793542930618
1642347,0,-3.6934128524553134
2885236,0,-2.73468191464575
2046028,1,-3.1487886325230456
3513370,0,-3.651417153776949
1850453,1,-2.264949297900729
2648187,1,-2.347241731002732
1594600,0,-4.501735827997271
1983207,1,-2.3157489352725253
664066,1,-2.2308812437267482
556666,1,-3.08366389205701
1458510,0,-3.5113696424679985
1232203,1,-2.1726598056896034
3124296,0,-3.556891621478773
2980910,0,-2.8215229718733834
2907493,1,-2.894818689172935
1538981,0,-3.8600559373077328
2513049,1,-2.837810111956255
412988,1,-2.7546736877740425
2988010,1,-2.322527077283799
1192134,0,-2.518649695102596
1511845,1,-2.31544694363821
2721492,1,-2.1902434214833044
2260414,0,-3.805248205431824
3163550,0,-2.8198664526376604
2664575,0,-3.176257467938121
3465494,1,-2.3778497737546114
3788844,0,-3.155032175239944
3357801,1,-2.7920818386607844
3923765,1,-2.358902749528999
3845881,1,-2.7579822072375744
2793717,1,-1.9059539616796082
551538,1,-2.79345341754935
2650947,1,-2.8296854522448887
1370886,0,-2.0542675115824647
1524501,1,-2.50836604948868
2444754,1,-2.38076798724354
427993,0,-3.122569256078657
1571367,0,-3.1753851043140333
1992604,1,-2.492231884820495
2766153,1,-1.995981370386767
591719,0,-3.2373614480460278
1316872,0,-4.228388196227322
877515,1,-2.974521069293334
1375027,1,-2.9958389729440857
1446526,0,-3.6551523425981602
508050,1,-2.4679426860466194
3922843,1,-3.295971734242424
3950150,0,-3.398014930764618
867059,0,-4.460656839226366
804405,1,-2.205158917870353
1225280,1,-3.149239146012043
1322188,1,-1.9646553948806154
3426063,1,-2.6854420655641027
883379,0,-3.0657892147498034
2777724,0,-2.7428055868268406
686344,0,-2.9111136279868712
578082,1,-2.5937710669899388
1700136,1,-2.478007627737546
697244,0,-3.973271068721111
1090507,1,-2.995468874296407
718638,1,-1.9398697029658778
313987,0,-4.035325940178591
1824904,1,-1.860933310353714
1662541,0,-2.6733197389654975
462231,0,-3.1398391829508117
2120945,0,-2.6252072742258785
1215977,0,-3.5067477588517297
527972,1,-2.651082947486832
261287,1,-2.868494783323862
2479914,0,-2.841916751688877
1303096,0,-2.8801125344174716
421113,1,-2.420349013840678
1673992,0,-2.9074216613383896
1264192,0,-3.676991901900168
1443806,0,-3.5732170535540746
3424184,0,-2.887782658782517
968192,0,-4.089445498543669
3396570,1,-2.290986080404674
3477952,1,-2.1568743826332124
860480,1,-1.8234141565816664
3955415,0,-3.772989590644408
2190276,0,-3.1070539494131793
2423313,1,-2.7976239885256704
3304378,1,-2.9645367716265447
1531924,1,-2.779851713848493
3927920,1,-2.9294247365625408
627834,0,-2.625086681746277
3920802,1,-3.0258886613504674
2861315,0,-3.489572037607405
2033667,1,-2.4841882033422613
961905,1,-2.700697027657309
2921672,1,-2.449552579412556
2204724,1,-2.753707299121078
2815629,1,-2.4881564174013415
3675710,1,-2.46331270322306
539574,0,-1.8498080329746007
1826818,0,-3.3707972098608736
3681380,0,-3.672008388485146
2251047,1,-3.074530414530938
578266,1,-2.9248019467026616
3078834,0,-3.922225819647638
3101677,1,-2.4877511207188823
1554945,0,-4.0814062493293
3097720,1,-2.6523502452588708
1435445,1,-2.491448341809232
3936867,0,-3.6846404551753174
3041618,1,-3.3547112000582056
3248345,0,-3.7411506211231247
2155729,0,-3.568892500491962
1020191,0,-2.2898956539439173
3721884,0,-5.0076095105229825
587171,0,-2.929711905346108
284647,0,-3.050027787880685
916396,1,-3.2139216018317636
248391,1,-2.8168151398733774
3855503,1,-2.553107815466691
3019999,0,-2.932329791468392
2039862,1,-3.023570667011374
238323,0,-3.4217904761959033
2864444,1,-2.537908269710455
743603,0,-3.201219642373572
3040077,0,-3.1817499282694413
3785438,0,-3.3781170695843206
2258829,1,-2.8933982657422725
1410160,1,-2.3573758246699033
3656108,0,-3.968005542480567
3283000,0,-2.9843842618936884
1487021,0,-3.7088021525780293
3013513,0,-3.0392009514359617
1436847,1,-3.1386628160875314
3234856,0,-3.5141549215805066
647114,1,-2.237917359306041
2634499,1,-3.245843327454968
1637997,0,-3.7098726894985914
1630190,0,-3.0958685818543348
2121188,1,-2.9245062542253737
3942937,1,-2.3776522186237066
695013,0,-2.823356112571338
3347523,0,-3.615802527890426
463095,0,-3.215457864607024
2024450,0,-3.4270173802742314
664653,0,-3.4141908414639457
1012031,1,-2.967570310489818
642946,0,-3.161265618850457
3656640,0,-3.271169120960913
2718618,1,-2.104738574288123
677389,0,-2.432111871368834
331535,1,-2.623079324832385
1514202,0,-3.5798064742039513
3831843,1,-2.5245993619588334
3115326,0,-3.423569231726639
569940,0,-2.359253080745649
2568150,1,-2.4924255924547984
262923,0,-4.216953389095842
870532,0,-4.0488973741481065
2967167,0,-3.557468166479694
606918,1,-2.7999781678623634
3184999,0,-3.184903092083358
669469,1,-2.4166499629136995
3188713,0,-3.3354491896714316
1198561,0,-3.4175717582156766
3097778,0,-3.301646177543979
2891037,1,-2.036796076979449
3134958,1,-2.1531152411695347
1139323,1,-2.77099590018385
3680292,1,-2.1443067562711318
2933245,1,-2.858432894267281
1346461,0,-4.41865373057787
2499408,1,-3.347388743049345
1056852,0,-3.441593209808305
2883481,0,-3.1877038453837714
1779087,0,-4.054151926105433
2158438,1,-2.923631043608157
1744998,1,-3.3512447406653454
2466068,0,-3.5352083140345734
3867798,1,-2.4685151741857467
279072,1,-2.969496487060124
2629591,1,-2.4528123029414868
474641,0,-3.872157703809939
1744940,0,-2.355684873562595
3045949,1,-1.9090526207303007
447056,0,-2.495324930566304
2009498,0,-3.177611744352549
1784033,0,-4.228145366874921
1977052,0,-4.117335343250023
2465282,0,-4.116767457334402
3940454,0,-3.2798843809129443
2579086,0,-4.149179007125227
485045,0,-2.6386072593603083
2451877,0,-4.236743939436166
341716,1,-2.280234231423717
3339982,0,-3.956857396809436
3541242,0,-3.2835040813108884
3751490,1,-2.932159898544392
1670063,0,-4.408028321860603
2758465,1,-2.619638164464626
1199161,0,-3.2698608100137574
3876856,1,-3.2400704686609085
1203492,0,-2.7887018929581324
3742136,1,-2.475040235567521
3213909,0,-3.7699712808715637
1845563,1,-3.101163840887312
3210523,1,-2.4745385792773056
3785545,0,-3.6346398805204645
2587384,1,-2.16778242600881
3775546,0,-3.536705650978303
1347007,1,-2.6498191892879124
200588,0,-3.466434021725386
2004192,1,-2.899772443986002
1541189,1,-3.2516730045601294
2682406,0,-3.907101391506872
3840112,1,-3.115382358271989
2639306,0,-3.162045091488719
1115122,1,-2.8475546321363674
961296,1,-3.009536100436963
1438085,1,-2.6829318672557996
3045575,0,-3.0790494943421316
506815,1,-2.4513489690560375
850851,0,-3.2522137321469358
2987786,0,-3.2693278873552996
2923291,0,-2.618488112177157
2058037,1,-2.5349449426167183
213797,1,-2.218465376837892
2502169,0,-3.7408226094474193
1505578,1,-2.6863292252237314
2053951,1,-2.7040610415193846
2842598,1,-2.58385763517308
3076041,0,-3.2840191260198557
2597807,1,-2.1691208329126384
2431016,1,-2.4714517044608826
680067,0,-3.4927160712924574
3006948,1,-2.3790401947461994
3435466,1,-2.3722470149252866
2869536,1,-2.975824354152522
1687111,0,-3.224845895664581
3544515,1,-2.0328198670925803
2766406,1,-2.2389917495924654
712869,0,-3.1863649870259803
2221536,0,-3.2979755683278156
3659553,1,-2.2781835037449025
1080176,1,-2.614360430278946
1794158,0,-3.888807867472356
824630,1,-2.658543974541757
3693828,1,-2.0686802703700216
2682772,1,-3.4161881400760055
1779833,0,-3.1630558492288934
2681918,1,-3.1932125377612066
706934,1,-2.210018242222158
2836851,0,-3.9032501880521826
1081822,1,-2.6281315396801737
2875875,0,-2.6519154470844177
1434821,0,-2.91640640976369
3387537,1,-2.237399422980124
430644,0,-2.998079326367177
801280,1,-2.9135769932783004
3451299,1,-2.173601736436865
3176135,0,-3.610121323602428
2916365,0,-4.872530843616039
1868916,1,-2.11174019781786
540197,0,-4.986991289557825
622891,1,-2.366668661222101
1146660,0,-3.153220774190047
2409287,1,-2.992540121083882
2969297,1,-2.9493429741241948
1461657,0,-3.0262536112809224
3119409,1,-1.92982559635977
3302363,0,-3.6894329196672295
956675,0,-2.6856976902422893
2426743,1,-2.6965485056519087
599262,1,-2.328062204222799
3099486,0,-3.5564139315866052
2208172,0,-2.77506797429929
1313157,0,-2.939445521876512
2859282,0,-3.120293672137872
3525570,1,-2.898669191244893
1032111,1,-2.0776720114578295
2225751,1,-2.224412050912674
3804750,1,-3.116575926924794
3203912,0,-3.268728349995782
474265,0,-3.129087941807627
286550,1,-2.9059714588899275
3404457,0,-4.603692593701818
1247114,0,-3.5507134189367244
1293239,1,-2.347514934564823
2837582,0,-3.12676801617032
3903899,0,-4.119978735100578
3224577,1,-2.061823049726088
461524,0,-3.0720918008906906
2145506,1,-2.4338058356886165
2511185,1,-2.4616451300305138
1028569,0,-3.20840611074449
1076482,0,-3.9470134156381578
3802737,0,-4.07478446902718
1647080,1,-2.132323147751104
3031725,1,-2.522643173562809
1480191,0,-3.6123068997211254
618383,0,-3.196269056988601
1454008,0,-2.298620348740458
3191113,1,-1.269091476410698
3737580,1,-2.6401722524081106
2745497,0,-3.754158160515683
2468618,1,-2.1925016000796838
1481167,1,-2.9102452979039506
2963228,1,-2.5230618132626006
1500879,1,-2.917874683552469
382042,0,-2.9848529089158586
3776794,1,-2.5868826261583413
924269,1,-2.237699839482929
756641,1,-1.902176296938886
840750,0,-3.5040386980316818
3809576,0,-3.0723571358688515
3863671,1,-3.133729991078387
1093995,1,-3.182597038521313
723172,0,-3.1607690200331935
3314689,0,-4.450006450929226
1281024,0,-2.7923457770497637
1383824,0,-3.807684405929904
3001965,1,-2.840047517429271
1777027,1,-3.0088473971506264
1028930,1,-3.04130779998002
3905087,0,-2.9257566125685437
1939852,1,-4.681126212545325
3492774,1,-2.6998342331475733
1965711,1,-2.6788747404437663
2627779,0,-1.8383310507587585
3160207,1,-2.9010314569812516
1690391,1,-2.5066071367616667
1588665,0,-3.0170748186044736
2802535,1,-2.0922785764596004
1421702,0,-2.6703919742715763
1111215,1,-2.838491223874494
584555,1,-2.181107362468914
2048428,1,-2.4971963314550014
3707949,0,-2.7664679770062044
3246005,1,-2.7679433088199947
526035,1,-2.3453914004858554
2192942,0,-2.9332834686268043
881406,1,-2.6456745881707016
1073812,1,-2.5054758112193856
904960,0,-4.346416974751293
3078130,1,-3.162526213603364
2736748,0,-2.9610144114642645
1452594,1,-2.239680872071875
458957,0,-3.658801342051472
2985409,1,-2.4494195734037496
655177,0,-2.9428304952576303
966138,1,-2.832067585752867
1462772,1,-2.7687252968921165
1772767,1,-3.275288131260983
2671961,0,-4.181567090144888
1367686,1,-2.657875080089453
3521432,1,-2.4541461046521973
2456742,1,-3.33144068474206
2746711,1,-2.531622984340516
2396049,1,-2.4700508848896794
2180482,0,-3.725555225304623
514129,0,-2.7244700149330243
580377,0,-3.4964052293991066
3443670,0,-3.519963546093095
3307319,1,-2.9416234781690727
3705072,1,-1.814251228899252
1445682,0,-3.7692675890370038
904641,1,-2.5411938776093197
382830,1,-2.9049064316094464
1961851,0,-3.521146215743584
2262508,1,-2.4818019570543886
1782527,1,-2.888816361161491
2919348,1,-2.6325252345195778
392725,0,-3.4159272406837746
234045,1,-2.7499211006036357
1501506,1,-2.980516129122708
3804419,0,-3.6244024949737135
3909937,0,-2.5603323772846336
2752967,1,-2.3423975282516833
705974,1,-2.4269297930645677
3658822,0,-3.172514743705775
545189,0,-3.2992763729845125
1453056,0,-3.296288827940862
2264410,0,-2.8834822416932604
1540419,1,-2.4909531422641953
2527732,0,-3.276009715965142
1285038,1,-2.460813574288887
472272,0,-4.9064583540802955
2749627,0,-2.7813663501945562
3381853,0,-3.194803469184794
915841,1,-2.8596086346029295
212061,1,-2.1371255815724433
2847094,0,-3.825486054056275
2422825,0,-5.319377121758157
3430465,0,-3.2141168668710485
2162358,0,-3.053732916236667
3853925,0,-3.4581447903698725
1948708,1,-2.815146414059227
3833206,0,-4.368548771064882
3059801,1,-2.234010414397741
699507,1,-2.237717794740614
1748021,1,-2.7568152041820095
1825411,0,-2.4300445529752706
2981090,1,-3.1121082079106213
1934343,0,-2.2989613636666384
1399875,1,-3.108495661146155
972374,0,-3.045169719914824
3361936,1,-2.9943327626834058
3123626,1,-2.8939242362961908
3422588,1,-2.0059423552899864
1864223,1,-3.447296963221884
2395001,1,-2.534963029225405
1896007,1,-3.0853915649335564
1427697,1,-2.1385042528400744
555032,0,-3.5756705000086004
288095,1,-2.7618537705376767
681681,1,-2.2990932778282542
364654,0,-3.295366665386954
3472007,0,-2.920803517204665
259325,0,-2.638400897212895
1126178,0,-2.725750491621148
1270761,1,-1.9780210456800136
2583852,0,-1.4883247652883855
3923369,1,-3.253851771721177
3354038,1,-2.7801135209577277
1206050,1,-2.771114257922997
2441747,0,-4.734483844305487
3713652,1,-2.464027962159737
2419198,1,-2.4103760473333358
1581246,1,-2.7355661746259927
460611,1,-2.4285771037828696
382996,0,-3.15236341438404
3297360,0,-3.427207587841262
2007649,1,-2.6123746175637033
563551,1,-2.424714982546108
3155855,0,-3.065294726809938
1057082,0,-3.3415257894291357
948821,1,-2.6266348094833285
3246478,0,-3.6040228477868954
2131379,1,-2.8309335254768655
312508,0,-3.197107335378323
3291641,0,-2.7958252173489373
2471250,1,-2.1318830383480196
1360520,0,-3.4840968208459526
3835933,0,-4.721384094567659
2265558,0,-3.135452289223031
2238544,1,-1.8325733452679507
3796269,1,-2.585545515731042
308244,0,-2.7866894795752133
3155193,1,-2.4669127689119783
426856,1,-2.8679535269760255
3058958,1,-2.9296025040382707
3138140,1,-2.632468730565263
1647510,0,-3.3420403373011647
243262,0,-3.863407373611299
2690591,0,-2.6735861668819965
1851515,0,-3.6597470729918324
2902560,0,-3.0594700819253204
1401079,0,-2.8256666542310764
2996484,1,-3.129756026572008
1672595,0,-2.810203857449291
278270,1,-2.666684953105789
862729,0,-3.178589626895854
1422861,0,-3.1222787775987304
1632937,0,-3.0925141324032976
2501223,1,-2.6376762902628177
1744349,1,-2.076117536030302
477204,0,-3.0978317073511477
1648328,1,-3.375254440442293
3926784,1,-3.1499637219733674
622122,0,-3.2668885783185226
2452618,1,-2.3233191370787996
1565765,0,-4.067276266416546
1721365,1,-2.829490169284547
2428363,1,-2.066425356567272
3406564,0,-7.728128447701581
3410131,0,-3.2290208083475864
279209,1,-2.736819266091333
3675176,1,-2.182496058670295
3513341,0,-2.969159105340575
1227489,0,-2.6327305882210705
584311,0,-3.18712342959266
1151914,0,-1.6007101547922935
1312657,1,-2.6355858419117584
523176,1,-2.650023169626606
2063665,0,-4.122416251840436
3376878,0,-4.746803073694262
2521589,0,-3.1534607655869507
3202945,1,-2.8133293727500717
1272237,1,-2.920808092404051
3744822,0,-3.5487341121869007
2187983,1,-2.3953480563720646
1041231,0,-4.1077205761025475
2566687,1,-2.4508871239672763
2530312,1,-1.9075192814020026
1194790,1,-3.0043599828457355
984981,0,-3.278370850514801
950042,0,-3.51159332221019
1062141,0,-3.5991042211765616
1422479,0,-3.6122824865261123
710768,1,-2.8072123079713758
3728303,1,-3.4236359032229946
3352798,0,-4.870505168988421
2679140,1,-2.8332853013632993
3531731,0,-2.819216207763565
839266,1,-1.667922242334272
3143175,0,-2.488148382930617
521837,0,-3.198548006527141
2862650,1,-2.9797904191784945
1852839,0,-2.882436540775657
2710650,0,-3.0985056364643575
2615453,1,-2.4891364349711904
492293,1,-2.9047313689383016
2599411,1,-2.636750588762357
1255522,0,-3.5710429830097574
1689407,1,-2.3226794035755507
1565723,1,-2.7526956643027303
572704,0,-3.021167514055786
800768,1,-2.653196317732913
3686921,1,-2.7088938305418893
3164203,1,-1.9599024093829072
958388,0,-3.4414297747263345
259631,0,-3.8401028053951545
1966555,0,-2.934022937705281
3431346,0,-3.5956885814555095
3062391,1,-3.0976091141867714
2541244,1,-2.326808408711197
3939591,0,-6.36493883196068
3188695,1,-2.618601519647544
1861304,0,-3.405902849753405
3464883,1,-2.5174998922258798
699607,1,-2.9933170340716417
1783407,0,-3.0643310944152495
2062684,1,-2.1768729452789533
1418951,1,-2.1479334332943156
962942,0,-3.860147518944987
575783,0,-4.799741630602778
1143247,0,-3.4001535788339936
2981603,0,-2.665816284098978
2916600,1,-2.2524391027808943
541827,1,-2.3760797399013125
2852405,0,-2.68505285798275
489487,1,-2.745443742075236
2654851,1,-2.57503875689584
2794247,0,-3.687194287578622
805682,0,-3.9544018310579574
2938448,1,-2.9791524129753384
1241005,1,-2.1141849619830615
3875951,1,-2.9290427900077605
564236,0,-3.3507476058561507
587288,1,-2.8294789167541348
276946,0,-2.240136599117432
2139186,1,-2.5085599819645608
2684954,1,-2.874918045375109
2457358,0,-3.122100678658294
3051425,1,-2.7924053456800704
2230418,0,-3.201058682489529
1122909,1,-2.869199562474651
1078376,0,-1.528398690020286
3059469,1,-2.577867688425822
3405617,1,-2.7751703726283488
2690091,0,-3.5273147432869068
2206311,1,-2.2256547766431005
1486954,0,-3.001731780250108
3153317,0,-3.4065595376532425
3101652,0,-4.515835509648221
1832901,1,-2.8030997554037818
2541140,0,-3.741436574359341
1534516,1,-2.3635554251240816
2413187,1,-2.606883755210804
1590768,1,-2.348242006391602
1008912,0,-3.6388854306252463
2234587,1,-3.1002474819265826
1714006,1,-2.6148261857981483
2655219,1,-2.454619607701595
1812102,0,-3.2858343805637222
1503200,0,-3.192681730246884
2903246,0,-3.1261791582005545
2192355,0,-3.065755299899032
2681081,0,-3.7233827688218777
375927,0,-3.2318305739358877
1966638,0,-3.622358645346505
1119832,1,-3.0405388912836844
2177953,1,-2.233507792889846
364531,0,-2.6380752814667088
2812451,0,-2.953758294617268
838570,1,-2.0628694288701066
2706564,1,-2.532431687676645
214826,1,-2.7347799437583595
2587126,1,-3.032174647412245
1380676,0,-3.4464919541623127
1957285,1,-2.9342624058313116
1482235,1,-2.405080386204824
2543116,1,-2.4648466588071285
1585201,1,-2.740465259099731
3251969,1,-2.2047649960775875
526075,1,-3.0360956110894115
3807030,1,-2.242213890043666
2727650,1,-2.1729635677755916
233537,1,-2.061648056970502
3667233,0,-3.2357231417757433
3147998,1,-2.8896237441584747
2745306,1,-2.2761640657988225
3306602,0,-3.90495156714734
1949943,1,-2.5248307527811606
2881915,1,-2.081962727282783
522457,1,-2.8754513394719856
1682763,0,-3.528328976516747
2848017,1,-2.4792224092782527
2986318,0,-3.1307527151904466
3460249,1,-2.3551358765421653
2840139,1,-2.874825272525519
3181130,1,-2.711506494850137
2428022,1,-2.534669075688982
871827,0,-3.504696181232679
206946,0,-2.994113001489044
1821519,1,-2.74799384621554
1403563,1,-3.0476387775532356
3375490,0,-4.954511532463139
3003915,0,-3.675486656743771
2877035,1,-2.6343861640468864
2565165,1,-2.5982824858713287
579978,1,-3.39809077585066
3517028,0,-3.602444189682118
2909025,1,-3.1074224508557124
2612317,0,-3.0378483777106813
660107,1,-2.882254621124676
1822875,0,-3.626489748255861
2584277,0,-3.2106667057316463
577065,0,-3.413084430581784
1820692,1,-2.915951041217859
2896213,1,-2.166444942626026
1792631,1,-1.9457549054807106
3869134,0,-3.4803003956998366
3477582,1,-1.773728958559929
855408,1,-2.3238367339077866
3300795,1,-2.6099284997769567
1241146,1,-2.790984086924632
3153213,0,-3.594931846790997
865230,1,-2.7148703725588486
957198,1,-2.505370878394436
643938,0,-3.6826231718440914
2786732,1,-2.230351994959027
3167250,0,-3.368027813068703
377527,1,-2.590196762062595
2167323,0,-3.731566574006311
3233584,1,-1.9985771934897307
2730277,0,-4.226727206917455
1139670,0,-3.8011208748822454
1441047,1,-2.410123684999002
2891250,1,-2.3474222630610395
3754380,1,-2.284098245893697
1059220,1,-2.600985474904808
2719326,1,-2.0901891090519387
2689380,1,-2.391189609348957
1155685,0,-2.833980863538744
3197171,0,-2.9278496409419255
3187070,1,-2.6923572140050602
1427431,0,-3.6015922023188223
1508389,1,-2.732267444629938
2915315,0,-3.5267191536693416
3038659,0,-2.939241268273037
332716,1,-1.7572823992154603
2584220,1,-3.001919399439289
726742,1,-3.2398797638435135
3117176,0,-4.22882003673267
1957907,0,-2.989188667967848
1406753,0,-2.890420344410785
2557688,1,-3.0791661199442673
1695128,1,-2.926392344650053
598361,1,-3.046965915381859
2670120,0,-4.498034711718748
1233778,0,-3.414158072408408
2011158,1,-2.436461422451276
3928615,1,-2.9941481237506085
2577242,0,-3.2801346081720393
3258596,1,-2.001880461059703
3365068,0,-2.542226345265599
2434500,0,-3.9265661394232416
3782862,1,-2.199226916253221
909355,0,-3.690678057077311
1447435,0,-3.985254996300261
2476746,1,-2.902954277582201
481444,0,-3.6054266971090776
2598850,0,-3.604318649291864
2590248,0,-3.667677317873543
566286,1,-2.6572607923682745
701026,0,-2.1540217314518557
401047,0,-4.003478311775824
1036425,0,-4.155391987733524
819254,0,-3.6136782243624213
438748,0,-3.217388320642692
578846,1,-1.8815485435149415
1493948,1,-2.296973916169406
581776,0,-5.634298113951832
1092477,1,-2.2310251376728494
528992,1,-2.853893297438829
1605826,1,-3.0517794564437994
1152724,1,-2.3905074487511664
520532,0,-3.6147459135676057
2699572,1,-2.4846938460594323
3890692,0,-3.4880683683835834
1043429,0,-3.501727100098271
2398761,0,-3.4538136078171973
2397330,0,-3.388406014612827
304762,1,-1.9936540915383656
217712,0,-3.2535434230149685
2045611,0,-3.9654591808290083
1833538,0,-3.5534126178407712
2136760,1,-2.4162258657798055
1271420,1,-2.8563115276750626
3254821,0,-2.782207097938759
3046854,0,-3.222122511744001
2179728,0,-3.1507821690365736
2572067,0,-2.615578553677383
3904676,1,-2.1902608125907204
3753609,0,-3.2227288353316523
2639877,1,-2.046046068997658
929223,1,-2.236638744842908
2968303,1,-2.520576060845897
1452844,0,-4.18986551914665
892659,1,-2.7224582977442244
1061364,0,-2.9065240850684866
330339,1,-2.6998642189602924
1738647,0,-6.47692428780623
879865,1,-2.1843740929799362
2677579,1,-1.8342247217155796
2260911,0,-3.247622948056685
3157773,1,-2.4070770406943205
3359623,1,-2.912490143015115
977958,0,-3.6236512928792495
2013469,1,-2.6292375478141845
1788338,1,-3.2729420442437416
1092967,1,-3.1932110929423247
1015943,0,-2.9314207025487686
3670521,1,-2.992020442980757
1115607,1,-2.5545840627672187
490745,1,-2.4741225815058
3082370,0,-3.477480894193164
2429587,1,-3.1693302037398046
1287220,1,-2.6321080001343273
2729695,0,-2.9683798134025716
1503446,1,-2.141816377024575
3143407,1,-2.6275824319907857
2633935,0,-3.6011661051900057
2218643,0,-3.745394995470612
1997348,1,-2.494572719515928
1499624,0,-3.835310216652558
1593833,0,-3.333698896015386
3485363,1,-2.633554993321301
1620309,1,-2.2082334663125303
1169779,0,-3.2450250123981745
3784932,1,-2.1533046618252234
1355216,0,-3.1839070547084534
3788111,1,-2.6687628201051354
2921601,1,-2.5487844472161947
2041810,1,-2.805633004567982
3133336,1,-2.880518416886366
1723377,0,-3.555078999339223
3399334,1,-2.1537991735470503
1441768,0,-3.122275533352417
3140973,1,-2.708402119729939
1784861,1,-2.864239741611829
394413,0,-2.631624234621151
2964500,1,-2.011620134001768
348074,1,-3.054374457285979
2165801,0,-4.43231097537398
1608322,1,-3.033680112089563
2408543,1,-2.8501247542573975
2567418,0,-4.52832800926107
493357,1,-2.7594328761893574
1641510,1,-2.604807517712796
3044975,0,-3.0014266452017497
3914563,0,-3.2697780253398063
1132945,0,-2.2110426964910044
1523428,0,-3.6567127597411826
3833137,0,-3.2474484895837366
2659522,1,-2.2702819911224603
3777620,0,-3.830801848711644
1143685,0,-3.070414753559399
1685672,0,-2.506807300438001
1621952,1,-2.2828108577744675
1121027,1,-3.380177310998678
2992424,1,-2.2491422565499284
3091599,0,-2.837006591369489
1605963,1,-2.674849241922136
2775109,1,-2.482817378275427
3062902,1,-3.251929876881326
1101887,1,-2.340574858897697
3284786,1,-2.6124691654180174
3938644,0,-3.8061945182009094
1866940,1,-1.77095857752948
1944066,1,-2.83167232982086
1099027,1,-1.9977812744991894
3517322,0,-2.724722613328886
3955629,1,-2.2265110852660666
2198885,1,-2.6284940531399195
2058183,0,-3.0448224341627936
3527937,1,-2.5966935661734887
3723159,1,-2.385791052666842
2494033,1,-2.8764752761888355
866252,1,-1.6976960435534667
1450662,0,-4.051764046727657
2785605,1,-2.268971471598878
295498,1,-2.9327205276088666
3167966,1,-2.457886331649358
691708,0,-2.1118280369905076
2922358,0,-3.578925218718084
1170808,0,-3.3422687525075823
2523879,1,-2.5837283193602127
306644,1,-2.5786711175727066
218889,1,-2.4164081069533463
2981474,0,-2.8455945359261876
940186,1,-2.851754270696326
1675636,1,-3.438496673764384
1452840,1,-3.1902094172610345
1282138,1,-2.1751029927580667
3750712,1,-2.7950122197830147
1765214,0,-4.093594479508617
1410171,1,-2.092050285115824
910151,0,-3.044898370837885
1976310,0,-3.5767421987207992
2205372,0,-2.767157489999267
2900192,0,-3.2176580044772427
1270874,1,-2.7804413431036954
3734856,1,-2.4250308953887454
3675189,0,-5.39521584269513
1431528,1,-3.2530564336078966
3523154,0,-2.9971160658071048
1950065,1,-3.191572212419038
3784462,1,-2.865087321855067
2729332,1,-2.200564880812032
3152570,1,-2.457555404904504
1393573,0,-3.333254757084229
1706606,1,-3.3258618761206216
2441439,0,-2.5833182801302574
1628613,1,-3.3567367447669816
3334475,1,-2.12755257100347
1943801,1,-2.686874580578149
1615342,0,-3.9051132551139887
1083243,1,-3.0077420740787333
1099321,0,-3.0091238851899633
1714541,0,-4.390618464686357
2445171,0,-3.44505218828827
921841,1,-2.3709551010031937
3436727,1,-2.3542776771369645
2800800,1,-2.089038510422315
1964360,1,-3.0224552096220276
1194324,0,-3.949895914902601
820526,1,-3.031911930137117
1154401,0,-3.731279899767748
834749,0,-4.073534365821709
2029494,0,-3.078754415188494
2904893,1,-2.577246569617889
1262030,1,-3.5128170746905334
611788,1,-2.453479456763067
1421061,0,-3.1114503573368504
1258105,1,-2.4318606864975205
2839729,0,-3.4353134310513274
1597804,0,-3.2927201246433913
1581650,1,-3.353716107300302
2542758,1,-2.266190112451995
1504846,1,-2.068483530886941
2966705,0,-3.015467744841999
1097373,1,-2.507437484308799
281185,0,-4.179889014774384
3339703,0,-2.69370389563277
1031528,0,-3.4806848617965707
528228,0,-3.029925078941512
461952,1,-2.4874882525288338
2194144,1,-2.054256168035489
833835,0,-3.2847194400218656
2588136,0,-3.453975254593826
2787750,0,-3.1066792629234445
2890875,0,-2.4698186999414995
1908061,0,-3.0464646860482247
2889738,1,-3.006164252625077
3227957,1,-2.879547078643841
282809,1,-2.0555432244296323
1267952,0,-3.1123236136645054
2180972,1,-3.4856315693143274
2985881,1,-2.227648156958787
1972068,0,-2.9350118762791535
2520736,1,-2.309674810602982
1748225,1,-2.6945979640874302
618989,0,-3.5125352114966404
3248106,0,-3.6765808025538087
3911969,1,-2.3490763331790205
3929920,0,-3.5007902014508474
2051449,0,-4.4735932391336934
367091,0,-4.020630037212115
3176479,1,-2.6846285845745537
1062149,1,-3.3938330928759104
1814718,1,-2.302603578848132
808197,1,-2.2860781894070805
3137198,1,-2.9660708728668745
1511821,1,-2.472128136470657
2968799,0,-3.715859670661566
2448286,1,-2.4312254565173013
2779802,1,-2.5864392277606916
3296672,1,-2.563417724013914
298247,1,-3.0598293440589224
443990,1,-2.9246802868400166
3140143,1,-2.7760045698539653
2009477,0,-2.7239311117035645
2991536,0,-3.4415353878585355
2687401,0,-3.5601167145423482
357900,1,-2.7882034188537075
3041370,0,-3.5839702883160505
3831867,1,-2.9095627533444453
913617,0,-3.070317952377328
350681,1,-2.321899302323382
1989297,0,-3.909847631195336
1371349,0,-2.634999776666868
351066,0,-2.6347884590574164
3235853,1,-2.6352993766922745
2595113,1,-2.792649420531439
2059630,1,-3.1471722003893463
3500057,1,-1.9290273720119107
1547925,0,-3.153233269585822
1558047,0,-4.043392741418465
3028599,0,-3.023408339248344
3549162,0,-3.1231646768498944
1661747,0,-3.274258774089933
605373,1,-2.6541854372585645
3233969,1,-3.534358440278094
2011280,1,-2.7463331416736145
619347,1,-3.064793626109553
3515492,1,-2.5460623818506605
2132156,1,-2.606386436548145
514918,1,-2.6728181123993
3277860,0,-3.2823360997604496
492486,1,-2.45033720427853
2238950,0,-3.972737185009113
3196063,0,-3.5248641693046783
570558,1,-2.5686133524180117
368445,1,-2.314315337507381
2801365,0,-3.1666383884025024
3800460,1,-2.217754505439635
3330898,1,-2.7521228552889423
2516070,1,-2.479964151074609
1690628,1,-2.9547181543901413
3744876,0,-2.956103716513696
3535025,0,-2.925500908798721
2479069,0,-4.032403973058023
1205091,0,-3.1728369439349278
2004622,0,-4.0362016895587915
2470498,0,-3.3836402618728507
3538662,1,-2.827572438886529
2616062,0,-3.501508104192155
572903,0,-3.45434082256391
924653,0,-2.7046669151173255
1432663,1,-2.186602134341525
895104,0,-3.548881709245078
322768,1,-2.7998374031093567
3788033,1,-2.743768954649689
3752277,0,-2.655939179342004
620140,0,-3.2043214263436375
1101941,0,-3.7214810214266696
436367,1,-2.5370458677832035
1986415,1,-1.9243396886772146
3663661,1,-2.2864033333196794
3309320,0,-3.5950500054777557
2747237,0,-3.2018107951764936
3232641,1,-1.8285272155228747
888710,0,-3.462543432014355
902493,1,-2.6531459482121944
1752223,0,-3.665380049108711
989997,0,-3.509971793974787
2187427,1,-2.3960596613096263
3258785,1,-2.1302232951562416
3654688,1,-2.3526772320950693
491270,1,-2.624313869630639
1536866,1,-2.069324349683897
2870066,0,-3.343709920567611
391760,0,-2.806578057195767
633174,0,-3.369140379285676
2470915,1,-2.2331774621613105
1789618,0,-3.4637600138169917
3301900,0,-2.9086397090510046
733940,1,-3.157381884342301
3350639,0,-3.3567960428763834
1231020,1,-2.0998240349563893
1411232,0,-3.8687006797238985
2039042,1,-3.2542863299040126
3127236,1,-2.7274942509679145
1368100,0,-3.2077848740096013
2602452,1,-2.3276523146659
2517264,0,-3.9506295542005767
3801445,1,-2.914875079010094
1240548,1,-3.2595548432917454
215006,0,-2.6869756930480286
2623101,0,-3.936668748801231
1435824,0,-3.803215964788609
3888945,0,-2.813900911022725
466618,0,-3.0810484686088833
435396,0,-3.378563870544368
1125622,0,-3.5880093015568564
275512,1,-2.4248659684604963
2115840,1,-2.281536855032086
3541017,0,-3.7330083132424843
966302,0,-4.799429252806273
1972275,0,-3.9536609980435946
1295377,0,-3.3051664910089875
837239,1,-2.5295374136632556
1728758,0,-3.4105582586573617
2015587,0,-3.7766999615725916
447081,0,-3.3824541363416247
2150910,0,-4.261462480780954
1588069,1,-2.0178070443705507
2411082,1,-2.5805560991670697
1020807,0,-3.3312867678741274
458916,1,-1.9133046259045994
3898692,1,-2.4374981467274766
1316102,0,-2.9649156859168397
2684504,0,-3.559104753285162
1167430,0,-1.9445879165810342
369539,0,-4.231128361682938
2159216,0,-3.398724209163739
1308998,1,-2.1999741800234536
3295153,1,-2.5327469417824857
910906,0,-3.4630937833018027
3896612,1,-1.7711740182596434
1591466,0,-3.5429931037379037
1099635,0,-3.1412724246306216
3131811,0,-3.908091933119414
1418844,1,-3.097538739615028
460348,0,-2.6770885484640146
1760440,1,-3.0272106587155116
992605,1,-2.2508707900213407
2258203,1,-3.5736625501526706
316515,0,-2.6228169259843876
2165588,1,-2.6544612761009274
3271066,1,-2.915754785684087
1503855,0,-3.570727713835813
1943944,1,-2.281610123641509
1007846,1,-2.978212515693666
657107,1,-2.838177126965821
1583861,1,-3.4778766781565302
1231944,0,-2.7126778876564117
2494316,1,-1.9823127758869763
690522,0,-3.2431338295716245
2627449,1,-1.0265250106430164
2187217,0,-2.4582232479226165
2874013,0,-3.2768523172085873
1596977,0,-3.9821231376628683
1066479,0,-2.099920866241326
259940,1,-2.895044043584502
2511468,1,-2.6516102960888626
1815255,0,-2.766619787999474
1771906,0,-3.9919785099750937
1964527,0,-3.800665332530178
1391000,0,-3.649142981396032
3744849,0,-3.111555768820379
2989234,0,-3.3434956706985246
526026,1,-2.9314827200627613
2127023,0,-3.7047756498153275
3086966,1,-2.529082264761237
3140545,0,-4.012315658825257
3384244,0,-3.3662838987045256
3781577,0,-4.453181685095073
2477566,1,-2.8909324531258043
306018,1,-2.4590960500979735
902050,1,-2.7097788280923227
3010326,0,-3.760207278209813
2148075,0,-4.342038285979226
3661731,1,-2.1350368535790096
2059814,0,-3.9537991195442834
2754887,1,-2.840018995777376
3060829,1,-3.486304198242133
563324,1,-2.4461151645228925
1103085,1,-2.447450106263517
1632648,1,-2.5240696053833775
2964424,1,-2.9234685450133
1697300,0,-2.675715627436611
2130150,0,-3.2092239220330274
1614204,1,-2.934251974054767
561026,0,-3.42071271352858
1218197,1,-3.0624004085106833
1439695,0,-2.8544714906583426
1354214,1,-3.0273862522909694
3548095,0,-3.138904489457129
371196,0,-2.8799922480822486
1675939,0,-3.090325930811075
1980681,1,-2.6388103716171174
2854533,1,-2.4345549385702308
2891128,1,-2.914503336196703
1059252,0,-2.7990717449289306
1483769,1,-2.535097686315122
1984521,1,-1.916359089778871
2209202,1,-2.2620039386584594
3004052,1,-2.3633311131907755
703827,0,-3.034378007947239
3799806,1,-2.691718039091242
1735602,0,-3.177419986637999
1217654,1,-1.4799273533356943
1639488,1,-3.402063619527751
1886128,0,-2.3834713467402824
1205457,1,-2.236721604907218
2119420,0,-3.32599970105602
1454146,0,-3.20664374020757
3911959,1,-2.994952576014586
1686809,0,-3.470508221548844
3737204,0,-3.5700281339811744
3508693,1,-2.3310327137492917
810216,1,-2.6198889470275044
739338,0,-3.3166982381141192
3327087,0,-3.735479668565076
2725221,1,-2.667546984500673
3869372,0,-3.519999400790286
714548,0,-3.4767718037699713
3953294,1,-3.6933416081293107
1110504,0,-3.5046038037915324
1383677,0,-3.64256457176492
1129846,0,-2.8381862625741867
3909679,1,-2.662451157555296
3534179,0,-3.5464884350637935
2915661,0,-3.4013890841061505
3068889,1,-3.5715615398889184
2735143,0,-3.5745387504158823
233602,1,-2.5421253797689625
699477,1,-2.5813229250803906
1553871,1,-2.9849481519002197
3015663,1,-3.117108646704786
300765,0,-4.3588156101425835
1625475,0,-3.5595617999382343
2015926,0,-3.351837896267479
3850852,0,-3.869620719905303
1624151,1,-2.225751498314306
3446860,0,-4.032787545902937
1790426,1,-2.3632081271370553
2594773,0,-3.26629020648675
1500372,0,-3.222754908963661
578437,0,-3.299116425399421
851600,1,-3.326576504014536
1202946,0,-3.1944955560128876
2018704,1,-2.6265193016918853
1401118,0,-2.9630421172041017
1030008,0,-2.4798045382867713
3471921,0,-3.3719346172557416
2421948,0,-1.9849362485769397
703395,0,-3.229220285186172
3468774,0,-4.965697672831721
1898802,0,-5.793693812612717
3726384,0,-3.701284443453079
2248034,1,-2.5475765721636106
3160352,1,-2.7278256514470733
2561559,0,-3.6999606958333118
736042,1,-3.372624095370325
485491,0,-3.4145388992591488
2913980,0,-3.391903990956443
2025582,1,-1.7166473914947669
1467326,0,-4.293026595784617
1696677,1,-2.269760945242601
2176915,0,-2.355426141856158
872791,1,-2.2010571130333223
577500,0,-3.8844849925230287
279563,0,-3.160352234091888
3802407,0,-2.737630615262263
1129635,1,-2.187203237231928
311576,1,-2.044693459948803
3305798,0,-5.194477979800311
591190,0,-3.2966063178433402
2048646,1,-2.795620573421667
3161506,0,-3.294961434676175
2118558,1,-2.80757338635916
2690619,1,-2.2268464546158846
490865,0,-3.627036494947086
3662941,1,-2.2104073423790536
3340622,0,-2.9227783087235233
305002,1,-2.9143825388202393
2587448,0,-3.2813421263772176
2132408,0,-3.9296910342351365
3724142,1,-2.336296163863193
538947,0,-3.5051462498064887
2743617,0,-3.1156809140408326
1208651,0,-2.891172671047451
3345589,0,-4.486569400157433
3807675,0,-3.373734193610556
3020764,1,-2.739770485989339
2286798,1,-2.4465195057193503
1343474,0,-2.0315629179909256
1906564,0,-4.042075143589408
549326,1,-1.783055359461844
2843903,0,-3.017943782492776
3206066,0,-3.9251020784457595
2410177,0,-7.31052580622499
3021485,0,-2.206387998757624
452036,0,-3.5484890548409695
1560409,1,-3.1230513812143124
2746823,1,-2.436531450161836
746392,1,-3.1061682315314405
3005615,1,-2.8047582075352246
417118,1,-3.2986951151405512
1427941,1,-3.1599677243859325
2036406,1,-3.7784995220426363
3938723,0,-3.816233411264853
3332408,0,-3.0690410882783934
1885923,0,-4.8193864163905396
677551,0,-4.510010553066983
270266,0,-3.1400561755221243
2647019,0,-3.0680704163133092
2195349,0,-4.2713161330940626
556127,1,-2.5981057579317848
726154,1,-2.564851007829742
2925690,1,-3.3807649545197753
2413945,1,-2.3714251618199658
3493670,1,-2.899540829977609
974670,0,-3.765414398520802
3837548,1,-2.910227942357181
1643546,0,-3.1745901673406483
456105,1,-2.2722698585379257
2148574,1,-2.251238967319047
938441,0,-4.217580540676411
1412810,0,-3.764682858453295
3051206,0,-3.486468364441236
1602298,1,-2.839922545694864
280043,0,-3.5236437858949756
1635266,1,-2.6403882526930045
3015542,1,-2.8009004773453796
3707995,0,-3.7971323575286022
1630687,0,-3.88214819347905
1063551,0,-2.703723046243008
486361,1,-2.7397559529975632
