sample_id,z,y
2748698,1,49.830171280863844
2635012,0,9.441950158818562
1972157,0,6.9294485837783615
1076393,0,0.30291105833431436
3239613,0,45.548501536706304
423138,1,27.479273680953476
3130518,0,45.40123884713063
1885387,1,91.15126882922554
1980479,0,45.273185467305765
1434409,1,90.12394438464119
740780,1,0.12931125436631147
1385982,0,8.375362637658512
2496103,0,11.496617187085437
3324232,0,12.77181197003113
2180212,1,74.44486172218589
2393297,1,23.73688213537692
1681824,0,6.393752764681296
3733374,0,9.401965745264253
3140374,0,181.15435685116503
220996,0,21.221155205589877
2538218,0,54.82351974795751
2611724,0,45.75884208285002
3026010,1,3.578600486986742
2167400,0,9.634361508191924
1911035,0,13.987505062607589
859866,0,9.174330201183839
361836,0,9.329568097739896
2757668,1,34.072836073110864
3030179,0,82.4262210943121
1630853,0,11.5624386601745
488183,0,11.569286381053814
259582,0,1.979436004721351
2117297,1,8.067382537855948
1524283,0,31.606164882984434
3845299,0,12.371950403209473
661534,0,21.341168107577403
1432913,0,15.280693656621128
1974495,1,4.343012008924623
3240643,1,5.436065089796722
2981646,0,40.881934788479036
3146500,0,1.5782988781145937
2480396,1,0.3903241348575437
370979,1,8.254880181225143
2276890,1,6.959253171614532
902907,1,0.6371094175964777
3680653,1,6.724531125278489
1890197,0,55.406078504565805
1715333,1,5.798488311292081
1960544,1,0.30831580221138266
1253643,1,1.1005382291421453
2670153,1,6.08662786677302
1270874,0,16.945492252692496
1146827,0,44.86623658852636
410467,1,0.33010691754862626
3168772,0,6.584985828794476
673053,0,18.253753743282125
3791477,1,5.888872867152289
459282,1,0.08651065463241542
1042001,0,9.562300593713275
458984,0,18.183856510166336
1393696,1,10.840313417550314
3045451,0,9.799000374909483
1905034,1,1.770526829500981
1298998,0,9.830707092252748
2646815,0,17.129496476726228
307025,0,10.846556369827145
679790,0,11.730936095655867
490159,0,5.738360935509976
3304317,0,4.526438699650476
1192997,1,13.412701005212302
463427,0,1.6679195310464299
3197488,1,28.278012467033413
3737262,0,11.819447291644467
2003742,0,8.118217333258421
1588314,0,17.392750125689748
847024,0,17.826347477928202
2735654,0,0.3239393041950682
1917033,0,37.646684999559426
689328,1,8.139860837137746
648834,0,1.671205143826173
635410,1,1.3361104042553293
2973489,0,8.851778189023666
2699157,0,37.62499594199886
1893235,0,11.780986619126027
3510996,1,2.2098334253932177
499017,0,2.0816724875257013
3833033,0,31.123157065818653
3337056,1,5.809598004079325
2767057,1,13.543303650646203
1461003,1,6.595641236630108
1219018,0,11.235511928140975
259703,1,3.2359394064620552
860509,0,14.273973293975754
1114591,0,-0.24325865643951558
1686996,1,1.1729400537303363
869805,0,2.878207487851715
1063835,1,8.31598237755165
3800855,0,6.822725585776867
2059450,0,9.80736316593155
1891942,1,9.830358408099158
886880,0,9.577909051703534
1312065,1,0.44982732412653476
3125624,1,0.4718666270334009
3036556,0,54.89902994783916
2868334,1,25.198148315822326
2843107,0,12.551870043503305
1126116,0,1.794800766913635
2270705,1,28.281556026538635
562189,1,7.084362835433955
3211342,1,34.53320104884658
1495313,0,45.938567506663716
359078,0,9.447296569684735
3487089,0,-0.8432877827503382
3252085,1,3.457284752137676
2279708,0,37.9375507429903
1773859,1,22.206816090667488
3073640,1,6.352246729700544
2668733,0,33.95928827239474
1575023,1,6.831045426626453
455972,0,37.61939563351104
2775109,1,9.307313268233157
2497142,0,11.16277579686662
1919138,0,30.677185229486295
3513379,1,27.234254949843116
2515345,1,23.654448717160577
2810953,0,12.075059822182226
545329,1,27.955054507547057
2658248,0,45.56099616854521
3223306,1,7.309387179660336
1016757,0,11.625882407982187
2409541,0,25.500690708245166
1267281,0,41.42149766928204
1780938,0,14.258017071648913
1911939,0,13.660071573096856
1589661,0,24.756706772079713
272426,0,2.017009085832595
2201844,0,9.428035433703934
2016232,0,9.507662902911072
2707085,0,38.625021682840575
1957094,1,22.53834999558521
2517490,0,46.12866624657626
463896,1,6.8220005123951335
3943960,1,7.460807436434679
2948701,0,9.789533794923651
2441844,0,45.60438948151263
1714366,1,10.6109592243119
3433513,0,22.455401762684005
2701766,1,5.099620382712435
643407,0,1.0783669474449282
1008251,1,34.0265791353957
1708065,0,13.736032448136141
3260798,1,7.339100220418666
3749670,0,11.649809890089568
746136,1,28.245321043315556
599640,0,0.9934638132355411
2548084,0,11.186844509674414
318886,0,14.685217565239183
640585,1,27.419588936477236
3938781,0,9.659973128140532
3023660,1,5.255990387463065
872772,0,4.0340908775652045
1864313,0,55.325768183710146
1738284,0,108.44044930169964
3267050,0,2.4648166652864996
3066460,0,11.604144924934653
540496,0,1.3133228764856286
875394,0,31.11373701631142
1349282,1,15.80049058735046
2399911,1,6.88863919746229
1725687,1,4.700439928873038
1868003,1,7.238765274456092
2159676,1,17.950665487264228
2799161,1,5.817259722371552
702208,1,6.087477913514381
3243223,0,7.822953661163099
1988174,0,6.502533824313138
2986127,0,14.016361420659212
716923,0,12.16791541225672
2141616,1,23.469850286251628
2055501,1,5.741393978122494
3666845,0,17.347686741200032
3907355,1,25.77109164866916
2849784,1,28.165864987150954
2668166,0,54.724940072237914
1705085,1,2.863755530078281
2430976,0,11.650829423092253
3405370,1,1.4345276661040756
2722852,1,75.10429922666978
1452929,0,7.938502287610691
1319796,1,7.30339588483904
1610307,0,11.363538292025446
3387753,1,28.272523351164654
2559908,1,6.922501634415487
2911155,1,33.76126384702528
572972,1,9.017440790330593
1245912,1,15.577873580414893
1620837,1,8.946198357799515
983000,1,23.349751221921522
3481025,1,1.219478872279222
1274442,1,5.3243201850985935
200855,0,13.92587266374575
3521051,0,15.833350517631155
760742,1,9.383384310736957
572515,0,68.58678322849143
3882667,0,25.55919554466423
3780503,1,9.390258636523999
578721,0,9.425522796406916
662743,0,7.9908013507901545
1767764,0,9.635319348431134
3365885,0,7.734089857752656
2903041,0,55.879572192841174
3782862,1,23.560995375094056
2237876,0,82.93814551753681
1118935,1,0.1699461178040963
2177962,0,14.466529457360277
3923806,0,7.221334074453762
1898212,0,10.181599636721852
709896,0,31.637702892176144
1444785,0,55.50840914524482
3694443,0,9.846697091057637
2977913,0,9.334614548796859
726767,1,34.82181366206251
894596,1,3.7602879597278176
570516,1,12.399259279820505
3253286,1,34.92270675278409
2578420,0,21.053191715829826
3805914,0,180.36584345230565
2391822,1,0.20459156707723827
452283,0,121.54739249375235
3661135,1,7.220457436364644
965744,1,23.472208772063798
1133854,1,12.677340428320894
2062277,0,11.735606397059724
2635422,1,91.4294416810395
3653015,0,12.123738082324024
1127472,0,54.91427361628027
2910677,0,11.565151979211036
1266686,0,2.4677509610425448
1228504,0,31.533153106907356
3505217,0,11.700397041024956
2279098,0,9.541600352803764
2856955,0,11.992536328841833
392017,0,11.989070198747797
3158083,0,38.00126971988214
322543,0,2.2816960902249983
2415519,1,10.224165985985929
2543310,1,7.234089933171736
869201,0,10.790916331545922
2745370,0,11.581170984168049
1568524,1,28.03476640079483
561430,0,1.9613633848905292
2769305,0,6.543670483742922
3065555,1,2.604534045123376
1225811,0,9.823083589021897
3546902,0,2.1237794179211633
876406,0,2.649568165064176
3836550,1,2.901596941201038
2266944,1,23.176674288922065
3775893,0,31.122706184606475
3500952,1,28.58344767339763
863009,0,0.31770563293590515
3087912,1,15.588689338355714
3088810,0,14.604780129932804
3729672,0,9.07136687817678
442890,0,9.296707706199882
1994451,0,12.078303203449243
3008891,0,10.263742368184108
3126409,1,5.101018468247252
209973,1,1.0480565509532043
1294907,1,0.2577759297658327
3959368,0,55.02817513308791
1281996,0,10.56298918950433
694663,0,38.00766067858595
241187,1,0.6038405809339901
2736748,1,15.483191783756524
1557009,0,12.42237100722439
2737168,1,4.448295315990975
3235847,0,0.7298046066220967
876356,0,180.8348393974721
1293886,1,6.26657316349884
3758865,0,38.01458327122276
414602,1,34.23849389081569
3715064,0,9.457068847968259
3380549,0,36.91745905873378
3372160,1,8.95976192973562
1015979,1,1.5977774106738032
851976,1,19.687896422256603
2501860,0,45.91668210778143
3008886,0,11.351954875509618
1816962,0,9.999538131331374
1128479,0,2.3713340007118067
1624686,1,16.4874942885973
3091437,1,6.064025399021069
1642186,1,5.796358334973811
2694263,1,6.584948593326112
1394886,1,10.426483950935767
2845032,1,9.276376661322871
1640691,0,17.475821066054817
3742006,1,0.7666255071356156
3471849,1,27.52787201342261
3287830,0,2.1574523555907086
308632,1,22.800628504893414
1707736,0,4.483318301236745
2937970,0,15.636573999222257
1740519,0,45.50708619929678
2251058,1,0.003780236740848153
3100409,1,23.285429624171208
3418466,0,45.69415217317035
376754,1,1.598859378402948
2020838,1,0.05739414526286799
2259779,1,5.845782503169032
2417064,0,0.8808782603633452
2595367,0,13.587085387427374
942565,0,18.7843999097525
3440872,0,10.807646253698744
306150,1,1.1693437552674228
1099510,0,100.75040373767537
702687,1,23.32681562930469
3138177,1,2.406882944723041
1029590,1,7.709288578725221
2874737,0,17.039650062511498
608679,0,31.704769335675515
693689,0,25.126829749322862
2884581,0,9.297446142373557
1297641,0,9.668776618542074
3041521,1,6.127308234660792
758406,1,6.858370260235297
3171971,0,9.431593638359855
3330107,0,11.866616997230444
1829298,1,16.154638205638513
1213338,0,9.624765391510095
558745,1,0.08801228265217231
596661,0,12.37592955428514
968021,1,7.268994932400084
2711622,1,9.003352182888808
1262866,1,2.1250525999866294
1447843,0,11.240367112354422
3478796,0,10.92716377812499
2218520,1,44.52537866274237
2532162,0,8.47630439623361
3539877,1,19.784850127156265
2150771,0,9.377957529916507
2680409,1,6.193876198162886
2863028,0,67.74829960976308
974949,0,14.073783269258781
2022016,0,7.905328711166498
1417900,0,37.39612249993983
3072717,1,-0.09910304363852307
3053207,1,4.65995109256634
3905698,1,22.343285955342996
3299046,1,15.068143865737184
3014395,1,5.6648735374695045
441166,0,1.4971056074299791
3007738,0,6.45735465055207
1149520,1,7.114453482935181
3196609,1,0.7152117683465529
663419,0,-0.0557779172062355
508140,0,9.233900324850078
2826986,1,7.716115961342197
588004,1,7.531948115870334
1209645,1,6.900858977367524
857562,1,18.74026663514315
520581,0,1.784904253809717
3483776,1,7.429884347996174
1904387,1,23.11298593676623
3099141,1,5.032412753950413
1378079,0,55.16735648794053
2874492,0,11.254882517901441
2186484,0,31.84982802213461
384054,0,10.32600185597279
3422801,1,5.355525769515237
1090625,0,11.651163912064332
2901752,0,14.9589929451847
1113928,1,0.51941630439716
412943,0,148.3924991020497
1952314,0,0.5177199277846909
1447601,1,33.44249883610769
2934127,0,20.424834848867178
397811,0,1.6557777593243943
1511525,1,7.223966068359529
2391998,1,9.779698400708591
1951088,0,30.470969645255533
1256941,1,62.12863555260993
3151818,0,2.1293827345056453
1321185,0,11.692658951007232
965166,1,27.799869117104027
1205520,1,5.710879268444726
3687035,1,1.9669059207658306
1037347,1,6.5615690139011145
1505609,1,7.749539126053925
3178245,0,45.574462922861045
3939688,0,67.38744101352
971176,1,7.265463790221324
1220206,0,0.653114447637638
2545217,1,19.123363332916238
967265,0,5.945013160904125
2770646,1,28.705898351910893
2795621,0,21.12377812039747
2186336,0,55.566941483309094
2987763,0,0.3594223814067372
478898,0,55.56324608381568
3421528,1,12.25754633541518
1486915,0,5.7039037149417835
2587211,0,5.6950671248872515
2136511,0,15.87449457531746
1476634,1,6.346897362708111
517023,1,6.956183389434934
3156868,0,45.484840535347736
2945780,0,8.102731470076488
1820489,0,121.26555881238312
2599599,0,37.93774174518167
1728565,1,27.27956307080266
3783406,0,6.501291201382009
1889846,0,11.945774366970591
2266721,1,7.177119789283584
2699180,0,14.584596126362324
1540316,0,22.269575523549907
3094206,0,55.55579524022584
2627436,0,9.849720834277129
341422,0,8.649242990165575
1447828,1,5.861566110693542
2040107,0,38.200098533801814
584425,1,28.32736370751542
2856092,1,19.48683372290168
2006131,1,28.161347146675084
2162421,1,7.385855717063544
703316,0,20.74848648423386
1596326,0,22.41288145657962
646894,1,19.14827356966684
453336,1,7.624698589797648
2677142,1,23.223666822833803
3034236,1,19.055047697140175
967419,0,31.520621898024206
927256,0,4.165382813941135
473390,0,25.734243978047605
2621284,0,55.60199078325108
3100456,1,8.738500567626467
3740411,1,27.472893638978025
2279858,0,238.3147262259784
3346036,0,9.932170788095688
393100,1,34.71826112472946
1114615,1,16.368746158176656
1463438,0,10.763438277115599
1907658,1,33.0974502660638
3323289,0,46.410582833764835
603748,0,149.16740829772297
2236160,0,83.11860213190856
1641595,0,17.000036314364984
2976734,0,56.04367838190046
1142557,0,14.49772135833729
2287257,1,75.05742596036505
2597661,0,20.628441921071797
1447382,0,11.291749204337975
2890554,1,5.684976969755024
1436335,0,45.41364248944808
1021658,0,4.256915733185552
2857235,0,37.074310008053146
532231,0,1.9255761570846657
2508905,1,15.524789772214843
1878703,0,11.147525749634028
554009,0,9.115264788287375
3106101,0,17.286478947295464
703662,1,1.4697811772761802
1400752,0,31.25225109651341
605823,0,0.9769269191162331
722483,0,11.72676660811673
3481416,1,8.957657822697808
2571626,1,9.047540540202421
3482453,0,2.561589555944587
2592998,0,8.785424690007709
1991778,0,46.05933803803143
2145999,0,11.677177727981125
2724164,0,1.3742769267439838
1549324,0,4.459160537298784
3320761,0,0.2355038389099987
1484775,0,9.466030641066208
2851211,0,11.598796843524307
2221531,0,100.61952954279514
1975316,1,0.299072307648378
948468,0,25.97461922250464
1484378,1,8.01945975207482
2788509,1,5.671537355268474
2462016,0,10.260521147557052
2728437,0,8.340889659107537
960443,0,9.667804872813088
375254,1,8.759474443800054
856166,0,9.230772830998939
3330225,1,4.0672452981655285
335142,0,1.6257473807917007
3352767,0,2.8360605707685775
2113083,0,31.37135173646616
1047585,0,109.0632024016413
953438,0,10.055120012651345
2415312,0,1.920297275638362
2901680,1,28.304097870374537
866974,0,0.95031353080594
2392818,0,0.02475838260144352
2273359,0,9.535481149800587
3711280,1,28.249504602900355
3050249,1,33.41475293627124
2240154,0,55.13381487059853
1115122,0,21.318522878918145
1696987,0,1.6186116983612608
3494110,1,7.64866798864936
2216446,0,14.352770963957015
1489106,0,5.187681061253963
2833132,1,7.860358806356724
2555796,0,45.67940582728248
307612,0,-0.0030454350595239777
818910,0,8.925878427144902
2573940,0,30.927864510177933
3249278,1,22.449339387360126
868358,0,11.75710469359856
1816642,1,5.540075748913427
1640117,0,148.6397974380883
879260,1,9.320975794711988
3701401,0,9.37205009442855
1093504,1,9.823246772771494
3876834,1,3.4280145650483878
254051,1,1.935095225594944
1044933,1,5.785162113475833
3171912,0,0.4093505416277445
2807150,0,8.188544427479453
1959247,0,0.32142330088695736
622506,1,3.693064617170451
2698811,1,6.009682566758453
1200227,0,9.484483484583231
2051386,0,12.244711257973776
258573,1,4.203025499055069
2206440,0,11.57167638804457
3659116,1,7.658873128476086
970679,1,8.435800226392676
3959440,0,17.104550541015286
384142,1,2.914463219396343
609231,1,8.779081796410795
2692144,1,23.136476362144847
3841236,1,23.667214670253067
3191820,0,5.502423448874487
2017882,0,11.786920189527116
2568156,0,11.028530597441637
2841254,1,6.342352253236914
2181308,1,22.92076063461847
1634961,1,7.860215252836651
2560937,0,9.981925211711202
638883,1,23.384514269773334
276946,1,4.553330523191243
2828430,1,22.783554548901552
3083403,1,6.070600823783757
726700,1,7.932222413440271
3832709,0,25.90680055646984
861437,0,25.37138372230686
3220302,1,28.03706094305734
1678636,0,7.368193873170795
3854456,0,45.47762958590848
2969272,1,28.348458531412113
1705892,1,3.4483871519310183
3033086,0,12.306653973278321
1884216,0,30.42557200172781
3959771,0,6.955821464004921
1000069,1,6.298819664158255
2854856,0,12.510744361788415
351455,0,11.44997040966696
3158913,0,38.43793131930881
1708390,1,3.8395269500779543
1865914,0,55.112276446038045
3427903,0,12.229093305379788
3417205,0,10.014716183985723
3701193,0,45.316173765914655
1452594,0,6.724407902295441
1918733,0,14.17198419396627
3655974,1,8.204717348768481
3869372,0,11.46784562932359
3483847,0,11.13467104258788
477841,1,5.340973849682222
1217654,1,4.0537148973292805
1880795,0,55.64857483192276
589264,0,31.227164232337
2830726,1,36.15288423713142
3180746,0,4.813643791615062
2767290,1,7.14396833807599
2432917,1,6.099482521234413
2651090,1,19.09692966874321
1096179,0,46.24248866116238
1630950,1,3.6556791112586486
2221297,0,37.93467316658032
3260294,1,4.558409501400362
2197198,0,6.637915197946307
3837755,1,7.181331402273631
1164218,0,12.208435900977419
1990555,0,11.961223881852504
988226,1,30.350819682957702
2522743,1,0.2265064061765862
2837753,0,13.744492098232591
3223498,0,72.82814187839972
1961694,0,6.15543890861978
3528409,0,9.57750647413063
885251,1,2.246715824686255
624992,0,11.263053921525247
1838837,1,23.23317943909298
3185023,1,11.012494907450474
918640,0,68.22881843105243
2597967,1,27.62308326099444
252621,1,1.3616564044189154
1096748,0,8.44185009471894
913165,1,-1.07065125163807
1339388,1,1.3327761544535974
536557,0,12.167880231447352
1973900,1,8.503293759457666
927154,1,6.20843548970254
1351420,0,13.389075784552578
3760042,1,5.117217755687383
3426631,0,6.340569083606505
622589,0,20.951342681158476
2965552,1,28.01899360592364
973395,0,55.10156073955838
3234116,0,12.72346784268059
1486556,0,1.1812822648534589
2865112,0,30.797985150658743
2687212,1,7.190415163410726
3230140,0,15.727036292454516
2002442,0,44.94053912438031
817302,0,8.316491640150025
1976294,0,7.50201201680697
3202438,0,55.49458579025852
2442170,0,26.146283991370257
866219,1,50.708355702971375
2979856,0,13.31453938029167
2891814,0,4.933588948259538
1397195,0,32.055651835478706
1826539,0,41.194311356026866
3029461,1,91.66729913181656
3227294,0,54.72243742195813
1636927,1,75.58314003012673
2633708,0,25.49377579132184
1119079,1,4.427957312072809
1610872,0,25.263146729141475
655645,1,0.602038103210888
1696565,0,9.336435370829808
371205,0,1.2473277373956333
2548518,0,9.727803604496147
2872265,0,25.416036330861868
1469236,0,55.14364741911905
552738,1,34.81731778760838
3523342,0,9.689358111807898
2202699,1,50.15152218307263
714853,0,25.20555341727296
3141434,1,-0.0001392292464070799
1896482,1,23.08907272061442
1050631,0,7.993084705245144
429643,0,7.9124748765913155
1787335,1,27.74784564796943
2461619,1,7.996314328063595
2755742,0,-0.016555442454271506
2536681,0,9.050046962002387
1879432,0,55.66243504779937
3154128,0,17.74995891426309
2551783,0,8.591372748699722
2716758,0,17.02755539913355
2881294,1,5.813094683045725
2271998,1,13.0769874290089
263903,1,7.05225877509512
1856851,1,6.055608178414669
555954,0,25.17083505140031
2869445,1,-0.08952577428511141
1704863,0,17.467513241265586
1956145,1,22.296005824170393
2158438,1,16.22965242444521
2184614,1,7.634138129126357
1696852,0,0.3731132798946183
412517,0,0.9412839265364153
1296785,0,9.4209251500065
2640767,0,7.339830729411502
3264785,0,1.0155018045646687
2690895,0,-0.1172622216690757
563719,1,27.89102789968916
3915137,0,20.786139343074822
3037622,1,22.776288340543406
2756898,1,5.364475540313528
310068,1,19.074405687182992
1170452,0,21.27406931287028
3256328,0,54.700890884271786
3710525,1,0.6095415240236186
2888555,0,45.75392924376433
336035,1,6.255348026174945
327266,1,0.5368558247793032
2002598,0,55.07580759651776
2209288,0,2.6939336680622477
1753696,0,101.81923325689579
282108,0,17.206636071000727
2492138,1,15.712427725795909
3410933,0,37.92853463576625
2177309,1,0.5987969563223435
1433477,0,11.841134373430327
1200587,1,8.605946111251434
406646,1,40.49755639859464
3319386,0,1.6859242625860935
1148210,0,45.040146550063994
1543660,1,28.16196606291865
1496468,0,31.859910933794833
2838307,1,6.68030512153118
2984725,0,14.143043134921044
2170792,1,9.128031086052442
2507191,1,7.674435202367727
3327414,0,36.93957403405085
3409154,0,25.722351715013748
1554852,1,7.177781727778553
2943280,0,4.610504914720703
1161432,1,6.203336664725036
654206,1,0.5718831294472585
512679,1,16.24116996696901
3382776,0,17.435600975525297
1440122,0,21.74433877617929
3729208,1,12.598185063988751
1983214,1,3.729869438256144
662935,1,5.722775970548064
3197508,0,7.949405858670468
1870116,1,2.9542244016534527
3363593,0,17.962094205519506
3916094,0,6.486076290290735
2861221,0,56.646617980577844
3261986,0,30.895267606628078
895004,0,1.280995777392828
2492377,0,9.765607502388665
1133307,0,17.305449084073555
2687418,0,38.17884687219297
3720394,1,6.320403986006154
314164,0,14.051392405776618
2838419,1,6.0964417552678585
1385387,1,27.9276498016772
3714033,1,6.77465636417031
855551,0,46.64901808887545
2666079,0,45.075201088989836
1626799,1,12.748997245802256
1232021,1,27.893698439366815
1443770,1,28.231097833601897
3876043,1,19.15427108398541
494789,0,9.726998836063457
1098423,1,3.198288097583293
1504547,0,11.340712883313929
1989297,1,5.9969362675169515
1111563,1,28.060115173883588
3280750,0,20.47704767126975
1032295,1,1.2338683679165805
3922120,0,8.40528207673341
503339,0,40.95023626660581
3310982,0,1.899078581150901
1897953,0,55.55062512479858
960242,1,74.92782984019111
3669312,0,122.47064793414731
3237968,0,11.345971368014744
1233035,0,6.996083589264954
835856,1,8.709373148321648
1159845,0,55.63455917078379
805682,0,31.50029002243775
970746,1,8.202272146960889
3280370,0,148.93662637086655
1015164,0,4.944131299282531
3479037,1,28.35709896164356
2036406,0,7.388914262375723
1953596,0,10.32291886678124
983811,0,11.724058688291905
2550347,0,9.207496903709428
2128325,0,149.1922853818582
2214764,1,6.999901163300062
1586401,0,3.9684719132452284
2697938,0,78.0718000525641
3866849,0,5.403205474557405
1680776,0,5.57472312259735
1726005,1,6.163018981993219
3347568,1,0.8329020080862559
2612465,1,40.89331548290191
3121450,0,55.58291846743142
3706969,0,0.0805197957149386
2109735,1,5.729734948355206
2880569,0,0.6863155273679856
2991493,0,45.9861145333537
523240,0,2.217254782715562
1972510,1,4.237341461531576
289431,1,0.40217672291992834
3464787,0,1.5635682349337172
638524,0,11.527311744205889
1935733,0,6.538654527826612
666974,0,31.029217171306804
2845864,1,4.664744507765899
516278,0,0.06267111953598947
1501928,1,6.76956987686439
414503,0,1.2886478415078404
203284,1,5.570407300903716
1500879,0,68.42384524490839
1918034,1,8.71755926943498
3948191,0,60.03973545937443
2569293,0,15.325870909014423
1878110,1,0.5934998186829651
1955602,0,6.060618044012069
288848,1,5.144898519368621
3519806,0,8.63744650815029
3476353,0,14.579775960921634
1951522,0,7.287952463586097
1047992,0,14.099136218419655
1973957,1,4.200304330917457
3348594,0,17.037628145623255
1603114,0,9.67289018032822
2628809,1,13.028686534259148
2403955,0,8.828797713062459
3676510,0,38.07802840391606
3377892,0,17.126819576877853
2996865,0,14.70153278200154
2438218,1,1.4715995051625614
687733,0,1.153323343703525
339815,0,37.52556596236222
1602468,1,91.19915499639085
1573773,0,9.454477129235492
203889,0,11.837395907605055
682542,0,0.36223922941791586
3184202,0,8.266727536955454
2207278,1,34.30196801712274
466625,0,12.081230283956584
1432663,1,4.665283856211743
1230227,0,37.10066319909252
3155868,1,27.96422067064754
1491148,0,10.329330260521365
3115416,1,0.1467328749189225
2825388,0,67.24762034004756
2551227,0,15.400187988308593
2999314,0,10.933180365486495
1194830,0,9.075985492979306
2994091,0,18.027816573126266
3290131,0,6.287183268467392
3776794,1,18.7250980276835
597820,0,14.104249910860506
3514124,1,7.661784573720423
2762245,1,5.932867433476777
889482,0,14.353986646441465
3727378,0,11.975201074854839
3779901,1,15.723521056571826
1163439,1,7.753505563805877
3722104,0,5.138079869729122
1649377,0,6.130336404452062
1773816,0,21.243777649637536
3697310,0,11.43360350680634
1145180,1,7.91121400953994
3692384,1,4.99703560307241
2913476,1,0.7043543879471766
993932,0,25.76754384046976
2009864,1,27.87552734896482
2893099,1,8.770919543610397
2438466,0,1.752972619039883
3364103,1,5.591723859349593
2395975,1,0.1864361498013648
1195714,0,9.07842240069785
3490137,1,4.466937836542403
3686999,1,51.18526541664194
2949179,0,11.40184307198891
2819856,1,61.53384552259526
441130,1,8.415571965668594
1061761,0,10.046197428741472
3115882,1,0.903746229058147
1277825,0,182.30922621013397
1093339,0,45.61972552909008
1267511,0,2.007227843233605
1625760,0,5.460913696472692
520924,1,0.580718911437639
3214794,0,67.67741464102991
2188309,0,17.086022101962588
1823126,1,26.13376216363087
2904359,1,2.7623736508423606
2785664,1,5.127604938799064
3537855,0,21.307097404394533
3168480,0,6.361804073222323
1096798,0,1.447117856961622
1595429,0,45.06077048443966
2180941,0,11.581208347339162
2806674,0,9.248775386207717
2438234,0,10.034126661844201
3420784,0,9.922959882089147
3913986,0,34.70574042835869
3180202,1,7.115532530550608
1991404,1,4.952823765420667
1963619,0,2.452921267983647
3495788,1,6.066756372273215
875968,0,17.380797098356965
557716,1,0.3081087195909443
570037,0,1.0418608305933232
2563372,0,12.221694329751337
3743530,0,37.65922839618396
3375503,0,9.936902631221207
2562753,1,3.865579637769714
3122722,1,15.837362758499681
3777034,0,25.484909668410683
556334,1,1.408997124845977
2577209,0,9.462854410354307
536380,1,1.2466648405408218
1727641,1,5.646930744694965
2015926,1,5.5698847484751255
344102,1,0.8585649434157411
2264101,1,74.68938181573583
3068184,0,30.02493478672824
3848534,1,8.530216317184673
717172,0,26.250764073613045
965642,0,11.888132115533125
1844982,1,34.41396334970324
3712967,1,23.719499573524708
2988485,1,5.468823808269407
2039403,0,9.21531536620652
390009,0,4.03129993218128
3157664,1,0.7304703309437257
3218031,1,19.91053862438321
1117391,1,5.797882608192503
1431449,1,22.942195273932153
3010103,1,11.622170201824114
2439465,0,9.94958547691014
1029961,0,54.54574133025488
1821256,1,8.697705458473374
3871306,0,2.359823816962137
3943768,0,12.243735846064304
961452,1,34.1042879615393
2150046,1,5.722698703862923
1098178,0,5.029263053765148
1667265,0,7.834570880827843
1774832,0,3.2221145735115626
2969528,0,56.34971038476887
1437322,0,54.51723639855049
515427,0,12.076766125349312
1283000,0,54.73891357648956
3140437,0,25.31725734235265
3853693,1,61.82350544415543
1123203,1,8.677315450333639
2019036,0,68.01213220775577
3255545,1,41.28818215810505
1483876,1,3.8725199891072597
3277729,1,4.47946040702847
1041581,1,-0.15674894031335557
2160796,0,56.01105160619942
1943865,0,5.254299171276367
1338989,1,0.5224719506789723
3163358,0,6.367969210873316
3756028,0,161.16367593917656
2759239,0,54.774098441467714
2748481,0,30.967058209010748
3907946,0,16.902717979297456
2726635,1,20.688746497689426
2783136,1,5.62564656421884
2582607,1,4.489860389823575
3666987,1,9.936833080653656
3492986,1,61.755068115143445
2708184,0,67.03974328145722
390462,1,0.8376945718738522
2647477,1,-0.6407429622710873
3108913,1,34.29926947149055
2741164,0,149.11370612686716
1901074,0,9.372639578456049
2656334,0,31.673437039409325
2119569,0,17.516220459953814
961866,1,7.426890129813138
2525234,0,6.531244242085316
1292793,1,91.54876703931585
2228372,1,4.774139048240378
2192742,1,1.1791290654114917
1517796,0,4.098633750261654
2551542,0,26.139239300764842
2566174,0,11.51995958622261
370453,1,15.701035397297668
3743695,1,22.896393178050555
1504689,1,6.260042631123271
309470,1,8.467712529298876
1213152,1,5.703866974002135
3226353,1,0.4227720326736637
3932296,0,21.04060386554604
2027446,1,5.940937885468559
3500319,1,7.030682621351131
2681389,1,16.215991553531225
428884,0,1.791879959083112
412956,1,0.6942819080871729
1828381,0,3.8243346429797738
3770725,1,34.2140762724197
3174495,1,19.069307375267243
3135206,0,1.311794434854023
2878438,1,33.73573346035068
2711396,0,17.258998833644817
1062533,1,44.73754649870449
1276164,0,45.327674389480215
1432799,1,8.253558383587734
3372243,1,0.939355325599294
1032115,1,10.50115290826984
1868560,0,122.4333986222316
2259402,0,9.340874896134995
2710650,0,31.533688236243467
2664083,0,45.35720268769829
3058413,1,6.486083519543752
1101130,1,1.0113961722324936
2578182,1,27.460610777249208
198342,1,0.8318916319534403
1001477,0,25.31196418488373
3666480,0,-0.134035652220456
3739854,0,11.255031446886647
3531058,1,6.49640791330691
1779117,0,147.8306653274094
1828208,0,55.99046774988918
1516545,0,9.570118991707945
1470524,0,11.46315314792631
1777402,1,8.276898760362442
924516,1,49.540960578729866
1022975,1,8.041640786255433
1155249,0,30.80728310434417
391655,0,11.875671422984825
2988869,0,3.9096177152871388
1895756,0,9.557839205302605
1062634,0,11.354356794312084
3376004,0,38.45050204540166
1308361,1,1.5066659185120326
3426691,1,7.379366294265434
509119,1,5.076344980414769
3443854,0,9.394180355523943
1218870,0,55.046967273974744
570228,1,1.0580823379782291
1905450,0,55.78494411578447
399525,1,8.578156446878364
1363248,0,44.968649543876026
2543844,0,73.3031387923197
1990436,0,8.913427942679819
2856869,0,11.797331840244636
3074343,0,11.490026970026962
1205919,1,51.35397889351735
3289537,0,0.6664826079491893
1570478,0,14.646633499023746
2979302,0,9.403489093074565
3698506,0,10.926029625970832
1248915,0,7.704186593477305
3462605,1,6.291396515234289
3482024,0,31.509379109476317
2788360,0,7.808912020027657
982568,0,11.630011157589365
3516959,0,7.722860526241041
757429,0,11.100551436590429
593990,0,9.852357975592822
2225484,0,37.707226243099726
622859,1,0.8385272113579427
2700595,0,6.529760883167571
995506,0,11.44031734598277
1812077,1,111.35789881278058
3466740,0,11.272039172507775
278332,0,1.8423982015827178
316761,0,14.925831121845924
2654139,1,10.852895820464576
1843853,1,7.664610372057115
864271,0,9.818818058053774
1021381,1,8.72022266829632
3863992,1,2.240662651651507
1165160,1,0.06506842445202775
2858645,0,16.821836557021904
1111459,1,-0.10274451898754296
2001588,1,34.34813256767006
2661655,0,26.882956788201707
449468,0,13.618430024767838
1560432,1,5.829538914084445
1992432,1,5.599831010718415
978798,0,6.099899594253788
3080411,0,10.975834576469095
3097668,0,12.145578808366187
2655230,1,27.705662076775596
2185089,0,12.23630994357626
3462019,0,1.090798484943079
706346,1,5.941365079128839
418931,1,6.139563832567459
3194178,0,73.0963498139226
976980,1,8.649412658039234
1561267,0,55.1049278684168
586140,0,11.6131981244798
228045,0,-0.3887142096922371
1441013,1,6.580314180161304
2507010,0,30.77485426037665
2139152,1,5.600724102508562
3335880,0,2.0636900735006964
1715706,1,10.212899640001744
1587056,0,10.060592385356966
687505,0,21.083086747239403
3335881,0,0.061540184736368464
1210320,1,4.147222096238194
2236075,1,15.407314561438373
441070,1,7.083042189365255
1596622,0,3.6688132029455014
1364213,0,45.34424144980613
1261227,0,9.193756868337264
1736494,0,20.457105376946657
1045882,0,-0.27556574441828946
1319464,1,0.6567763786074429
1227717,0,45.835965177036265
1678226,1,4.939345352674029
1644668,0,11.848467888372442
1135240,0,17.260173309771478
3863472,0,8.054926947779025
3510550,0,10.722649291927056
1165222,0,14.660937295283079
3317812,0,351.94811649055555
844683,0,180.50518260206053
2192355,0,81.4594353094551
1057739,1,-0.33169207174690546
526232,1,0.9697501572533493
3137553,0,4.778423379138433
977934,0,82.46412330581914
1747437,0,12.06130978740538
1540043,1,28.491979633223504
1847188,1,5.342757026417209
1312657,1,23.26208690066268
3115940,0,21.379682264423703
1279992,1,34.06929474461536
2139881,0,41.28739362232982
1303709,0,25.56319617304125
3120694,1,2.768791896294424
1449508,0,12.12941481913491
1031640,0,10.075605554864591
2742994,1,13.49087165549214
1994025,1,61.475282280301016
233825,0,11.557506754178702
1767843,0,9.566632833237524
1999600,1,7.983048838258972
1197748,1,5.507751613302195
1604113,0,12.088444839321697
2455426,0,55.729928172720335
1976716,0,6.3785183784266435
1730795,1,0.9339576132081636
1004249,0,31.364352024467316
2850128,1,5.932036623383437
1736896,0,25.309819192874322
2751095,0,9.673590410236207
3740016,0,8.957987744933673
495002,0,12.012062058609386
253295,1,24.00331284651812
408781,0,6.794142331337872
602385,1,15.80641185185926
581951,1,1.0089908668641974
1148377,1,11.034574619838157
1661824,0,16.22713663382621
2522385,0,4.62040629702567
3750258,1,0.059262268287778974
2708340,0,55.00656433339126
311865,1,0.40669642307419485
1161944,0,20.734796741868507
544110,1,0.09283827856839
634251,1,1.3199411928029223
1385485,0,55.17757449955556
1976729,0,13.533462425986773
210434,0,17.02711418996362
2129037,0,0.5590003534530359
2623105,1,7.53981063920146
2716990,0,55.620899359677274
2600349,0,123.04103473416576
1255368,0,30.10456935763924
424918,0,5.417051922157537
3455027,1,-0.49254820527056375
2765631,1,3.7032881799685704
2945553,0,14.393491068580675
1017182,1,22.514968203694107
2670787,1,27.85496160336737
1807017,0,9.517796564040623
838042,1,-0.6365620889770723
2655686,0,11.70248404585117
876348,1,1.9264262363733606
2153475,0,148.83880840361502
1792650,1,33.62090853244804
309865,0,0.7912515750167113
1214803,0,25.09820698909908
206958,0,67.78259065599832
1410681,0,54.4674608333879
1160739,0,54.58858670065632
3331580,0,9.725669635135413
1749845,0,26.582166365073064
754151,1,6.45757125757805
3429510,1,5.641037099515885
3462890,1,28.030371666286673
2482903,0,2.208463942097016
940696,1,23.26733606930924
3457138,0,49.8939934083393
570149,0,0.5470656065443067
2399738,0,31.3463637693498
746944,1,8.421393524939745
851590,1,28.219184149926466
3292543,1,24.36729147526519
3426065,0,8.012937809814712
3389619,1,0.2392690662768835
1333494,0,8.922120137911984
1196869,1,9.15910244552632
2785153,1,7.3398057646346215
1675016,0,6.242958013561953
2948014,0,73.03408341029834
2453229,1,4.003033680700107
1118422,1,5.444056086440219
3054328,1,6.56986150312365
2647654,1,7.269210530069476
1466678,0,55.089031669038135
1753293,1,9.080529707541144
2473793,0,11.371249591023759
1756251,0,92.59346661993426
3140143,1,10.78229458330947
231542,0,16.888721503728224
1145195,0,9.30742728558905
3486637,0,49.7298711168073
315504,0,181.4402560291043
1739279,1,4.93470180276015
354347,1,6.697519081572889
1526071,0,11.270258443034738
1251999,0,7.199976600978894
1364631,1,8.38410696643646
3865217,0,7.902094588080397
2701598,1,28.270651496975756
3488174,0,11.643934758322795
3849638,1,0.3373260609867474
605047,0,31.137076925290643
1775108,1,0.16172909054419443
3670081,0,8.148897393601217
194118,0,1.9394029229563194
228151,1,1.2421546727075712
2284649,0,21.310096908907468
2059000,1,5.388233425311421
3270325,1,34.86134458284179
1618316,0,37.27066229318648
3132563,0,9.301332292274022
3408409,1,0.3879323444202452
3673987,0,46.14814376411266
1329220,0,8.094238951976786
1167616,1,23.688141076982053
1624737,1,9.372321740616739
1862530,1,0.5781489783493546
2761814,0,9.650299763565434
1266156,1,28.050749212879257
1667460,0,5.10104172905471
1375659,0,9.985608814322722
556289,0,25.668403520139133
1763282,0,30.98990323276214
1905125,0,12.508492161206458
3499517,0,8.853706403534657
1152419,0,180.81106307767752
3758997,1,1.093991667207861
1704676,0,-0.34306996125397665
608299,1,1.3032234751051863
2277517,1,9.691530364925711
3719191,1,15.146746073192553
3066729,0,21.09927625826529
284805,1,10.511183360858894
2163292,0,80.80533628059193
2765206,1,27.418786849010903
497741,0,1.7545201421144576
1667200,1,3.3291830129757063
3923707,1,4.157519691439954
3472196,1,7.788521400442667
1968514,1,4.700517258032905
3206743,0,13.906414901100499
2984582,1,9.180696466296647
2495730,0,12.102021295685864
3328695,0,30.843271420229435
591565,0,10.010630053080487
3149039,1,7.395215150842933
3938027,1,31.270522569959837
1273580,1,9.322765007449592
2828018,0,11.773651565539062
359697,1,0.5833240831725589
2477689,0,13.760740645549507
3718078,0,9.437921516106092
3497949,0,15.62582659489647
303868,1,0.4784615164734064
1037435,1,34.11345534694187
3540774,0,8.654672889755348
1262080,0,11.47222182872826
1949158,0,11.646776395901657
3413392,1,2.848465541449032
2980565,0,9.71435084435529
2452618,1,75.00904592907831
939655,0,6.921452739355861
1525430,0,1.276049278258654
3777675,1,6.480162992552734
1440707,0,100.59223748244779
246620,1,8.590979182826413
3949074,0,4.574908290919177
2708650,1,19.304298977242542
1374145,1,27.81976017712799
3478448,0,8.997367211243084
1660417,0,8.965201574579837
3678529,1,0.9574450272718844
3692202,0,31.20521304949015
2983321,0,6.184115645609589
1815063,1,7.161862155308059
708393,0,1.020104859333132
2019363,0,0.048702680426493165
3294161,0,5.439562584823252
1946798,1,4.539077833909262
1066871,0,11.048564201255223
339169,0,1.6699771645563306
2514096,1,33.506765011793206
2123532,0,16.800665361202448
2614531,0,181.51256300735716
1203706,1,5.795516898477482
1816448,0,11.365612667463225
1007547,1,2.683972284014011
3768451,0,15.629888616512375
3865090,1,8.744881105352928
2629943,0,12.217410030022151
201965,1,2.9971575948777693
344960,1,3.263310086686214
1712749,1,18.1018315016463
3733332,1,27.70717738948765
3313000,0,37.02701252670037
1297052,0,12.02266852014855
1108835,0,37.84746598111587
3215235,1,1.1500759505298284
3091286,0,17.658676363456046
1221730,0,9.429956479613852
2629942,0,14.14917331851891
3879778,0,160.2197875085754
2452654,1,5.240237882502178
2753973,0,45.5763936483082
853341,0,45.29913605082257
1792294,0,-0.6875802022490277
1822261,1,28.36594008853198
534114,0,4.522332008040365
2433656,1,9.921271711179207
1461109,0,14.055450356508246
2862053,0,6.6413541596452355
254365,1,29.277834603436695
1602051,1,0.37036926650134205
437385,0,2.346481777777705
3365218,0,1.3068383840089934
400300,0,25.982747195777137
848321,0,17.072112878843914
1256142,1,0.06391541233692725
417108,0,2.238383530272566
1497723,1,2.4251896827322135
2449936,1,66.4260639725972
2113114,0,9.966858026638608
3439724,1,44.77229456055419
3125233,0,38.223358940516476
2976852,0,9.81800950591397
1790660,0,38.08064636438142
2509163,1,3.646129532814492
3224241,0,4.104751923468564
844568,0,18.192341310173486
2752133,1,7.673698145633791
3692987,0,5.931888281615866
538198,1,0.5457279155444081
1789741,0,31.428731156451608
335633,1,1.4299713727006529
2449568,0,1.8424279782855086
642294,0,10.405509340134019
2800771,0,9.281242809151287
829185,0,0.26098230894805424
2797083,1,97.88510564609152
3771021,1,6.068740562417666
1913487,0,6.954032669663637
2758391,0,45.80576190370797
1584899,1,3.9826134718207373
2916296,1,6.461137961255458
2476578,1,3.3291895486827845
1727875,0,25.776512138880314
1449893,0,37.63427289418514
927509,0,11.596883121827524
373891,0,0.864215878117251
266808,1,7.094005584381158
1269351,0,1.0560804375075479
2148084,0,17.479202270690006
2167895,0,17.65212918625039
279310,1,4.320992215836107
3843071,0,17.64146445346794
2489522,1,0.33381611397137084
3914035,1,8.440594510887024
3878314,0,5.6847825004650705
913964,0,14.313113300232994
3695708,0,11.655773620191821
317927,0,9.627750374229535
1238292,0,9.948287773170373
1938989,1,4.8167710979060185
3806488,1,24.9958418012772
3912908,0,4.8931220823297785
2857865,0,11.2384440652319
2666952,1,6.1723677237598995
2589886,1,7.392225594667856
1954235,1,4.2743727483110945
473514,0,11.660270151015972
533295,1,22.62121563847417
3369318,1,4.831888092264973
3377681,0,38.2571476887916
1115043,0,50.53179705897185
492298,1,0.29556075070871557
1970307,1,2.986216107590688
961905,0,5.737609937276509
2436247,1,15.949673770478265
3518550,0,9.913015222068008
1975839,1,5.044777769938131
3475970,1,6.110369127410863
2937179,1,7.372283969312727
460154,1,15.526705720455716
1088332,0,99.59530006609646
3339163,0,10.004807381359937
746645,0,45.440161310480676
204309,0,0.924652623795382
2757433,0,9.774698614171166
3102726,0,55.01768578151396
2396148,1,19.055087938300954
1536287,0,40.63665767145136
3144513,1,15.738647989637686
3794370,1,7.168091210630102
2792144,1,5.774075061695417
2931194,1,5.473368216963791
1328038,1,10.369394073131673
584148,0,0.9173205897385667
1350272,0,14.19369098556956
2064826,0,14.53161388598381
3725487,0,9.873189640859525
289766,0,18.915565053705116
2257893,1,6.120940563361082
369231,0,1.550110509865292
1934642,1,7.195529973308282
1835479,0,9.61266869125364
3866744,0,100.07606394107869
2045749,0,55.295451127020215
3939968,0,9.378951758746085
421199,1,5.684184404137599
3139121,1,7.171595268165405
2919565,0,9.413636915877488
3952973,0,1.6593000829940034
2826517,0,46.5410590177746
343391,1,13.125006196366027
2719621,0,7.656255797254513
1371083,1,33.87893855770011
3415390,0,1.006324715774123
1258265,1,75.68666405604318
2931431,1,0.8034001288406271
1308507,0,9.423028518455974
323614,0,6.389541799237883
3418390,0,37.84141584301355
1456141,1,4.488275207049112
1664075,0,3.004185136716093
2964363,0,2.2336297236462084
491428,0,25.219223430551118
3888697,1,13.594350929663847
396691,1,6.9643154603113215
3785937,0,5.204656325299158
3187829,1,33.88405988132691
3329072,1,19.44470131608618
3524165,0,5.535695771901888
1757619,1,8.997013034472838
737030,0,59.84582007580576
3165571,1,1.9187212430948803
361386,1,6.278822434064648
717929,1,27.26636281139012
1353704,0,1.7339948409339123
2971489,0,37.554184820471896
3662941,1,1.6302169252756298
1097235,1,12.468375045109674
398393,0,100.49901843730743
2888606,0,5.368487595810435
1012233,0,2.5789692372862447
2803301,0,60.25000097794009
1494574,1,6.237460225123962
2287059,0,9.723611098677454
311120,1,4.1596198660188435
578099,1,0.7322030924121705
1417637,0,55.54701717043863
2776895,0,44.911645840971616
3050904,1,75.2022897801025
2017336,1,33.80865663347586
349439,1,0.1823277599315003
2057647,1,9.161685769152488
2565226,1,6.565948121579926
2530563,1,34.65637546677499
2571096,1,5.3578935703669615
943522,1,5.509279128691107
1618040,0,9.92326509822466
2135613,0,31.4774029958382
2883727,0,17.316496415271445
2145621,1,3.2215106860845912
961771,1,19.22148083103385
2998874,0,11.809723105210525
221877,0,1.3976031450781898
210304,1,9.385503545973927
1243674,1,5.802072287922971
884244,0,14.619190695013556
2574006,1,91.36716271000644
1943195,1,12.587110627121879
440276,0,31.497508225568122
3271328,1,27.90340214166007
2615919,1,7.9755365321525975
397490,0,7.711604334447398
1223574,0,10.181569797819735
2236016,0,21.45561194950866
987980,0,6.092597844427619
2450277,1,1.9445880860419014
1142485,0,17.4154760826409
2698643,0,44.918592552879076
1628613,1,24.585116033307916
3669872,0,14.005504551541547
1276646,1,7.373907020766547
3324330,1,27.747792819740393
1524881,1,4.379544750604788
1003819,1,6.630084378404384
343088,1,19.512507814389725
682663,0,66.6942962906987
2145940,0,31.42025727570729
2127932,1,6.258524449032924
1388208,0,37.76615216184705
1479068,1,7.0426776168618375
2626835,1,33.738721898313344
1663033,1,3.816997518437301
998360,0,14.718958926623111
3658148,0,1.359066642153544
3241151,0,7.836970108302224
3271852,0,1.203172722129559
3711574,1,5.850527749467206
2205624,1,28.002315417978483
926303,1,3.794038688121883
925968,0,11.68337083975095
3655040,1,27.847684633191026
1433122,0,20.829648917078263
605605,0,1.7156330240335698
3917738,1,1.411762106658164
2887684,1,5.829880512055758
2010116,1,0.6058111548440465
352156,1,74.496336043304
3036150,0,9.46804160629318
1782029,1,18.945713579692146
1068552,0,0.3944000766554981
3231512,0,26.112993359192902
2776693,0,7.127194612530984
1809396,1,5.34183014322796
2185567,0,33.93786526895814
3494526,0,0.5041072570305545
578051,0,1.7386183444144496
1880436,0,1.7133838438845799
897080,0,0.9812668357173803
195805,1,6.3481573196870125
2978026,1,9.826054179878195
394988,0,9.42433335287723
1551378,1,30.74077001320728
1513333,1,3.467759295407759
3674145,0,6.85004932680288
1551523,0,9.541690832251623
2402777,0,9.731058757647135
3465026,0,2.792833999474436
412467,1,30.88920354966208
2677210,0,5.742941817997522
3128446,0,26.752985277683866
1501604,1,34.15404243106478
1120269,0,45.75481588324254
1506525,0,9.472534333732781
3353705,0,1.8642953360874064
3725970,0,31.326561705756014
1332457,0,10.830626516397677
700975,1,6.003033878488429
1741163,1,3.8701829404926373
460297,1,0.8109082883780163
2834445,1,6.632955323414619
3262274,1,6.437485970706466
2846187,0,0.24938829043479221
3541714,0,37.86188185534227
428994,1,-0.07394291861895208
508672,0,55.56134946031128
222368,0,33.3736240657494
1343398,1,13.020634952710699
1915446,1,10.855912247483179
2038245,0,8.944150999698266
663502,0,1.3873650688806114
3656421,0,1.7612962313630174
2796917,1,27.46149599742774
2275627,0,5.119937149370456
294949,0,2.757477546721273
3909306,1,9.136538173071088
1901148,0,12.048407121135359
2276512,0,73.21328568445406
3543635,0,9.76411503106664
3370864,0,0.6267936896775439
1034102,1,-0.4362250309931901
2108323,1,19.571801488606035
1093866,0,16.88283444007144
1902956,0,55.09646777691249
3302697,0,0.6508479834497916
1107939,0,67.10850687302745
2563947,1,5.026451023571194
932656,0,1.5984020987263943
708896,0,11.361904544486352
469043,0,-0.05462892603726108
1505438,1,5.024679493496815
3475913,0,66.67856382130428
1663030,0,7.789394529075438
1344419,1,7.350572870732838
3179721,0,30.90292717097159
1614627,1,13.677615035085813
2988217,1,91.52748914783992
235991,0,2.3122168676336723
1793382,1,6.314712927183267
1550509,0,9.26932326155373
3463448,0,9.357075044794108
3804915,0,7.806962822194571
1363607,1,28.307962380859607
3043256,0,31.399114827772852
1913950,1,11.960011715406198
1131396,0,148.12585718079487
1078674,0,9.42824062075001
1781400,1,10.717818170307527
1260034,1,6.080164877689199
1734314,0,-0.0019110039099969015
374791,0,2.6324341618956733
2896563,0,9.445473578430262
3682731,0,59.89891274367674
3407939,0,3.1349960421649423
1856590,1,3.970260135605229
206674,1,0.7927211526218458
1135962,0,0.5969010538016306
3737159,0,11.665595567779897
2916560,1,2.0551352215807555
3864840,0,23.02745015894149
3444532,0,5.945230714715629
3671765,0,16.981693459714773
631759,1,1.9635126492489379
2523242,1,10.989297355211306
2126629,0,21.286972784903803
3066874,0,1.3420567828543544
1204364,0,12.049125092673224
2706327,1,7.478934642601518
2844438,0,9.508769962832393
3031633,1,3.4591043091864013
2151639,0,7.682050941970194
1560325,1,0.21483131258393093
2978205,1,33.97690580160008
2754085,1,22.911214311689587
2421948,0,1.6799966325990963
2659214,0,9.14754061897194
2587102,1,33.798715614973204
258465,0,21.237572741407977
294459,0,2.060832113704905
2981964,0,11.584499302201428
3466241,0,9.163303105852176
3719303,0,20.978083446714535
1071786,1,7.290760220055717
273626,0,10.07103884171816
1218958,0,7.425153235954421
2469391,1,5.998625880321061
1619310,0,38.95619678425194
317834,0,11.188609774203293
1399659,0,55.74422937568013
488268,0,-0.7169295907397011
2724072,1,9.272127929137376
1344977,0,25.950362814460007
898465,1,4.071690099638811
2457043,0,25.054894160275694
2234674,1,8.3790818179141
2851814,1,11.119418272964287
332554,0,14.239793482238822
537512,1,15.785150784453988
1135700,0,-0.405876977320403
3950074,1,1.5304239296973012
3137017,0,14.289744531614236
345015,0,2.5733342019326058
1116268,0,55.17234811649753
2872597,1,9.28354916435776
2585115,0,11.690564494813229
456105,1,0.9250778316792232
306160,0,4.01469635480276
1761469,1,6.017331754177798
957616,1,7.827091333262606
2411366,1,0.36301533983199813
3071490,0,41.55764697389598
501478,0,11.941858118048273
2644913,0,31.16296366699468
3507681,0,10.620580984865825
513570,1,0.8577198309689278
1135266,0,9.943522981682696
3953673,1,15.716483317259543
590536,1,3.9475165850091947
2872920,1,33.87702377249669
2690091,1,5.666912218728808
1500715,1,15.636975217620519
1951603,1,18.9348624788895
3186363,0,16.906719052619913
2411649,0,80.98539121448279
2681790,0,10.116672885487448
3384237,1,3.7410158106319003
877670,0,101.26503265972804
1107463,0,27.71167075129601
1084583,1,33.89526253783158
525377,1,0.890831586126299
3654838,0,7.910416452062537
3548397,0,1.001329856979289
677454,0,148.06974060314846
3800247,0,13.769474513603974
3781566,0,21.846210626659264
734676,0,45.74368470546049
2806963,0,12.998068311831059
1962088,0,0.11189844245702503
3143310,0,6.537532151003118
3277862,1,28.958752275273827
495811,1,1.2161448862478372
3486897,0,9.733396945282598
2420200,0,266.9930936985272
1283901,0,9.440348201676665
2727015,1,4.93540766316569
1308730,1,9.160426644116333
1791292,0,3.177652048213738
2021929,0,11.428798963438611
1744999,0,2.3216374390055377
701979,0,9.91074705763566
3056930,0,31.152345552132925
489726,0,-0.32875714774418524
801578,1,13.858162737578516
928918,0,10.545062701074741
964775,0,7.3638917851737755
2597057,0,14.263115902543761
2879361,0,9.560844890914767
3906017,0,8.660462495764904
3666619,0,11.82476018865135
3013657,0,13.690497115989062
200634,1,1.0257889328338647
1627854,1,8.884964562516595
1127712,1,7.424995203517832
194356,1,8.688994708472626
1941066,0,11.743128316971449
2671756,0,10.07286978732664
1316395,1,0.46621549132307016
1905838,0,50.27156548443526
3893151,0,8.063049400880193
928959,1,8.774131923899903
3664335,1,4.9633122778263665
1642347,1,23.393391658634425
2811932,1,8.297841511403002
495995,1,19.293886923625784
533113,0,17.132459892194845
1961123,1,3.494078860305861
1433632,1,74.93672642520592
2923156,1,6.29746655962927
1162529,1,0.5319445050652526
1334676,1,7.5004027486063505
532013,1,7.250813843267741
1068501,0,12.173076484375725
1766949,0,5.0857872570806375
3434270,1,2.9516206444892936
1870397,1,13.133798409588263
2490356,0,25.49746603500554
803155,1,0.3773748804537901
1911857,1,26.879415107347324
2277056,0,11.67769018461474
3245413,0,9.71842660222571
1551264,0,0.3251445782621572
3922637,0,4.558518767837428
2639737,1,27.82387770721637
3548284,0,4.141196228529645
2436611,0,-0.17308787166151754
1834615,0,8.475784023684179
3789632,1,27.175216618259263
1629266,1,6.949071485997921
2122789,0,37.66474787912966
2445503,1,11.092716707577463
251288,0,11.587770853104917
2670487,0,9.749724077384203
2748120,0,31.475703952313538
3238660,0,11.388681015589963
1574039,0,38.25047162815573
648660,1,7.43142411896511
2060951,1,10.964038142987503
1335401,1,0.8353246613299811
3262868,0,11.663185721475848
1109880,0,67.52310584336969
3092526,1,33.82732970612014
2390657,0,11.955660252341632
1148227,1,4.547538909304876
3686250,0,10.497627345543236
2017980,1,9.215777295192728
2690692,0,-0.03344673360466263
3759361,1,28.318462921693996
2718981,0,31.333664699848967
672247,0,55.37307910471876
3854940,1,2.0014484891137436
2822991,0,7.834649862157351
945851,1,75.55655976214692
1390125,1,7.079997317780004
2182936,1,2.335598935062126
3887894,0,14.410211827917346
1204534,1,37.28011765470745
3121257,1,12.798894351574367
985224,1,3.688090884761468
997929,1,10.531325782851331
2855891,1,7.473547761236864
3286763,0,17.059899488936445
2232566,0,11.378522790051179
2063063,0,45.9221601102138
1073586,0,0.20572339270377724
1840484,0,55.55720433932475
3768468,0,15.91378135637864
1660384,0,37.24516832746598
452772,0,1.0207904641388081
3086352,0,3.118848769379481
3155625,0,6.658831477996378
1314492,0,14.869425137350609
1531040,1,9.959201798647124
1569243,0,9.892218091469525
1952838,0,14.268991269947232
2526992,1,27.311317710218667
608461,1,0.8324744758834413
1595500,0,45.223866710521406
1483215,0,11.622367287084872
1876136,0,8.109758726995496
3673303,0,11.138734268079068
3884521,0,1.1464088498355407
193215,0,1.1800962707623577
3448624,0,5.954533911855688
1508248,0,56.438582595566004
3841671,1,5.545841099675856
3889044,1,2.60719301979109
3023057,0,45.343764431576005
595341,0,16.76978789647365
1675678,0,0.015018051539951375
997712,0,54.869726524689995
3090349,0,30.899197052221616
644142,1,11.43171224306263
1146868,0,2.777849466807233
524191,1,7.059214856641473
3530697,0,100.11037611429103
2219168,0,12.072143085602445
3891160,1,28.265067688994517
3695013,1,5.292293433741376
3882575,0,41.5392872867447
3199141,0,4.375571805080117
2218107,1,10.786972764750562
1690003,0,5.353378610173496
1158668,1,13.059363682724758
357005,1,1.0753719174451728
3746554,1,3.357265587511144
632549,0,10.205154012955296
1621673,0,26.17324647768785
2118871,1,91.54125534101134
2972993,1,15.54844337994901
2423552,0,30.296831288564967
655311,0,11.72946922401901
1016993,1,-0.07603711168160601
398025,0,37.17044090811754
1623973,0,45.54915185275973
1918207,0,9.581431122846807
3272886,1,27.958086438344136
2808945,0,45.94427593161534
1517633,0,12.096208789183477
2531808,1,5.645002126900012
1994605,1,42.09742173902531
2264511,1,13.582834502431183
2117131,1,7.180984504335402
2167218,0,9.409618381212518
1501448,1,6.284283091914864
2710137,0,7.245024939034774
813014,0,55.731827217141166
202435,0,0.5330618127161648
1959796,0,36.55063631935707
685735,1,8.814693873586798
2858198,0,72.78035644548795
3172879,0,121.96591436516772
3122223,0,17.675777226637603
3211450,1,14.402113728804546
487309,1,0.842409254639486
1935330,0,6.22165768361039
364599,1,8.325183546021274
486711,1,6.487290023226683
2472477,0,-0.031354308610370786
1229924,1,8.607226430100406
3497582,0,45.59132301165644
3045855,0,38.09512049620155
3263398,0,180.1622605033464
1224015,1,5.764660466282296
414927,1,18.81483794928914
2636967,0,131.5780065838364
3277223,0,7.868082348351368
3330452,0,55.41215229946421
2255981,1,8.358657336450728
2462710,1,27.6245705970789
466069,0,88.34706934555886
2940381,0,55.04072212054329
2445944,1,8.437977669252474
1672595,1,1.089002510195425
1697062,1,10.055271958473305
3810006,1,1.0598611674620322
402729,1,6.987689624268452
2858748,1,7.002236600139789
3868075,0,11.573927862126073
2686465,0,8.582174217121185
2757233,0,15.630318786512888
1514870,1,1.133755264162065
2937091,0,31.274391396587884
1143314,0,-0.12349157349767852
1396487,1,9.155235533854594
651488,0,1.6209518596195716
2882803,1,13.44371824555066
2804385,1,7.58592386145912
1764259,1,2.230987536029345
1737246,1,17.51167958541818
3478417,1,22.867634516894153
3418880,1,1.2548681919373617
2793765,0,45.862138469246716
3896931,0,15.437499196811718
1984373,1,5.070401670532578
2623710,0,12.004775262896962
407429,0,9.381969787771393
476944,1,27.857877944043462
2473805,1,23.357547936521996
2646986,1,-1.0942387297602187
835828,0,26.01821385572199
1432615,1,0.7428015583503003
2885132,0,7.908020190767865
1036815,1,-0.5323401640895048
3909640,0,7.4188352657768535
2187735,0,180.3419402457131
1442771,0,11.673219192181374
3460436,0,7.186954412402074
3276132,0,21.726538813273518
1009015,0,123.13660605824995
3844643,1,0.3772221634322491
2875433,1,25.90787344693496
929181,1,2.290657077383036
680865,1,0.9097131266666463
1539392,0,14.308436216389358
1870389,1,28.450716073389348
3499733,1,5.923584579662477
2109422,0,11.501217324663763
3664171,1,6.632428749089953
2723135,0,67.77235418461999
1028992,0,4.2060562251889495
1807071,0,55.14977043432654
712118,0,6.498477606063708
1415342,0,14.696400644992305
2268785,0,38.06415918606215
689791,0,5.598478175224605
1529898,0,17.305383514091467
946845,0,31.822627385715553
2770918,1,7.4120824444537075
657107,0,2.0071072269695143
1703901,1,7.317017646665189
3007224,0,10.653998639699044
3139723,1,2.8463121148433137
3070246,0,9.696451237995335
2901741,1,6.992503128421403
1058544,1,-0.24092018374577798
618087,1,5.808016383548126
420701,1,7.296764067360006
2001716,1,7.00871375297949
3315528,0,81.14866240704211
1992200,1,8.592430465378012
3333962,1,0.747842032528593
1086856,0,25.661371124727008
3858019,0,11.913323157649232
3710475,0,9.984042426392229
574065,1,12.668576619241742
3303733,0,-0.25664475054307434
680815,0,9.274952152945623
2165763,0,11.503001103650952
906719,0,99.72403727949761
2691208,0,31.037661830528144
3192837,1,28.066134814928834
465112,0,7.808682220804513
537707,0,11.45761435179788
1792060,0,14.625396183331038
3077983,1,13.375246441752287
986060,0,9.824133954364518
3030590,0,2.681802106733157
1484168,0,55.8434004986395
2398311,1,19.187996134796187
943480,0,17.221475903809477
3740140,0,11.236599474842688
3918477,1,6.029823873804636
1361382,0,31.257478556401054
1569949,1,7.707598852430454
3951411,0,8.69281655938527
1679324,0,6.144422437961842
1609709,0,21.591450626641816
2411977,0,10.240991252901578
583149,0,11.709295168159006
2250263,0,1.121618451224173
882509,1,6.447788732082461
1231944,0,55.91226008728014
1212265,1,4.808751333553515
3041849,1,-0.34096788353631746
553953,1,34.43225551737293
2723311,1,5.1075397170063725
585398,1,7.150487390842881
3950602,1,34.32584406913534
1888290,0,9.71033314022829
1365807,1,33.575444462520295
3536299,0,11.21968970729787
3804599,0,31.237440161437576
345596,0,1.7652993644726684
2473100,1,5.807299760242867
1035210,0,12.20719776271532
3679663,0,9.340364976403503
2855533,0,7.206084930745442
1712543,0,17.122357460594376
2869653,0,7.227119365375303
1744958,0,10.867002916092092
3548970,0,9.94531775704721
2730469,1,74.26537122643914
3793388,1,19.266903452603483
2924324,1,6.478315837216798
3687774,1,8.818700593556333
1791405,0,2.041687376665238
3456261,0,25.70381668129858
1589675,1,23.332643228700004
406968,1,16.583174037124863
245369,1,60.88326767913589
1086223,1,-0.7225568417236035
2418402,1,13.189680504384263
494506,0,2.5876620402027544
1331159,1,8.395803576112105
1845769,1,6.8681070561764015
2945247,1,91.58148267799065
3490609,1,5.058986650600221
1542387,1,3.390988861533979
2847286,0,11.98228937263207
969659,1,6.188486833039169
1061244,0,2.1321235345489806
3332805,0,55.278323504235
990629,0,43.98451225376691
3276126,1,5.368664337569649
1551229,0,10.773124601547568
3669556,0,14.386107754110885
1952649,1,14.655977803254627
1498230,1,7.172837877047306
3909721,0,17.37168884063334
2140334,0,21.857912431855087
3462287,0,55.85664186847745
3483255,1,41.426386099322976
459836,1,12.610322624037718
509667,1,0.5930041171383404
3265908,0,0.9726201470908741
967897,1,0.50197820112989
2929508,0,0.37033854994399906
1694426,0,5.8410478893714695
1093352,0,1.439309907636714
2271202,0,9.514524332587905
1638039,0,54.87998880343205
1041517,1,8.068341759674201
532788,1,10.651813550449141
1380123,0,45.41466775506041
3864753,1,20.78002028603184
697080,0,4.279656391316904
294576,1,5.0898562025935
2620571,1,4.60218641966574
3690575,0,1.2160099580900234
2715141,1,12.784216418632997
2715241,0,1.3511213325856852
3059470,0,43.980959693547774
1113896,0,11.045909026422542
1949923,0,29.99331666937064
273249,0,26.049389554095395
828108,1,9.932576019487508
3653181,1,5.575594525500273
331954,1,1.3940806485753308
231045,0,1.2196521601234485
1026327,0,0.2996786882554685
1568931,0,9.150983019593589
3289072,1,19.288214172594383
2842490,0,9.311475949273529
3683308,0,8.805481853947503
1046617,1,6.073759694942862
3202670,1,3.7200555279625327
2725141,0,121.97480789975886
1003625,0,17.371171611541413
2003626,0,9.711588823808286
903231,0,5.0688254645867685
2199183,1,6.481525196051737
727465,1,7.3092743476276985
1772315,1,6.041431198947718
283836,1,0.5833760012264921
3763088,0,11.41101239646697
1890850,0,11.546725361772047
1830056,0,38.09056807215213
2015309,1,9.010400466621798
2810932,1,4.3287014050259485
2721199,0,17.072049206666684
2648557,0,3.436285409358059
1289703,0,54.882880944857014
1113872,0,68.48238093803701
3123901,0,26.10336095678974
1316539,1,6.085665428184013
1101793,0,55.408189104283025
3427543,0,24.905498015307618
3183453,0,31.09132495806547
1438671,1,8.598128818478784
2214550,0,17.304075113675744
210637,1,6.028979476475234
2730092,0,9.249518071495283
2902514,0,11.741919812840548
2986363,1,7.361437331833346
3664051,1,1.4170525067293123
2005606,1,10.912310429330946
398699,0,14.272035810891408
240253,1,1.0226932940695215
2886194,0,9.808077751216342
464138,1,0.6674309052142582
2741918,1,0.6850855753203464
1134031,1,10.224207435707036
3653267,1,23.511654059650677
1457148,1,27.734699964072824
1097136,1,0.641516817720822
730479,0,11.503629333784193
1516229,1,33.59552006542177
3724618,0,45.48426472284697
993088,1,5.353810401626814
3310245,0,21.193745380782232
2649151,0,-0.21042532076971449
1756511,1,7.393083017020531
677838,1,0.19625274398841863
656880,0,4.246791076539327
1467075,1,7.16318553709823
3487575,1,23.01038408658655
3054111,0,30.896595515742874
3115524,0,4.812029970563767
731424,1,0.9023506704860387
1775298,1,5.849519823750096
750352,0,30.3825748277867
1538353,0,45.158888759421274
3877306,0,14.751951412446969
1496129,1,7.237323290272299
3866505,1,4.101506858713682
2218985,0,3.8459706325107788
2486780,0,45.44139315989462
3402543,0,20.68532372215508
299835,0,17.15476583941569
1270949,1,34.05781688222114
2999989,0,81.31206129538579
1771836,1,6.583335238059705
1099693,1,16.24035826733261
2470912,0,5.702481797365828
407469,0,9.328802639749085
3273157,0,31.02288342511207
1553356,1,6.776965951220506
1267906,0,13.880761488723609
690508,1,21.094583933110943
2125379,0,148.39530556917845
3930489,1,2.33045612718334
2781990,0,11.399117793782304
3175606,1,19.691329960569394
1993821,0,67.2921140533783
3123373,0,1.1788685686374423
873399,0,1.910077324009103
3234896,1,27.692481279233714
1987849,1,-0.3901691083979325
978568,1,27.891634075893823
372063,1,1.341419854919717
3837748,0,9.088385599328067
1493461,0,9.148079649052937
3858925,0,7.863080936768415
3428488,0,38.20342788345228
526986,0,9.271923154742165
1146209,1,0.09395410350073607
1195028,1,6.376633257704315
1917871,0,122.11473084856358
2731468,0,10.01191862979742
3050284,0,45.608384320077576
2189804,1,6.28783049594961
3040627,0,13.87155544609444
3698742,0,17.528514244296662
2992914,1,7.662235353724361
2436001,0,8.291540490770103
1999029,0,14.317992955691324
403975,1,8.513505143216982
647839,1,7.265035855537953
949597,0,0.3253322147544369
955502,0,17.100718247531262
486617,0,1.9171693397081386
1884085,1,13.681574720903447
2116770,1,33.66658466479474
838025,1,0.5579299561237254
3700512,0,11.427151815962526
2987722,1,8.329452394851915
1454990,0,11.516428821219312
839748,0,25.8150327694651
1549993,1,5.755223664124984
1942118,0,24.296220598430892
603430,0,1.6630054775584102
2199766,1,6.039542576810604
3380648,0,0.9636904082601434
2156771,0,25.62319659816806
3216649,1,27.836671209227067
3787042,0,41.03529152398833
2053200,1,7.630183485699587
1483769,1,4.821103580319097
233739,1,8.545300983560699
722121,1,0.9699403448389091
3336749,1,0.723632249937228
1077741,0,37.99675485149304
2914280,0,16.902052253061136
2748141,0,180.5618716319087
225712,1,19.329150440660353
2496904,1,2.6073360966235546
3439092,1,1.278509282654913
1365642,1,5.3104490861938904
3309703,0,45.20611861285408
2760059,0,-0.24052752954437182
3199230,0,20.76301424011773
3854191,0,17.25335234871045
583492,1,0.9808393835695997
3749255,0,-0.5736367429337869
1061691,1,9.83786654792701
914930,1,28.547499324197375
3958059,0,36.91976470663022
2177031,0,11.429323156806758
1493553,0,31.58675874801463
844956,1,5.594087513462279
2663189,0,45.487849479774354
1124619,0,25.243034245756114
482788,0,100.62082909308337
1471624,1,24.130568406002215
2120832,0,9.950691048982856
1171057,0,17.070065745205113
417152,1,-0.524608768246956
900181,1,33.75488713467227
3226792,1,61.766184017720285
3018022,1,5.838070411555737
2622674,1,2.5635660007491334
3243010,0,9.801555840189515
2178484,1,0.9892556665205416
2814092,1,33.975080085843835
2561928,1,36.765904546858295
1954029,0,6.2712805405004675
1083540,1,4.9598164592881515
1961097,1,4.481737118477472
1738447,0,4.50221527685439
2819968,1,5.510581074686277
431369,0,8.901960526083245
2912766,0,5.118922157501014
2217520,1,6.733728622710471
2008507,1,4.820431965923289
3062838,0,13.473271206761975
2697576,0,6.2874832958705005
833835,0,17.613138327021186
3477640,0,1.7515948352643458
2696715,0,17.317123763921213
3912397,0,31.033891879640127
1267308,0,9.503492291593714
3777927,0,25.145410480478734
2662080,0,-0.30343218003641864
3931924,1,0.9440466066136695
1478046,0,25.458001795979747
1082096,1,8.453549420246736
637203,0,17.247242670107063
3005869,1,5.340803494197975
2156918,0,8.48086154835555
878599,0,0.20893830520795767
2531953,0,9.561482148410093
3073194,0,14.209629025778531
3856223,1,12.653827786464703
2963549,0,66.47354987282412
1438495,1,7.067321441400052
1881764,0,16.953295510791612
3059469,1,50.02554825410295
3454966,1,4.829685630230491
1196773,1,34.14635507461871
2796348,1,5.476014238768888
211479,0,1.8572720052585219
1289402,1,6.224500067467866
3868639,0,25.840194874975467
3887755,1,0.390372237837633
998439,1,5.935166903315145
255740,0,0.7822957755015265
1958297,1,4.272135575176694
3846121,0,11.498813323574756
881836,1,0.935322517534144
2168849,0,55.938035432050626
2393000,0,8.868158724258123
3027881,0,45.647189344810776
1019553,0,44.94146520006708
3854963,0,9.539475233484275
1721753,1,3.4087573930828987
3021830,1,0.39089757134395814
2586873,0,100.12604405264518
2232231,1,6.751567831442968
2835255,0,12.224792200903341
3875602,0,33.32065492097343
904987,1,5.257369119354956
514478,1,10.045709179996791
395943,0,1.7988243439720402
374520,0,11.783691422611113
3512738,0,17.99699274325227
501836,0,12.117622176657402
2115336,0,12.575388508316319
3381766,0,0.9346217739025268
1458532,1,34.15574526175979
3117809,0,21.512345313327813
3855527,1,2.8545018715965864
1379031,1,10.436004060618272
348346,0,11.598890350777008
3063842,1,6.9146461211682455
2839934,1,6.35022351358474
2196080,0,66.45106442549101
2711206,1,0.6389562842254827
3690317,1,5.9964779510700925
1025165,0,147.63067721240924
2660790,0,26.17011137798925
1608233,0,8.841087468130194
3921940,0,21.564732549905745
3215867,0,6.624892196176482
3848857,1,0.3095101850806972
3239378,0,11.134325746876645
1863702,0,55.81966117215326
904725,1,12.891874662788682
272823,1,16.899893888043575
2624043,1,23.233235316207967
1611247,0,148.83970483815995
2629337,1,8.95319291861879
3936451,0,14.000608025972717
349384,0,1.534077768117878
2249383,0,37.952574679702
1962856,1,4.644552122046856
247866,0,6.943823502459643
1747849,1,98.76294299537865
3658068,0,1.7372410517300567
819006,0,34.447711528119704
2873077,0,3.7639137613419797
2623101,0,5.107572071247508
963097,0,55.57029981888376
427179,1,18.883403609193383
1145247,0,67.29102960025774
1879955,1,7.8088057447564285
2221729,1,13.165032797815398
2107779,1,28.13847274486356
3133185,0,37.673449263597284
3167333,0,0.6660240693995905
823858,1,13.61394208111971
297766,1,3.6005721938245485
3651019,0,45.22098490637688
3250516,0,1.2068760319768446
3701927,0,1.3210884863750396
1713508,1,18.28083679604372
1455471,0,11.407437324347203
1661608,0,8.82249705568098
605811,0,55.68670239830388
1161998,0,14.343751306698632
2283242,0,11.598645023345238
3033706,0,21.95223764233299
3234814,1,34.1786664086308
2055799,0,9.067989370661468
232610,1,0.3246280029742227
1256591,0,11.344850012773753
1614260,0,9.623700890502585
2537136,1,27.838278968849405
2149268,1,20.620491534635185
1584234,0,9.659233127898574
3384459,0,5.343422955337746
597445,0,2.4315817361484067
1166167,0,12.027485101994758
2577680,0,9.462736450784751
641912,0,21.110038690647233
1018934,1,22.644921940538666
3909317,1,3.251985601756715
934768,1,2.173370359309729
1474973,0,7.556062207705373
285098,1,9.22435814195155
1485164,0,8.447954360941447
2160014,1,15.732408001591166
348552,0,2.066905682464603
3657799,0,12.786151698039465
3873532,0,21.10082329021019
3228020,0,9.555351129821215
565971,0,10.00399089758062
3460386,0,13.91899534929799
1618035,1,1.3870163505937363
3420455,1,3.577623000808793
2927509,1,23.033219388850636
528164,0,1.8948857803931762
2782431,0,8.986253295561173
3699255,0,-0.1581684081845869
1461964,0,8.340740545781605
3015415,1,74.94434970892215
3922921,1,6.038481730089785
3020417,1,7.106472536613605
1732696,0,8.600482804499388
2138677,0,4.948225177337319
1885594,0,11.734374785704484
1000907,1,4.159541439871063
1074580,1,7.18919206298883
2685300,0,17.611298244206438
3372350,1,0.17310022618403664
2225253,0,31.878083368155558
3019812,1,27.448120587511387
209268,1,1.1668512094380916
2938544,1,5.700184860716559
2926364,1,13.380000690543778
1825854,1,6.774003069878586
2655945,0,37.54404034186056
2467696,0,4.20131499723031
3047713,1,15.309031987423559
3466754,0,180.59516174390438
982985,1,15.598553091592846
3904231,1,50.69393589171608
3443937,1,5.497901408018941
3317027,1,4.925892003314556
3298370,0,1.7987662353909863
734572,0,7.261391689764756
1273515,1,13.663162836375545
997566,1,1.0779142454008126
3940999,0,1.4958471670022822
3783515,1,27.15265645016332
224314,0,1.542064992849824
1620316,1,5.555855136974373
1823749,1,6.021488287916118
2606194,1,27.736006748571125
966550,1,7.003527484351015
1539261,1,27.40986409015626
3735235,0,11.058317282080917
383934,0,55.817479011206174
1747931,0,21.266761689117754
3896492,1,2.504718967748427
2163918,0,21.217620977344385
1156169,0,-0.34856219227138996
3406914,0,10.424797879319383
1703113,1,4.113105330121446
560067,0,13.559954165761587
3877368,0,7.820586036761113
3096348,1,6.605706630412353
2236875,0,13.87681321863087
3880295,0,13.608045874993199
3068477,0,11.287914559705584
1303844,1,7.024134192413961
2439161,1,0.19479994146180213
2803031,0,5.764302255254667
3281757,0,25.14577106882023
1827429,1,27.83778428514374
544898,0,9.727397426658381
1624443,0,11.85422422535327
1670144,1,4.353567296994604
2611247,0,44.74247342693157
3329461,1,1.2945147052220862
3046787,1,28.627700693855953
1789236,1,5.5314800688302626
399279,0,11.532674951669323
544185,1,75.14343345990575
231137,0,55.33190716662076
1934155,0,21.154814593937413
3203766,1,4.216034276989778
1055359,1,16.00373486692624
597610,1,1.1600113070678983
971724,0,29.921978739008757
2974117,1,0.3194902685475919
3905310,0,25.721136825120595
2509884,1,3.940660306373889
2644653,1,3.4345776281754494
585335,0,2.9113987109911363
844246,1,9.552791993562067
1693499,1,4.489310785233441
3692328,1,7.094356759576233
3071154,1,22.75166170991762
1882097,0,31.303394255069605
2633073,0,19.09677694520994
3292624,0,7.775881057538178
2848569,0,17.230932685085634
2713848,0,5.17454567253776
3230621,0,45.597416002383575
1709576,1,9.28938648897048
3866152,1,7.534648328108823
3756787,1,-0.028368105008749343
736961,0,1.7699204156436388
913676,0,31.22964105856591
2613121,1,16.08881988404819
1847196,0,10.325689457830343
1543045,1,5.852234304793892
438269,0,82.01933529350603
1942130,0,9.487690649695553
1912556,0,56.024051641048416
837720,0,0.15930310497332223
1071110,1,15.884347909398704
3183268,0,148.86289847684492
199357,0,5.580058802477544
3072569,0,46.167608800667956
699203,0,13.69411333463462
2808655,1,0.5936388589723249
389192,1,6.3612003033774265
3182736,1,1.8060724428941775
3006844,0,31.0335859030636
3717135,0,1.3143905298647187
476111,1,4.81783100496161
441472,0,17.42144973219397
432467,1,18.56559902102103
298319,1,22.663200458728515
438024,1,44.66423949929273
311576,0,1.2018196272494452
3493937,1,8.679325926742179
413451,0,12.23307482485876
1714301,1,15.278029741297402
3787624,1,9.440822053896284
2909792,1,50.839735091561465
2719140,0,219.85620800280833
531410,0,-0.43399451840770314
3378753,0,37.990574216104605
1425946,1,19.08336431691545
2781088,1,4.286132572770281
3186779,0,20.03217741465555
3099366,0,46.525191524012996
924998,0,45.90153762523938
2106255,0,20.934679522494143
1875598,0,7.909919409054122
3833206,0,15.673213128844015
3924593,1,9.226837350306464
2022824,0,45.44937944709464
3915226,0,9.45496603924342
1900588,1,6.509620591941433
1018687,0,9.590590942782706
749067,0,9.940429655802843
1391328,1,28.162997378359403
828103,0,25.41767746578701
1624723,0,148.37341389102735
