sample_id,z,y
1124409,1,1.5304708658744335
550611,0,1.805000769537464
1203285,1,1.403043558121671
2837896,0,1.9441835956061877
1834831,1,1.687424651763834
3231033,1,1.7575616217597245
3953024,0,1.4475246933031862
2650588,0,1.6420982076809645
357889,0,1.431844977318585
2621495,0,0.49266611378615266
347519,0,1.226918206835527
702049,1,1.4754744876954162
2782762,1,2.0318301615018592
3950074,0,1.2379577132970272
2217951,1,1.6294070306161594
1602146,1,1.723266658160229
1017716,0,0.5920598947363978
896292,0,1.7013170980801464
3112420,1,1.85305536292575
1366852,1,1.4734332234862741
3870251,1,1.5616363790673906
558696,0,2.1050788902192155
2885040,0,1.788507988421816
1374005,0,1.748804573517494
1670206,1,3.062664807483138
3015746,0,1.5990535390836231
3476154,0,1.0478833653611281
2591649,1,1.3665296820904183
1404375,1,1.5178648561322503
2057638,1,1.9277659309711945
469597,0,1.8035135779545455
262979,1,2.2002357032848137
2413921,1,2.1030144272271025
2534324,1,1.3731153301430363
2915924,0,1.7552031255913687
840746,0,1.370717133293534
1284337,0,1.3805935523705593
3393258,0,1.331570105497033
2757257,0,1.4835200726242987
3420235,1,2.3437580983216395
2881870,1,2.1356402260277045
3880313,0,1.486642689354532
401639,0,1.661736325272527
2444585,1,2.4605181280128567
1159381,1,2.086360180348846
1902423,0,0.8594029542401324
3399568,1,1.7603473986361327
3103426,0,2.0518481562100037
3852616,1,1.0192568595132194
2249179,1,1.9625678382203953
1266587,0,1.142358746469177
3699733,1,1.9607812599190193
1969872,1,2.1600962640977737
657204,1,1.2235308353193373
1443295,0,1.4814783722996991
1580862,1,1.3912598720544165
981736,0,1.6901591187104117
586757,1,2.0734600338827995
2623974,0,1.5078128006904032
2720061,0,1.0658671483400641
2859434,0,1.669966687276563
3148286,1,1.5507845874373323
2864444,1,1.2510186453635983
3843434,1,0.7821705371913956
3692800,1,1.6693754198603836
3759984,0,1.391871004400924
1716903,0,1.9540026591093764
1975665,0,2.0524312061447283
3383356,1,0.9421818687775741
2524221,0,1.066928958950463
1605689,1,1.6753483842410153
694524,1,0.9468205885862805
1966696,1,2.666736958177239
1220027,0,1.8318777259308439
1810704,0,1.586923998488593
3656358,0,1.3284287762370188
467750,1,1.800552363368502
3806658,1,1.6486941581688217
3687311,0,1.506565189244828
3662338,1,2.4968148586278347
3541801,1,1.9140821568536377
269075,1,2.0127014623225077
2883335,1,1.8841970907247676
278193,1,0.9104917543336248
1522554,1,1.4552382648475548
3760100,1,1.7826590315314292
1138125,0,1.3933519509756136
3191725,1,1.7924578959860973
2058037,1,2.253178954512448
1594475,1,2.2804117027051403
755698,0,1.7993505774276533
2508487,0,1.3748906870135396
1524661,1,1.8656798079663326
954640,1,1.6872627463706598
1207042,1,0.9539246890806012
972924,0,1.3463467614586244
1373078,0,2.242122228341377
3386514,0,0.9469811174745604
1236277,0,2.203003729486516
2147680,0,1.3812181352125872
1356760,0,1.6742523185929823
2675979,1,1.3816261019308194
3438493,1,1.0396529228570461
418691,0,1.328561286045029
328192,1,1.9985439521701651
333968,1,1.0629361581042698
898530,0,1.0118454797592211
2162013,1,2.0024267545870855
384148,1,1.4192025600606084
2256121,0,1.4071013945787472
1000812,0,1.3764005294551978
1137116,1,0.8935072791700354
1992849,0,1.9455290244834804
251488,1,2.120018601713551
1091973,0,1.708997908115752
3482621,1,2.135591635890108
299155,1,2.368641397977635
1709936,1,2.6069518306575556
2866723,0,1.1876558788577545
3948754,0,1.5561330041341004
442917,1,1.6961304370608923
3391336,0,1.584091744299566
3122533,0,2.1947016180157366
3405457,1,1.3615334848787932
1424518,0,1.5210940149171042
2225500,0,1.002939719232904
3390722,1,1.3258622028672795
2166354,0,2.017479633153784
3057423,1,1.8623628191650985
3739116,1,1.1347947128409455
1560485,0,1.2009750357406372
3457774,1,1.4540273228225689
2495899,1,1.549492783466111
751586,0,1.04483271271162
3480807,0,1.9847701812865144
654845,1,0.9336420643965723
3720893,1,0.9343280862532164
2002181,1,1.998977257328568
3951240,0,1.5919099202509215
2552897,0,1.5812440067088698
516150,1,2.039658282747203
1051896,0,0.9285314986287342
1474461,1,1.5479513759393995
929206,0,1.068673639206453
3955549,1,1.1958931271154971
2707366,1,2.362440262562612
3547249,1,2.0195785404772377
609567,1,2.453702456137361
559536,1,1.783557895633014
2804601,1,2.636195473233295
2535968,0,1.47478374237857
1624043,1,1.924867532645965
3534752,0,1.3606742923459418
3357765,0,1.0958578030767354
1195502,1,1.9207876946392393
1876916,1,1.8403969307925214
810740,1,1.7476291752103652
2396513,1,1.5622626333403558
1516545,1,2.263994001315981
2728377,0,1.7563649279006368
3877519,1,1.7751797781033312
2546388,1,1.7387663869718488
1430853,0,2.0424863680705516
2476098,1,1.4987460286135716
3895472,0,2.0834005138104983
992151,1,1.8613473301647727
2647778,0,1.3420981616804082
507722,0,1.6590433346352293
483821,0,1.7305595515347978
1831804,0,1.8807793051133075
2970921,1,1.4637139863776047
3379166,1,1.2863169030305432
866021,1,1.9493357037173982
1147142,1,1.8451618559624927
1442736,0,1.9837821277803922
3653427,1,1.8402679258396162
3772995,1,1.7676719732018682
1222864,0,1.8208658051011712
1662684,1,2.104199581517492
718016,0,1.4481950560656807
3029124,0,2.0938864924106264
1773842,1,1.4453059833936386
3936637,1,2.0096976143421954
581963,0,1.4207983785357792
491008,1,0.9711828941038122
306163,1,1.6430513658784465
2422284,1,1.5721277828439226
473337,0,1.7708006684709996
1289241,0,1.8659009378488556
3537389,0,1.6144802843953185
2275327,1,2.5765224918388174
2681081,0,1.9138452839628228
367091,0,1.664080648714071
3515303,1,1.8237979534477755
701232,1,1.7342848751030504
2764160,1,2.443161719008999
2422266,0,1.5669234759972201
3244421,0,1.3510127708185602
3461918,1,2.068019771981717
2190768,1,1.9007579058833544
2874013,0,1.056954109563319
1980730,1,2.8954331111225553
1581022,1,2.0345406594307844
1772197,1,2.1990264179280543
288434,1,1.012759095846577
1531671,1,1.7802341929767127
2561928,0,0.7975532878746125
225252,0,1.375691773401492
2945074,1,1.1108810415930976
1640448,1,1.9972598738112852
2427855,0,1.9218335900065973
1808737,1,1.5524895721416254
1944018,1,1.9600830899616355
1713299,0,2.180373023403942
376909,1,1.916644931235223
3475143,1,2.2766308847774877
2819068,0,1.4029469411657862
466548,0,0.5204579808776413
833815,1,1.809436201441073
3041766,1,2.190064208309855
1123790,1,1.949614066092469
3279529,1,1.514984726322686
1122434,1,1.195491469297932
858575,1,1.5917012602390557
2859110,0,1.6224117726967753
2830792,1,2.189196701549957
934723,1,1.4126159945209584
1600585,1,1.5208506642293043
1728321,0,2.047883596812023
2455640,1,1.2616684479846323
2470452,1,2.233226993757179
3683563,1,1.8901134841457738
3220004,0,1.337932291304096
2709256,1,1.8609446727788377
1165336,1,2.0865677871744213
1961682,1,1.770831781109281
391001,1,1.644077686015397
3106939,1,1.4339287530585563
999879,1,1.7575550527045822
3157671,0,1.4566108005935952
2172369,0,1.2538593568360161
990452,1,1.8289440157645398
2657505,1,1.2685585955986296
3128230,0,1.308820087288208
931027,1,1.333793192881734
1121252,0,1.1621174541119188
325674,1,1.6887538569373601
3771883,0,1.9706267038776946
910387,0,0.9717867272795859
605309,1,1.249535075184367
2701806,1,1.8841257994802334
3469091,0,2.4831921551980383
838283,0,1.860039202105415
886635,1,2.1800407814897618
1213933,0,1.6937462537508245
3473743,0,1.6375952658029327
2045611,1,1.5130891680865517
2890601,1,1.0169936412422313
661373,1,1.3921566173255584
667486,1,1.8066211885675145
3941561,0,1.575617589701092
2800126,1,1.5280569502861803
3106980,1,1.8662391095536024
1021567,1,1.7950630327200143
2858397,1,1.6213321000481968
3249879,1,2.1774109636731755
3270101,0,2.2074371863636277
2400593,1,1.2978375898744041
520029,0,1.2678562230211603
743187,1,1.5247924140030498
999972,0,0.5660425641674024
1091171,0,2.2455811207308702
1672479,0,2.3875516319847545
3404368,1,2.0354031749275165
2767205,1,1.9247071327048204
2013118,1,1.4732528054730687
3739173,0,1.9945217292829502
2160267,1,1.818760566846754
1823887,1,2.1348919962656274
2488919,0,1.2030913404945889
1824163,1,2.3565726187347247
2432715,0,1.6620835568020471
3504878,0,1.1260061645491402
3928249,1,1.1994812798036358
3400372,1,1.382662541924164
3110366,0,1.5121755701454815
3037002,0,1.266398719743582
2887834,0,1.6523205305457187
971462,1,2.052051657140401
489688,0,1.4909362741613768
322440,1,1.3623368013966082
859249,0,2.0155748396920146
529761,0,1.3673652228331112
1512547,1,2.2820910664215166
3662985,0,1.5611224459953728
1089786,0,1.3346156281361368
1192566,0,1.3817107239285615
503580,1,1.515837478371796
3108879,0,1.4965576319848346
2890474,0,1.559202915855647
721832,0,1.549457092529604
3105815,1,1.7637263208155716
2947696,1,1.0542176705186237
419443,1,2.1776511282402167
1119641,0,1.820126498709583
456042,1,2.0360258172265446
614369,1,1.4490141909993481
677641,1,1.3004565646674557
473309,1,2.371580965109236
3199212,0,2.0648247546386824
2524490,1,2.567469421398999
3087147,1,1.7312785284124304
876419,0,1.427546344594838
3166708,0,1.9758034208876518
1783636,0,1.5706736881086674
1537168,0,1.6067993489822305
3101677,1,1.5701516891104126
2197368,1,1.5844024509536536
1854646,1,1.7091325022714747
491065,0,1.9516048279116387
3651356,0,1.849694052206284
1494687,1,1.4218534543379517
684477,0,1.2021431780525325
3848154,1,1.887006508629313
1483200,1,2.1321228767020104
3730491,1,1.5315007425827931
683543,0,2.014788996430949
3733036,0,1.4540142126188298
3884652,1,1.6265846825111736
549725,1,1.5306798018993473
3689832,1,1.9205569910332076
3330613,0,1.6709741543970844
1475688,0,0.8342302573922648
485952,1,1.532246529415922
2933365,1,1.1601629822574524
334292,0,1.5716656534437279
2835816,0,1.292878974757519
3677607,0,2.208429838082136
696522,0,1.4341008552217607
1153226,1,1.2862945918687891
626750,0,2.326269661682146
660880,0,1.3951013929390572
3542793,1,1.6845948218478695
244614,0,1.658339370363505
3790885,1,1.6828070038737866
3382783,0,1.639825853171494
1410102,0,1.9663759822344353
2027513,1,1.4913943572307231
3226596,1,0.6987510995820231
1719453,0,2.1609472202067344
2679308,0,1.6633895760365707
1004214,1,2.0788368832156414
3181178,0,1.5704648778330355
1986676,1,2.113220876875372
1787241,0,2.3540083564553766
3358643,0,1.3468890941095557
1162513,1,1.789392842568108
2543864,1,1.3304844000343516
2946434,1,1.566574184689708
620432,1,1.4278007681611073
1335512,1,1.3707920771726814
1018653,0,1.9823838527129642
204631,0,1.7519044710383849
3034477,0,2.238862090996191
485012,0,1.3762685015296996
2232957,0,2.0795535317189606
3909232,0,0.8798029981218043
3083494,1,1.611877691198058
415725,0,1.6176291636805067
1475477,1,1.8043408406743031
3437634,0,1.247593930562591
848497,1,2.27220087614368
1706855,0,2.2096160204843542
504604,0,1.6425361468128281
1632499,0,1.5013735694768762
497916,1,2.2497895157023633
3660517,1,1.744614230846827
1818075,1,1.6264931523447785
2838386,0,1.3941949748922506
1982230,1,2.2775751334665784
3198590,0,1.4624309295290416
2533106,1,2.2485121131589256
3669681,0,1.3035214028178967
3159676,0,1.9153732360887379
1055071,1,1.7289662451390793
517454,0,1.769491812361585
2534356,0,0.6041006871614714
1973205,1,2.073348867688966
1518365,1,2.2786719263809663
1383456,1,1.1854764182026658
1010012,1,1.962609917507109
3381662,1,0.960201129289671
2685102,0,2.0013195322944126
1661831,0,2.454519871929851
1751644,0,1.8770873754971447
426686,1,1.532776655871189
458041,0,1.7751064200430915
714280,0,1.439922613993729
2650740,1,1.6461756286169174
2917748,1,1.489993123894589
1205892,1,1.9876341071805732
2584485,0,1.4285586945690394
1110099,1,2.144762008251058
663190,0,1.0796419851846686
2742961,1,2.1779675914911705
1662015,1,1.2067517948425537
3341068,1,1.8398038053422545
3291369,1,1.5179610422185061
2126555,0,2.150166960018307
379602,1,1.429238600886095
457603,0,1.9727912730999424
3909699,1,1.302750324540747
759938,0,1.301659012307311
1698393,0,2.1709481537311692
2147875,1,1.7748198565127449
602600,0,1.7520353666601978
844354,1,1.8614586897381022
3303146,1,1.8366336628493432
3840830,0,1.8953634707405613
704221,0,1.5308430585832216
2248360,0,1.421242544400782
3717896,0,1.7703819048319829
602126,0,1.367215256612867
2598449,1,1.5545189335314025
323886,1,1.2480388214999107
2796660,0,1.28272505003502
3262094,0,2.5240127436457387
2478311,0,1.4764459125847869
2549139,1,1.8475145498037038
2131247,0,1.139111861157787
3230009,1,1.8980329027688283
2161269,1,1.4502636757097465
550160,1,2.7590234173008237
512340,0,1.6472124844029084
2945138,1,1.9651708388024194
596812,1,1.6853031226497879
2711370,0,1.7740758230201894
436844,0,1.3085501805209645
1967071,1,2.4283717703670846
1165193,1,2.170518559558374
1026735,1,2.028075213462273
1439985,0,2.1018048607694375
2062126,1,1.833831475705807
3747966,1,1.494828766792664
1473982,0,1.1441989257785061
1201130,1,1.9407528656026773
2021134,0,2.338223865414349
2211666,0,1.6467515056607365
734752,1,1.5697701842627327
458984,0,1.3393203067292492
1231132,1,0.9168379813123846
1715688,1,2.5138094561579547
3678439,1,1.0403282082438747
3389095,0,1.7095745377765308
3057870,0,1.4181286244587512
1001335,0,1.3169911529825202
2594175,1,2.159181667877143
1826258,1,1.7628962293085941
3047737,0,1.8434952399700804
682685,1,1.5284879696147595
3089374,0,0.8447748011734587
3002238,0,1.148955978157086
1840432,1,0.9126166663682277
852986,1,1.3737957865002366
2999608,1,1.8973899275066741
1620329,0,1.9970022683232567
3878053,0,1.4557640936020333
3940350,0,1.2294047774387815
259504,0,2.004965106703496
209829,1,1.69480280385619
3280502,0,1.8791645371138725
745290,0,1.4292533695497238
2245065,1,1.4336786144176907
503615,1,1.2066202005372766
1199764,1,1.5416282934003684
837262,1,1.464620065030177
3785603,0,1.2872477788270529
1050081,0,1.749930528095357
1807991,1,1.991650282475498
2132442,1,2.498962753507967
2001192,1,1.4369260067617189
3245781,0,1.4229848177156343
3356285,1,1.3697558503728073
1940781,0,1.9416967375928225
1628087,0,1.7385128898479774
3182670,1,1.6343792032967133
951481,1,2.3547833092024004
3428812,0,1.8352990604255544
586521,1,1.5421692943453351
3012375,1,1.373694330373148
3482854,1,2.0666925517908834
2725519,0,1.4063400789505351
1916689,0,1.274575156793583
2455483,1,1.579490101881178
3430309,0,2.2145516964590146
1669099,1,1.9910333850701039
2608395,0,0.6218004272208306
2044129,1,1.0329954243337514
3702607,1,1.6578608553116103
944978,0,1.4396767649273006
2564030,0,2.0558717033087444
976295,1,2.075091645765628
2469515,0,1.377844158227085
2582530,1,1.5389763075810992
297351,1,1.5026370157255926
2649133,1,2.213427651637532
1504524,1,1.3750217157143694
1508375,0,1.5653753191021407
1097361,1,1.6452112185055026
1227157,0,1.534955710024645
834740,0,1.6841754466809506
2787727,0,0.9183964000398017
2977139,1,1.8260469185362675
2047322,1,2.4017432070460334
2537446,0,1.670303011886483
1692945,1,1.968231053147092
3525236,0,1.1279398326308452
2434386,1,1.2299398621171505
1361239,1,1.9188407000241379
2894268,0,1.9031955904310631
901375,1,1.7860580200034728
823631,1,1.5785812783493818
3200086,1,2.114349407700181
917537,1,1.6071541602333068
3921140,0,1.09667646379455
819656,0,2.156166496746257
3757838,1,1.583386223655317
3015921,0,1.3623844361538577
801167,1,2.423158799369665
2206416,1,1.7974450635992179
3782288,1,1.4449642243980216
1534435,0,1.7290428682046253
1315049,1,1.1554312505798743
3959973,1,1.438008391893019
2630729,0,1.6442343359806264
1096850,0,1.6677424887947307
3527205,1,1.739509136445887
2866738,1,1.8440604085411756
3259134,1,1.3262416915083188
3292543,1,1.167377349475443
2000961,1,2.0579763461091796
749572,0,1.898635398739101
3942201,0,1.83800979132319
929085,0,1.6493275955475106
2670830,1,1.4967806020935113
3369318,1,1.6679554920051958
3914035,1,1.636963757628756
1723235,1,2.374981131587342
1417589,0,1.2392903046705839
3423231,0,0.8966435968690031
1300391,0,1.2722877862557407
3932072,1,2.384007606785781
3230153,1,1.0122768259466464
1571207,1,1.4132051912748942
3773753,0,2.405925719434348
2540359,1,1.4571811402715524
2803142,0,1.3022373689420748
3910413,0,1.620281067407023
460419,1,1.4409086467881045
3474402,1,1.214430673705405
2930333,0,1.0578309521291596
1387634,0,0.880940016296877
1294718,1,1.8574853637009014
954559,1,1.2690335707881601
2762292,0,1.5290207408093843
2625577,1,1.720251149647665
485844,0,1.800941118060862
1095264,0,1.8072498789491085
601548,0,1.1536143858658647
987897,1,1.5346142234251106
3930332,1,1.8806099497818705
2063165,1,0.9101915677099737
3671105,1,1.6392421398929393
1274935,1,0.2533589115486975
2853001,1,1.3260334348068965
2584214,0,1.5426496009184856
2064334,0,0.6372907458334326
3895409,0,1.9211847086702623
3846126,0,1.7175001539087145
1016166,0,0.9366175012571605
1972157,0,2.9473203176562306
2391531,1,0.7541371741420397
1031976,0,1.6868129568259773
1720250,1,2.39805882214787
607851,0,1.5007741381780313
834547,1,1.435759039060989
2612269,0,1.4949319518891184
956626,1,1.304633393412361
1485270,0,0.9192330585477659
1626610,0,1.1362455988609699
1454158,1,1.208216170728258
3245461,0,2.309095034954601
3394261,0,1.9243841583931838
3098265,1,1.763112656982955
1914769,0,1.903952958252423
245873,1,1.557521128421474
1166224,1,1.8754174991572559
2460446,0,1.478070248287606
290912,0,2.1989331668001437
2799524,0,1.6155401135497818
3868945,0,1.1564233037272187
3002013,0,1.8421378001484814
3335122,1,1.9287802174032813
2272503,1,1.4309591403493962
3686387,0,1.081548024633383
3948950,0,1.103988361509027
2605515,1,1.878562641338303
205881,1,1.6090726194243805
905938,1,1.5982103281499063
3885558,0,1.6330207071441603
243302,0,1.5113278741287228
2708400,1,1.398223510190974
1210592,0,1.8247612004042408
564282,1,0.5639809917990276
2994581,1,1.495974535265626
3360094,1,1.225537961254194
1211463,0,1.8360397180823473
2997992,0,0.3465692238326912
1296954,1,1.2157961429209418
917699,1,1.2616092524704325
1967205,1,2.5261801397160792
1822376,1,1.9735151523509238
2027809,0,1.1141508721788298
725311,0,1.9155402954018352
1820764,1,2.190332123402123
1316431,1,1.466487851561005
849042,1,2.0479206082283783
2062367,1,1.724084259097169
1116979,0,2.211985579345973
3865895,0,1.2562604701451328
2746384,0,1.6504620252851911
1616559,0,1.6401592324114134
343743,0,1.7874428744376465
1689179,0,2.88360273676532
3185086,1,1.6364615600091987
2837035,0,1.2367856344459707
3008185,0,1.7299024161308385
3853879,0,1.7751540485410389
2411384,1,1.5673609889779583
812177,0,1.450378006728509
1461866,0,2.0389856232548356
3836411,0,1.8758559438216154
3389052,1,1.8501702416055208
581776,0,1.7883766429519434
1556458,0,0.7242490874282461
1529057,0,1.481092730870251
1326567,1,1.712991523215857
2986497,0,0.6278236477541077
3252580,0,1.5554467237430467
1147180,0,1.1704283644714224
1869728,1,2.3709537238637206
844246,1,1.4901271474717295
3279767,0,2.9444855529135263
3955999,1,2.1569190429881546
1235048,0,2.1396492194648755
2106640,1,1.2534201500680793
2055452,0,0.47480541293255796
3755187,0,1.1746487291138865
1706707,1,2.2110402069156962
1934399,0,2.3078813978869794
1690983,0,2.083300704021774
3701661,1,1.36574550584396
1286100,1,1.2757637618502489
1328226,1,1.5271841534245505
974514,0,1.4986843279866633
3522717,1,1.1996562238458615
1981239,1,2.1864853487223486
2217970,1,2.0191940786425135
340325,1,1.9937293824839155
2752989,1,1.7410134128941086
3366560,0,1.5765542847443048
3895808,0,0.9793869386589916
3444554,0,1.8805868882468226
1600636,1,1.2215903325827606
2872401,1,1.5511568451132327
1751462,1,0.6711394402911837
3223697,0,1.207154441445951
2284467,0,1.450663689901816
3196106,1,2.7489301182039005
2063641,1,1.3882441327795254
1054505,1,1.818144456451904
1335566,1,1.6743999584364786
1543851,0,1.1403976642297176
3456343,1,0.9983097218383991
3318440,1,2.025325865734537
2825608,0,1.6046919791616883
1793382,1,1.754508956331515
2820252,0,1.2016722039694354
2742690,1,2.0362034237033084
400456,1,1.8857071465695938
2514569,1,1.414701720679813
2238766,1,1.5433272830550029
3102325,0,1.31848028823589
936958,0,1.561854408967241
2237733,1,1.881462610812631
3091821,0,1.1473980512330477
3476662,0,1.3453586703924063
1304648,0,1.375724800679923
1768763,0,1.033888433116482
461394,1,1.829985660614467
587016,0,1.424560133722634
1214585,1,0.5735428925482571
627882,1,1.4478288211674024
3070199,0,0.8899878817089698
1612400,0,1.1844962919081308
3851767,0,1.4456130309213593
1439564,1,1.6616291084235866
3856294,0,1.91386827615531
1117393,0,1.3154653886560763
3113341,0,1.517928791205579
1522059,0,2.2324455060549946
1814414,1,0.6743409672021128
3056890,0,2.0576833310867144
353084,0,2.1055902743775654
671902,0,2.042576164077304
888239,1,1.9856460733223469
3875644,1,1.4125000277894826
3806334,0,0.9722146928116955
673494,0,1.719165775138447
1900022,0,1.3227007119483818
487221,1,1.6215020243156177
1969412,0,2.0073299325100176
2981673,1,1.6161457952603981
346433,0,1.557370778229152
1763560,0,2.20076257351642
1113283,1,2.0423424634988727
589115,1,1.5033182908377227
1096241,1,1.8901358675404303
944981,1,1.690560441304654
2543470,0,1.6057420226100825
1666573,0,1.8350773426419347
803423,1,1.9502086589893044
1142290,0,1.7891886575472757
3408461,1,1.6666075626813612
1997877,0,1.9014834091674642
991594,1,2.0652220282731744
2858152,0,2.048093001632398
2789328,0,0.9648507608951441
1996469,0,1.4065572213554953
3087165,1,0.8931380694908521
3918158,0,0.1615533629428661
748182,0,1.2839747660313519
3681248,1,1.820114026521459
3846558,0,1.5805926068773615
1007129,0,1.9433418120352535
2927395,0,2.1004479098949185
1594685,1,1.36835371069839
238622,1,1.397120500993916
1645938,1,2.205318036165922
2798143,1,1.9735905331798955
3247585,0,2.374433530408842
248182,0,2.3275109953620143
808493,1,2.066987804462354
3548722,1,1.6198296909430288
382611,0,1.833390556586105
3454425,1,1.2653090352293357
748382,0,2.1172597018058283
3167080,0,0.9458848765327973
3055571,1,1.2635033834856246
2460981,1,1.951714055608912
878093,1,2.017269150341959
2935081,0,1.475810223356602
643968,0,1.8353933188254123
3914491,0,1.6421394434220846
2783765,0,2.0383346698756433
2638320,1,1.6900808263430345
3247565,0,1.9803469508106024
502775,1,1.362879715869859
565193,0,1.2059051417369846
2477167,1,1.7135667106883028
2116400,0,1.1949441245428032
3061332,0,1.6707615704921275
3132378,1,1.7580722340475967
3163798,1,1.2191835051913085
360067,1,1.5577560101180685
1074625,1,1.2861180391545357
1485326,0,0.9107775754833675
2597661,1,1.5247989471215533
2667847,1,1.3762558968252407
882914,1,1.9025415260019443
3930878,1,0.9821735346880165
3085914,1,1.311092538592232
2253110,1,1.5618753310737212
2143302,0,1.9512935011860233
3404109,0,1.4349119480897312
2802181,0,1.4569488515976208
876963,1,1.934650022222402
2454744,1,2.516931014983541
1833168,1,1.80780573608868
1440889,1,0.44839712586982405
1023384,0,2.037071949348225
3932478,0,1.7217899586582
2585434,1,1.2755571389252762
2223846,1,1.5644951367989413
2752898,0,1.752942711092207
699579,1,1.1887970781288058
3748681,0,1.659711099568163
2832747,1,1.8388233121307669
1994683,1,1.5755057047223846
377176,0,1.6819615276830098
3545459,0,1.7090844654971156
1220898,1,1.996847855889575
1015079,1,1.9212160383365455
3699937,1,2.275733489522033
3335777,0,1.5210088041179344
1325519,1,1.405398695502321
3139290,1,1.275407007542753
325290,1,1.0619388300358423
1840400,1,1.7142826602605195
1416479,0,1.7346332427638231
2279681,0,2.458389596552505
2719521,1,1.4196501542312068
1006242,1,1.2768036313324604
1692583,0,3.492213369473027
3537040,1,1.5419013989744377
2726991,1,1.4314537960789646
1702319,0,2.8711011374635698
3226133,0,1.7942869798653365
3047994,0,1.944788476417111
2229618,1,1.753078829951247
2980191,0,0.25155644614209716
3777606,1,1.8652763752585952
381078,0,1.94396198270452
1946699,0,3.1729453285398215
3145333,0,1.7960746368608502
2054096,1,1.2118394118527755
841548,0,0.5173453172279721
2107054,1,2.0164970632990227
3182196,0,0.6569380391417021
3014519,1,1.5337022421677085
2912371,0,1.002359609684199
251854,1,1.6935876169966249
1674053,0,2.145308276490977
375343,1,1.7731595217959135
3869050,1,2.1146861828972514
1304264,0,1.4448545250307951
386610,0,0.6527837235057865
1117205,1,2.053486627656334
2847972,0,1.3632578962707422
2641834,1,2.068295825123222
3757967,0,1.6071411847537826
2677565,0,1.6020198616416195
440356,0,1.8480957371109699
617208,1,1.7666363718116038
690487,1,1.9499311354403237
3237746,1,1.3266959705272654
1358935,0,1.903614413713089
619660,1,2.1348551194723706
1837019,1,1.8936419934379944
1267722,1,1.430885160120165
2680623,1,1.6230673751363478
2984725,0,1.8033036215784564
3391702,1,1.5139756905505388
2245855,0,1.334778198972887
2630212,1,2.0363063401021937
2457625,1,1.6842535852882874
291993,1,2.114662177247266
1094414,1,1.242055523142445
2823529,0,1.245118489914095
2205624,0,1.586471682109873
3886388,0,1.4857265764738397
1979243,1,2.454789834969327
2774848,1,1.2806255977265737
891848,1,1.6488394682527725
1890985,1,1.2348082077288898
1898565,0,1.722763677073232
928313,1,1.563697914905447
3362243,1,1.2999348589893769
580727,1,2.090276563448283
2483097,1,1.7951453415566154
340583,1,1.7719649696037996
1989895,0,1.3624953089356304
2257562,1,1.5393604478784242
3037025,1,1.7710115200210874
2684831,0,1.5078163606043093
3536769,1,1.031147642356185
3676437,1,1.4456859315172363
2632677,1,1.2158469518100912
2147475,1,1.1097602925897416
3853579,1,1.150437268681661
2465049,1,1.6149721382336706
3440341,0,1.5412550782007726
2776865,0,1.50165246289969
2800352,1,1.7603194540741383
1479641,1,1.5724779828882645
3775290,1,2.5994579449730963
3115968,0,1.759973710941068
2224685,0,1.133359061119286
1419026,1,1.2940960216363575
356127,0,1.5601106686497705
305758,1,2.234330341218394
1022720,1,1.9076568707060295
1222453,1,1.0003845401413063
525882,1,0.9396236030897573
2476637,0,1.5214589954642157
2945875,1,1.6160989730054403
1742755,1,1.6291344700966208
3908929,0,1.7231419819983256
1258050,1,1.6104062888107056
1829757,1,1.6630876034736297
1848515,1,1.67126827308882
1721021,1,2.165604323532739
269549,1,1.671114372707514
237774,0,1.31554274069969
3167900,1,1.7257874742987676
726629,0,0.8176435882932231
2449673,1,1.6454112107858925
415562,0,1.3450301233295638
882368,1,1.1640853714937291
588686,0,1.457886793922378
828411,1,1.8823738751168675
3216698,1,1.6613399479892763
3005232,1,1.3543934659571417
2107779,1,1.7109869493857095
2787423,0,2.734006573930154
1641012,1,2.01059387009774
3837756,1,1.810140456435367
3383618,1,2.4292833036785257
760588,0,2.148296104856191
1094194,0,1.5541024729982584
2458616,0,0.7272634399391522
3192880,1,1.725975294906225
411586,0,1.7383340225931498
278332,1,1.6128083529099375
1162213,0,0.5518235443458397
686106,1,1.2327488366861956
3317629,1,2.2775656610163297
1635837,0,1.220270531740257
3110111,0,1.0810499677595744
2132902,1,1.9877446266969727
3849901,0,1.169267630477066
1148919,1,1.6889761700141304
1218122,0,1.6491182236738737
633206,0,2.4142790205997136
2707529,1,1.529883437449842
3698063,0,1.1297635327360687
2495754,0,1.236192275594592
2752660,1,1.2374899849957726
209428,0,1.1951696046539353
3242243,0,1.7831604394126757
1079221,1,1.523944802494435
1227388,1,1.8549099451476065
3515492,0,1.819017392494448
2396750,1,2.146025247737936
3885738,1,1.396893728346096
2904775,1,0.7171547724518228
1461409,0,1.3146141762534023
2006146,0,1.894024732858135
3724027,0,1.632472185074307
1811875,1,0.19853643172412416
3277840,1,3.2616571610255676
1257256,1,1.6319279831920517
993158,1,1.538922271792621
1605582,0,1.595897330818275
1572136,0,1.7084479595916766
541399,1,1.772225240504825
2825645,0,1.4404656829499176
2679218,0,1.7841575308504525
2748325,0,1.3601578905380007
1862886,0,1.9440353637443133
1092478,0,1.4382181932734035
3941488,1,1.814391578998232
3355092,1,2.088495190566297
823411,1,0.377736178615934
2676055,0,1.1655143052814108
727381,0,1.548225966265815
800161,0,1.4025549804480588
3441460,1,1.8367687413746385
2820554,1,1.7254979872192817
513784,0,0.41714276550525575
2573829,1,1.7428368635469023
3084888,1,1.462136734328243
1599184,0,1.6088701355929935
560470,1,1.944262910895962
416261,1,1.6466033499729316
231649,1,0.8174042532311111
3898764,1,2.4017973152135292
2982997,1,1.4372963568516997
3200592,0,0.7884502779012845
3781543,0,1.74861549582952
1663525,0,2.9461694640726224
2790976,0,0.9895286916533407
288422,0,0.8794685084698942
1784757,0,1.1248917453787408
966577,1,2.080309263746779
3473850,0,1.5274542840137977
670621,1,1.4734948271324493
2729596,1,1.5641210634034226
1345360,1,1.4968017900917578
2852746,0,2.0761887943937407
409932,1,1.7974336636594233
3708981,1,1.5498144141167431
2806124,0,0.9646413375033428
2006421,1,1.7066305078536717
3655092,0,1.2793351615839472
655333,1,1.4658996365199393
1375418,0,1.6509639807533172
430523,0,1.6111934610450485
3754990,1,1.3551951441108911
292830,0,1.4142491032117046
3848680,0,1.5339068078864622
2627555,0,1.9331392400578782
1082125,1,1.7441153433070367
1541865,1,2.2913322091219106
3944914,1,0.8494553044450833
2736568,1,1.58135351596618
1333843,1,2.1226874645583225
571264,1,1.8938613848167436
881406,1,1.6000263863861006
1130158,0,1.1216958349772888
390239,1,1.9790488509100888
1165222,1,1.8938157648328826
3448511,0,2.263116986483517
901292,1,1.6356938369997698
2802173,1,1.414304461748506
1827429,1,1.6430748382288447
252220,1,2.1179635728985056
2635354,1,2.146279241747453
1084555,1,1.9238295445762852
2547770,1,1.9171906179826734
1595241,1,1.6466092096765075
1822631,0,1.3942983017140071
714120,1,1.2459688615319198
734913,1,2.34050491296097
2673467,1,1.32372071702774
2834352,0,1.8922095963162588
1873926,1,1.4713576543734734
683971,1,1.7507278022286596
530421,1,1.995774474081337
750946,0,1.865849122335272
3322852,1,1.3751319924931205
2758391,0,1.8999103099139925
2691040,0,1.3454465184777726
585895,0,1.4549172555197893
1364118,1,1.7442499114550698
1129342,0,2.026730110316399
2630990,0,1.6343369395427954
3009196,1,2.2381344554038183
2553690,0,1.8869953209118902
3305018,0,1.5977447756377454
2235621,0,0.6672757430236418
3280370,0,1.8154645795709292
3121940,0,1.5356268617872648
2781003,1,1.2945907589464531
1443028,0,2.1847766409242877
2966721,1,2.071310464054568
2212888,1,1.7021068795026966
3006361,0,1.5303189143174478
3001526,1,1.911611253454157
2428373,1,2.0583928694053872
496761,1,1.3738894734206473
3924140,1,1.6555435592059096
2594948,1,1.8333605889871978
1617909,1,1.3388855965611093
1817870,0,1.8927260209639647
900122,1,2.3340393712138474
202416,1,1.528347245984551
401937,1,1.5709467876999073
3795430,1,1.3128444371269092
712186,0,1.514166210819475
2559066,1,1.7239790721389225
1016053,0,1.8537131405064546
3240543,0,1.1665575390418086
275332,1,2.993084510466752
1204035,0,0.567250831148834
1495340,1,1.529136398397559
2032126,0,1.1568464115371313
1916102,0,1.702970568314467
2149324,1,0.5017469794177399
2106952,1,1.3132172868784848
2921892,1,1.2306578050583201
1001873,1,2.0580341178962356
680135,1,2.008194485600905
1494529,0,2.0080298938422985
2427296,0,1.1931428576463456
2825838,0,1.0963467100415536
3751126,1,1.3438173273940635
429708,0,1.7679424679232165
3153836,0,1.4364161292340567
2656729,1,1.684426842085841
3184517,0,1.5244145335903128
1380203,0,1.7559845073014813
1620718,1,2.107455840364055
378221,0,1.255365555242788
914435,0,1.7662669206713413
1761121,0,1.5156634238151527
718764,1,0.960220787537943
990629,0,1.8965402130613183
909481,1,1.6566807066904337
845111,0,1.830601055549478
3425351,1,1.2264490335865845
3248767,0,1.6733286915893577
480927,1,2.534083808087507
2465947,0,1.9055311762884322
2279826,1,1.503280204491102
3757897,0,1.6717178394287304
2778372,0,1.0415142409186982
2611188,0,2.1384093201796173
3778699,0,1.1112439111873975
754053,1,1.7685440023392482
552090,1,1.5123314919079724
1006677,1,1.891195125745365
2434781,1,2.2561505606284964
920317,1,2.551040512787422
3257532,1,1.7353485569748575
2273462,0,1.3298445826443897
1618435,0,2.0478166810147624
2716086,1,1.8472856509502606
1023825,1,1.868240963564669
3071424,0,1.334582501810202
3075402,0,1.2445585240519093
1296551,1,1.4596343278514219
1025392,0,2.4887824662408606
2014313,1,1.7837632575541376
1606708,0,2.007290367067616
526648,1,1.583592045508907
537505,0,1.5173771385198913
3259292,1,1.725301463957258
429017,0,1.538768723303485
316324,0,1.0192812036049943
1014336,1,1.2732215978214385
3328056,0,1.5276061598193111
1456631,1,0.4611288965272211
2613873,1,1.547642579093855
2586212,0,1.1285376410344665
3162347,0,1.6062559311894433
3370310,0,2.003110255327347
3679841,1,2.098124729801966
1287185,0,1.5932864249594563
1373263,1,1.3020158388419587
1539449,1,1.417163207505135
559976,1,1.5244070459954453
2488152,1,2.4183097096791943
3495167,0,1.9453302584979641
3435780,1,1.6906022861793897
3782862,1,2.1552001212721716
1446780,1,1.4635127676455273
729036,1,1.8699929531064627
1048064,1,0.31080110897952684
235557,1,1.4415984474814727
2587840,0,1.3555106077439454
2825768,1,0.9740811371620582
2433331,1,1.4703986574166772
2159759,0,1.7445126319281274
2716570,1,1.3563525856621355
355115,1,1.4317860293187272
2560869,0,1.230468161307151
1876126,1,1.8062903974318836
3457473,0,2.410873199977111
2560292,1,1.4523946624662767
2055827,1,1.5268248328738543
1815754,0,1.6861705450385902
364132,1,1.663706228153476
3299584,1,2.352943680465807
218764,1,1.2549876087327587
2125343,1,1.974874349868315
1994103,1,1.463853818388334
3885156,0,1.5597710664805522
2934944,1,1.957086841264047
1718013,0,3.4673425769429738
2476235,0,1.5887221836973098
1409388,1,1.8810859056397982
3195588,1,1.5439732823781798
1305549,0,1.6736944455011868
1294141,0,1.2531312480147554
2633021,1,2.05422428458692
2492350,0,1.3802154823011783
1987272,1,2.2049074962197683
1406660,0,1.5819906466052105
219123,0,2.0382702941465967
3132430,0,1.5041405537021202
2885898,1,1.457863940319798
224332,0,1.9367428906284396
3461620,1,1.1533836185427575
3019912,1,2.0436497573685752
265887,1,1.9768666516840272
203561,0,1.1671902417896696
2486980,1,2.0189839884581944
3798027,1,1.7501319367856314
2991602,1,1.931181519183673
416622,0,1.8859881544697363
2579224,1,2.029452087276552
1745580,1,1.5460033566424594
2621987,0,2.050942929795322
1901141,0,0.9733442579746974
1511525,0,1.7253960008046023
526197,0,1.3467150666111696
3070914,0,2.3304004330681467
2038349,0,1.8994500589414307
1625760,1,0.8380636212323647
3073606,0,1.3355545607365653
2045775,1,2.2683481246789916
363206,0,1.7394088329580386
3421455,0,1.774559663520554
3353409,0,2.3723913138950774
622861,1,1.7109178245887289
405758,1,1.7926200102446053
916883,1,1.4890295813255825
1432164,1,1.694168886455736
2856441,0,2.5748989419483657
252608,1,1.6366217260184357
1390684,0,1.3717717204876108
2771617,1,1.8868258453338649
3370716,0,1.3935938609650744
3119859,0,1.4910110313688598
3109732,0,0.9443423660269415
3051231,1,2.1772737076118407
289449,0,1.8520685528472807
3353856,0,1.5409201590716841
3745968,1,1.5979409485281895
1387368,0,0.5032719725562373
2879421,0,2.0704689768482214
2683561,0,1.6461980499834423
2896982,1,1.8072909476859114
1272573,1,2.112961252291973
619347,0,2.2129750303723155
2439198,1,1.8950252996367378
2860299,1,2.0900637901257766
1233854,0,1.6861453849906047
3786350,1,2.1940292570931037
2150504,1,2.0502857712745732
2393825,0,1.4432280412362657
391400,1,1.6921983888033199
2162611,1,2.1085507835703465
3313262,0,1.154101161216003
1167397,0,1.204576455004915
3477787,1,0.9003463240724302
1045158,1,1.7084557715338453
209414,1,1.675379325566456
645896,1,2.1079976718675084
958137,1,1.4698822888409557
1307259,1,1.700039165799184
1127881,1,1.7567741130295151
2145236,1,1.4172476983292266
224891,0,1.8014529805644839
679658,0,2.470127093691656
3750328,0,1.3174789137046863
1364643,1,2.5802556152025193
526704,1,1.6969155378848002
1951747,0,1.7438525876523092
2909704,1,1.788759165640063
438431,1,1.910411932318769
341724,0,1.6749239353981717
2172293,0,1.5031496903121262
3071131,1,2.4709934169417584
2872395,1,1.591174559195015
3685084,0,1.8986618184712238
1480454,0,1.7271799000433599
3840233,0,1.8048851295884654
1093857,1,1.7443327123639205
267870,1,1.653683051126426
3654074,0,1.4206193810007062
588828,0,1.402844742468612
600287,1,1.8330737052283306
1831978,0,1.4834979326710234
1829390,0,2.1671782371501047
2598568,1,1.3755402055702344
3194374,0,1.8877640284877069
995367,1,1.7155211494512155
1966536,0,2.7233653991984577
1335610,0,1.8914276413982671
3734883,0,1.8381215921050862
440067,1,1.6470125619865912
1220375,1,0.2644360322255677
3514174,1,1.7256982174668378
2122002,1,1.3006098906636392
1195306,1,1.5075740216187463
2221531,0,1.837583009353271
3491510,0,2.171617371225211
1202183,1,1.6244981421147942
3703054,1,1.630763252895703
1844270,0,1.4807315286183682
2932110,1,1.7256187582655014
696191,0,1.2825211985372251
569280,1,1.9693044518539935
524423,1,1.3048168530082935
3006680,0,2.3304694369942567
516031,1,1.6958602030584058
2933943,1,1.0811069952587986
441151,0,1.3043235192362457
3471760,1,1.4390651443803482
304707,0,2.2387794480364085
649308,0,1.2390607461807623
3754297,1,1.755654863275557
3530923,0,0.6361026265154462
511163,0,1.56403264284629
226613,1,0.4456515782580343
528233,1,1.7985050774764084
3138111,0,0.926323304866047
1012145,0,1.8699096037426717
1828613,1,1.6280663125981658
3030982,1,2.046732946767177
2731831,0,1.7854013229384962
670635,0,1.5115277264576639
2114649,1,1.9325628356539206
2578101,1,1.421283840860438
1441047,0,1.820135700661299
3943729,1,1.7964793323862973
1677946,1,2.3909332184459293
3690856,1,2.270690650634111
2199696,1,0.9496600226186622
3146933,1,1.4791378573200888
681606,0,-0.0041600931795655605
2833913,1,1.478695720981168
2216032,0,1.110351282974288
2975533,0,0.9106976607082606
1500669,1,2.1297539065253828
823705,1,1.9249819762981715
1963999,1,2.091027019328216
633051,0,1.7669342430230868
3193931,1,1.5819028592435032
2726271,1,1.7573149936041765
2393234,1,2.0233404615721344
3099786,1,1.8109990666038802
3461113,0,0.9524591682069122
2746664,1,2.0579205155622216
3952069,1,1.6385074868891147
903521,1,1.248948781098274
1225046,1,1.6893132472185137
2241759,0,2.00070525051263
3152000,1,0.7831867402670075
3003947,0,1.706398780968299
894795,0,2.149468449855592
3136595,1,1.513305956588569
3943528,1,1.8192264713950281
294294,1,2.149098476351692
588253,1,1.5459462928887286
2107510,1,1.36851917854435
1512882,0,1.7030133534378342
1883115,0,1.581330826599685
1864150,0,1.1688675463889162
1382468,0,1.220532427538669
3383861,0,1.6079337012052384
494528,0,1.4895557505251893
2402559,1,1.6392706563266959
2700102,0,1.2561249904575353
2016232,0,1.1588403501974873
1621316,0,0.44062521735722493
3656584,1,1.39655424403536
2123045,1,1.7289190210498335
3108006,1,1.5644513366489363
855846,1,1.524688688260216
547567,0,1.6845116237987354
1001316,1,1.8673552767728865
3133441,1,1.5471793358009442
1503989,1,1.7389846466012118
638567,1,1.9470611205441404
3661731,0,1.8140577938479925
2733030,1,1.4821274370673414
3229008,0,1.311721137396535
1726320,0,1.8483916618545575
846317,0,1.8296925307844738
2976088,0,1.628082472311077
2437631,1,2.0694148330624587
2567736,1,1.5758951135302828
3533508,0,0.715177988221839
1528543,1,1.896473982567378
908802,1,1.0391402635432512
753254,1,0.4755473675165399
2795546,1,1.9292449983153055
2494333,1,2.323925160397959
1693241,1,2.4555704023225116
3539533,1,1.6881581016029
2877918,0,2.2599265253233485
2500185,1,2.4073138618981957
1021325,1,2.234055988523652
3158570,0,0.9351868139041754
1611250,1,1.4921139262304415
2273934,1,2.0263683813402293
1662023,0,1.9843927106917127
2671868,0,0.9048491292136631
1537131,0,1.3478322455812803
2884036,1,1.7813323723081156
235167,1,1.6922093595239014
2823715,1,1.7852455561984903
2963784,0,0.987128447675621
2830452,1,1.5452708725849356
2053938,0,2.329343274628801
3127236,1,1.7000628836565896
396691,1,2.2610924879909335
2278900,1,1.8671362449613125
2520993,1,1.4802061944364038
3678376,0,1.6789649161739821
1371067,1,1.1750051518219558
1448579,0,1.6959377506876103
1614441,1,1.7833380011745938
1553432,0,1.6228827065840157
2919067,0,1.3396583040633065
1350880,0,1.515368173679956
3092889,1,1.7512139063939818
3684940,1,1.3820659635342625
3001404,0,2.0845194925821646
3100425,1,1.9167141689014047
736334,0,1.2459667176514846
1524512,1,2.081949093792414
3670060,0,1.8337829116458855
3849155,1,1.497979609513785
1792940,1,1.9372379986183539
2823467,1,1.3809583320337204
1636642,1,1.3119162418219352
3161613,1,1.8647298882061702
3883648,0,1.4264364864555548
1709132,1,2.289569298833501
2988454,0,1.9440539301371387
3101806,0,1.7095549405661585
2638604,1,1.2265003900902431
1963791,0,2.3011345955543447
1411813,0,1.6628652396254593
1384187,0,0.45136918513176694
1907708,0,1.4681883517719405
661063,1,2.138633844241826
2061123,1,2.013545575280066
940384,0,1.913963067808237
1878535,1,1.7959833095537847
1973112,0,1.9320516793532563
619926,1,2.268561069255057
3060401,0,1.7422452648722675
822706,0,1.3979950745413297
3809187,1,1.3281401995769024
3425421,0,1.2714253657427133
2923325,0,0.675695431936081
525153,1,1.6618298403836105
3350697,0,1.0966688052583713
2664227,1,0.8830001911455274
3041618,0,1.972036000873772
3080867,1,1.8490444348466595
861725,1,1.9511033559715756
2804035,0,2.294636391944003
3048911,1,2.069363091759722
2580776,1,1.9920197172269387
736571,0,1.4581604487158968
234475,0,0.8380824371644852
2251851,1,1.9991396875442426
1418658,1,1.8872322365228875
1918839,1,1.489939574248834
1760050,0,1.0163505760187126
2434873,1,1.4989526873572203
359784,0,1.5177240373938623
1595765,1,1.0758147902082942
1850453,0,1.087353294744773
1734824,1,1.806171109956319
2517623,1,2.0189189902571423
837574,1,1.7124317066553438
2543116,1,2.1398474368729796
1983214,1,2.7082211150947653
1475857,1,2.2662028758322106
2275084,1,1.7443875127656805
3364365,1,1.190678194072815
1249722,0,1.6771024004416362
3224170,0,1.5342065085907135
1282399,1,1.893758822062092
2273453,0,1.3230600724669177
2812289,0,1.8142436718287636
1512202,0,1.401943660222715
496013,1,1.6409805160324642
3037100,1,1.333243747220156
570921,1,1.5550278343292327
3064436,1,2.1139240096110887
2209288,1,0.8794106736048501
1570260,1,1.8478595593770022
3883732,1,1.352125460083771
1254583,0,0.8696047241459187
2175947,0,1.8067280178051315
3357655,1,1.871884436701318
1719343,0,2.627326117284654
3079947,1,1.5835320812320632
2714491,1,1.8240965781063396
3457465,0,2.0931073809099305
1986171,0,2.400329737652675
2702821,0,1.3140392974851363
1555184,0,1.9089157181229637
866580,0,0.9548532901753022
2920546,0,1.7541726153156867
3936191,1,1.9325242080078848
2422586,1,2.449448007711304
3832886,1,1.6736314470819393
2848427,1,2.122298321215651
2836564,1,1.6432456900757557
3065267,0,2.0571660843639634
1676988,0,1.8808407663506672
1105423,0,1.4820909259511572
1329663,1,1.4621026312582464
2435137,1,1.4108969574686459
2831268,0,1.293384832498974
1816232,0,0.5678244592941186
2115336,1,2.3727720581932026
1990334,1,2.180700530731458
2111023,1,1.6575612396804211
2202887,1,1.9705161151252275
2399016,0,1.7554144188343408
2693363,0,0.8757233243430803
851049,0,0.7028584030134435
3216813,1,0.904835536006686
2562294,1,1.8068761380217353
2060922,0,1.4213721411047644
1511817,0,1.2175399209682607
3779264,0,1.515247116250847
3833570,0,1.5637200346383577
1043066,0,1.2989171052822783
2136511,0,1.6060143223911152
1300081,1,1.9035874815103695
2831915,0,1.6975179804170666
743075,0,0.9676671297010871
567016,0,1.2122960241545988
563113,1,1.5728333286168206
2800750,0,1.7731822819283882
2515975,1,2.37454350897418
1783570,1,2.237820026377845
3543824,1,1.4222075558606202
3424754,1,1.0170625612922095
2250078,0,1.575306083210392
1500370,0,1.5172872115094667
2946763,0,1.8119322025448708
2197767,0,1.8855868854369648
195500,1,0.9847675545246406
2197173,0,1.7484465614905722
970337,0,1.2090289020540648
3806537,0,1.2171186625658774
922667,1,2.1157447500964643
3429015,0,0.48483971024314965
1788985,1,1.2225990151702693
2282064,1,2.5069000211044985
3346260,0,1.3990448715842307
3011801,0,1.051098752944523
857576,1,1.4179459945680066
2397012,0,1.6424848532094127
2163877,1,0.26606890492323215
3307853,1,1.385463077387969
1947697,1,2.520442942377521
3431114,1,1.974015377221807
2258190,0,2.360283872878932
3482710,1,1.8993874976260219
2055700,1,1.387210468387169
2461501,1,1.309294405650877
3913924,0,1.2017880143991642
2604940,0,1.9245142954184051
2759662,1,2.1134734623513487
2214639,0,2.2465595648346848
353002,0,1.6128647565927068
2687245,1,1.6750981913878698
2405470,0,1.060830720062738
2692283,1,2.132584065860587
2903444,0,1.4973000971435968
2264880,0,1.7803698403742048
2800098,0,1.2639540670853506
3204736,0,1.7386159749539412
998691,0,1.5618017682578231
1711165,0,2.4354398764681346
1353019,0,1.898727762573635
2770174,0,1.7601645269761568
3328391,1,2.293877399079491
3041330,1,1.5132967383749412
1141987,1,2.073350639375805
1946538,1,2.989835992914403
3275368,1,1.8535532060314415
2861364,0,1.392062678286475
1124992,0,1.6411548320811167
1466209,1,1.8744049226126795
1996957,0,1.7321717172830755
1649559,0,1.532495854090671
436164,0,1.9288044284253443
440717,1,2.190880334898392
1752402,1,1.5736443999451788
1423519,1,1.5247854088624662
3426506,1,2.2201575936781177
3367076,0,1.31670719480032
2166776,1,1.3832257139566346
1446552,0,1.4010060407622498
1241826,0,1.4077563143131175
3931254,1,1.990965600869238
2580132,0,1.7607065462906577
1408183,1,1.889817336085268
270946,1,1.1115400459697908
2224212,0,1.3517208452648841
1137454,1,2.478016282841574
2206311,1,1.6388047075265235
2458546,0,1.8689976912845268
1563721,0,1.4930201343172986
1529898,0,1.1545280427927762
1882405,1,2.0028966398896584
1236698,1,2.3516214541242526
1121157,0,1.619631334513365
1111253,0,1.8604449956820395
418672,0,0.7896372817665341
2734023,1,1.6978875585856479
2965031,1,1.8559270274444424
1844844,1,1.7683756478363066
1083077,1,2.17497916207268
3495364,0,2.000117750714537
3438945,1,1.7527727815370253
3707744,0,1.4399023694755888
2060627,1,1.7872871041941876
2477806,0,1.2066886883537036
1418025,1,1.9890727496184493
3894772,1,1.932639608966503
965756,0,1.7923921365881195
918250,0,1.9900782785400746
2420373,0,2.084984145036231
3500903,1,2.0525240094205115
1354802,0,2.561936994339159
3075589,1,1.5569208334204236
3102837,0,1.3715276631727942
2925097,1,1.4556189638985932
2657462,0,1.3738315830115315
1491111,0,0.6445547333454772
3161287,1,1.1123580591249373
1783877,0,1.8684170845250279
2129765,0,1.6376269046539096
700546,0,1.4967772540969184
1094855,1,2.312599482040687
1789814,1,1.7196233709712927
2687361,0,1.5172631479536787
2851933,1,2.2651625126563375
3906426,1,2.053569463703226
425681,1,2.162183124349178
2406794,1,1.868847191254323
3151164,1,2.0800848160497325
272229,1,1.8043096976109485
3947184,0,1.430195351769806
290330,0,1.5183721450231362
3423642,0,0.5394340902887411
3337491,1,1.6852945854874612
3393016,1,2.299998827994206
1151644,1,1.7026986321740043
1385982,1,1.6513523622484585
3919931,0,1.0298233945346662
705591,1,1.5992386981740025
2105036,1,1.4253472071019533
1066808,0,1.5882357440362331
460101,1,1.8861927110716759
3737641,1,2.0245705141867965
629999,0,0.9991178715350872
3456077,0,2.1794902098334674
458755,1,2.243154952143928
2205402,0,2.219950348694183
3208812,1,2.020948321938682
3672951,0,0.8350478926963406
2947623,0,1.315048481900961
3257569,1,1.3675187849710682
432975,0,1.5744081575126492
1807106,1,1.8077621143364118
1732014,0,1.405241844971613
1665135,1,2.5671889281572646
883168,1,1.7219564495398059
3935281,0,1.273209634429127
3138208,0,1.4215937212536183
2012803,1,1.841333917993058
1067686,1,2.085877666473121
456105,1,1.241536389084987
927013,1,2.358988374056673
3753953,1,1.9194638608756844
1217494,0,1.5691522004870764
3768628,1,1.9327993632735918
2765741,1,1.4515563846847137
2601051,0,1.5714780884951722
2011158,0,1.1643150110824632
1709019,1,2.5237091602631567
3460386,1,1.7678806326240022
2432540,1,2.0275216656696404
3666543,1,1.6841416769147879
3302482,0,1.1813746488313464
3387854,0,1.8866415102300622
718773,1,1.4774992524166461
1837600,0,1.7076721964507378
3428809,0,2.011699070218267
348698,1,1.2788473500451556
2455067,0,2.032628446448789
700621,1,1.5023401766019413
3692964,1,1.6134461344268536
3011200,0,1.8690690896107305
2668448,1,1.4386713181531765
3358738,0,1.8715487555848531
3759819,0,1.633410875450793
3942630,0,1.3660893932046645
1319796,1,1.5725337690411405
560489,1,1.991434947314827
1887457,1,1.1430603381463502
505087,1,1.2885650313515176
2619406,0,0.6589643949601263
1063835,0,1.5286451419563647
2947806,0,1.9839077910602876
927108,0,0.8139494723828897
1520946,1,1.8473016405077178
295035,0,1.2849836747027052
505635,1,1.2023915006448456
2776365,1,2.007438027213688
1827724,0,1.303985816284385
737894,0,1.6557272972743462
1968653,0,2.125791321730343
391411,0,1.6960884220626091
3668849,0,1.9618766135510628
1933865,1,2.5190366539507205
3941225,0,1.2429359685672292
1311356,1,2.071539794051233
3839011,1,1.5401341387507512
1482753,0,1.3623586965925285
1664206,0,2.264516827250884
503880,1,1.791643684373067
993950,1,1.2803524311951437
2792426,1,1.3619499691621506
983811,0,1.5570346928854626
1167551,0,1.4592473522329956
884550,0,2.2962378691595644
3327529,1,1.9329544472205022
3777752,0,1.44384756211668
2976852,1,1.896552538982846
3547600,1,2.103225036863409
1209320,1,1.1910529186439995
1240809,0,1.9152759311366805
1464574,1,1.968426096423566
2225484,1,1.6050226768004094
887297,1,2.2488662634716676
2480789,0,1.2954879314165335
3262540,1,2.4364354304791256
2991510,1,1.4095941552288411
2410347,0,2.0001628896557846
2123328,1,2.156735499812802
1246688,0,1.7017034956211297
3521983,0,1.6132544991235
3122298,1,1.4738811515704362
1207114,0,1.9029594376649919
3851555,1,1.3586394492619192
3770770,1,1.611220489421887
488118,0,0.24729417387054575
2465603,1,1.767347189186945
3178227,1,1.3397994843066015
1757249,1,1.6923695499884255
1207720,1,1.2857256788721894
3070699,1,1.2785125179056813
1967670,1,3.070012494616486
1773420,1,1.6911142498153922
1440156,1,0.8362732256221346
1719781,0,2.762757253824224
266343,0,0.748890797863027
1764916,1,2.1606700952051674
1082377,0,1.5556059472824062
2879417,1,1.634478909232928
3389730,1,1.1535395304899312
1879036,1,2.3540170815498014
483176,1,1.9203907685097408
2643508,1,1.4075302561773961
3512763,0,0.14157544203911032
2554122,0,1.6181626603614088
2173996,1,1.6002147311102346
2028639,1,2.0888124460777773
957434,1,1.6533728366366174
3053028,0,2.1861873353989223
3180166,1,1.8164015892501673
3344222,0,2.071354849677176
1332816,1,1.7129189538574272
2663763,0,1.3439994529440273
564320,0,1.4138999719936722
1223815,0,2.035512418965231
3052033,1,1.2601871156230091
589907,0,1.1444793251105534
241766,0,1.4856926610754326
3448846,1,1.9883782005623818
3913688,1,1.4602777650267726
277036,1,1.684993807210642
2862575,1,1.7598989587911955
1165834,1,1.5765977322330755
1740163,1,2.044007207916391
1873541,0,1.0058009884792192
3787111,1,2.0144784607228976
1385235,1,1.7683602551851378
1435824,0,1.857760106264067
416911,1,1.925477885969979
952633,0,1.9722120440404693
1381437,1,1.830985716525885
525025,0,1.3227403054534224
3035413,1,1.6276282256951626
1362946,0,1.6954396542691237
3286661,1,1.634929037093905
1698485,1,2.917238337132168
3379947,1,1.7657125318912363
3484201,1,1.598857738810163
2464501,0,1.2220171262647717
1951429,0,2.1625199834538402
563743,1,1.3798195196599536
2242148,0,2.424219422137073
295844,1,2.1694407131039686
3856027,1,1.369863671021706
345168,0,1.3917348947607884
1010904,0,1.3546183861686882
2715649,1,1.4687472323434354
2176354,1,1.3290534171124704
1882097,0,1.0323519946775677
3698380,0,1.3928755753412463
3407139,1,1.6527792383275548
674487,0,1.766290941942847
2006046,0,1.4904775759975888
3375603,1,0.8582000113975249
1266489,1,1.9299209368355421
3469911,0,1.4232392098290907
841252,0,0.9844390289661747
620586,1,1.9272930169139337
3013760,0,1.940952886189425
3438988,0,0.7830430459665737
2729083,1,1.3792192329143929
3098335,0,1.814638038103121
701979,1,1.9768344521160532
2020324,0,2.3791231835949507
3691221,1,0.8815166435510737
1972244,1,2.6173474805076697
733940,1,1.8125359269367551
3893422,1,1.5259008531067908
2547237,1,2.0485626053126866
3886543,1,1.2729762735730221
427386,1,1.8369793357919533
1475626,1,1.9327097421565016
1007573,0,1.2945450647990964
1639899,0,1.5225239385471256
2430211,1,2.0966688402600204
1475339,1,1.3683431484903614
2153025,0,1.2196239314609063
1217618,1,1.5420841339796554
3866667,0,1.3523418371165081
925854,1,1.5299234139340363
967514,0,1.5002549276979302
3058856,1,1.8597959187425919
3030656,0,1.5900476479530719
3788210,0,1.423448354701652
920805,0,1.2933441106811854
534877,1,1.3675680422080443
3122083,1,2.215721219058741
2440936,0,1.2620375491375881
430569,0,1.2227332437724294
3341541,0,1.0202836228093126
1722613,1,2.9783634223753888
200723,1,1.922772070544954
3202507,0,1.7452879986003886
419908,1,1.2072842633730534
1226193,0,1.396810749996265
3331414,1,2.064666779400982
374123,1,1.4690298782672004
1556085,1,1.642445539543989
1361393,0,1.8925890011281281
213049,1,1.653103229376421
2861941,1,1.4090064528600554
3765604,0,1.543176710367876
941715,0,1.0222406805006445
734446,1,1.7583565770591727
1106236,0,1.3492117302720863
1614624,1,1.721179141937218
3299050,0,1.6114860049170956
2036330,0,1.0551106058081947
3397186,1,2.0591651660857746
870511,0,1.8870351213266212
3405257,1,1.71385269034333
3277235,0,1.654838043199274
465050,1,1.8140867970953547
2945208,0,1.7702961643691963
2693086,0,1.9845144725928714
896212,1,2.126525134705941
3426065,0,1.444822429026607
647951,0,1.267213887293792
753622,1,1.5675056859539325
1487998,0,1.4183979330040781
434068,1,1.9728469564610696
1159679,1,1.5642588489754032
603235,0,1.7467213346563057
393341,1,1.8189827145099398
847441,1,1.4030080195801609
211558,1,1.5339391925908625
1873498,1,1.4412918299011181
1025961,0,1.2261540826456505
542548,0,1.6229584348763746
3300244,1,1.7487011431940953
3476582,0,1.830716326640876
2177214,1,1.8036671106965108
547094,0,1.6543460120213291
1992763,0,1.7096648776769154
2118412,1,1.7563491437513798
1556013,1,1.5694883349925026
481820,1,1.8929510496328044
554720,0,1.1804882743206953
1343164,1,1.5932516652985633
2671233,1,1.2328599718569302
2966140,0,1.3272113700830812
207997,0,2.2619102728208125
1677574,1,2.166761183103775
496228,1,1.4181704838242462
2127447,0,1.7450098973832913
2856263,1,2.066567602254958
3264032,0,1.757286238806727
1942540,1,2.395390420705293
261504,0,1.9860123004551014
2493824,1,1.7934170627779336
286493,1,1.0651942138133295
989117,0,1.2357355252225006
1329135,0,1.801271546425749
3904850,1,1.1465066533581012
343152,1,1.3759506266779493
3893969,1,1.4270452451410396
2578791,1,1.0690618961050782
3237614,1,1.3202246171627974
2602719,1,1.9118846962959712
921280,1,1.3836828085242774
1383677,0,0.8427729119042601
2741124,0,1.1538190602602858
628423,1,1.5814395661054153
2721262,1,1.5760734524839288
537971,1,1.8517815877937158
2534969,1,1.973803140623268
3451299,0,1.515962347165326
1779497,1,1.462549795121145
1984263,1,2.332540517435354
2848663,0,1.194891644154089
1398453,1,1.158365348788047
1043701,0,2.022842815481078
1898522,0,1.643139472144521
3789632,0,1.5244237736562787
2943770,1,2.177255872485989
3875457,1,1.5168435014684192
2762255,0,1.5501452588172673
1553616,0,1.7046867580917566
2713868,1,2.1100157829494126
1631314,0,1.9478267305202788
294360,1,1.7100587910244087
210312,1,1.6116090436266461
3090813,0,0.8167373265197004
3239571,0,2.0793311099273586
3246967,1,1.9074917866107028
415162,0,2.1175897618595565
3450569,0,1.9583553305556411
1518396,1,2.176821483313054
2709910,0,1.8973179745227473
3210681,1,1.7119912460945386
976137,1,1.1551080626296835
3281035,0,0.554535956192533
1585741,1,1.9430908580165807
1572135,1,1.0473236743404164
3121902,0,1.838657967105502
1847952,0,2.172312420822293
1784460,1,1.581846628143781
3113445,0,1.4399419417074855
2848283,0,1.1346546157241815
1517640,1,1.526569095688585
506720,1,2.2768901168701112
1354647,1,2.0867623850559474
3229897,1,1.2312911365953039
2972000,1,1.5184474108500416
3101963,1,1.726178824772825
2663901,0,0.8835704360026166
3137017,0,1.6876896966627455
3710435,1,2.0415983300188705
855287,0,1.2669935093275
1305714,1,1.474650602799481
821190,1,1.9773888350238435
682008,1,1.5330596360173112
3298934,1,1.307487222519321
2201885,0,1.6837341479223278
2795655,1,1.7978949759294744
241756,1,1.1238249294305467
2211475,1,0.6052971241071483
3397550,0,1.0442611750324733
844855,0,1.427391406447931
2119051,0,2.182538481267812
3053615,0,1.7169634695692757
474698,0,1.5622706143727656
2765939,0,0.9919077935532551
2746154,1,1.2737735012371982
2599639,0,1.8890807699257692
563601,1,1.9373523032947746
2249249,0,1.5794784282329288
3393769,0,2.1935469368202627
1054978,0,1.2029746762750642
3399243,0,1.8536578673057709
374229,0,1.7657425189997547
2725216,0,1.8071082086175447
3548871,0,1.3202267389697504
1999329,1,1.251436309297861
3381080,1,2.0353828534403564
1259424,1,2.135849841342813
3240606,0,1.654111691068525
3414284,1,1.2029647849612854
1626973,0,1.5513788086814486
2147756,1,2.2553192394038684
2670237,0,1.530034051007386
2551500,1,1.225078986043438
3454161,1,1.2605958455132877
840864,0,1.7874563532223
249042,0,1.7967056756437934
2154902,1,2.1172147125899095
699845,1,1.1402477294815176
732467,1,1.9649780183261267
1468802,1,1.1336252921501169
2127023,1,1.467541685113556
1354541,1,1.2984022495214516
1427574,1,1.4341773358320924
272426,1,1.2082518910994615
1726867,1,1.42151908105568
1086252,1,2.297547765230662
1205091,0,1.5577689337176552
1081143,0,0.9558687404059445
1695965,1,2.1767316369351866
1607899,0,1.199436028914738
2590131,1,1.8122095944274819
3667842,1,2.300048804986403
2773193,1,2.1127686816476037
943533,1,2.0385568965020937
391567,0,1.5123532731541036
434703,0,1.801907160415117
1284405,0,2.077468489879241
1890302,0,1.9340743523356574
1342499,0,1.3966004855193317
2523408,1,2.277738557831085
400675,1,1.932822891064007
3539179,1,1.5162016333089123
2719383,0,1.4680616236992503
2419064,0,0.970795992015126
3784717,0,1.7366144239411008
2212868,1,1.8664402800650992
2857160,1,1.4271530096603733
2039969,1,1.8682643481579735
3366066,0,1.6995245459312305
1237163,0,0.9061454512291128
3382776,0,2.2402186941225763
2270316,0,0.815952968829444
2025488,0,1.9029889730517748
257315,0,1.5633756705902222
2040351,0,1.0539533682899274
3693046,0,1.4495956651450614
1893998,1,1.9064656567831988
1375240,1,2.152305046814678
1262233,1,1.6699753900647323
3749265,1,1.6521220914920156
472816,1,1.5435812608419706
2849192,1,1.8569898112734964
605443,1,1.866992491607762
3788373,1,1.8840589162452877
3099236,1,2.254713241018697
2174065,0,1.8298922836166926
2464993,1,0.8697660400627124
209323,1,1.901569191799521
2857998,1,1.723015631100682
2422601,0,1.312908612356873
1482243,0,2.0333063755801404
695491,1,1.207137001635688
837103,1,2.095170251645624
2880660,1,2.212926902692571
3495423,0,1.702273953587381
2883539,1,1.7713113079930916
1157362,1,1.8738716172363756
1671581,0,2.2362310831601993
1821921,1,1.6493380812114913
2965827,1,1.9210469586385113
3863366,0,1.6224754195509268
1416602,1,1.7555017711231102
2485058,0,1.11264705172304
482284,0,1.794761017290099
2283742,0,1.6172380208801447
1505609,0,1.1797231707761497
2924787,0,2.2053692101138718
3358477,1,1.1725258312647873
2180290,1,0.9342784609988973
2592169,0,1.6178132445605586
3947348,0,1.7521317297745735
2791072,1,1.669230872463033
695988,1,1.7875398985109696
1728204,0,2.1015670662793107
1386093,0,1.9217315344294963
2741724,0,1.5016388368473739
706455,1,2.425474218349522
3875515,1,1.5249713661552724
2938264,0,1.4621752169985183
3397886,1,1.3796944554289725
2810820,0,2.135474190573634
1295693,0,1.7965732946596584
2836375,0,1.783110827957162
210333,0,1.9576849393498268
1065448,1,1.4386163578471134
2016184,1,1.3917879446056383
2586001,0,2.0568148886253015
1337595,1,2.068478622680086
2985503,1,1.589771215408762
1681705,0,2.332822023857873
2041991,0,1.2453663212603685
636046,1,1.3177049361151894
3664633,0,0.9124057474835838
984962,1,0.906415988794153
1046173,0,2.266811517536016
979782,1,1.6092573334770452
330829,1,1.9068448163959428
3342881,1,2.3507773571306316
475520,0,1.7480895526076379
1345482,1,1.88705731020343
1313961,0,1.306323907145459
1446171,0,1.5238424238520505
1204957,1,1.6498072916131301
2840145,0,0.9571970784355667
828416,1,1.1095606643751785
3923707,1,1.9106384764718853
861128,1,1.6689086264138584
2408109,0,1.5422228640756757
1497207,1,2.0245963052653058
1066309,0,1.9378044232298264
255481,1,2.01640591343872
2806550,0,2.08046734232086
2858693,1,1.3945657600515087
2617883,1,1.9065379535121745
367749,0,2.1696224408930243
1066732,0,1.9251975669935186
1287402,0,1.5377784722349392
288885,0,1.4903992220468023
2399214,1,1.6414567357852952
529795,0,1.7907449118162095
520968,0,1.4646136348992915
1767212,1,1.4782595301538775
381306,1,1.9473179148004773
574640,0,2.090014428890923
2455219,1,1.4923279463919843
3086503,1,2.217927906137092
3019278,1,1.834190925410732
3429228,1,2.082608286819921
385563,0,1.729314860823233
439195,0,2.0521852240775593
3376566,0,2.1511629236341694
2665111,0,2.1250501829522066
3334059,1,1.8772666149263726
1735295,1,2.279245328829895
1291840,0,1.4084216146834643
1746887,0,1.445489873733354
2735973,0,1.2174891621478512
224836,1,2.0687286089066004
1755907,0,1.5881027824116716
323984,1,1.9525035494077385
1729424,1,1.5631507920698964
3100578,0,1.8385977827484317
3313490,0,1.8187569492807392
267087,1,1.9556542210326606
3088311,0,1.9860810082989617
411285,0,1.6201498762060011
339019,0,2.438233590912978
1834083,0,1.3518830461479363
2001622,1,2.0376019164110852
2019290,0,1.6502114052892782
827977,0,1.7634491811615596
248413,1,1.5010930404195548
3226925,1,1.264738971217071
2261602,1,2.1176436177485676
1590640,1,2.097387738910892
2180212,0,2.001453495930792
3432931,0,1.9857189852208332
2024450,0,1.6969515692431143
2504997,1,1.5871613452959257
3519366,1,1.0118392283039694
3938403,1,2.1113507669045712
3685849,0,1.8291045251921176
1099824,0,0.9459976164256145
398393,0,1.427458675016161
502682,0,1.8222368569179535
2280150,0,1.728483022800277
1489025,1,2.241198775070189
2884570,0,1.0260455081488882
2113869,1,2.2037894116444052
3854443,1,1.9219517899894094
3218121,0,2.061612888794257
446361,1,1.648819891431153
1901540,1,1.7138857767448508
2431594,1,1.1256648645508145
1982546,0,2.2913954214982564
863370,1,1.2202017447709124
3231397,0,2.1388453547339323
2978581,1,1.701329542614461
1783829,0,1.2190381606239815
3470455,0,1.1199962028318797
1418843,1,1.7633241266715527
1002847,0,1.6493395915221736
1142428,1,1.405328365540763
2690675,1,1.978487684929413
615906,0,2.2013885978457592
2785778,1,1.4299612200103424
1392774,0,2.0672003628693614
2501904,0,1.180192024404759
1083540,1,1.7043223758554817
2998723,1,0.6672561868714151
2803851,1,1.6157056692717446
3916323,1,1.889273931706291
3333494,1,1.1780925895681953
1551912,1,1.3780371627449155
1574402,0,1.585935806522476
2243987,1,1.6350025837597217
2046984,1,1.4784315565591686
420460,0,1.2739106751844993
1521985,0,1.8168934615079053
558666,0,1.258190130177675
2790372,1,1.8258641965204285
3379168,0,1.745551596317486
818955,0,2.318110409336411
2904667,1,1.3077763234170003
3330787,0,1.8549854819151177
2279261,0,0.7602201256181134
3361402,1,2.1396912184618593
1707977,0,2.033142670243787
3960046,1,2.0511471000306556
1867229,1,1.3846577763368753
204613,1,1.9274653815243712
1853597,0,1.7356348986931045
287585,0,1.6155268827231473
1851220,1,0.3174584427770307
3334475,1,1.7882920119090864
3902417,1,1.6357507260562492
1670231,0,1.8837657213774925
2991101,1,1.7575165790266831
2679442,0,1.64807912366084
2488521,0,1.8046072568404332
824162,1,2.1244905255496795
3908323,1,1.4133840381041367
3234341,0,1.8782247685860265
531664,1,2.2456418412949155
3303036,0,1.3827817724337863
708628,0,1.2275008361060362
3794784,1,2.11989453061162
2620526,1,1.8539935714333362
1464186,1,1.6813202253393023
974508,0,1.0313770460497116
3277326,1,1.9767618348540517
2707724,1,2.127469333681857
459863,1,1.5110346355322213
1104143,0,0.06375025609351381
1437265,1,2.2837474429808444
1157268,0,1.0474462827017628
3067296,1,1.995862570187601
416461,1,1.2376551414794277
2185527,1,1.7894174454758427
3471309,1,1.238143463944647
3260059,1,2.1210555942383857
543353,1,1.1637790278331464
3725374,0,1.4652000293436054
1816257,0,1.437186963066957
946280,0,1.1065875671477252
1665389,1,2.8619324395341224
3670416,1,1.3865047931636454
1477334,1,1.887709283401923
2756055,1,1.4565398879376612
1266172,0,1.5923235273555707
1151814,0,1.785014085888713
222017,1,1.3346330465445702
3370143,0,2.2008691982033803
964311,0,1.9223153567039755
1151163,1,2.250227018027311
2006892,1,0.9546727792661721
3686594,0,1.6869127704595746
295520,0,1.14563252416349
987732,1,1.5933463917476218
838423,0,1.2397727591173813
1639162,1,1.1781468845913863
1676570,1,2.2812691096250455
3243637,1,0.9983586806885164
3135602,0,0.8888258701351366
3337536,1,1.9948287209846365
196993,0,1.4042946256528404
2390632,1,1.3659477233430621
3396570,1,1.9392459168722396
1427716,1,1.841434653692076
3105137,0,1.3707878215974598
2583455,1,1.593360880364016
3090693,0,1.0334992765325843
1935440,0,2.123375836551616
1709856,0,2.181147207325813
611265,0,1.2181909767232715
3861084,1,1.577451936009204
578020,1,1.6894399499932158
682831,0,1.5981890179362679
3723977,1,1.7483019736287053
3730512,1,1.7719472606980888
2974324,0,1.6367208072974493
3797330,1,1.8498608713087974
3413498,0,2.302821467352859
1967422,0,2.1251362190942302
1281485,0,2.005195847238642
1632465,0,1.2357153388730633
1312891,0,1.40092150676419
349439,1,1.9474157583806593
1000157,0,2.1279395083485357
691863,0,1.7210029714242117
2965936,0,1.661189080360971
2505791,1,1.1384772053494137
1809848,0,1.6881799807812616
1772813,1,1.6894063868212914
1833274,0,1.4278859559109622
1463135,1,1.9469206519897106
3745669,0,1.1160096061449778
3281226,1,1.5736230561366926
1066266,1,1.7548965912471917
2571559,0,2.237705332953824
836116,0,1.6245694101615622
1467366,0,1.006254171182975
2422408,1,2.2519682260517637
1621233,0,2.066762001910614
3229211,1,0.9472956972133438
1545008,0,1.3960607784537604
1158347,1,1.830974755168146
1543045,0,1.6836666166036691
3958184,0,1.725749458559607
2997770,0,1.7827104830368428
3240803,0,1.3084941635486924
866916,1,1.8234779849881766
253494,0,1.1034533886738322
3076848,1,1.7488984603900097
3462304,1,2.970508163963828
479356,1,1.3681763159050275
701353,0,1.5081675439555937
2556381,1,1.6422781566212818
2399058,1,1.5837238610597155
2399497,0,1.045916436839528
687683,0,2.166940242157982
2540132,0,2.1464021916495213
3409154,0,1.7388999115774613
703387,1,1.3283387637530983
1280638,1,1.6712112208665473
3026753,1,1.6151928213603743
3105529,1,2.0019119046715312
2588754,1,1.3859706923321355
1727334,1,1.533386336176589
2646701,1,1.2136253427580337
3851446,1,1.977517051082804
269218,0,1.5731758550393085
2841539,0,1.7705888165577282
2614207,0,1.7384597650203997
1531405,0,1.3041502142580177
753843,0,1.2615721368330877
194191,1,1.7318897377084033
2808820,1,1.7932025717143139
273464,0,1.896062523847125
1984339,1,2.0445284302400726
2585573,0,1.5970114364779773
1746794,1,1.7195163300441394
1207865,1,1.3706571814955901
3652878,0,1.4942014958983214
3660726,1,1.757498277806897
2263210,0,2.0409199008571903
1959580,0,1.9853764439497366
933464,1,2.0330644739898007
1074443,1,1.534969847600242
2685656,0,1.2914182000429653
1511938,0,1.2274305769955514
3068309,0,1.906185271302115
957691,1,1.546372503362454
3048637,0,1.788032894012769
1393672,1,1.9581993429074158
2195753,0,1.4727082588300129
336574,0,1.2878360105950586
3445955,1,2.0019715910782625
2795168,1,1.5274441445646174
1998045,0,1.961123046972744
549015,0,1.9228176358638458
1872732,0,1.6526779296081249
590647,0,1.5520423536021428
1149239,1,1.3899972496818338
357978,0,1.7114854261100003
1524659,1,1.8754560260697444
3133563,1,1.9927104995812082
1583561,0,1.4515439821091087
3270517,0,1.1762150380346261
3392516,1,0.7321533295418788
1873093,0,1.5124080885886149
3208763,0,2.0618787259675253
1732668,1,1.978843896017145
1533557,0,0.9429117181760619
560659,1,1.982289616566602
3214045,1,1.144255493917195
734522,0,2.3412986900655044
2703067,1,1.9653012614237917
3084457,1,1.3841512782850915
3719315,1,1.5412183950055174
3177867,0,1.4683643169654002
2549274,0,1.9215037752930002
2469779,0,1.596177023055865
2814270,1,1.8180049272202852
3453791,1,1.5280642141690728
2812322,0,1.9050376998759007
1137783,1,2.051094091027054
1768470,0,1.6064000904117366
2401463,1,2.0854364170432134
2209005,1,1.8441798664526714
1948441,0,2.5430395434107105
1741354,0,1.3553795179277541
2055161,1,1.8060168094664588
3251776,0,0.4941919629778273
2185567,0,1.9350876946430273
308963,0,1.4716112442727134
3669846,0,2.003494895044025
2557364,0,1.6641031364303076
3439966,0,1.2307703728906199
718907,1,1.7671122615935222
727490,0,1.1913028809016077
326989,0,2.262383882630537
357567,0,1.6534557011926956
3867193,0,1.6917368202978942
2420111,0,1.7411625258467989
2793859,0,1.9630534554963321
929253,0,0.8312224960754959
2040720,0,1.5376128562265496
3668104,1,1.5899599628314243
2186479,0,2.0631032999891668
404127,0,0.872128578333949
2164815,1,1.694189737776709
3336131,1,1.6760649595922368
1144824,0,1.2652049374242458
332554,1,1.7115022326797165
1675643,0,1.9318066882578657
3242587,0,0.9918016304523064
362342,1,1.811350664978595
2560528,1,1.901147606979995
1430033,0,1.5113927832860563
2035709,0,1.5052976436345757
1907956,1,1.5212802091279591
3373541,0,1.7710510907723944
2438741,1,2.1031779421549155
755607,0,0.8723984706506314
1490340,1,1.7209461819137466
1302705,0,0.393064031523938
1538560,0,1.6486874709876003
206507,1,1.9555674317664444
2231752,1,1.0778937248028608
1644723,1,2.030914111651871
2398159,0,1.7981284184167337
3451992,0,1.0895571519174907
1025893,1,1.2425409331218968
2521021,1,1.4125633638009982
2260618,1,1.7457432949921365
2890375,1,1.3164279457948875
2840610,0,1.154348858242809
2639231,1,1.860771717486016
2267137,1,1.5199717925016925
2891887,0,1.8429833901956532
926373,0,0.849344896161926
3081592,0,1.2465380464809215
2138677,0,1.2256772862356238
3361103,0,1.6381146530695785
3382321,0,1.5165111219520448
2131274,1,2.086385005851374
269015,1,1.8282639778055925
2443464,0,1.6578788813682679
590449,1,1.7932524267640917
416408,0,1.434271577489795
1696852,0,2.3112311414300644
317116,1,1.1826223157947524
3836550,0,1.6664300199959432
2109815,0,1.6972361474168236
2810145,0,1.4788195508718234
206453,1,1.4366820300775889
1124058,0,1.620994956437491
2529849,1,2.1348659332997975
3528643,0,1.5834763330958612
988944,0,1.8635455017530667
3740668,1,2.000060064163178
2235118,0,1.5158324466447632
3536698,1,2.075433597101691
3960492,0,1.928908855902721
3469143,0,1.6209756629484344
1282549,1,1.2743391921572385
3809490,1,1.7710016889893458
3438857,1,2.2433036968668247
2481106,1,1.6270984584267232
1522510,1,2.421256447725849
822556,0,1.7547184129149933
1415672,0,1.2515825471302162
845166,1,1.2596321807358708
2214740,0,1.3867657643011393
599696,0,1.6076611673656087
3105770,1,1.9582371329964945
3944940,0,1.5645365909766613
970459,1,1.6240153439746137
1764852,0,0.8856368893540488
2972157,0,1.8337402125608613
2668723,0,1.6980531579851557
1504412,1,2.6977340095253233
2485386,0,2.0478287224480995
1947923,1,2.10454501689831
2116821,1,1.735845334044573
2418155,0,2.13369840298925
1208916,0,1.744223980320858
941108,1,1.8385095268579714
3924090,0,1.5376103516831088
3932854,0,2.178672013234764
2826906,0,1.516944854684914
2702757,0,1.892292686545033
2472242,1,1.8783839356375938
2648251,0,2.0511592957808418
2285641,0,1.3438958773686347
2208172,0,1.8901243633456155
2411805,0,1.641103436815758
2516596,1,2.368990022639271
1859148,1,1.7284686358625978
1447387,1,1.7965514097692452
968792,1,2.2094663058448596
490635,1,1.9891386348282263
2800496,1,1.4246161356820668
2038170,1,2.112568891681396
2798064,1,1.3028061277223006
2869445,1,1.3802469948288651
3451109,0,0.6916539786857299
606256,1,1.4978668439288385
2993871,1,2.066512881382237
1836807,1,1.7621164426979576
3259598,1,1.538381586035126
3289271,0,1.7323458829820846
