sample_id,z,y
3434644,0,2.260943902576011
707647,1,1.588264174468947
3739238,0,2.011460911186149
2909050,1,2.172130834454551
1324025,0,2.3642520889947503
2553690,0,1.8129929975511614
3094576,0,1.6702437895617026
1210592,0,1.617271550745666
1197220,0,1.9803882132290842
2697047,1,1.8472892762119513
3000419,0,1.8310080588159785
2152227,0,2.2202369493082745
2620573,0,2.79789418116294
807950,0,2.770491566741583
3346579,0,2.6577521804568063
2504644,1,2.134053716311623
3469858,0,1.8812587335750626
1663910,0,2.5114131753797997
3223037,0,2.515079990571805
1135481,0,1.588448555583104
2478239,1,2.0486276249487503
2970325,0,1.8182212248854102
1834022,0,1.8744969483301694
1004037,0,2.3389144554140504
476570,0,1.6392364567433528
984853,1,2.2049958704355177
2779932,1,2.038883945400511
3010722,0,1.565334774248539
2555931,1,1.7093038882894391
3724452,1,2.0293809915695737
538316,0,1.4699557253464555
3113536,1,1.8479643832008343
3197058,0,2.3685266678450088
1647199,0,1.5760694499103154
2537202,0,1.897098398238482
2713641,0,2.3904406628245964
2579271,0,2.1695103695015283
1578056,1,1.8955615024214159
3189173,0,2.010739296991926
1592619,0,2.6115848151042673
3936766,0,1.6061397813138434
2914280,1,1.9882943861714464
1984214,0,2.3865595645934996
3511901,0,2.2558224508529614
2641203,0,1.7991291797069922
1243750,0,2.661558169538358
2393985,0,2.5382454496915656
2519046,1,1.5234252698581923
3240379,0,2.103115109247177
2017349,0,2.5216535407867964
1461538,0,1.6163343838205884
1438032,0,2.7353919369288024
2439111,0,1.596039195173283
3262209,0,1.610138711802518
276616,0,2.2705188323705077
885759,0,1.9901034246011784
1145247,0,2.4767422117918514
2282676,0,2.0598750465056477
606102,1,1.5004746936162645
3681528,0,1.8743855480020464
3148637,0,1.8784599232757304
1147420,0,2.49015733167748
593694,1,2.0145970302294525
1633903,0,1.96226025878755
3499418,0,1.4987237289797575
2264935,0,1.974927798473305
1209891,0,1.8628517934007407
3087345,1,2.539256545840907
1644412,0,2.0439913317952314
1104244,1,1.5929658141606526
1010388,0,2.940319714465155
886148,0,2.494623571467081
1373340,0,1.6966802166875192
1464030,1,1.91133339477608
3904686,0,2.4841718451924257
2670171,0,1.1263361470616353
955170,1,1.737147489736863
3797350,0,1.9730533793222356
3737936,0,2.294221965070495
2128111,0,2.4324503590044007
994932,0,2.1037557982480193
1309632,1,1.9514365889353524
2904432,0,1.9054555403459648
321997,0,2.3469209361696213
552170,0,2.302451084537313
343551,1,1.0841939988962965
2476454,0,1.663426116416365
3883648,0,2.6466558994266856
204542,0,1.7996651301230502
925854,0,1.7955363621330331
3299257,0,2.183111748285823
1007666,0,1.9836660466779434
1390841,1,2.4597298283605293
464066,0,2.5126351824636104
1354642,1,1.6674436406118507
3368830,0,1.936455183581951
3665592,0,1.3916462002066166
3156667,1,2.166648453352036
2042096,0,1.9754974020271592
871157,0,1.8465023103417642
465982,1,1.1560877135986942
3160136,0,1.5940352570237795
399600,1,2.724435164085454
2791260,1,1.5197191991579286
3195266,1,2.6800519643092464
3707991,1,1.4876805538168392
1914274,0,1.3398799611659622
3874656,0,1.3387624756124712
3221365,0,1.8072876993259404
3651214,0,2.913938035792571
1195302,0,1.7119716457004999
425064,0,2.0022319278194463
1892857,0,2.16662945856706
2142749,0,2.478721938772735
428162,1,2.283549406666344
2732325,0,2.0771506177001138
3217031,0,1.9327817142013906
1290296,0,2.410233393897978
2470140,0,2.5979329943005616
3382602,1,2.0427490235459973
533965,0,2.1772596731054246
1383820,0,1.6197049349993544
442890,0,1.5752660226186148
3937655,1,1.8873337756677702
1530650,1,1.6712934778377846
3212727,0,2.5112362821204686
3482134,0,1.8775273509096662
1545106,0,2.00376476606177
3481065,0,1.4733793851743644
1908061,0,2.5326927500826772
3032959,1,2.4597023287747533
224698,0,1.8798505026678705
1515083,0,2.3037067119758667
1630348,0,1.7736384648981374
2990629,1,1.4576017244555086
2443531,0,1.522690113560731
3188713,0,2.076862246697242
3167649,0,1.8207163920759712
259940,0,2.325564543324012
3164625,0,2.3464933006450885
3498046,0,1.1523191204852108
417949,0,2.6674242736615166
2625577,0,2.563495208580003
3303799,0,1.8716840432897661
1951608,0,1.3934221286237891
2946833,1,1.4056099774724145
3008586,0,2.0052357834051366
3357730,0,2.168795623375307
1791053,0,2.3868886371692923
3167967,0,2.0881700006485406
2733654,0,2.716689707755407
1716148,0,1.9147893900050441
2946819,0,2.50985487176237
2124260,0,1.904369933004805
2766003,0,2.4339588530361085
3336833,0,1.8797257302908725
2470912,0,2.456036347395272
1756858,0,1.6367232048528224
527596,0,2.641874614848833
1871842,0,2.6640749945176005
843347,0,1.964626401520988
2561961,0,2.3473229095271435
2254992,1,1.5350200065529296
277357,0,2.3823124551096915
2768839,0,1.184930772707836
1269514,0,1.9180036926388666
734263,0,1.8806242434586118
2133961,0,1.8302596869339864
2852654,0,2.6181910989405783
1258779,1,1.8557656198961505
2795335,0,2.591097575076259
688391,0,1.714877739529986
2475363,0,2.664354241934416
2537953,0,2.3694254471664102
504056,0,2.2973750977009546
1610375,1,1.6707518354332642
3305019,0,2.358902326584294
2559221,1,2.191711097474246
507017,1,2.010780448033967
3450195,0,2.5422510684228468
1421603,0,1.3292431729439187
1833677,0,1.2824963155752613
331099,0,1.257682795248102
1847580,1,2.288911304299591
3859824,1,1.4665022794777054
2779432,0,2.0250681618674258
325996,0,2.4025358060009765
2183581,0,1.4195434921397865
3104595,1,1.2210616445771563
2036969,0,2.1176939009052647
1733957,1,1.5961482350766363
315001,0,1.7815228320006868
2685197,0,2.1090516867456204
3514211,0,1.749790135823495
1198745,0,2.579659147307372
747859,0,1.4314242672781456
2749190,0,1.747455011322036
1145911,0,1.631459179749087
3063104,1,2.055648627991007
666699,0,2.715597089057631
1722562,1,1.9504175860264632
556540,0,2.666797736168232
1615848,0,1.7250080485930062
972484,0,2.1643529405077793
3924425,0,1.6642701710277064
1944954,0,1.9974046097462723
1139301,0,1.7989428440385549
2142750,0,2.468529534211641
902443,1,2.220986382060929
3403612,0,2.5714327060026316
933678,0,1.514358317088973
3464169,0,2.0685964096367577
3285190,0,2.0882060103183915
2906775,0,2.2389195766049816
2265988,0,1.7200119215799177
2407127,0,1.8666013479054575
2516974,0,1.89440992957054
907850,1,2.0756032094222228
1485862,0,2.2556632437662363
228045,1,1.5787179616502134
1766984,1,2.721396724941508
3007674,0,1.9559777040656494
2001591,0,1.8342947634777618
3115065,0,2.276489409954953
2507610,0,2.317679878866498
728991,0,2.023125790676602
2991493,0,2.146147613595306
418456,0,1.9833223348563203
286527,0,1.8159856943904304
3166165,0,1.7746184271923502
2252630,1,2.0253827545345837
1243995,0,1.7757459566948115
3682746,0,2.3579093187379616
2143348,0,2.1988316850349925
2047873,0,1.60031917974852
1956072,0,1.9526979407674412
2909401,1,1.0288495943487548
2590476,1,1.3271289284741852
3226872,0,2.637093432837067
1766679,0,1.784922622678739
746746,0,1.9916476784231767
727627,0,2.6974773162177694
2944777,0,2.1320633262642423
3113755,1,1.6390786015614562
1840380,0,1.9455870529145263
3800861,0,2.385560396768509
1374811,0,2.366875027745624
1498559,0,1.6990094149023183
617452,0,2.2279641786645277
1388976,0,2.13845453915114
3734074,0,2.8400761243880863
887317,0,1.0777516037437855
2756994,0,2.715692915980115
879934,0,1.3926104004048658
2790871,0,2.6570712504703913
594881,0,1.5320547668412645
3694437,0,2.205994964127727
3265078,1,2.0203890391462243
499574,1,2.1577343013595542
1586780,0,2.094392180743011
2122859,0,1.7322972375127372
375248,0,2.1669999371139013
3444418,0,1.8318360810605059
3114248,0,2.0782338122531603
960650,1,2.268580686417924
2622259,0,2.001588343838606
1526230,0,2.0984749929468824
495180,0,2.3633204985569094
2582427,0,2.3406452425496913
3117515,0,1.606668631249362
1491659,0,2.2278186270647686
3531783,0,1.52219476810129
1349380,0,2.1592940947185117
587602,0,1.6781885659491518
664131,0,1.9571833255111506
546342,0,2.127930392327152
1686884,1,1.2970316928148637
2636329,0,2.4771186208264
1315300,1,2.4972090334668087
2771929,0,2.043144124964242
3836929,0,2.686881548315572
2538029,0,2.1170342455815794
403191,0,2.176497185075922
1037072,0,2.3254069969909783
1683841,0,3.9541214897523194
2275788,0,1.9072852586240652
3493086,1,1.8179098274665868
249261,0,2.3524322054065663
431094,1,1.4571254391380222
2855737,1,1.6178194008879536
1506979,0,1.848427692616289
1835295,1,1.8533817028644861
621989,0,2.0791790897427886
2029936,0,2.1920037197187656
2839798,0,2.3739286889147033
1254469,0,1.8560013222252985
756251,0,2.469935133427466
1104323,0,2.5044939725842617
916445,0,2.3261799087289403
497670,0,2.5671246891585815
818858,0,1.9075612142791312
1054237,1,1.8180882538819443
2578357,0,2.1069265027668234
723556,0,1.9007697440147142
1792294,1,1.9636072504559658
577389,0,2.321821950929105
282511,0,2.4222226560528446
3740263,0,1.671819260772621
3800247,1,1.9101504692179467
1910678,0,2.381320898880919
2786208,0,2.2740703656493007
1197198,1,1.5275834617807995
1827631,0,2.490488779232243
3015543,0,2.3122267289575573
2782839,1,2.1580007893721946
2886829,0,1.3477271016769756
945242,0,2.0524331437318586
1485040,1,2.3620117040981863
1617769,0,1.258875406359207
2034834,0,2.230540979975961
1852839,0,2.64885273438621
804405,0,1.9979393069705904
1642988,0,2.93845950988792
3339938,0,2.0540601169930164
2643465,0,1.7206152580964205
2766070,0,2.4166988116116133
3859536,0,2.205877696012994
753344,1,1.9611631484685679
1732814,1,2.950282709828808
3383896,0,2.035753531772909
2224863,0,2.7925648684194897
1705642,0,2.2941136679203336
723631,0,2.0948997325031553
3743543,1,1.6064502904253264
299637,0,1.3809440221341585
3393556,0,2.5021871375456466
1867657,0,1.7410124671621996
1315835,0,1.5714249852707498
3020162,0,2.331610726834845
1833335,0,2.4900896393744043
1557955,0,1.748780108610965
1415475,0,2.3466943432868033
1898089,0,2.091012688608635
1389432,0,2.181505157266965
2271869,1,1.6200791406442145
1619791,1,1.654097455044045
2809605,0,2.081969873657327
2270705,1,2.576352306529576
2561858,1,1.3533129009654141
2709940,1,1.9264615979175457
1758230,0,4.849417775547531
3928056,0,1.7567284588914038
2177047,0,1.3824992562487926
3699928,1,2.378233741042343
843303,1,1.1939523781545773
321691,0,1.694753628191601
254838,0,2.014372034520232
1154447,0,2.481003558124544
1789870,1,2.0814149654837024
1940286,0,2.160012038363711
3412845,0,2.4321915558044727
3894725,0,1.9000377968130857
1314502,0,1.3765943230819273
2007628,0,1.763035755472778
1381293,0,1.5090120669714875
3112366,1,2.381599127147069
3406147,0,2.0884050125539178
1943846,0,1.7290582439424438
980620,0,2.6372330058749203
1918359,0,2.092498182982637
195040,0,2.1121345848964346
432187,1,1.9161778636926867
737407,0,2.6955672640914274
2223565,0,1.6038452612755036
2177346,0,2.49235093428141
2847033,0,1.9785306417751907
202616,0,1.3171393065711547
626668,0,1.782000942228965
1807466,0,2.5952963756045397
1994419,0,2.3513987336192157
2471446,0,2.2401890245103346
1059038,0,1.7136393688234155
2643368,1,1.8597906736289012
355884,0,2.146726620871356
374492,1,0.9787929467662309
3359554,0,2.607621186281988
713068,0,2.177355235590747
1838015,1,2.1941207326065646
643385,1,1.9915954067949357
369789,1,1.6809347815813338
1458501,0,1.7722281726284606
387383,1,0.8308035034924133
534123,0,1.3317229545872287
2664227,0,2.624708765737417
1696574,0,2.492660776480319
2502331,1,2.005539969966208
1732346,0,2.3723134597439777
3402574,0,1.963103091305594
2542083,0,2.062335722500651
923699,1,1.4022639202325038
3434863,0,2.0363268662636083
1419440,1,1.7873624111921869
1557109,0,0.8871311951119352
423656,0,2.116035374274231
1229904,0,2.3069822734575016
3469888,1,2.1785944124067673
1362873,0,2.570984729311154
3480007,0,1.3315846957486788
2636289,1,1.4920005708123574
378033,0,1.4043310456499243
2574240,0,1.7812363388535664
3727320,0,0.7796439177566299
1009638,1,1.3514760655206017
2943711,0,1.810726254588823
3292371,1,2.162572738594382
3215764,0,2.4078886904831194
1423549,0,2.229270565365665
2022016,0,2.4099815718202304
3541081,0,2.659152637913847
216779,0,1.9094995539679052
2705860,0,3.0621622508586093
206346,0,1.3498267362705216
2541244,0,2.044819551710014
1146398,0,2.088989960725346
3219184,0,1.5430772330618154
3721604,1,1.4414060208779427
502344,1,2.1857058410223362
2195693,0,2.1285177316272006
3245341,0,1.4664438628355432
2115091,0,1.8005335236232831
2231650,0,1.7766764313577368
2434795,0,1.9258721618691328
2271935,0,2.1675254936698813
2459570,0,2.1936509032072293
3406295,0,2.48053337410874
2415983,1,2.26976190669665
1161638,0,2.462064569908926
1533160,0,2.4079429602923463
3400791,0,2.3236945611353046
2434747,0,2.6561286114429272
2711824,1,1.2739725356117435
2203435,0,2.042856433562076
3849692,0,1.4119007830763366
3270954,0,1.9837302856682268
251510,0,1.6172105456246497
2974340,1,1.104552384506561
3906597,1,1.675582083068476
3024022,0,1.4325337996164045
3935451,0,1.8616848671688926
1937634,0,1.877698477161601
1362484,0,2.108705957963754
911659,0,2.439542512862611
383396,0,1.9679686917130563
2568994,0,2.1475056229510114
1918402,0,1.8849886482977183
1884615,1,2.3893718874036067
198887,0,2.309996714949352
2652577,0,2.3442665392525894
1055186,1,2.146196381357134
2134006,1,2.4041521866139917
1763269,1,1.5935937196988055
1728354,0,1.8463923658222845
2154610,0,2.1086180077685936
417006,0,2.531013815874264
1903802,1,1.4622119387806074
1507180,0,2.434889468946569
3304981,1,1.2934757079251313
2001984,0,1.9383318826262184
3709961,1,2.435857253758361
1269731,1,1.2817846230330048
1145664,0,1.5339379200856347
2532768,0,2.224550519322246
608313,0,1.7188854170196692
2030847,0,1.8782698146505095
1407796,0,2.6223069285530323
909942,0,2.8780545863239064
2982034,0,1.5924824005007108
2627449,0,1.4662723009282828
2913633,0,1.8693388533588067
1342145,0,2.028976546706059
722037,0,2.0199489819534784
586734,0,2.039005465356728
1895921,0,2.0602162983592196
1648328,0,2.0916411581184344
2213016,0,2.0490344511116927
512284,1,1.392272932458109
1291044,0,2.3498907658778685
2613703,0,2.0510012729438496
1400874,0,2.13143969675754
3268737,0,1.9276362051810914
1249023,0,2.4614227256847387
2479463,0,1.922500754411178
275930,0,2.0655970724314985
1332041,0,2.475512579248857
586147,0,1.4727274377229507
2511289,0,2.0648157467807504
2139987,0,1.8573193443499292
1698846,0,1.5417256660908558
3854838,1,1.8220342832180005
1784476,0,1.2078338579219698
329360,0,2.1891608511953025
855408,1,2.402855388810162
1636108,0,2.5521628934875027
1518889,0,2.031271520205692
3738234,0,2.3367281887195426
1746925,0,1.889210182826742
3870251,0,1.781544689749691
3193476,0,1.8383359682429057
332554,0,1.9997249824327994
3737440,0,2.1293801261397136
1139178,0,1.4572726640242513
1834033,0,1.958937284733921
2395546,0,1.347816314471884
1556980,0,1.9766532370046532
1355816,0,1.0349929718888426
948253,0,1.361752300970224
1616018,1,2.203254842656823
458829,0,0.8388501651042057
1951503,1,3.498283660561461
663190,0,2.266379730130671
2524907,0,1.9575058775615042
2276657,0,3.090253574388538
2164494,0,2.0897114386129747
2428908,0,2.018110962876995
1782159,0,2.3027855722669623
200809,1,2.255128237867053
2159886,0,2.0969854122506746
1760894,0,1.7191722925397528
1058888,0,1.9638511873224527
1406116,1,2.4321667120480135
2875225,0,1.9086478344275308
2045531,1,1.8814299057533277
339926,0,2.088520486680254
3231334,0,2.5670803567276894
1171573,1,2.4151355151125413
2417850,0,1.5169146797092594
1089093,1,2.090671871021402
3925822,0,1.802910999046607
3875829,0,2.1478433623362965
1460210,0,2.6806144972849912
2806895,0,2.5536735416850562
1422399,0,2.032981101169326
3041226,0,1.7429681302370021
733757,0,2.0304527704732998
3463992,0,1.8057446904449064
1635427,0,2.3323832283651607
577681,0,1.596742054987517
3779933,0,2.179426298481148
610990,0,2.213839106791615
3674950,0,1.580652002077358
1840406,0,2.1584800260421493
2654038,0,1.1359995264006728
2785190,0,2.5333474218132266
2278770,1,2.000168739313522
3244941,0,1.8442464987123124
2651942,0,2.3512868891162024
1152222,0,1.2373972209472774
2827232,1,1.5523997328981114
2053383,0,1.8846173308084855
831412,0,1.152413269135157
3843742,0,1.896707928189283
3277175,0,1.5590372505551426
906493,1,1.6716251528883783
3384826,0,2.936171533332889
3199830,0,1.7734880969196496
1467468,1,1.0160558085572717
1366584,1,1.7294105019087822
2118144,0,1.7677463375544211
2207119,0,1.4023696093166726
2046171,0,1.8691330921068152
1070135,0,2.141343698593687
2111559,0,1.3550179134845841
2179541,1,2.4814247804141183
3549162,0,1.1817825268648954
1302644,1,1.7663473911884717
2945150,1,1.9346949412842904
3367468,0,1.924032683239246
933566,1,2.1571040398443
2530766,0,2.7315577137140767
427726,0,1.7524492851789375
3957686,0,2.416765052948719
2252738,0,2.0577833833512282
3223905,1,2.153504623550231
215358,0,2.2068410584579023
2488237,0,2.1631502653064114
2774929,0,1.6523085296077922
3173320,0,1.3935977903818957
1974346,0,1.865648418721276
3012227,1,2.0680270029329555
2237353,0,2.199944677726797
249868,0,1.1076733177969895
2933265,0,2.2437376299153278
3134243,0,2.0353043162223043
3519168,0,1.856958752918844
3050577,0,2.037635856554621
3492494,0,1.9671606230129968
3066115,0,2.2275424311432643
1447382,0,2.0916625603590364
256163,0,1.5271702406294003
3052125,0,2.240615821807851
2914848,0,3.148486486102923
1768712,0,1.769256655495271
1743757,0,2.8074017762331023
3155768,1,1.5572774361514603
2946167,0,1.7572503203556604
2554547,0,1.940266516119167
3441456,0,1.6195408325991256
1164198,0,2.0608111369607216
3212503,0,2.2279106818308363
3806493,1,1.9380228080815725
1994028,0,1.8133740502582643
1197555,0,1.9975969035055534
1989163,0,2.2034799718897666
676119,0,1.9421484750650586
3043844,0,2.794325730704383
2420692,0,1.8769492671600738
527042,0,1.6249132228918897
598890,0,2.4149191163009975
3180958,0,2.4607968598433843
1139048,0,2.256815171434466
2237495,0,1.7753350650199626
3165748,1,1.9415819410953417
2409287,0,1.7663146790555744
3939149,1,1.4433321999915867
1239681,0,2.440126838179997
1570919,0,1.6615968483536563
3195520,0,1.6471155145370227
280043,1,1.984846734619155
1318510,1,1.6915986501690523
3418638,1,1.3864491303219837
3342585,0,2.077641936686922
1013709,0,2.4063102958920357
340583,0,1.760868095350379
541605,0,2.2645975556514206
960789,0,2.0166854631947384
1026300,1,1.4041534871295975
2879226,1,1.4835424295817874
846039,0,1.1030553750521093
2169159,0,2.293822809551813
2790716,0,1.7342156592415954
1418282,1,2.2034650408338443
1674349,0,2.7953131057681446
3190087,0,2.2436233523594686
3490373,0,2.1949150710925274
3419770,0,1.866862602858536
1266571,0,2.157702194170803
2464844,0,2.1286362306708204
3067108,1,1.6160701429054056
2977908,0,1.9484707926388272
3905578,0,2.0586961251733564
805379,0,1.913904747000342
742942,0,2.3245738520888604
1549993,0,2.575179953688235
3277252,0,2.506526916300638
3247080,0,1.8978530102036846
2014496,0,1.7038507245133638
393381,0,2.0776286731450417
3845282,1,1.7915603588982723
633766,0,1.6431007568537876
577366,0,2.1796868664604805
1540092,0,2.2502260405858814
2033095,0,2.14663957683633
1701678,1,1.7415803914910708
594025,0,2.222812748551915
1937774,0,2.0904951244519756
1960476,1,2.2876684549671737
2753419,0,1.717007928093312
3265380,1,1.198604721606662
1616904,0,2.1876127200691733
1232882,0,1.748598541344599
725266,0,2.719083895270689
3757094,0,2.6377364336742772
2544427,0,2.007044164529625
1942315,0,2.3949925562646053
3471849,0,2.324011617842232
3334567,0,2.334199492138505
918640,0,2.5172160621366118
1007737,0,2.0946469556448855
1156667,0,1.5114030681010004
1684602,1,2.0211385052730004
3336140,0,1.5983390702792688
2714461,0,1.7181165021578426
2498811,0,2.4424928880872345
931559,0,1.7003834573517234
661722,0,1.756189057198646
1430663,1,2.1253461067377613
3919805,0,3.0190820576524544
1906078,1,1.893928603287388
3739588,0,1.6998577736623606
337071,0,1.9438980982271736
2898399,0,2.2123856264606316
3318363,0,2.3229601436532143
3792326,0,2.00049707475951
352711,0,2.8120628522996016
1790003,0,2.167973599571297
3530253,0,2.449270949914038
2579886,0,2.259671142454373
2671560,1,1.9986214712609491
1838837,1,2.133989759231747
2207300,0,2.138553252419294
492119,0,2.3922666713367517
3424708,1,1.1682811750457929
1199764,0,2.300337384608278
1224080,1,1.6920954658211842
361142,0,3.010618959473113
600059,0,1.4291784880679543
1427481,0,1.9152698396482621
2646355,1,2.0244390246822745
808493,1,1.6207183233203144
996543,1,2.328738752769837
1895308,0,2.557774420092514
539450,0,1.7799665164233065
3068684,0,2.2785659933135505
3474305,0,1.2920500147425389
2274213,0,1.9278257582651814
2129480,0,2.0228959743322275
927216,0,2.2247716899481316
3414492,1,1.5790173531746658
1092686,0,1.570275036948393
3100578,0,1.8098202666184042
2418924,1,1.7606584835142052
2777429,0,1.9359124928840448
345938,0,2.5382205205453117
1048288,1,1.7251684445214865
1982953,1,1.5682251999374768
3946252,1,1.6560804742117934
3748079,0,1.6400595522375134
1269351,0,3.408285771854468
2245653,0,2.3228872456716396
442252,0,1.7366005715668162
1056674,1,2.0898776750860995
1499476,0,2.220553747436556
2043524,0,1.6441257743464377
3719376,0,1.4047208174290238
2256243,1,1.6496187397477393
2115667,0,1.81903898248529
535865,0,1.6271496549703486
1335854,1,2.055753817570786
2944925,0,1.9875155151741004
3043487,0,2.345323976863858
2461190,1,2.377141821499413
1608334,0,2.016786673719488
356106,0,1.691656476198375
3415631,0,1.8057580578071057
615269,0,1.6466881201241392
3741935,0,2.1609033323212636
2793859,0,2.648477287657494
2199696,0,1.0815761654904792
2923571,0,1.3405103093786714
1863563,1,2.133100602535541
2614369,0,1.894543655225185
2823009,0,1.8034246347420724
322543,0,1.9361476479080382
2945875,0,2.0853167801139234
208863,0,2.206080773174839
1445050,0,2.029484965606125
3393863,0,1.6149002817749474
3790611,0,2.0596516177444935
1115947,1,1.9210919204534367
1038195,1,1.830848482877886
3011274,0,1.7044887664161448
2862725,0,1.8752753732771028
3869134,0,2.5687258149336296
1485229,0,2.4882021886084504
1526618,0,2.1047040343591594
3064555,0,2.6700741280766844
2421817,0,1.6839490857845323
3299811,0,1.2860659042991949
761474,0,2.850721336040145
2626526,0,2.262995509704427
2833857,0,1.6698215396437663
2399140,0,1.855268622255265
606843,0,2.3157388209473986
3458557,1,2.1685111168613997
1779372,0,1.6304038088153452
3432211,0,1.2023888053260219
2113866,0,1.7570284199627246
291254,0,1.2083126200589018
2186941,0,1.8397621948926435
658107,0,1.632614798460524
3347887,1,2.032196684841727
869926,1,1.9471618363261056
3337470,0,1.9672651260807614
3430493,0,1.6317190984714314
1601175,0,2.154976962688492
359408,0,1.5553312067897123
1714515,0,2.092243225985966
339802,1,2.3163833062657524
3316492,0,2.6794182466392855
2485960,0,1.7188069354519966
1913162,0,2.0457894001944332
2909470,0,1.9658522774804543
1841071,0,2.0588611205952008
1206986,0,1.8845641550388808
1628996,0,1.9085740289020714
2165722,0,2.2600477338754517
2589069,0,1.7532214441285765
1216760,0,1.9787291546083638
498408,0,1.6035190552474763
426434,1,1.8508992381129972
2216050,1,2.303767787282458
1137815,1,2.145116356014103
2557543,1,1.850583449974233
468663,0,2.2575079045400104
1499231,0,2.3105907002063852
1717450,0,2.340072568914825
2545380,0,1.7437036026348074
441453,0,2.4050570324608627
3410790,0,1.9628886879047234
918809,0,2.1340569041797557
2140972,0,1.241383229045042
1953008,0,1.8193931655805273
1547007,0,2.160277543998607
585936,0,2.3877018150290903
952978,0,1.8901320933927845
1946996,0,2.2852943756547317
1606212,0,2.1391424497973257
2698355,0,2.35715905366295
2903006,0,1.3996209159984798
281515,0,2.114520863463177
495887,0,2.665809696741183
2925267,0,1.6635825836935774
630790,0,2.7467751657015436
3508886,0,2.596308398086361
3932058,0,1.3938427280966756
3218911,0,2.5675259457538946
1497853,0,2.6523811027112902
3241474,0,2.4379563172073646
1701087,0,2.0295170460120957
3072542,0,2.370155764346073
2277560,0,1.9616928634580046
3790528,0,2.2864053673412323
3751562,0,2.1045934156041173
3286257,1,1.5179868157469905
3724140,0,2.5911257900170765
410185,0,2.0223640752057443
2139620,1,1.8261025688068993
2022471,0,2.133153909210061
985237,0,1.4957519993664354
286164,1,2.1118164745279904
433112,0,1.5573379092349011
1642829,0,2.1707270950697173
3281920,0,2.0819009413858076
1816374,1,1.8597524852534306
2660686,0,1.6787673357478934
2195605,0,1.9492131322987705
1934683,1,1.9461549776372604
2014086,1,1.8457810556617271
3691731,1,1.9900135118202709
967967,0,1.8370420705039243
337088,0,1.173570456339442
1051408,1,2.0141646840167895
707212,0,2.216495832093984
2934919,0,2.514058276745671
681551,1,2.3885162430472318
1259780,0,1.8453231917827342
2975759,1,1.4848678719210728
2233268,0,2.512475820136422
2889738,1,1.8461564766524072
813565,0,1.7237471182197932
3940264,1,2.3377873788516936
3200994,0,1.8911148494305505
3911094,1,1.404229587704296
2120879,0,1.8536055513566374
1901965,1,2.3728007321364775
1170793,1,1.96462449794349
1673575,1,2.26716533807774
1935055,0,1.6429790595173352
861734,0,3.1539603566691525
3453194,0,1.8969124981153451
3766465,0,1.3337306243451301
3429430,0,3.1062504921477676
2458268,1,1.787208856516718
2865595,0,2.303297754549448
3362752,1,1.6574558888973114
1299983,0,1.9043618237683364
202605,0,2.0236158719096715
1874697,0,2.1098531151019895
1900314,0,1.6487163795978974
1299080,1,1.7542569332964617
3669906,0,2.1359276518934265
1347314,0,1.7719446845877642
3366105,0,1.928266962790139
2882386,0,0.8582657143647379
1838358,0,1.9591601974504484
2548086,1,1.6951412634798775
2284493,0,1.9606530096117276
3093074,0,2.205616911162877
389742,0,1.406558877407714
622859,1,1.4177759255572695
3867656,0,2.6181125280998643
1533011,1,1.9812423210375945
267885,0,2.211975549919242
504866,0,1.5008101642715024
203904,0,1.6027747345325019
3752589,0,2.374878096741385
394958,0,1.9352358442419342
1670616,1,1.5565589648648688
369381,1,1.8066202461008198
2468577,0,1.8617890580105627
2869210,0,1.8902045383914834
1602343,0,1.6523701346650281
1624737,1,1.305198905644928
1608413,1,2.0241996258141874
545732,0,1.5798599971658625
3395110,0,1.687456083019045
1729302,1,1.659249535422509
761362,0,1.1582756415469562
1068181,1,1.9497461021320073
3147999,0,2.1219048562707727
1386487,1,2.1423770935107425
2708519,0,1.7532541570879263
3952197,0,1.3776375483287415
2722252,1,1.6018475140191752
1620052,0,2.1677224174397125
3180628,1,1.930822326010719
2477268,1,1.3093231768058093
1327256,0,1.9862737260490666
3679841,0,1.6981102530836114
1416974,0,1.8371591212614415
1506599,1,2.396461974983664
331658,1,1.694243493864898
1551010,0,2.0051722817444175
3307975,1,2.3782267745343395
2698449,1,2.595043758962395
3294510,0,1.3979110080019745
730734,1,1.7247002177686879
2504128,0,1.9652047752832662
801014,1,2.12554066550509
2920408,0,1.48966053658413
727490,0,2.070409604742779
1873541,0,2.7816915238810376
3503965,0,1.9551089079840738
1819912,0,1.9828481087433765
678235,1,2.0433319123969143
2867620,0,1.956330199600426
1429573,0,2.274894187644017
1305117,0,2.282179405601086
399641,0,2.1945696360461024
635035,0,2.297668482207601
3731777,0,2.0065287341571514
341222,0,2.226831282527752
1116979,0,1.8706448388514012
937454,0,1.7797054341562886
462075,0,2.3033664703690184
491266,0,2.112385274646363
2845744,0,1.8723953416844485
1718175,0,1.5847735480466962
2153539,0,2.2266201847865785
2261602,0,1.83872473427027
2253433,1,1.4563578467025171
2634768,0,1.6178934127796378
2819207,1,1.4704054230804982
1615317,0,1.4803241342585585
3789632,0,2.7642281276854552
1300881,0,2.7855010547255996
2977878,0,2.0279395990840103
3934461,0,1.9681139811963393
3120694,1,1.8739847569860826
1331892,0,2.259669413123024
1437836,0,1.8128205295270134
255616,0,2.2645519818400914
872701,0,1.4711342393827191
487392,0,2.4559461833117946
2981780,1,2.274689279668598
3062612,0,2.6774878142408998
3702217,1,2.4379107114538505
2164630,0,2.8775948546473744
3334624,0,2.2567655438370733
2598476,1,1.6412264476574434
1449504,0,2.368574345327225
2901605,0,2.3655711384784235
2556944,1,1.6136155066041151
1144253,0,2.165177057198665
2933245,0,1.4849908980372244
1409326,0,2.6363572396645893
3393100,0,1.9041828699596577
3395830,0,2.3920624127628676
3009864,0,2.1708143209428403
3726444,1,1.8710026772996775
2109818,0,2.1670296270468334
3007457,0,1.8700401795834931
684565,0,2.269007741922086
3893753,1,1.9581267813447298
927089,0,1.922681037373209
718792,1,2.1194029131986882
1510226,0,2.3938546004568377
2892632,0,1.5942084268113321
3279900,0,1.806312801829961
3134259,0,1.89720187878135
2898945,0,1.7013084992774545
2972045,0,1.9637042419257813
932656,0,1.5507925306406625
2759495,0,2.2783330990050237
3781928,0,1.6001555380450276
2719356,0,1.9811695142145025
1101929,1,1.3298042594016242
436248,0,1.8553822574884395
952653,0,1.8442045291207783
2234435,0,2.7003595998505245
3317408,0,2.45412688845567
3378334,0,2.138656797944221
2167851,0,1.465720153783119
2616061,0,2.070556829036916
2845059,0,1.9341943135283535
2974183,0,1.3263475926033135
2887434,0,1.6977425067981007
3798573,0,2.0356039241818693
2893099,0,2.5504005005750385
724632,0,3.1011726656330616
1622724,0,2.323958133662735
279443,1,2.0250593157034014
1710757,0,1.6765605158730525
949880,0,1.8859132778149703
3131883,0,1.7885592241385577
3358537,0,2.6108287262457655
1477571,1,2.1862153516931127
3131811,0,2.0792800871964783
1481826,0,1.5061116607980876
2758964,1,1.7404115996262766
1780412,0,2.191987661769399
2831983,0,2.6705540087744364
1660720,0,2.324774970098413
2138869,0,1.391733319504727
756882,0,1.7197862144854037
1207043,0,2.0737862810022625
3324118,0,1.040664914570592
1405892,0,1.9904564841458048
3797825,0,1.4008893959931408
2670830,0,1.3776620542649858
677186,0,1.9935797345620083
3101652,1,2.279018310369134
2470915,1,1.9447680447079279
908608,0,1.9811518291924284
3454909,1,1.5840201293528118
2582005,0,1.7518791512862928
396944,0,1.8943042248198032
494042,0,2.4804519075170472
669330,0,2.3896659170960852
2591746,1,1.8335410285680294
1256479,0,1.8537149360256922
385038,0,2.5656746303455686
926071,0,1.7885316358018433
446304,0,1.1806047933997466
3478363,0,1.3718444777318846
2511226,0,1.5554430345734171
1067211,0,0.3144803176272186
1914833,0,2.0899024971110363
3496399,1,1.7514361054675105
2698208,0,2.2417743642767003
802414,0,2.45652241683462
238876,0,1.9219311506749062
876260,0,2.1147535420376427
2647580,1,1.938388524726984
3920560,0,1.8098727012955793
1201934,0,1.8397440108146395
2526634,0,1.740238670580067
661373,0,2.4302357500334937
1979866,1,1.8006039973131214
827678,0,2.44553629044993
2518603,1,2.310632785153556
418132,0,1.8464258914721294
2165314,0,1.9352281279152543
1230763,0,1.7552901662400133
2927693,0,2.527300992374973
2471739,0,1.7467807308949732
2286387,0,2.2070512612952164
3684007,0,2.230537977068544
2861364,0,1.4245808716435593
3238073,0,1.5236650106215888
3209638,0,1.324744214678033
1634929,1,1.9317632098554425
1363248,0,1.853289316237015
268093,0,1.7224738119200125
1994934,0,1.782477189044565
1086235,0,2.138902004290925
1701912,0,1.8837171161130826
2531877,0,1.5464728257348823
1199072,0,2.216673707213262
2244940,0,1.5790169870823925
414019,0,1.910934721830226
655645,1,2.0134179103192946
3104400,0,1.8325536896489036
3763100,1,2.8120046487873323
1248012,0,1.8795017739466124
3494962,0,2.0044892858258243
2595543,0,1.208633061275905
3920472,1,1.889605094031036
616092,0,2.1024363059739937
1424478,0,2.3772759216818278
427775,0,1.3590331553967308
3090288,1,1.9292945399574912
706227,0,2.6581210783871096
2188131,0,1.3677125475444645
1259792,0,1.7895279468388312
1316872,0,2.2982655561648864
3029971,0,2.1235896222038346
1044717,1,1.6095483550417413
2866404,0,2.2078741847166317
473436,0,2.338975326461582
3883113,1,2.048352025774995
3467536,0,1.599651440467624
3723590,0,1.3962551293358105
2520909,0,2.657374129919794
2246436,0,2.2276798441344003
3235135,0,2.1777597997339346
1159846,0,2.1262089226695498
3514323,1,2.06393362781575
3687687,0,1.854518095338043
3095133,1,3.0026717172055575
2924447,0,2.1798166453458725
3777103,0,1.8722684619736294
1774094,0,2.2475965940284106
3214499,0,2.7651968325991114
929085,0,2.2774240892364577
820553,0,1.9282110612386167
654694,0,1.8326953707126754
3952668,0,1.5343168129123441
2449690,0,1.7846805005494941
437046,0,1.9298139777358292
538947,0,2.295313354048613
2128056,1,2.207114931965494
1544596,1,1.5326771601103788
640762,0,2.76366375448403
2735890,0,2.334255032194012
904408,0,1.9782656459844896
687592,0,2.543162606819495
2471794,0,2.380118395196183
3501287,1,1.402508019283572
2274291,0,1.716778828214273
2649729,1,1.1852317433488326
2521049,1,1.9644460181808203
3480898,1,2.0815230141671575
370662,0,2.322308867017109
3664206,0,2.866298342159501
1881327,0,1.7719783628224839
643687,0,1.5047807361219059
1290061,1,1.7829913958660764
1030886,0,2.471062994917403
1731510,1,1.6761544094243328
2766259,0,2.4196076305920236
2507736,0,1.8833474377952757
961561,0,1.3340980587187234
393638,0,2.457939706256916
662139,1,2.6800613490559795
3709957,0,1.6969454593497002
1198731,0,2.401540217832879
1418025,0,1.720934395223083
1199388,0,2.1029093563178463
2814893,1,2.056764569681563
3326010,1,1.9932270274040471
1477393,0,2.0405844568060036
2754502,0,1.4815062762163174
390584,0,2.007121869984568
446612,1,2.0553723019154617
253073,1,1.6750221198088484
3526718,0,1.516442494755575
1125941,1,0.7093788437061397
1639746,1,1.1713332500507125
1670262,1,1.4345756622320707
802841,0,2.242394517359713
2556172,0,2.0358998601618095
491856,0,2.0174016758221813
2850393,1,2.059640793625327
2572577,0,1.6078445484921642
1514222,1,2.2563821641375146
2652310,0,1.5893405930680753
3959300,0,1.0291430023797434
3118959,0,1.6459480495114458
3100635,0,1.6737723762589016
681681,0,2.2295035756010115
326660,1,1.6777297679727048
923955,0,1.6776279773844747
3075049,1,2.2454472922423494
1208297,0,1.8863754219807678
3157254,0,2.0727577454816655
2969540,1,2.000170798364337
3251723,0,1.9360312089493297
965756,0,2.564576881292301
1353938,0,1.8636933852635702
2176354,0,2.0971149354150027
2040228,1,2.805890317815259
840637,0,2.433831823272886
1749353,1,2.321961899999652
1207720,0,2.6738543381280118
1817670,0,2.3657458690440003
1492982,0,1.7142969359596574
919017,0,1.8642717070496357
2804385,0,1.9251427236764374
839565,0,1.9629051003463545
3126325,0,2.232298112274924
733563,0,1.9850924643688075
312506,1,2.0618831090273093
907048,0,1.9097597315831791
1721284,1,1.5038732336940384
1644538,1,1.5538970696914687
2700797,0,1.8745402770706812
1214479,0,1.7387785071803696
437270,0,2.041753095604122
2010005,0,2.224744930427871
3546711,0,1.8460561247611087
3218022,0,1.8207784258344457
1162555,0,2.2034306663455956
2985557,1,1.6601391308777043
2582711,0,1.7448141537719732
1346509,0,2.080760331674171
338926,0,1.7014408964550598
1597804,0,2.2853127136807614
1105340,1,1.701515836485227
1285193,1,1.3380687228206862
2906446,0,1.8460400160786172
371965,1,1.7308341671959033
1414052,0,2.2013085463784834
3930367,0,1.969162229397745
2150248,0,2.034524344626807
3174632,1,1.3870625963822063
3025116,0,2.0179949834681317
265898,0,2.223072252892463
3442113,0,2.34254538118657
2039515,1,2.0863443073721575
1563702,1,2.694146583482905
2489752,1,2.185420618995975
207887,0,1.8281527832532682
2940301,0,1.874369886174093
3655198,0,2.5863568999030426
852401,1,1.918834688610112
314377,1,2.2474037335508035
732349,0,2.2243260474372444
1833338,0,1.3715156457239617
860022,1,2.2944768376858757
2509388,1,1.9556013661743583
3385415,0,2.106793809031313
2262370,0,2.7113107847356486
1141929,0,2.485508344431176
1339707,0,1.865935871141302
2460981,0,2.0445785310422258
1452594,0,2.0588041086827515
218904,0,2.335228539726167
2704123,0,2.245565638000697
1759874,0,1.5807659265965446
2591315,0,2.020357901909907
247643,0,2.0538171734562978
1943332,0,2.046221195490029
3504336,1,1.7916439467983931
833911,0,2.8362132174561356
3455591,0,2.092054431832127
3876578,0,2.52760227439077
3876575,0,2.7631180285867063
3223060,0,2.1133315963400405
1598511,0,2.7024526515578713
1712780,1,2.0605279243626233
2961465,0,2.071950591802234
2432608,1,1.9479435741647806
1433735,0,1.8242920490337104
1668773,0,1.8255357284021139
3739439,0,1.5472675657091894
2642016,0,1.7693209983891518
2703729,0,2.270708182824532
3841495,1,2.39659290004254
343922,0,1.8103351717531642
1787994,0,2.647156242524404
1502132,0,2.5265856774120654
3266796,1,2.1017630636952833
524100,0,1.3214750168873832
2934940,1,2.470229752063336
683314,0,2.4191204478017294
1820320,0,2.239577563944294
2133181,0,2.5734344434504894
502460,0,2.3723609664646994
459700,0,1.6954528447104524
3100354,0,2.14076691421622
3122223,0,1.6997403309773391
615684,0,2.173740749594725
3253877,1,1.5864373316343534
1843172,0,1.704566401127418
1485587,0,2.0077055597928077
2019596,0,2.709279148081042
1136836,0,1.933506137670967
1153374,0,2.326827150897792
1401118,0,2.583112176590635
2903501,0,1.8768211350518447
967971,1,2.377544758707363
607890,1,2.312968739640641
3211748,0,1.8282987914853843
3043768,1,2.5076826327065813
2712519,0,2.426989050870896
2453881,0,2.1210255987427713
576639,0,2.7946995682532996
1594025,0,2.0744967768950917
1832362,0,1.7009752449028572
959830,0,2.8344271160079937
422152,0,2.3537385222947567
3272166,1,1.4338341276917026
279855,0,2.4267742660090295
1314892,0,1.3988005236198133
2842128,0,1.605825126837112
2844359,0,2.3013918416587114
1538774,1,1.9348910596252056
903921,1,2.0245121026469
2924001,0,2.1118830805155624
533113,0,1.308734605129557
2588847,0,2.0941713147757803
1917654,1,1.676594846156738
1319480,0,2.1799579584127704
418905,1,1.9148770764536283
1997919,0,1.432012093615018
3721392,0,1.683092095691242
599640,0,2.1000196573346366
721516,0,2.074297742194041
2786497,0,2.3632496956839657
1981420,0,1.3912044420122491
334897,0,2.291638590794136
1528441,0,2.0195571019430556
3693014,0,2.0884366195749937
3124853,0,2.339052163232544
2117411,0,1.9581517038103098
3490120,0,2.5605179525548234
1406560,1,2.4485227013740936
3036054,0,2.207075363864735
1236025,0,2.11449982451397
3928844,0,1.5809568822589186
3678424,0,2.384004017192928
2861315,0,1.5653241870146715
1902294,0,1.9422131146839359
1555801,0,2.477563862311671
350802,0,2.1952892604925536
940944,0,2.287539474119634
2439243,0,2.785046716374268
2580978,0,2.6097757837403224
1235767,0,1.9073226642618002
1285394,0,1.6532799648243077
2797200,0,1.9509387336229032
3147852,1,1.7114852999619334
3158496,1,0.9780654305524865
987701,0,2.4404737495465665
302068,1,2.1851447017788583
1854646,0,2.124679585668963
724608,0,1.871101171924271
428508,0,1.869961622332595
3702230,0,1.7802608722359026
1877793,0,2.1091775807798343
2926293,0,1.762629596261918
1635937,1,2.014308792040402
2807632,0,2.408156347279072
1369455,0,1.6523851839657815
619954,0,2.3795647136485854
541435,0,2.5291326113934067
2413926,0,1.222091046619937
910467,1,2.2949969399284766
2647280,0,2.0568543315897294
3247300,0,1.8928605264549196
553674,0,1.9066520288960425
3739820,0,1.7873549303845118
1873242,0,1.5631322889558028
899994,0,2.3003052333905547
3755213,1,1.9239412689103887
1877628,0,1.685743437375715
1677754,0,1.6223615398092182
2497096,0,2.587743927993991
1894875,1,1.4742034070962189
3501017,0,1.779634442984781
1410530,0,1.8418047657934
2754725,0,1.9315308044593935
1789985,0,2.051885508666436
1594073,0,1.9324039096303545
3449487,0,1.7825769486737335
1363350,1,1.8226232573373191
990099,0,1.6664575060562297
3837149,0,1.5250603092902342
1284405,0,2.3895173348217593
1338328,0,2.434572791976
1573958,0,1.2927518703449383
2747207,0,0.7654894251760145
290077,0,2.7439551804190914
479646,0,1.7337159272191138
1024537,0,2.176978294458175
2047124,0,1.8168854908773673
865736,0,3.0774077078710294
558341,0,2.1206706929033103
1087035,1,2.0392183139572846
713379,1,1.3458103296837054
1596319,0,2.3993332756529364
717878,0,2.5344377542879695
1090584,0,2.474584648271372
1661439,0,2.6820254514820188
2996767,0,1.2788840489577984
1907134,0,1.8331744988951595
2235435,0,1.830200266438873
1045955,1,1.3173720020151876
1444366,1,2.004883704370058
2143469,0,2.611251082753743
962512,0,1.4603330008309523
587078,0,2.5430807340469452
3364365,0,2.224579380046983
2182088,1,2.0233768365975218
600546,0,1.7717350455515042
1245402,0,1.8449223646790716
613104,0,1.9602310574512647
1468426,0,1.8490226944148183
1636518,0,2.6431075211877566
694716,0,2.34966354228543
3057870,0,1.393909485898789
241206,0,2.9611737440400234
1899350,1,1.8435985080045985
3743418,0,2.433121898283365
589216,0,1.7358798067071333
2483928,0,2.241461904060029
2027707,1,2.164019059978016
3341045,0,1.6780203315747406
305106,1,1.73287216484557
2504068,0,2.442698891537673
3245452,0,1.0104120409389097
1562810,0,1.5098340667679906
1992604,0,2.045763467921156
1199161,0,1.0856597002355874
2393707,0,2.05030711862675
3724611,0,2.106151986522679
2511929,0,1.9995743239589696
379284,1,2.0075541246072506
2263959,1,1.6472691900952097
3069459,0,2.1868643077119225
1626899,0,1.7278092790705104
833505,0,1.6235036953511366
1574891,0,2.2360943775926976
3719500,0,1.8219400804739174
3247007,0,1.5340577424714663
2283511,0,2.3473891367621245
3068505,0,1.7470924685995874
3235327,1,2.162390988090253
1334759,0,2.161352478346742
1210589,1,1.7032854149991121
504700,0,1.787939336882123
1500416,0,2.7961032940582218
3162945,0,2.2121807111308067
3403904,0,2.2342445592960996
2136526,0,2.147723881606941
3799341,0,1.9577193615168964
3241422,0,1.8917107756049576
2475211,0,1.972583631875907
1957446,0,2.13209753855489
2441203,1,2.612844685204942
309408,0,1.7544808690201896
3037933,0,1.3768484426374
2990866,0,2.2347987820181663
843232,0,2.9755872182491783
883280,1,1.3825335578792028
690861,1,1.789009057982476
2457096,0,1.8734650871937815
287384,0,1.9379453295469662
2265589,0,2.578322231895336
1965963,1,2.246834475699772
1726633,0,1.5514904688059314
735202,0,1.7348713464309826
3890516,0,1.8439502135385437
2560870,0,1.6504243277915163
3699255,1,2.574471383502528
3725489,0,1.9530675887203615
3512681,1,2.282266531459891
1852412,0,1.7972672156149874
642690,0,1.8417951727005064
2681386,0,1.7178670497923092
3125624,0,2.239791416105437
261247,0,2.2381600888521
351304,0,1.9968215789162689
364573,0,1.6040878219121184
3009334,0,2.29680473772918
1772315,1,1.7218734943819793
2035728,0,1.4052180746699081
2159306,0,2.3016936082974127
3404109,0,1.5729668945835262
2571013,0,2.379946206019076
2498110,0,2.632748017006091
502092,1,2.325213954522303
3407139,0,2.0603413586054713
3447373,1,1.94877717947408
1617809,0,1.8548190791038794
1549511,1,2.205118356730615
2526084,1,1.5420089350312516
1331307,0,2.4837803447103584
3072387,0,2.592593804393556
1641084,1,1.7578734016081168
2530962,0,1.4877637667572854
1907046,0,1.9413901656183938
2252419,0,1.4496905217315526
222295,1,2.0244473438678505
1508740,0,1.6984916129755985
421113,0,2.949491447638959
2112232,0,1.7354634639480302
1123891,0,1.6739131346152565
729393,0,2.347651149943221
368376,0,2.1944635782494024
833332,0,1.6587239017322255
748347,0,2.238941936857999
3543320,1,2.185186185128724
375100,0,2.095901460535635
3778843,0,1.767482949564626
2268481,1,1.7006196187489178
3770093,0,1.5807552185684701
3733420,1,2.8582569913431373
3110877,0,1.8765236322773169
2644572,1,2.60679749154552
1261785,0,2.3069181806395442
1551973,0,1.5266915669801175
1228543,0,2.559156632269293
2811268,1,1.9924522581217274
3542462,0,2.046515598681535
1997478,0,2.264237694725537
1035021,0,2.3769409339186405
1118656,0,2.1719373112426754
1295647,0,2.0823161310867575
2040184,0,2.460384609510235
3086262,0,2.5671101256218143
3672759,0,2.5304894303875836
2609114,1,2.2609446844171504
1459444,1,1.3777949781858294
2807474,0,2.3126940225610797
960025,1,1.7883800833881303
3078348,0,1.9323365468855283
3416506,0,2.654074402233262
3477787,0,2.248219069088396
2728175,0,2.4688385187198167
3217892,0,1.8791632982054227
1251898,0,1.8596692398472046
3146445,0,1.4823593845986984
1403445,0,2.118230058505679
3895472,1,1.65938390999674
1988676,0,2.4719854086462325
2937091,1,1.9386833055753196
3410354,0,1.740102607104014
1212765,0,1.8350435010328898
1822037,0,1.5554397815198355
222528,0,2.190342947763257
1555248,0,2.0729507122313815
2450936,0,2.4084249490473613
3849113,0,1.6306822435345751
2026521,0,2.750714995981408
3807639,0,1.7899667672632882
843711,0,1.5536326402967249
1257304,0,2.4150112707187996
3693761,0,1.3137632773879075
1307951,1,2.5771104520477444
1720479,1,1.8228273999785203
564957,0,1.7275795284071087
480124,0,1.4569805643405283
2197616,0,1.5876443871068076
1792650,0,1.6973026894342147
2182886,0,1.569415649532985
2867363,0,2.2101036212332024
1270708,0,2.316241922400996
3147919,0,1.9524024830516886
2696004,1,2.2519163931788624
2727891,1,2.1604906236434993
3761818,1,1.7886979229657243
896177,0,2.026010568031319
2033088,0,2.1306688876800295
442068,0,1.8269141847375838
2802023,0,2.410511779295353
3774342,1,2.263155408434894
1541698,1,1.8731851718429124
2602899,0,2.3582572340468344
2870401,1,1.0832007696984647
1266174,0,1.965506095274412
576550,0,2.11715058583454
1286362,0,2.1059377387588105
863054,1,2.272817524519711
279563,1,1.7861945438177538
3442798,0,1.8958670245567881
199329,0,1.7664110545799352
1328719,1,2.3593233852925644
2033547,0,2.6662786257128164
2178204,1,2.62830778843466
2009188,0,2.383554173667358
210549,0,2.006977284263807
1685423,1,1.7423660349872148
1162037,1,2.254771209602837
3023038,0,2.453412575667174
737537,1,2.177155350221864
3157489,1,1.5160498036217434
553406,1,1.9050228911625253
3013236,1,1.339749428067897
2591994,0,1.747802071356663
1282544,0,2.185414390496846
1395063,0,1.6608995749303959
2491121,0,1.883590817529373
1856268,0,2.565345278270075
355244,0,2.0348417601737103
3135240,0,1.6243535500002204
2251493,0,1.7290399341873453
1578749,0,2.015334100836025
284891,0,2.009818781899955
2868981,0,1.7765940999216636
2530064,1,2.1641532827327996
698086,0,2.084992310260281
365806,0,2.2503884641455087
2200713,0,2.0329879252316565
811041,1,1.5920079023385276
3910741,0,2.085614390219744
1305274,0,1.9005464246493713
1998485,0,2.023821162506728
382858,0,1.1847066383836102
3703247,1,2.4131041990086057
3193400,1,1.7807389376446647
961558,1,1.6670217475950302
3155730,1,1.89101411379548
618739,1,2.0022832734146476
289368,0,1.8666426667405633
1026256,0,2.7785138198673778
2239348,0,1.665909629020382
1850113,0,2.4664593812073106
227212,0,1.6646431568511526
3400312,0,1.6812588661446786
2252914,0,1.992656803055369
3088898,0,1.8690439885734025
2450922,0,2.3863766602785264
206851,0,2.110447774020546
573967,0,2.6299564160910354
3941948,1,2.2776518254667395
3876053,0,2.6493381060145547
2512734,1,2.1589507864092075
1837779,0,1.7874967281946497
3261611,0,2.132956744526183
2013527,0,2.229734547110627
3484439,0,1.8344683909882815
3317563,0,2.5444722415351944
1777689,0,2.284183028085612
3345464,0,1.7622591286330973
2777609,0,2.0835487428564554
3093816,0,1.913814728274862
2658795,0,1.8603408746872738
904945,0,2.2759997733172628
3231855,0,2.167879652024706
3951631,0,2.2951506063435305
1323433,1,1.5131590935531336
346155,1,2.161595410184106
2395547,0,1.8791549479809162
2130853,0,2.4155061990429343
1707260,1,1.8198694543619163
2628058,0,2.1888942752099347
1435404,0,2.9906394689752727
3451774,0,1.4601882737592065
1730602,0,1.7753369084454336
997736,1,2.188660171532775
365032,1,1.8691751442296205
2197368,1,1.8719931112581494
3710909,1,2.4084545638386325
2020900,0,1.872860340365512
966829,1,2.6512503696888454
1621673,0,1.2918907268909057
3233488,0,2.43577815007999
2039891,0,1.8248535804728392
1334831,0,1.3502615511061595
2671622,0,1.70486177403661
3873532,0,2.3233332174680696
3884394,0,2.4381174347928476
629532,0,2.100281122064367
3286788,1,2.25832609393909
2543105,0,2.6564797086898166
1993820,0,2.3282827854794217
2283242,0,2.6053308042161554
382270,0,2.2427778203696827
1848515,0,2.0119287055761523
992736,0,1.9126021321376452
2240977,0,1.6951704537332941
2171322,0,2.157763834000855
3807761,0,2.265932150614316
2988175,1,1.4716200498269045
1727758,0,1.5874404860892906
2512217,0,2.497932935182944
3122599,0,1.9377080916196683
2695709,0,1.4924725602443096
3279127,0,2.312161141138707
1363263,0,1.9269696133377319
2773319,0,2.433043350400455
747826,0,2.3308200999815356
2474517,0,1.7288588240892935
3261512,0,2.4412991385900247
2705343,0,2.238755727964308
1530335,0,1.8687849454601917
2639774,0,1.5648070448010143
1866700,0,1.5319712099178333
436503,1,2.3975820727407293
2396907,0,1.9963424611281766
2616948,1,1.8738283635000612
2986172,0,1.9036686619978873
3524187,0,2.436340612630931
3313677,0,2.346146793542097
1415097,0,1.8322089521407992
1007668,0,2.474465955586083
3262153,0,2.2688772969743374
3440261,0,2.3395122939588893
2457362,1,2.3649226256350384
3704958,0,2.317838187889396
672428,0,2.4555250426610122
1118296,0,2.046644847061671
3513274,0,2.51605860302411
630656,1,1.7873724277387169
650683,0,1.4696574831685667
487372,1,1.3698531929666067
2234791,0,2.2906224199728724
2042014,0,2.4801421062929063
1912767,1,1.9168370379938264
3900029,1,1.7308605864280389
2589763,0,1.8675700135927205
1767212,0,2.738215938256271
862030,0,2.1375758295889162
701979,0,1.874882864900611
2465638,1,2.1066152046768787
3792074,1,2.054004681568758
3474781,1,2.350672761042694
1612393,0,1.6603850359945653
939655,0,2.597561552226981
710517,0,2.0400227224131133
1973958,1,2.531795205817032
3524253,1,2.2742992349669633
2645210,0,2.1634981468366266
339286,0,1.7140033725521642
1046973,1,1.8733665879057917
2402220,0,1.783911738237389
1228865,0,2.248438175875302
2201304,0,1.9631401023528676
3298114,1,2.0203177111571757
509803,0,1.9725269220322614
1880332,1,2.014973545359964
2214777,0,1.9223145318318702
2651781,0,2.051732643510262
405641,1,2.3616091289336687
817125,0,1.4507261942672136
2275222,0,2.6407534559649033
3925697,0,2.3909865199799416
3262808,0,2.190208589034912
3480889,1,1.6937139783117776
2017361,0,1.7644557881676053
724655,0,1.7631747754870153
3536299,1,2.149620017098697
1601408,0,2.516459618703406
3437015,1,2.6320191063975686
380992,0,1.9068358188369356
2883054,0,2.5544328057897676
1030789,1,2.2274887900673255
2415367,0,1.961315352656086
2456100,0,2.50081941477557
2628202,1,1.7253752814868808
1246503,0,2.058047292246914
717228,0,2.2574674021983228
1004406,1,1.978222020890664
1522143,1,1.3982464484010841
3050055,0,2.356984829545217
3383589,0,2.174006384536338
2243660,0,2.1288690720294636
406353,0,1.7098110202616392
1674670,0,1.910546852457874
2899556,0,0.9250625106786403
2151249,0,1.6493621846418272
627330,1,1.6895071043120107
3510559,0,2.151661162439551
3777752,1,1.8090123292280458
533192,0,1.5920416347200452
2266816,0,2.042245226889815
2027278,0,2.1873768475987125
1017350,0,1.6723369423609769
3901013,0,2.273406979717645
3262572,0,1.5050976596171626
326699,0,2.2200901818992187
1542242,0,2.1539951322136797
1615903,0,2.92918178232655
2818045,0,2.7838195125943956
383878,0,2.098420900394054
1488114,0,1.4335808520965314
2841078,0,2.373127653971504
2157506,0,1.6136999995127073
2412266,0,1.374691172483943
1678602,0,2.261278063624865
2026833,0,1.8327470067899014
711034,0,2.704765190611181
3681710,0,1.6372034488565248
3005624,0,2.1370996764743415
3501853,1,2.1083229114177717
2276260,0,2.1448965652540184
3237614,0,2.573531121142948
2837040,0,1.857143098932529
817147,0,2.0673591460063814
3408001,1,1.6197438327677403
1982478,0,1.9193153238744136
1561202,1,1.8207380065624725
1767957,1,1.9157097209338523
2513606,0,2.0384554705867015
1100592,0,2.0768705455615124
752096,0,2.1389958277480137
3296428,1,1.8092984700828016
2482965,0,1.7451082364028714
1286377,0,2.4357641040444284
3667057,0,2.0979468741277856
2012067,0,1.9318308909186195
1721348,0,2.076373580711579
736715,0,2.209569380498545
3115554,0,1.3686725688159331
1873246,0,1.6129521173759958
1413964,0,1.8306838096617828
2253200,0,2.229895805490956
3196782,1,2.1439226799003
3787812,1,2.2828753201646435
3709905,0,2.613077705475673
2600785,0,2.5952794195828406
2990762,1,2.32656322350882
3003947,0,2.7225608334488056
2128065,1,1.884285974742322
1297348,0,2.5035322782216474
2535968,0,2.3403652001884825
3652270,0,2.9750205671471965
2791719,0,1.9114372461581732
713651,0,2.3102342860540923
3176608,0,2.2242156359740664
1632322,0,2.188158723710979
2112027,0,2.4395369200122854
2546014,0,2.560864478382471
320679,0,2.0889412977273683
2575575,0,2.4045284282750927
566838,0,1.8820618597639656
1819379,0,1.96481476868862
2158151,0,2.074130839205507
339229,0,2.060616332621386
585832,0,1.8699395782849166
3231106,0,1.4686220258054399
827293,1,2.1125195274090762
2699572,0,1.3994457974912398
268592,0,1.015127739586539
215798,0,1.8314502390970735
700904,0,2.1484012953759803
3105770,0,1.8200597465688477
3019794,0,1.748693483929285
3701549,1,1.7818592863669118
3297483,0,1.8809615376531785
1308730,0,2.158441119587266
1283130,0,2.4664215906238374
2861098,0,1.6319230963857152
2195982,1,1.6192508911882775
1907556,0,2.1858705111580226
402845,0,2.1607280856569218
1363495,0,1.6328014135214843
1097425,0,2.0907560040170865
1858542,0,2.7335519724678585
694676,0,2.2705210150526316
808412,0,2.6579882073922096
1093866,1,1.1417555380827356
1372083,0,1.7260753826867663
2971817,0,1.8653712345560658
635855,0,2.3856616617096136
1731412,0,2.2705375408182267
2814196,0,2.1570733826018693
588209,1,1.9650883294234476
256276,1,2.525226979404629
2716950,0,2.218335005372132
3366796,1,1.9712018105827138
1316395,0,1.866454252557579
286300,0,1.7387637013420716
1582269,0,1.6144740163074989
1335954,1,1.1746402001907517
2620122,0,2.122541647040339
2724483,0,2.330942478107325
3138808,0,1.7061328373927693
3474391,0,2.656272247564278
1095146,0,1.8236897709724786
3179924,0,1.0938318865587813
691158,0,2.033931226752306
3674565,0,1.4407078370238415
846232,0,2.536127931865068
2680195,0,2.7065698972872165
3273632,1,1.9469943122023448
844246,0,1.7470130308341982
839454,0,2.287694422357881
1731979,1,1.857963274076782
542738,0,1.763919418690746
1159078,1,1.54164556638764
1549449,0,1.5347447456985301
658821,1,2.3232968256860076
1876972,0,2.4747667249414445
577545,0,1.5590991009078718
3072595,0,1.6159195678791356
362483,0,1.8495479113956452
1631938,1,1.717653299051689
2726131,0,3.171919252746047
1061761,0,2.1770225417873417
2550726,0,1.8895732479846417
346313,0,2.043138021451198
1684458,0,1.108519738470006
1268366,1,1.8470189702350384
3674978,1,2.3001490803444455
1221782,1,1.7896037498685322
501926,0,2.22173983806455
2963784,1,1.7007877782047416
3887755,1,2.1464736642124658
3215398,0,2.029651256588624
1484467,0,1.791712211268497
1979927,1,2.1089096038917945
610130,0,2.1797980369048013
2402931,0,1.715226596168743
2934489,1,1.1654345609579435
3529030,0,2.2076500103929644
2979162,0,2.30369458740607
683801,0,2.3596320795904404
2609130,0,2.0829250589806474
3716499,0,1.8211837922141905
2151159,0,1.9668708656808231
3706361,1,1.792665752798377
3149212,0,2.287508771889374
3107555,0,1.6635723533132443
2026661,0,1.8711682716695384
1250302,0,2.55457601034294
530532,0,2.423072809791336
3409925,0,2.3541654053068615
578485,0,2.4793177471916863
1811374,1,1.7432610393472587
2854266,0,1.8237466426703188
1666719,0,2.4163206607165097
2675873,0,2.1151688810868223
2434523,0,2.248976992666071
2804540,0,1.4601852472452928
515268,0,2.1799985294746733
1580632,0,2.7318308581017834
2441421,0,2.6292023313365376
2926678,1,2.1467455430874414
535964,0,1.7664632598128804
1908918,0,2.5243660161019887
2805236,0,2.0477896485391414
875548,0,1.4296989573819503
2784372,0,2.764074124308862
2998490,0,2.1191396829428544
248472,1,1.755017281252428
710602,0,2.1690567194251367
3154941,1,1.9988261003679404
1645929,0,2.0816140970202164
3341745,0,2.334428141832544
586376,0,2.5803538384551166
321642,0,2.7070636446568397
3368074,0,1.7230947764681952
2040351,0,1.7497303661458505
475503,0,2.3702627162225887
446680,0,2.005163357918082
1225228,0,1.528181243180893
1058181,1,1.6101793688368427
254354,0,1.48805207688221
1956831,1,1.9357831978192508
3692222,0,1.758737362146771
255114,0,2.749730147449122
3361623,0,1.6244357083782293
632529,1,2.106828889657921
1093857,0,1.855740379616526
2604407,1,1.758980846101384
2770281,0,2.2861650181042585
3350195,0,2.095736321236797
2229195,0,2.3152840135154786
1523589,0,1.9930617933577983
537665,0,1.939976124611031
3771532,0,1.9723534304804826
3016316,0,1.9632846324418067
828557,0,2.0750501047965746
3332816,0,2.3665787937216485
2815619,0,1.9093036767499616
2514925,0,1.9455309180333913
2199980,0,1.6703596237969514
3327484,1,2.7169023074391223
1280072,1,1.7999545099860885
3760614,1,1.8172915786366965
1501995,0,1.7847745084878972
1734625,0,1.5992755491614292
1547410,0,1.5218071882556081
1619169,0,1.6610345500929022
3844045,0,2.0961125239410725
3031160,0,2.2959213054124126
1904150,0,2.04262881509139
568748,0,1.5511432745598066
2550232,0,1.4678058441487498
501988,0,1.8601191642260402
1587425,0,2.4550569029039067
2844350,0,2.1038231976877264
285536,0,1.9293011234357413
3214368,0,1.4685978904518744
692277,0,2.847079379235499
2463792,0,2.246096269088293
1020978,0,1.9556873484839088
1822976,1,2.1808552072501857
2114209,0,1.7177552043961253
478711,0,2.4614343649109287
279379,1,1.5418626299260902
409716,0,2.7430886555600544
720294,0,1.9218800150501705
1751321,0,1.5385005512893677
2467323,1,2.2941859830923583
751426,0,2.6139708093618306
2697259,0,1.9083663361762802
3503090,0,1.533262268685586
3106369,1,2.0376090239600635
3162670,0,2.1298233837006557
2143659,1,1.6045530024828147
2733482,0,2.2935678938136075
737371,0,2.704907747569191
3420663,1,1.8087226903289038
1793814,1,1.9593705812001043
1410706,0,1.9470258002356458
2120647,1,1.9839988551447059
732065,0,1.9327175080102834
431338,0,1.7358961290992825
2997295,0,1.913506610615497
3861275,1,2.3440249809965867
1147162,0,2.62201943223572
3763988,0,1.4863723177021801
1078073,0,1.7983731610664702
930879,0,2.240681416179013
1962306,0,1.7151526140275721
1440121,0,2.1446412756900153
397170,0,1.5831030813886744
3393046,0,2.674946861179869
1316782,0,2.599078794134543
585398,0,2.0118607787633485
1636078,0,1.84147937166196
2051413,0,2.2236269102014403
1967422,1,2.3303424758815368
612469,0,1.6837537353903775
2695370,1,2.2050232011470037
1145710,0,1.458591392592996
3759547,0,2.235096534937899
658761,1,2.0200466088685705
1507550,1,1.957301744641072
3104176,1,1.6590810889784726
2042673,0,1.4497547279221352
3149873,1,1.284573921261782
3846864,0,1.8703222243572704
3833461,0,1.8687328748059628
361713,0,1.450975252584105
524643,0,1.5842978979522615
3358360,0,1.574927489755858
2695884,0,2.085565895157875
3509066,0,1.931107481332482
1045825,0,1.5735613702442508
1062465,0,1.9095725295160761
2934629,0,2.2729449080418815
694059,0,2.566836112658294
3179630,0,1.9227997526899072
2921812,0,2.1401613125628445
3245844,0,1.5056257802891442
3858861,1,2.120115348607206
1590012,0,1.4802668217042978
1808217,0,1.751798786715126
867759,1,1.6258629900289818
555032,0,1.893768325205652
3249148,0,2.187619264175207
724774,0,1.984917052683887
418422,0,2.222477645565859
3271852,1,1.287029174041264
2244209,1,2.327760389854885
2495458,0,2.138349284037761
712242,0,1.5180621033676507
1757431,0,2.569722284105123
1271105,0,3.090120301610484
447388,0,2.2142398528372853
3063013,1,1.7508048472566065
3883309,0,2.0427549100881235
3390869,0,2.2219809470203207
2053011,0,1.8985251468796938
963591,1,2.3413671821365827
3235500,0,2.4982450051188225
1066155,0,2.4854643409522366
1165329,0,2.6326088602154556
2817454,0,2.2394661966843827
2777754,0,2.582763756703041
1244800,0,1.839317792475614
2767165,0,1.6290841411413697
2974338,0,1.4817393285825764
289766,1,2.2594805437870358
607386,0,1.205967058959966
624156,0,2.0261511383868696
2055026,0,1.5599016547978135
1528794,0,2.1199392731032933
1459996,0,1.691451876908429
429434,0,2.568790633703298
3882553,0,2.5817570669197862
1336891,1,1.9849259519633602
3677343,0,2.27087269016008
817302,0,1.9379444931352956
399743,1,1.6288128050063575
1955779,0,1.9528540478363594
1988538,0,2.6534309473370143
2704541,0,2.325448058068129
3679047,0,1.9924309320522129
3281591,0,1.8259721967593396
1713760,0,1.8892896275358135
2561113,0,2.246850676814394
1131516,1,1.8630041238743908
1348323,0,2.0771993670699107
1361100,0,1.7488406687667288
2520698,0,2.06456817955
2262099,1,1.5040937306599667
3885343,1,2.1324574845736843
416338,0,2.5600732146687295
3257109,0,2.0727764574580196
569349,0,1.8911161532985534
1405545,0,1.8160864111800374
1832901,1,1.1813696491630648
3703714,1,2.4397287621457657
676877,0,2.142305685746683
1725167,0,2.133087245268644
2622153,1,1.3764973191626624
2526577,1,1.4716250353787343
2990943,0,1.6139585825210157
2807662,0,1.9643322905694385
1395329,1,2.6749129266220733
3038725,0,1.3554741542770437
1953623,0,1.9639209897005712
947355,1,1.234275599066655
740565,0,2.429224967114573
3926611,1,1.9639999790266813
3297869,1,1.8220453721208654
3837816,0,1.8225363085013682
3266245,0,2.849357442499579
605823,0,2.0689115833947764
3471846,1,2.07455981947045
818479,0,1.8006488260360272
3422387,0,1.8483904978412795
1843473,0,2.0108540189291686
3196063,0,1.825726866891659
3012639,0,1.9746732214731206
1061322,0,1.2312247643592182
2031666,0,2.4150747089397755
510608,0,2.002827837227753
2452086,0,2.1566590460105117
980856,1,2.0413229027295325
3732952,0,1.590193785985011
1861115,0,1.900722665723733
3485363,0,2.5084111786784926
2136301,0,2.1244743464346527
1242660,0,1.782379522580641
1326130,0,1.9761048843610196
817640,0,2.289124367532509
1051671,0,2.5621280041820262
3439942,0,2.185794776085891
3368501,0,1.9765431092844725
407986,0,2.5613451242407472
1117744,1,1.9326354861615775
212141,0,1.366424937133497
2169688,0,1.3816754254897339
1591565,0,1.7332849419172665
910906,0,2.502679188494901
890362,0,2.3965150751311053
3521226,0,1.6642786201821689
2503036,0,2.0832918232227238
2636326,0,1.160776751379255
3310479,1,2.1566910043791827
289677,0,1.786825582435001
3659583,1,1.7297775086139944
3884000,0,2.5928751839790394
3834295,0,1.9638233421540856
414663,0,1.6880205524304734
2551346,0,2.045945414959886
2480340,0,1.8159292933930435
2143488,0,2.220787952963668
3241252,0,2.2944590988955196
3866849,0,1.9756201084603728
1138685,0,2.0799274500634053
3933479,0,1.776681473913354
2894558,0,2.3090915926214635
960228,0,2.4202545269956226
2514923,0,2.3088374421069613
1247918,1,1.6937021257657972
326065,1,1.5595591880632176
3309908,0,2.240998024517235
1274639,0,2.3663015569958508
1239350,0,1.5861350144295623
2412882,0,1.7514192212432151
809149,0,2.2595925545858764
1149497,0,1.995059699126459
401356,1,2.1051222480158853
3028008,0,2.5090769054421154
1691198,0,2.8541099677203747
1833708,0,2.038597821970154
2615135,0,1.822313205821382
1471831,0,1.6586464889577366
3707444,0,1.6843734669974695
3131551,0,2.6630223949027885
420912,0,1.7908057322463482
2774927,0,2.3048629200553084
3764253,0,2.2564574028949
1317418,0,2.3717886416965093
914812,0,2.687626856527844
917840,1,1.5719190637234908
3707549,0,1.6738531246703376
3310741,0,2.7572882984438376
1519436,0,1.7146506528275642
1445873,0,2.0725812012161366
1672903,1,2.74833686179831
1108329,0,1.8970520366574033
1276948,0,1.7557746488235804
346681,0,2.519908955351935
2764832,0,2.217104716088579
3917312,1,1.4789576927647632
2795000,0,2.4152023288334354
1768470,1,2.067480003129479
3368470,0,1.8462016493840145
996292,1,1.8216454701188027
2872870,0,2.1554151269370063
2027019,0,2.165283804726727
2119374,1,1.3616578122488767
1074625,0,1.8593996811434788
2693797,0,1.8034484939905313
3431179,0,2.191263996594929
840864,1,2.369920228737788
1281584,1,1.9027901693817006
3488702,0,2.0485470579888907
1466622,0,3.207793531611931
2770121,0,1.920816055150468
3541162,1,2.137726996146167
1498490,0,1.8521883977879143
952093,0,2.1291483996526286
596145,0,2.2606622732347836
2787208,0,2.2183347370983357
560523,0,1.601754836587606
2468150,1,2.0024374980502144
2000407,0,1.5611882400064907
1762222,1,1.820143653859147
1529446,0,1.9484825700649793
2646139,1,1.6962320412986513
2122178,0,2.241508306962544
2545263,0,2.7165485646461023
328081,1,2.264745340114054
2644538,0,2.8910715764781654
3210523,0,1.5745685504372318
2025677,0,1.820219447214968
1311765,0,2.129548945328092
976980,0,1.8635521189798365
1395332,0,1.6489128649541729
2214483,0,1.7622041302830023
646863,0,2.1129531618427717
1966635,0,1.7231518745026877
2644227,0,1.9156808864127433
3148833,0,1.7138114000229943
3842080,0,2.3224018536850997
2529902,0,1.6709363288116237
3078154,1,1.6197336789226302
928417,1,1.247783075085282
3947808,0,2.405799566040584
1263946,1,2.519503999524146
2558328,0,2.099169348109501
2663032,0,2.1841370607091086
1764085,0,1.9693781313536245
1875151,0,2.117228399025592
643938,0,2.5289355209086564
2049316,0,1.490695891558834
393651,1,1.9995098705209944
3266730,0,1.834338806314468
1273262,0,1.9142181452585871
3948259,0,2.285563759105571
3209409,0,1.9725270277074456
1503200,1,1.3906341176991994
373136,0,1.7639372464926595
2544659,1,2.0831495611101896
744087,0,2.1947110499463984
3429717,0,1.8179655272924125
2903767,0,1.7819236035033432
1393153,0,2.1309003757850995
2867769,1,2.40917657823557
2012048,0,1.8303904932237658
476944,0,2.0898254386361743
2893370,0,2.5312415383618876
1264953,0,2.3815560509817777
1694109,1,1.8586774369879582
2550507,0,2.217745823068242
927154,1,1.5053992125928808
3880542,0,1.8694339020334643
671664,0,1.9255162674997433
3170286,1,1.8243934523081557
2983585,0,1.9327158517740832
1874863,0,2.02586832320731
883740,1,1.6342816624035337
2746747,1,1.4711800069317533
3053510,0,2.3300268947421356
1330791,0,1.375515546124102
3732444,1,2.1783373383059104
3437338,0,2.836241891792361
3162609,0,2.334527330712073
1592752,1,1.569233565718549
3700619,0,1.9990877266617793
2806912,1,1.807443731899722
3437314,0,2.25221305003112
1606047,0,1.335206809030034
2480123,0,2.2836057049314284
324487,1,2.1341265142059123
3538020,0,1.6784256582587544
1830229,0,2.08440613394684
3163663,0,2.2257255802154816
2714491,0,2.34191143263959
3541896,0,1.8971273822908152
3899497,0,0.5888289703125889
2880677,0,2.108757041851417
823510,1,1.6993079981185244
2861296,1,1.341516088465352
494844,0,2.3273736039063473
1241731,0,1.689234925879036
3048611,1,2.0213761343933316
1481755,0,2.219719881730798
1857711,1,1.3970200546361373
2528818,0,1.7645215618782142
195339,0,1.9532047524930292
935852,1,1.1842917682916005
2796693,0,2.469360687921577
1299827,1,2.0072992529725466
2642038,0,2.11675021002006
2203245,1,1.7503599814155273
269327,1,2.1679053196230913
281547,0,1.9804413889152
475422,0,2.6508507923867115
446785,0,2.426669146236668
2921459,0,1.8199594372314487
3121163,0,1.572353391859775
1471578,0,1.6759974417959678
204069,1,2.114136480381864
2937507,1,2.1907248776769066
2996592,1,2.72216018721873
1266830,0,2.0733249185685487
1728321,0,2.743555821062227
3886702,0,2.411509152758936
470650,0,1.844429885026003
3160479,0,1.4137065207386166
2642282,1,2.421281146075729
1844195,0,1.9879519498440619
2200348,1,1.9566683444400348
1460811,1,1.967578538313169
2243461,0,2.699943410113919
3797537,0,1.0832165205873028
2276259,0,1.389763336798341
1319915,0,1.7020565463232546
1818321,0,1.670288315924362
2658339,0,1.74430520364021
3267784,0,2.0112804343425292
2634372,0,2.223512827619854
2690692,1,1.8683348346601516
1267512,0,2.0993303075906775
2024907,0,2.0891446732359222
2900192,0,1.8009940153437154
1516795,0,1.8109623702787279
2776692,1,1.95980986650093
1399875,0,2.6387539272640876
2738409,1,1.0702617748577503
2798567,0,1.7642190546588168
327836,0,2.276509378041
1315354,1,1.5771243044090877
2734187,0,2.29240291115393
2453924,0,1.8156373804826929
1955994,0,2.2152325350178317
1949251,0,1.7768930264665797
3438683,0,1.998666370329882
1700179,0,1.9595514686309008
1777980,0,1.7072897872629942
3278820,1,2.2019308416756402
2061088,0,1.2128490963848058
1778712,1,1.5499158995713451
3420945,1,1.5264341375424095
3778826,0,1.665978319910284
621144,0,0.8702462892278098
2890946,0,1.8315369065812408
1436056,0,1.9586084841523435
2899117,0,1.9920903840800392
2984819,0,2.237228003314364
2231097,0,2.081021795959084
1198561,0,1.84921386142761
1035997,0,2.401381622730633
2641781,0,2.097590647654224
729525,1,1.893075245003384
1492633,1,2.4504629885246945
3513799,0,1.7150223760748284
3339949,1,2.2245447792283404
282918,0,2.707008971344738
1917381,0,2.550325976515826
2932648,0,2.4404748751112537
757637,1,1.3575046165741902
424405,0,2.374880930424945
1952792,0,2.217596457877255
1546205,0,2.768926089717114
3514174,0,2.3991802979417205
3172675,0,1.9377793901585125
643983,1,1.8115895112175062
892592,0,1.8458033259685904
3848094,0,2.065972961856665
3410332,1,2.039396751795274
1901442,0,2.5299379832167235
1909953,0,2.0771951910060045
1468841,0,2.69836190835092
649520,0,1.745196152761127
2757257,0,1.5940701337359162
2790943,0,1.8299876394285899
2198853,1,2.146293332129093
1679694,0,2.0664976127027623
402333,0,2.4798440334275766
2625173,1,1.4168107078567223
801553,0,2.3204111269749457
2186314,1,2.044699768308554
2562195,0,2.2427291551402466
379308,1,2.156943991180143
1862145,1,1.8649034546394092
2130470,0,1.7013270715392574
500938,0,2.152708480453426
3744849,0,1.6826243762852848
1251896,0,2.7492281036322934
2147785,0,1.2690971944799698
3669316,0,1.9320811561274387
3275247,0,2.5247259988385458
3784488,1,1.6543871251940856
2110966,0,2.1382891811473237
1842945,0,2.3288724412298016
1349123,0,2.290438968237765
2989679,0,2.3358434505144703
2418791,0,2.1432128967444903
2521356,1,1.7016770576579938
1534041,0,1.755813883461946
2715391,0,1.3941817922240307
1708233,0,1.6236761525740877
3911046,1,1.9657228374632987
3931948,0,2.174919259130343
877202,0,1.386360427486002
2494593,1,2.132215624714112
3511828,1,2.1481754954446806
1082247,0,1.9251216603978203
577662,1,1.7981117508067295
2551287,0,1.558167227760057
2023959,0,2.6848425243065965
2506623,1,1.7393521752566028
2610323,0,1.9940909000889655
1274911,1,2.028661431068265
1235777,0,2.605249309282571
1355593,0,2.2683112571054274
1227080,0,2.1127664996192816
1221017,0,2.3329741162902633
1048353,0,1.2734823905795127
3268423,0,2.115411910189683
3127253,0,1.9654615581322774
2646544,0,2.227839963319941
1953272,0,1.962208660108064
1570717,0,1.8894376616071837
2158281,1,2.068510999717273
402211,0,2.4846376831348516
543859,0,1.590348440233817
1993409,0,1.408374432320211
1834261,0,1.5065831619109633
3772901,1,2.0473356869883217
2427792,1,1.701261932073969
1324896,0,2.1816760169408265
558422,0,2.0021839609393663
2677470,0,1.5209021518068488
3456670,0,1.6292965357760403
2434054,1,0.9131331947499365
957434,0,1.9124006527824595
2781192,0,1.3649641649610451
3762052,0,2.0999572449556467
950045,0,2.1946593137621417
2538922,0,2.1313848714079686
3148487,1,1.1953466973577085
3375436,0,2.282069340625576
1289346,0,2.598152792115976
1627388,0,2.0513891276632856
1918034,0,1.5676728664287396
1358077,0,2.4454799605296187
1838830,0,2.0572769548635295
1303585,0,2.168823132732529
3269146,0,1.7615578829894658
1689780,0,2.2701037367263557
989755,0,2.005310520426142
2113335,0,1.7111575804154666
2242519,0,1.8278585365171403
3331451,0,1.4707203411349554
3460778,1,1.0480129905586166
2745812,0,1.8910412949543252
2949017,0,1.6834972789290712
3321204,0,2.318928347972162
2722980,1,2.4159331289578385
3435355,1,1.7647617102043487
2575192,0,1.6567754598019917
2046057,1,2.0648259861362197
2864210,1,1.7840852925804382
2256558,0,2.0751977484702095
2151252,0,2.0807521589812503
2787074,0,2.268749646884393
1569949,0,1.8765979988962245
421752,0,2.0550950868073548
3768594,0,1.8580381427331323
578063,1,1.9687490036557236
2606298,0,1.8229586655045527
1397862,0,1.7639522743002498
1946156,0,2.1888003615204035
673700,0,1.5107113971687527
1391637,0,2.6911065213937073
863050,0,1.8991180362057742
2003827,0,1.8392216679020073
3381059,0,2.545264395746663
628376,1,2.140667153634225
2538383,0,1.6098673272226671
2704888,0,2.099435001612986
1097137,1,1.399281712983487
1027029,0,2.5522837058180206
2842347,0,2.4678238527842877
3000694,0,2.4592141698831718
2394471,1,1.6213412854542266
3299232,0,2.7297354496550668
