sample_id,z,y
490894,0,21.664089862041468
1528794,0,16.007699976459126
3489157,0,19.87499262010375
1592378,0,26.33041413567483
2444585,0,24.713051522666397
2475737,0,20.705527972295965
2220897,1,-134.71905309251574
2186669,1,22.4905126228446
2762905,0,20.234475343367745
301947,0,17.479684628935985
2970107,0,15.81995405631816
3275775,1,27.36144373478733
3156331,1,21.911623182660236
944782,0,28.440357522332192
1743953,1,24.701335743642527
2860730,0,22.867967654651633
504969,0,22.49946437577681
740092,0,20.4202554023765
1484168,0,23.844535576213996
2106021,0,9.357300402853618
2819170,0,-136.595067009636
906719,0,21.77468249904637
3412246,0,21.941616455180576
2727157,1,-136.7887609476251
1815280,1,23.36631356660419
1346956,0,30.532596379429858
3241532,1,-138.88627278300012
2412232,0,-26.656062631366762
872797,1,-138.75462016090387
1937256,0,24.652774987917105
2112996,0,-0.02307567583243253
3709794,0,30.167669378755395
2965568,0,14.030156959930917
1974807,1,27.622992956678395
2568673,1,23.109549820867546
2207575,0,19.253569996545753
2828873,0,-137.72339903070855
865641,1,13.088296347467303
1546175,1,19.60025894026756
2789136,0,19.51198858164804
3477186,0,24.286735745300284
1019722,1,23.210133746677265
1991733,0,12.786498932009884
1209093,0,22.281159537429335
1577672,0,29.791501633411357
1436825,0,21.099748313769194
547035,0,5.532791809879312
887671,1,24.974334730091673
1500608,0,27.58573548053479
1313798,0,29.748505647328134
3336518,0,28.421491830382223
1523401,0,23.245565084346005
1408418,1,-142.24782588643856
948498,0,18.017461905268334
926649,0,17.853197830036308
1261569,0,28.20383563717985
552090,1,20.105273401324098
1078366,0,17.971550176147492
3893505,0,-135.62942255169952
1348075,1,22.22848263308746
2629540,0,15.508272307537975
1332821,0,19.29151155130052
518998,1,6.916521431935761
2919284,0,26.723987759035445
1470997,0,24.70281701767452
593908,0,8.254265136465913
442170,0,25.19190945907176
737294,1,20.985039445861766
453034,0,22.68005445988969
3499520,0,-143.14338861873222
2180941,0,21.096496231625142
1484451,0,-135.82909413468997
355602,0,21.829681703865624
1694670,1,21.391765104067648
3239617,0,24.74618415106015
3402158,1,14.394474836376434
3879577,0,31.646884611797752
343913,0,15.985330209372624
1081491,1,16.516322748475964
1661558,0,16.614282505475867
955189,1,15.669198417136098
3256039,0,16.384524112054375
974645,1,26.686794296357206
2460393,1,-135.35165285854
2793338,0,11.805168302694266
497916,1,21.362458579562997
2803624,0,11.267025904989948
2173773,0,19.200027993395892
1893383,1,-191.109398397193
3843742,0,28.94576091625317
1732668,0,18.487223213825903
3661589,0,21.445583331429386
2884092,1,-194.34138150051686
1362606,1,-191.33695189487537
1080453,0,25.45071869668111
3209707,0,29.444799279131153
2832362,1,-30.230181469816866
3286554,0,22.642115737308192
2837858,0,21.826532025441395
1285394,0,21.885608976882256
1435161,1,24.810699841908182
2831268,0,25.552871708987492
1149820,0,-30.486107777612062
430644,1,26.487626144082245
2701435,1,19.966097187206557
3458012,0,18.23524292166465
1022720,0,-137.60502004107792
3407904,1,23.015746744915795
2590144,1,17.923822702818335
1916625,0,27.540891384708942
1989141,1,23.05720563246294
2153540,1,-142.3512145261521
1981724,0,14.79129546316854
3230029,1,21.00614057332249
261613,0,10.876886490011648
3397052,0,-7.659281605793364
2219686,0,20.16225227650468
1469691,0,28.012433022481506
745823,0,18.642096950043857
1565184,0,-136.76578746040605
2653252,0,-145.77734603467852
1712166,0,24.77383313831176
1522175,0,23.56057729483692
882028,1,-140.03575612786472
3837457,0,20.8373968575643
1914711,0,21.317510839435858
2427662,0,3.6855990800340885
1682849,0,-33.96449833846391
3187875,0,10.628549220045121
2281869,0,28.45912694286282
3927801,0,16.86320655750546
1091982,0,25.06861140767805
1843759,0,-133.24381653166276
1266254,1,20.474440945733534
3895513,0,25.787698668470032
3764341,1,28.800473442505186
699203,1,26.238236954307453
2748128,1,-136.69425627169844
1049101,0,-134.4020742068976
1540316,0,26.108003380673356
2119070,0,18.468828465795514
2484980,0,16.38475527031975
3210083,0,22.150710272770755
1291044,0,28.16886898818565
931171,0,17.178883840206037
1039809,0,-164.35081263735935
954622,0,-169.65111159419078
2944291,0,19.24513946487747
421300,1,24.51834313492879
2179465,0,-34.56994735096954
320359,0,15.573501421005128
2646544,0,26.523323393597945
2515022,0,18.990140726529514
3763100,0,26.822441877097944
984817,0,-135.77054088398828
679141,0,25.052772588619003
2811965,0,16.984648997250932
3067030,1,-191.36030230012162
3409373,0,22.075827465191512
309002,1,25.154368958797264
761171,1,19.117770216822166
819623,0,21.05625430245231
1869384,0,23.390038065101688
209957,0,23.598824063774263
2236016,0,-136.81300641013098
3006661,0,21.04198330588598
1083364,0,25.26943586683951
2928386,0,-191.3417271717977
2131274,0,27.042345082577413
656474,0,25.843248311761574
1356079,0,26.26973097713695
3285190,0,21.03614978948017
3774121,0,3.436632707110301
2113455,0,20.22858698283736
327940,1,23.829033618230397
1053827,0,10.688314825803246
314237,0,19.253313602668182
213109,1,27.018559533945687
953604,1,10.669470813836048
1411919,0,25.177205805091287
1851153,1,10.970090787464283
1131668,1,27.2747527120788
3750282,0,25.15544990366396
1498134,0,19.804372430721454
1457417,0,-143.96131557452992
3837419,0,15.561358724437312
3764765,0,23.13882086203439
522186,0,28.011095640367238
1273135,0,-132.71264715242475
370662,0,20.66688593560857
1194331,0,20.3729991834416
1445050,0,21.294595724891987
1001970,0,19.579569187780375
1585660,0,23.58346930153624
2687073,1,15.004778022375133
2768134,0,27.494871242755096
421735,0,22.802145420791025
211699,1,27.623481876991605
2752133,0,25.43367181088438
3019128,0,5.345194247353557
1295847,0,27.28039561449599
1430642,0,25.42716822880476
2735586,1,15.855404943684317
657110,1,24.154011982913115
2226220,0,28.06051520188709
1512292,1,14.890926397093162
3945272,0,12.43422038423083
195825,0,25.613457100856618
1991831,0,24.830402122364415
2513067,0,11.852388973721263
488311,0,15.17777705023267
3349385,1,-138.35867747396875
941158,0,23.573977546924088
1342108,0,-133.3955368072606
2436106,1,-132.81143989452505
2898370,0,28.501178373320638
2504128,0,18.431771709748425
1165336,1,-136.10244852720467
1428261,0,20.94940525163975
536837,0,29.11271779365567
2023232,0,26.27525862148439
379284,0,18.154661924020186
707650,0,12.19149457450739
844471,1,-146.30562835354155
989378,0,21.90011180714594
3037995,0,19.40450269817977
2052013,0,11.759078685080258
881735,0,30.10102416272356
3030179,0,24.003846702968342
1576311,0,24.97289049412919
1875849,0,6.987624011222356
3867013,0,16.980029597179023
3544806,0,20.637470266006336
492366,0,22.199025502118864
3030467,0,15.85301659367783
3275092,0,22.507636046543738
968927,0,-32.49317565030593
495708,0,14.561236835750528
3713829,0,13.161944117117722
1537743,0,-139.0767372665086
361142,0,23.824378997776932
283139,0,24.1774374956941
3511957,0,15.551928154905548
2795185,0,23.47812681299003
450546,1,22.923363360332772
3840830,0,25.018747582301863
1615054,0,-151.0365746268247
3737683,0,23.37859371920796
3331427,0,-137.0810326427298
2431503,0,24.198985509576335
3272140,1,-134.54124398144424
1967698,1,17.206632772187096
1360151,0,-148.10887553343125
1850725,0,23.264884640027773
3522324,0,26.953903222505133
626316,0,18.092367036693815
2040949,0,17.054536211074296
643101,1,23.99738239150018
2559221,1,0.979726512592064
1994961,0,-139.6198723535549
2435174,0,19.807206899034366
2171144,0,19.078435293632708
2015964,1,-138.22809097295462
1215303,0,-135.9290118302651
1554434,1,-139.58443041636767
3158512,1,28.443023878321238
269338,0,24.305896317559412
806926,0,15.997757671476737
988413,0,17.548337300310383
1714541,0,-35.47591735488247
2818975,0,17.39540078552209
707005,1,23.9700053769194
3006674,1,18.668467288517295
2439465,0,22.029083675845797
545654,0,27.210496965326236
1762714,0,22.355547640237617
2917858,1,-136.44714142803895
1418658,0,19.64238937802367
201465,0,14.63926060854367
1209209,0,26.07590337451934
821754,1,26.324485099300503
3857055,0,19.407546574219584
2606592,1,26.042504221075202
1860026,0,17.275117141207442
1063917,0,-178.73027770238645
416154,1,16.70231603640024
1020587,0,18.70851066076073
3333494,1,21.8972374488186
1208367,0,14.390852167921569
2726635,1,-138.43153748177107
3150730,1,20.268709551932456
3722218,0,19.804820894346236
1222481,0,21.48642532475832
685610,0,21.570288727168602
1581123,0,20.504231739973083
1667906,1,-141.86149501140088
609346,0,22.07024663209447
3435068,1,24.39261836857137
1063669,0,-142.79200475223888
1683736,0,19.683026038637777
2483871,1,21.781944746762473
214336,0,28.168689699821186
3792065,1,24.319022104097883
1703265,0,3.3565772922200323
1729720,1,22.149431328817368
3461868,0,20.188030249866355
3410131,0,23.84465937261426
2394849,0,18.507094693337123
3379168,0,25.463781497641445
1615261,0,18.130330156034347
1828025,0,19.49504032737848
2552865,0,25.136684512402187
2131680,0,24.80501422919944
2819919,0,19.01938142785392
2897446,1,22.926357150738895
3370398,0,22.617507141695228
1813114,0,26.789075168527646
3701661,0,24.777738277344373
756620,1,5.971733314206575
528374,0,25.68086754546366
2013429,0,25.861755144116493
1015354,0,-24.46697768547037
1906418,0,19.372862946557273
1722178,0,-23.932111828470205
382270,1,29.752377866842203
1894690,0,24.899099011394586
1945990,1,23.102105125422824
998233,0,19.444567830932854
3346630,0,25.49852872924731
2222843,0,28.399729909944597
520690,0,21.990158580800234
259504,1,12.137787878187641
986880,0,-135.0745494379028
3393046,0,-134.733875001499
1689013,0,-190.38966636293608
1167609,0,18.332409540140652
530184,0,-135.0651528801304
1395270,0,24.865215682372583
3837190,0,19.399503013623463
3374544,0,-134.5399667242045
1171593,0,-139.18199172113404
691488,0,20.443421635119908
2964337,0,-136.85777541135965
1618330,1,19.613434353974387
3749282,0,21.21159559495147
2154512,1,27.011322725021564
1529057,1,17.48124751900081
3347626,1,22.865083539377252
1305613,0,21.404832317735888
3327926,0,13.355382314487555
2446087,0,15.379951596625183
2891887,0,19.241244738009247
907215,0,-137.4923976404215
1905629,0,24.632543632750597
834749,1,19.35312666547509
1498408,1,22.53174287642137
2195857,0,22.14948849552096
1715528,0,10.228444572806177
267870,0,18.111910715335835
3492375,0,-129.7592278086248
1204003,1,17.66706343743315
639273,1,22.09397286325224
589946,0,24.15982413517051
1532603,0,24.509922798238954
3218911,0,21.183333664059287
2476578,1,27.367755396876657
1220080,0,25.27865161555592
1635344,0,21.78025557368123
2814204,1,-138.51558086273337
2906443,0,-190.02236648735467
267134,0,28.392970439143266
2512530,1,20.816079647962
555929,0,-6.124505589564424
2486155,0,-6.573024747525381
1282950,0,-158.4233784693105
1334362,1,-194.94247499480753
361294,0,17.45502485967041
756546,1,18.621817351600644
2473793,1,24.59071628961712
3088686,1,26.67352805032963
1276646,1,13.009460566244433
3093375,0,22.126960123798284
714607,0,25.06358546459647
3356354,1,23.361718875800346
3434824,0,20.87077985355266
3067687,0,10.225660303380598
631020,1,20.36690564894855
707090,0,22.4323124588321
203912,0,14.711743290991851
644579,0,23.702245059433295
1476187,0,28.36748551802481
3285448,1,19.280833952815737
1976181,1,24.931643420317975
2248853,0,9.242782791452434
2725997,1,14.145231959506727
3168397,0,20.912629462455733
1557901,1,27.355341865011226
263842,0,9.171385570948198
1480551,0,13.09269150583233
1632034,0,17.967681764656852
685117,1,-136.26677794988382
3048676,0,10.002176731699931
1454648,0,12.030873946484661
531336,0,-36.54955378926672
506553,0,20.635469070786613
2434744,0,12.820313903699045
3494377,0,29.239393591982882
920277,1,7.152136266106007
3417076,0,14.06604361171588
2782519,0,24.510144462323343
212922,1,28.856185921402513
3524788,0,26.774786559331126
654206,0,21.048753253017562
2592894,0,-36.812478601241175
1296439,1,25.311571773297906
316810,0,-15.617257217913686
1129305,0,5.688149356923661
3006455,0,13.112684647404684
3198210,0,27.808570466593224
3368019,0,8.821814458354266
2174342,0,15.794332111528995
3693308,1,25.817464662900658
2967139,0,15.101462121399196
2524221,0,23.309721772527695
1210847,1,-27.809759452465034
1031825,1,20.249342441862314
969980,0,19.688366289503538
3934572,0,-149.36583085502826
3655004,0,-27.097951571693663
2854266,0,22.03559353783454
194107,0,18.626877394117816
2137394,0,-136.48691785387507
505254,0,21.233705433204598
3223585,1,10.248945889877195
1834540,1,23.02387763951566
3883738,0,-137.02317069795876
983811,0,-136.54575531460816
1210756,0,24.364246778931456
2048650,1,20.5037326269574
1871164,1,11.984912940845017
1093875,0,26.104275238013624
2465579,0,10.408352483940298
753462,0,17.77289521781382
341724,0,8.861770475337298
2775891,1,6.3474448379333195
3460403,0,23.791937583985348
2768180,0,30.590815670750885
3060600,1,-26.71762106050544
1660884,0,17.649971733061847
1938427,1,22.68460655859293
1340895,0,-192.2507043050845
1537127,1,20.62067695795269
2777340,0,25.27472065835626
1212265,0,26.3188682065348
1475476,0,12.582139873648806
3339799,0,-139.35137150939747
3755213,1,8.91710697408882
2799641,0,14.684264316188319
2965268,0,-137.96684021316003
2692101,1,23.818777446515554
3717167,0,23.424237928057114
3137925,0,27.155834450516483
1640128,0,19.729836551509287
672838,0,20.39437227728278
3899932,1,12.987032037823331
1609092,1,-137.61436130788744
2253259,1,19.236164082408717
1048046,0,-36.15642376457089
576549,0,21.60941272031246
3810362,1,-138.7770591778294
708970,0,21.123118100703135
697107,1,19.947685823990298
1387179,0,19.704197116590166
3108006,1,29.60691026562708
3749145,0,3.0181064173007606
217682,0,22.07313797320179
3290771,0,7.0087098180147915
563318,0,21.41350998802306
1438837,0,24.149473168574886
3401565,0,24.553827118102262
3420574,1,14.286092571884563
2140298,0,11.6055981164354
3495243,1,24.671865748185937
377252,1,24.94418789785313
1161362,1,25.123550680508274
2201215,0,-143.61572289810522
2768119,0,-136.76375939313496
3378063,0,-136.6106006666117
3198725,0,22.58616544909682
3466446,0,23.535275033002083
1561329,0,22.329367411290207
1399410,0,16.152367515394804
2473100,0,16.29646345884401
3502491,0,14.050780740849742
663189,0,17.977131537235636
708512,0,18.54874059719299
1969576,0,-135.74264257083652
217712,0,-29.7760866178667
3335880,0,24.751750479635806
1514108,1,6.577138012429786
874907,0,25.98560574590282
1088169,0,8.49057951223928
2175426,1,24.95359145166075
1142770,0,25.389641323987348
3296141,0,22.352912203009595
3023457,0,6.2727945875540065
1939503,0,19.134153061511093
2180698,0,24.919940250168157
239848,0,23.129794592012896
1916494,1,9.984477776943788
2002810,1,21.118106773930695
3269427,0,27.888838008264916
3673153,0,30.398427334738535
3847091,1,18.862635526376057
2614101,0,29.16061327866883
3313405,1,16.927002769570628
486711,0,18.447785495767622
2793356,1,7.809736059857807
1839278,0,22.539914492930663
439618,1,25.581561287078323
325636,0,27.620452064146765
1533557,1,29.499650646188837
2229583,0,21.023366609595403
327744,0,28.598445184564284
3475094,1,25.921223340882626
672117,0,21.128696357672677
2267102,0,-31.22276127854165
1444383,0,-143.4815703863847
2855376,1,21.019882926159045
886661,0,-138.30653213937285
427095,0,21.673720035359818
1101633,1,18.836776005674654
2801853,0,25.216724930105705
1721005,0,14.999344908980184
3136269,0,23.43195972528292
3380543,0,24.792087166224327
672708,0,-140.1570168837624
1709822,0,-135.81622489479443
1318477,0,20.357352719494674
3055349,0,20.056461454267378
1003510,0,18.658913881738922
2478246,0,13.156689707373438
3151418,0,19.792670815774148
2259402,0,26.11469860742567
966082,0,20.113826784222955
2516865,0,15.237682029870726
2886194,0,16.592414700487566
495944,0,28.32125913012194
2122195,0,21.664061032694075
255359,0,24.851746432050724
275992,1,23.500524066384585
3309320,0,20.405645363573463
1583623,0,-135.62746283066028
2002898,0,23.075574926280204
3406466,0,22.121278928482326
3092308,1,-139.25489217968467
1357011,0,-33.31390794936698
2149283,0,19.672527962469545
3853118,1,20.347962272717222
3311455,0,-152.7232393576623
3429181,0,27.032399236522313
3704513,1,18.973113661795896
3335315,0,28.605653757228296
3025791,0,-137.22561939472948
890903,0,19.571378638278002
1482041,0,20.501393151114367
3343320,1,-137.01790904765716
953181,0,9.73410125307366
1450731,0,23.88657593271494
1525189,0,23.232680811236055
3500915,1,22.545650278319677
3128950,1,-136.53706954873354
2631112,0,11.63449805145394
2274578,0,28.760088143949883
637888,1,17.78940727835053
960080,0,7.3227841308268395
459986,0,17.722777748362812
952119,0,21.84390768014504
3439780,0,18.95051489506563
1114350,1,19.35159772595624
2208172,1,20.5445643402893
1530206,1,22.627050610161735
2171905,0,24.785498472812456
2810247,0,23.848171137808677
608259,0,18.8959242776141
1486917,0,18.798471555367
3212727,1,20.682769340279663
3399639,1,23.384571489572988
573369,0,24.533864459713833
1252311,1,16.14060775003467
1960308,0,19.810522120593603
3007674,0,19.71226653768793
1077630,0,-189.78824029065672
1710790,0,24.412721125359404
1354018,0,-5.4058051153198265
2258498,0,24.24458659062749
1011097,1,-18.39635973282581
2923291,0,25.53714678663934
2144170,0,15.104658781459138
2557042,0,23.822447442362098
712083,0,24.255217666949193
3668692,1,24.9394657587148
987237,0,11.699820192823367
2013215,0,27.886777191893415
3390126,1,28.64237526048031
1607536,1,26.729409764079552
1945267,1,22.25481432928619
287522,1,20.374043073002486
3097924,1,28.644839863165515
488962,0,26.89791373398607
2019348,0,24.586707283171307
2740231,1,-137.6762797518807
733074,0,23.955054947632764
2104535,0,23.132395147162562
756715,0,28.089878367021804
2740068,1,-32.35230428657122
1208245,0,18.637342742350143
3278203,0,13.911880153607852
3026396,0,23.840024539912264
1563012,0,15.451087691031725
694770,1,18.483612541476873
1521330,0,20.01088260099288
3024049,0,-135.384265796949
428071,0,25.9735002418833
2176945,0,21.069744732634017
1164291,1,-27.423366895957034
673001,0,15.789249048233241
1888408,1,13.423667324750392
2460623,1,22.017291268261822
802009,0,19.285511563753918
1242288,0,13.751126887377715
2037225,0,22.19898632403978
445460,0,18.03042233656739
325027,0,21.390780842369004
2502230,0,28.917659306572926
1664458,1,6.7730023045871555
3855178,0,21.109601789244696
1903681,0,20.894301460573136
2166298,0,21.440916527874272
918952,0,-155.12888829452376
2467270,1,24.333814922050827
2416576,0,-134.73141867595393
1746560,0,24.718066443715767
2398946,1,24.81037468137344
3129219,1,24.25838138397237
3389417,1,-137.04547517467074
450356,0,20.341514754247207
1122060,0,23.34093875545608
2282267,0,25.12932685483214
3100409,0,-136.06839356071825
2274408,0,-191.35481751051577
676308,0,25.511808357859117
268211,0,17.79789281299359
2147477,0,16.18712829678042
750946,0,15.291751915130474
1225206,0,19.012719577042194
2719363,0,23.098726745429634
2896108,0,29.58610387689843
2829238,0,24.203477804899144
3083965,1,148.76335485204712
3380832,0,26.24942438604664
2160155,0,21.53280903038413
3089885,1,25.891295921009025
1018950,1,28.09499463878372
1664696,1,15.790583641269203
1406580,0,28.072878978950794
808946,1,26.37217768156785
311494,0,14.21800560098524
2155637,0,24.43712377561847
1573094,1,-140.5763935383335
3938202,0,24.639192230502275
942592,0,-2.5212447759523484
1824357,1,23.727952705405794
1906011,0,18.090661720725052
319312,0,20.955397896115514
2171787,0,8.438789792706775
742073,0,30.61705745587233
2014045,1,30.019302902403503
1915861,0,18.41647415625318
432563,0,28.124764274170705
817265,1,26.64096531641844
2862491,0,27.366033464436256
3924429,0,22.748317769473694
1682083,0,14.385282883609273
3683257,0,29.038664458995875
2715523,1,-137.05597954350753
2916653,1,27.878358612511793
939657,1,25.803494865702866
2434680,0,14.637407996317247
2752297,0,15.345840595867623
2118759,1,17.972090054718233
2903041,0,22.065351659507932
3211992,0,19.406285307376955
3359943,0,-135.47269974443117
3056334,0,23.48423210228266
1228499,0,18.37946844396136
1958989,1,24.86318147795523
723631,0,24.868684926074877
528649,0,24.95638109747671
1075113,1,-135.72947068854617
3225727,0,9.99887333817088
1386583,1,-42.43789418269069
445087,0,22.279583442012225
2811475,1,21.579327264097266
2972842,0,23.128438952820314
3896931,1,13.935946484148268
3770826,0,21.21454895680545
600042,0,-134.08631203457062
2255787,0,19.413947680277715
299546,0,21.44545801607488
805168,1,-145.75811331565794
318277,0,16.346628659625956
1588737,0,25.02585027140234
2876583,1,-26.35038555713156
2634372,0,17.644794928097895
3180746,0,15.476962599562453
1465459,0,24.170439296118012
1872554,1,17.750797791149562
3684568,1,25.455112893328703
1322767,0,22.771582702091816
2550094,1,24.00154760544201
2450476,0,21.261560905684366
2448022,0,25.301789774346382
3674978,1,-60.65620594971291
3863507,0,-137.77604130853732
363619,1,25.574855084709007
2155853,0,24.026708168382672
2173127,0,25.993654010301775
1701752,0,10.901858339538233
842154,1,-29.77253967752896
2544345,0,16.05964670683337
526207,0,23.595894584178332
3753237,0,25.05833935377681
1742554,0,18.585980161465148
2021923,0,22.786904215158295
1718234,1,26.16580516743858
2642282,0,-144.11053835776093
249860,1,27.77227016983151
545284,1,-142.61224638704843
1478726,1,-31.44131345736242
2410088,1,18.085466261680732
2783009,0,29.24405278102505
1419476,0,21.017093496986735
2421763,0,21.36289664810352
3119768,1,21.336753403232475
3419550,1,22.994829291394318
3856784,1,-134.98886519439247
802738,1,-191.60315344625943
862987,0,-51.77958357113323
1880961,0,23.003272108684826
1404538,0,4.058742360559026
2410653,1,30.355942033667738
1727046,0,25.72455415070166
2947275,0,-191.57223793884685
2869218,1,-149.88741893126175
200787,0,1.2362137246918286
886958,0,15.74274806059437
2283564,0,24.91078182501521
3063104,1,-135.9289783470867
1163609,0,22.77744299075607
2523652,0,21.762958938028344
1018088,0,20.204723353721015
699154,1,12.526755889270971
1777038,0,13.323154149732423
3841792,0,19.343817056780047
290199,0,25.488652704024187
273487,0,19.39384611717366
1970658,0,21.103348948952892
2930072,0,6.992273838784605
913479,0,13.333102254549154
2172110,1,19.047689696509693
212308,0,17.774517794813697
2410332,0,-134.73718673853904
3088469,0,-137.63093383597518
2847573,1,21.66945044071535
1844984,0,28.123968907214426
1041231,0,18.19537129674409
2122432,1,-39.96379713801314
808553,0,-135.07140246743901
2678321,0,-139.1756935544002
2135613,1,-138.50607408748266
2451468,0,27.288883226951235
469911,0,-135.55598289258631
657888,0,26.17595209482653
3849488,0,11.507482359167382
1945077,1,27.618249746573913
2422538,0,15.406217031336622
3126311,0,24.65814817547482
3123668,1,25.137146929094765
3893969,0,28.012821749523074
1708668,1,27.95160862193588
2486526,0,18.33478456592114
1885228,0,16.486692148358262
1551368,0,-138.4895017875781
2606194,0,19.193541115643583
2674843,0,23.422459768278774
3296487,0,24.93548458869719
375047,1,-139.23241378077998
465600,0,14.658790665117792
2430187,1,25.057359649775268
2215630,0,-32.80416361804378
2207342,0,22.010840796560483
2604009,0,19.425356097944988
3027933,0,18.591807717785045
3074388,0,24.408710211230325
3951200,0,17.509269269410094
1103685,0,-139.47349079858853
2812977,1,28.207032273786393
342827,0,14.119176733943718
664064,0,24.89079584699625
1747262,0,14.77750467105014
2239211,1,23.05032138624227
431998,0,18.672979053868957
479172,0,19.739716462542585
662559,1,17.670875354682998
284066,0,23.187471766199145
3750375,0,18.274057432344993
493161,0,29.91460098000264
3707998,0,21.31919914746556
3113544,0,25.870025573477992
1318865,1,1.2723263307394488
3135751,0,-137.88134998626364
1873093,0,26.731213957321767
1937325,0,13.352535252154622
2717046,0,18.534934489061204
1109365,1,-133.22481927783818
2628880,1,-139.20900922882572
3221744,0,21.635732664051282
1025879,0,20.411434663058103
3181715,0,11.82257110205028
3722148,0,23.658057470495592
3057627,0,16.174834547299007
2924803,0,-136.56018547384224
3171464,1,8.13842582478247
370038,0,13.356932911902963
2867356,1,11.949412302701377
1953586,1,-147.74949693811953
707916,0,25.133167873434157
1970721,0,29.125008611797238
2016790,0,24.068000537206434
357861,0,15.461010274995537
932427,0,2.9986995008244945
2703175,1,23.666780811243292
409127,0,24.765762108392057
2660686,0,18.403887241045915
348969,0,21.60990361398613
3322850,0,17.10858121555775
1242275,0,29.759650968030915
1868377,0,16.046614046900824
1451261,0,16.06320730382399
3248619,0,26.98987635672694
3151074,0,14.434288080456595
1382564,1,-151.48282049600644
3183774,0,-135.72005727284028
3708151,1,24.84686807155297
1816516,1,-30.53480075308042
1395028,0,24.61441676113235
1050793,0,20.296739543184664
2513381,1,-39.897567892850866
2422137,1,28.1171251727429
3380329,0,-135.84433140817697
2556665,0,15.649138601294913
1936800,0,21.341825117790854
238771,0,18.80482541324657
2203104,0,25.35648568095038
1737291,0,19.85942367803692
2659214,0,25.128842083965296
1301085,0,16.99521258339862
2506999,1,22.07177312081833
2282605,0,24.445450120231488
3731800,0,19.66440298250783
3506124,0,21.976966012688635
545732,0,-135.3344760182002
1439584,1,27.44968360481323
2128949,0,18.91344330771764
2022671,1,26.561934493828982
538410,1,23.080803862887848
841964,1,-138.41057538807772
2744414,1,19.047205911955203
949998,0,-11.580869928106967
3530185,1,19.864417467708677
1405421,0,13.529302942095606
1546306,0,24.452020892873236
1898052,1,24.901724954932586
2786200,0,18.58008041349297
3154902,0,23.72317990146388
1208085,0,19.583451668727644
428609,0,23.001583946973927
2830524,1,-38.55260874890198
901621,1,-36.992630233474
1278861,0,29.228051857161113
273311,0,17.73280500862818
2531135,1,22.454410866684935
855722,0,12.450296038989599
1636286,0,19.454658656916337
3372646,0,23.569823120115867
2051237,0,19.557519175955537
1126007,1,20.22671618550588
3053651,1,-135.9931269391298
3503417,1,20.941727381712475
1467509,1,-133.88070031456948
3108879,0,27.528091980778136
339216,0,-9.565090610213444
412876,0,28.88931886768441
3154309,0,24.968440836722802
2504715,0,-30.114431878360268
1769207,0,-135.80746212229099
2586559,0,20.34138167661632
599393,0,-136.37624831775184
318615,0,18.587727433016568
3029368,0,-192.54092801372946
3488020,0,-136.9648709141049
674020,1,19.134435210811287
1344253,1,26.735528628488865
2041292,1,6.410086840046306
1754248,0,9.96704535144371
3330991,0,23.808556902499493
3507906,0,25.503924008764827
3322925,1,26.11096087005712
2633272,0,27.640672140625675
1415600,1,18.68610990217732
558976,1,8.424992803129264
3442760,0,22.61043471430309
3860543,1,13.73802132568888
3921090,1,23.664815296965696
294459,0,25.185647699290072
2452706,0,-136.72947079716462
1141670,1,-36.12457957760413
3807947,1,22.43485145861693
2211784,0,24.97230116539733
1909315,0,25.89030561758686
1336951,1,-139.80371097888263
1466249,1,27.89709445192331
3378220,0,25.552714101371606
846262,1,13.836914123702428
3655910,1,22.995535825662365
693036,1,20.560027878778616
2853961,1,28.457844835828837
2142954,0,7.287418312926959
2560574,0,29.692234260623575
2211381,1,5.270807407626944
741371,0,24.836604657225227
1457423,0,-135.6758135485845
2520659,0,26.262329670323773
1675975,0,-137.64978116746815
3365205,0,25.711017785267206
3426443,1,20.25357960448469
1532607,0,-137.41788940594273
1314033,0,23.159973805757033
1345257,0,13.125738682157435
2865534,1,31.74142139383266
2466749,0,18.701390961962016
719645,1,26.850414017982803
1441559,1,24.87527132994695
2648196,1,-38.53325793900855
594309,0,16.410678474384994
3954817,0,8.677476517893352
1389645,0,22.77983157393529
701949,1,27.10165058177318
449585,0,20.273100152528553
1229461,0,14.466797409830692
1500971,0,23.67758531089838
2746893,0,-136.26205329550064
3337559,0,23.64927943535935
1128040,0,27.436358524643076
852087,0,21.64995214711621
3652614,0,3.2784499030602845
3488762,0,28.868803735319194
1361223,0,16.85537784514255
975322,0,22.855169873322787
3129608,0,26.405114789503568
1536880,0,29.265032234396585
3392290,1,27.251533432405623
3682912,0,-30.627449323133273
1762432,0,28.174685909411025
3887766,0,24.54287830414791
1224519,1,28.693315101282227
591813,1,23.666543584518507
2011082,0,19.64245938705789
1521242,1,19.609061724073072
3330774,0,23.850347035032456
3676746,0,16.869836506502203
2212603,0,25.124234983421225
1976452,0,-134.56563840772108
1378871,0,-138.78774179180698
2211475,1,23.931997587418753
1861072,1,20.66034637814307
353600,0,22.12098426890604
1082951,0,-139.91776293554642
2406017,1,-190.97520795723128
1137665,1,1.9859503959559086
2246256,0,22.39263337782847
3087718,0,26.647821146132266
3661472,1,29.794345497183798
994749,0,6.189848996895735
729036,1,21.60574323281026
2431268,1,-27.800949728660907
957198,0,22.525132346956536
569047,1,27.59360117623551
869260,1,25.53170815216678
1115312,1,-139.83375626679782
1081143,1,23.601370591288333
1069924,1,-136.02155292805597
3225970,0,27.73126634507558
1106434,1,22.779532429767272
2846768,0,26.34774446601663
2893688,1,-137.99687277775826
874448,0,12.335158296048887
3437879,0,-136.3557039689351
3783520,1,22.897492571530726
1093269,1,-139.84002498494436
267087,0,-139.30012390821568
3240261,0,24.218321495414887
997673,1,-135.55989080997628
3025339,0,9.937053237885333
1575297,0,17.562219098924054
673253,0,22.686401335012384
2430752,1,15.155036945822467
626852,0,14.763732517596571
355373,0,-0.20364510820909076
2985438,0,-134.97101173061034
2917514,1,-137.56869551235079
1445817,0,24.802886627977202
2403158,0,18.78853563223009
826323,0,13.436402532705184
2634271,0,18.505851171593026
3294182,0,25.282539677834407
693452,1,10.018023627205512
1095996,1,18.306919564749315
2035938,0,-138.77435056485822
3710435,0,23.959935368698368
2198457,0,23.32830144304802
3484567,1,9.114081043287888
3757961,0,23.56110833394008
3312893,0,26.1914838220958
3425702,0,-136.2661429613499
193574,0,18.43614034622538
1259358,0,-136.09695046183273
3750065,0,24.667482931945184
3530674,0,18.72040919439702
3361623,0,21.581419600817743
3686396,0,21.450447296760597
2423723,0,25.576665169217005
1818371,1,-140.8409546444121
1828470,1,-139.8841307716997
3711967,0,18.94935435200996
1728128,1,-33.81557282209238
2879891,0,23.661713322427325
226812,0,22.907326349059666
2909050,0,23.91990199201523
2915733,0,11.378859846941223
2634230,1,-27.977251389352954
3860606,1,25.95925939059034
3960092,1,20.620819032682807
1373300,1,22.833462604843767
564990,0,19.419924942792917
2538115,1,20.640345955903527
1552159,0,8.35058776924757
3679047,0,20.72498861709515
2663274,1,26.27082504916739
1956000,1,-135.26890990409157
3346994,1,23.412141378912835
1352877,1,25.857779301977473
3800468,0,-142.53774412822702
2917748,1,-34.20038645229242
1556697,1,12.634724140568764
3210655,1,16.393018668175802
820865,0,26.870443612395412
1052101,1,-29.144006150477782
2857648,1,13.725887448903208
1600881,0,17.479408733278067
3669872,0,19.96438157467072
3196103,0,29.03379802312178
508449,0,11.381736000879943
3114260,0,6.50843138999524
2440017,0,-134.97375109267296
338045,0,21.122861073379035
3028993,1,26.709792315168233
2281267,0,26.12261498769454
1290118,0,17.53083625128566
3900843,0,26.322068856461865
228531,1,19.20215654896282
1446922,0,24.873553125231915
2742593,0,19.009732370100295
587888,1,12.901974039602575
2919375,1,20.398977996528068
3394180,0,-140.87207218652497
2985573,1,21.323443945351745
263900,0,16.01966201197781
1377140,1,-28.627612971690176
2633935,0,5.172517563517284
3339163,0,24.107354976704222
2926013,1,-35.57446623066254
1810835,0,-27.9984900933167
1086239,0,23.580034867737094
873169,0,24.97509814181298
2141466,0,12.69867712961594
2510779,0,28.07443111652124
1973498,0,19.86511457785472
954042,1,11.722245518691496
3063297,0,-28.686817544452662
240348,0,18.13897974202707
1878026,0,16.066589104182917
2683402,1,-152.51152139786555
3474738,1,14.03845521861062
3874526,1,-135.9315650320923
946859,0,3.522607973323609
1988070,0,17.140695307259257
2978568,0,29.316175058444713
2462799,0,6.770984519246381
3129300,0,12.818478091984524
741843,0,21.309103624144225
1205871,0,21.417492628791592
2803011,1,23.829376071017887
1451740,0,5.692552175185451
3169679,0,-138.92799978560475
1445131,1,30.258428624047287
1006455,0,16.145410884526317
510215,0,11.300362700971053
2988162,0,18.190203175219946
459794,0,27.826034873816887
1895082,1,-139.25830936004218
372861,1,20.43823137600735
924697,1,23.368612518969154
3384826,0,31.276380696961603
3872564,0,-9.927492670416953
933566,0,19.759724075441206
803032,0,19.651901283387968
649554,0,16.720649821352755
2449383,0,27.083419930892394
1765957,0,18.782736667514975
3399460,0,26.02689929670813
1955939,1,17.36518723975175
1439719,1,9.625654976092248
3481011,0,21.903968124194463
2460647,1,16.30856088164993
369539,0,15.351938739341483
278956,0,23.250960434860442
2424277,0,21.861946388786432
3211954,0,28.3864015200218
3199862,0,18.672687352009245
3285593,1,-134.79628178736797
304518,1,-37.433995898424186
238692,0,16.79865152422978
3790372,0,9.288225018009841
1864612,0,23.625670983288263
1976377,0,22.0431419906199
3314715,0,-136.60450669898998
1131096,0,22.75102408216754
1863294,0,21.553345525907037
635813,0,-136.6370681673067
715863,0,23.68806494231694
1077758,1,-35.01938395695409
3948209,1,-141.36697771070533
2961777,1,-135.0074161390928
3740279,0,26.79978465990871
2877807,0,22.601976620156883
612421,0,19.516524913107876
1819451,0,19.011674979045036
1586360,1,24.189813188922457
669618,0,24.17020214326202
1488106,1,28.11884487959421
2250427,0,-137.2491077749686
3317055,0,20.938553281479685
2877307,0,25.252584491910827
556906,0,-26.67130380765518
2184874,1,5.881101444180041
1639323,0,7.744054686077755
1144824,0,-30.486331553426208
1429740,0,17.49498604059685
1446590,0,23.42546441502129
3888922,1,-135.66715782616768
570149,0,-14.56367176343053
1044735,1,-137.32357067211456
3888092,0,26.54012392583706
3317747,0,17.03374257474017
3272188,0,22.785501529370546
2035194,1,-138.44091206683566
2823262,1,-38.51270281465653
2827383,0,7.124602168296837
3071131,0,0.4578767011664773
1009638,0,24.54003852617646
286790,0,21.319707542440074
3096008,1,21.430363334828105
363836,1,19.49644487273908
1911156,0,21.78040225673114
3033191,1,23.261462919599506
3482043,0,12.076425556753884
1907556,0,23.1591230426093
479894,0,19.562956226987996
2981474,0,28.327839903960097
1225205,1,16.79626225771081
1934399,0,23.7708144367099
2283347,1,19.83057816395183
1507151,0,18.426260634342917
2507227,0,25.380300989876375
243269,1,27.463298801278047
1864263,0,10.389569215352726
1223914,0,22.76733798528669
2005902,0,23.55849691206262
1214531,1,-133.46588245322073
3879473,0,18.32014386388741
3884805,0,10.145719564644722
1637736,1,22.395246251340645
256273,1,-31.40785100123093
598612,0,20.81562790157754
1485164,0,14.754606705213668
2881020,0,13.115628886959657
698754,0,22.496963002224412
2671764,1,-29.69758824726484
1910864,0,24.69327791692953
2929561,1,23.88980867295627
2667803,0,21.250389468842943
3019362,0,17.790133883313224
2026104,0,16.34935410825509
1457467,0,23.230133491649486
3929606,1,28.151532528419278
3413498,0,26.9460378633553
3457846,0,13.895264421803516
985410,1,-138.43056311376515
3189466,0,-136.86957779891563
856826,1,-136.75932193638636
2948830,1,19.06453290325308
689746,1,-137.3156338738887
1611250,0,15.807443144376906
1554246,1,25.820241345119072
3839126,1,13.894516704297574
2596844,0,23.077783513778456
523193,0,18.404868616074275
1398217,1,19.8463037780202
347268,0,23.599473080085524
3880725,0,15.187892967373891
3950866,1,16.53562465793323
3959893,0,23.348530146443384
2608595,0,-25.498587370344286
1590741,1,23.00540811196489
2109815,0,14.350035165976962
3392708,0,22.341369944734534
3386951,1,-135.92351730865306
754053,1,21.160723046849608
2601254,1,21.83972199624628
983490,0,27.012837073749367
2498832,1,13.502465332195133
480124,1,23.026948541365847
598463,0,22.827099287291986
3852213,1,19.375743914756644
1941066,0,-139.19197504606882
3043621,0,23.486974659660046
2266379,1,21.68511238333245
2538383,0,16.722126853912606
2480807,0,19.883778785150653
1372222,0,20.700535927377384
449495,0,16.32371588777133
1258575,0,25.34265886942952
2443485,1,24.469475785414758
2968145,0,25.828784255829653
2009187,1,18.20192757987729
2413696,1,22.51628611756693
2264256,0,24.504216764946904
714781,0,-136.87701264384745
1372127,0,20.862871054508645
3869332,1,23.95519453013529
2641297,0,26.061463687139227
3410995,0,25.461912792576594
1545034,0,18.19258723475913
3695402,1,27.090779443263017
1583224,0,-140.8329743926452
566543,0,15.710319326163399
2557441,1,22.609754457982536
2835636,0,22.518935149657114
879740,1,22.997670672687835
363354,0,-136.3921658656113
805682,0,-142.01703823369056
193381,0,25.075207025592583
838197,0,18.475840921302908
2203189,0,-137.95809082645394
1986577,0,25.418234117435592
2564045,0,14.661492360626843
1906807,0,29.432302892711935
2255452,0,20.179228209258895
2394125,0,19.79278359280597
3225201,0,24.589521428030917
3651043,0,29.743236849904953
3322228,0,26.018218875061613
2511913,0,24.921094687596177
1596464,0,20.091272388928548
1501221,0,13.938628213677493
1858238,0,-135.98864774645057
3945730,0,9.571939140909013
2869219,1,17.506889559995297
3528752,0,27.96961219487972
1998810,1,28.615598887146824
2752050,1,13.444978764308454
3145061,0,22.920656570360226
3070442,0,21.658369081803617
3247736,0,26.11681159771629
422851,0,23.63429650996956
1678051,0,25.169399811782164
438324,1,26.18539495483972
353230,0,26.629636009276663
1678147,0,-35.291465563706296
2805992,0,24.504473138162965
622032,0,-137.5278564640494
1302324,1,-137.10152039665567
3423223,1,24.55875828698246
2760026,0,20.578583247300088
1043066,1,-38.36464380381892
3326047,1,25.63725775084989
2683922,1,18.742394048729572
1455217,0,-151.02506583572395
685889,0,25.557727906287873
3927034,0,-139.11329369920733
2109903,0,24.021640464689934
1366504,1,15.337333432465497
3196056,0,22.72932379804832
739186,1,24.153527303231016
1283881,1,-136.41161736351174
2113815,0,11.124914737012721
1066974,0,28.067514546565867
1727555,0,26.67205801127902
3099786,1,-33.87696022604334
2639654,0,13.934854578154967
268429,0,22.83049670212811
3295736,1,23.33619311415441
1129795,0,11.994064379257589
3030584,0,24.0685861853658
950579,0,-141.20565841804643
2647095,0,25.761806156145703
3038534,0,30.288136061984186
362566,0,20.892443468277303
3521523,0,22.13732430201806
961662,0,-139.69257934042074
2413368,0,12.17596898140538
1237535,0,17.55918437653897
1222287,1,26.856449631944173
3732704,0,25.974958352662526
2149311,0,18.398704408153666
1992604,0,23.198500265264627
1915839,0,-135.4182140066882
1953008,0,26.279419872435504
1073870,1,23.832329437607687
1236204,0,-135.12644205803753
1037133,0,25.492461496499956
434212,1,-134.3179322577664
1767943,0,19.927208143214838
1497667,1,13.792038026038945
3060112,1,25.866852077656905
2267923,1,14.689160427319257
2733818,0,19.306729180108622
1287114,0,8.757122884809926
2559746,0,14.55644867637212
1400509,0,23.301103991735395
3175340,0,24.790134006717313
542406,0,13.921208981859168
1250547,0,22.49202514426242
230691,0,13.797732527539925
3344077,0,15.780119089679422
3892508,0,19.202119663878765
904655,0,-136.12484957697237
1192009,0,26.165172151894005
871013,0,11.591048635222776
1022372,1,7.384084807771393
1098736,0,-144.18143490551478
2799765,1,23.07127716818326
3311535,1,28.828677607231175
1047593,1,21.446209168024065
1900980,0,-33.53526490368367
2420452,0,25.46395333219906
2962158,0,20.78113706736722
3223695,0,16.765198424078296
2535833,0,-135.93205595148603
2603867,0,-140.39419365679092
3076618,0,27.036402101117336
3039687,0,25.04014164767134
1746794,0,-34.67045265572042
1224596,0,22.881918657575362
2507235,0,-191.33558454129638
337149,1,-137.41819641791494
1558060,0,22.3563733005826
1819439,0,-25.12994055518029
528325,0,14.96425109039274
3311983,0,25.32093989772745
1780585,0,28.613097442179026
455189,0,26.460298032862664
626313,1,19.081568607028604
3662403,0,24.471567725553264
896777,0,20.514952029653436
2249952,0,24.730783379503954
970607,0,21.99186874041156
2476445,0,21.846523363877484
2030816,0,-133.32231158677357
341970,0,25.93498630615086
3045570,0,18.459970168952182
961846,1,-139.53747995063478
1784607,0,20.9822594273424
1986421,0,23.25689259235942
2638619,0,24.470357048062276
1916259,0,20.22610393664831
508275,1,22.232624165316594
1588428,0,23.652352532653474
2485856,0,18.132024045644506
1672447,0,24.827298050942602
2009017,0,23.542484598919323
1355593,0,16.585939277666444
3143225,1,18.85341910534867
3324959,1,12.765297247442719
1159319,1,-192.31226948382843
635534,1,26.568837779051847
3407963,0,14.230204191659805
873492,0,-137.21558470909414
681791,0,22.375853698195446
3092873,1,8.387283772854651
2043697,0,19.038638058117083
3242393,1,22.793238901673874
672974,0,25.243477893035422
834533,0,16.029168706837407
875923,0,17.475365092848634
1505278,0,23.81828655416484
1981984,0,26.20852752946875
860509,1,26.587977971039184
1383479,0,-139.69470404502601
3299039,0,25.700020813815133
1698599,0,10.072968145370384
3850102,0,12.179646397408316
3767637,0,24.595318302154375
3437840,0,2.9600442713245596
605735,1,23.937893166026946
3695208,0,25.832027979764494
2673243,1,14.18900275288105
906365,0,14.73623043473225
574656,1,-194.76006950766006
3348075,1,-143.27970272148661
2518308,1,14.800299493738239
3304289,0,23.28261728577104
3533422,1,14.370949480194463
2110294,0,22.047428242073707
1259222,0,28.08312443958875
1388736,1,19.070522470200586
1299229,1,30.165702792646517
2511468,0,21.552110525889244
2842765,1,23.07445523449605
310138,1,20.419980876219714
1876826,0,-6.431348684181179
2572439,0,20.05955681748208
1074274,1,22.229198936901476
3654888,0,13.548159866050307
2501748,0,21.67799686265653
2808533,0,-139.68478569248495
1339388,0,19.9039699134183
2407618,0,21.176647995931535
717226,0,25.022648854146976
1950318,0,27.512019633638793
1247390,0,27.142212427566246
1636048,0,12.12711479905586
638193,0,27.362842445583855
305301,0,21.049742842546287
1826489,0,28.769108020997127
2134220,1,23.780569408702487
972094,0,24.614301159076202
280596,0,8.039985254591448
541959,1,25.207563215045983
3088311,0,15.612233170056205
504424,0,19.194044760780738
3869674,0,23.99133185261909
1980060,0,18.77817256518886
1477585,0,24.324687092378888
3442982,0,23.821701558350618
1755256,0,15.552462157071172
633895,1,24.14078138604005
3249278,0,25.974641759836004
3929800,0,-138.53785716551886
1428312,0,27.12359191891504
743603,1,24.36584933998334
3214323,1,16.414179347487604
1947950,1,14.419183077598513
3262868,0,15.00476975225433
2689857,1,15.876629631309248
820821,1,32.944666248645035
2258165,1,23.22777237391018
2973872,1,28.096161652691585
2016580,1,29.928687012957603
3329023,0,31.895213529571553
2179248,0,26.808131203706367
880450,0,17.897449390799647
1246257,0,27.903686589043236
1395636,1,19.334902443166545
410200,1,25.21937852287732
952210,1,22.89110165358379
1941560,0,8.251587621879743
1768102,0,19.075696138142895
1969019,0,26.081564277550534
3675554,1,19.672908045186805
2185567,1,28.02418220592846
3683648,0,24.92639388449981
3832709,0,-137.320802420449
2475659,1,6.425628406056846
1145157,0,-2.9921989849638364
2793792,1,23.776708634029553
2195128,1,19.445301887485705
1204073,0,22.46190395378928
1815754,1,21.790203422035383
2039028,1,-138.70136204131677
3016799,0,26.056744838415742
402251,0,24.230279680975013
3525266,0,24.346109066935963
3666845,0,20.36982901198814
1323549,0,22.564080796173883
2196442,0,17.378323148291614
1086656,0,14.897440242793186
1705637,0,18.573131177666568
3012475,0,18.913481279855993
1602936,1,-28.090017134922412
2108403,0,19.969691643900205
2163576,1,28.087496938493405
3222530,0,12.471055008939622
1640650,0,26.59696443458525
3151688,0,24.885320982615454
3303051,1,21.61872147358852
2209005,0,25.449879009293603
2398311,0,14.152115230169631
3147086,0,24.909955939090647
1118741,1,26.671526245017276
1533672,1,21.625593381975982
2446045,1,13.474500907278879
2005786,1,26.086879738198668
347381,0,23.006044881851487
990452,1,23.44805510440216
3497710,1,16.786615411601694
3656556,0,-37.58307031671857
386684,0,26.393865197246924
2773564,0,20.920511752124952
3307137,0,22.013237970912435
2007461,0,21.908605536482764
481752,0,23.730637419454855
2419123,1,24.96997570655342
1332197,0,22.54295923792742
3013208,0,-137.3229789202882
3763436,0,-135.9700109700143
2149535,0,14.012845968681233
289829,0,12.689157515404325
3329419,1,28.531134209937644
3398070,0,20.794613519485452
3276830,0,19.721795343459405
292213,1,26.81409598159356
614738,0,23.03076005718039
1326783,0,20.505266589087327
433989,0,22.750554098318002
1437309,0,23.02956854136865
3466384,0,-15.49336221749606
1087510,1,27.67938349777132
506564,1,27.37720212723648
1768060,1,-137.67161735210377
2806931,0,-141.17720017829498
2744569,0,25.02687559058921
2736638,1,7.244028002818673
3921309,1,19.692730448502058
2672442,0,24.442108001709897
3383748,0,21.883190214205715
1130582,0,16.04421167731692
2249095,0,21.46412174142344
207469,0,-190.82752688563386
2921181,0,17.17978113706685
3755729,0,12.969232417208739
3508459,0,19.922832849923857
3158506,0,18.073978785520985
3165457,1,18.591024291537064
317204,0,26.586770284088
2423313,1,18.47298744182846
920317,0,22.80496285528206
1433830,0,20.594453654607182
1209976,0,23.10750316714028
499450,0,17.515811692676763
1752506,0,21.193866350025413
2253393,0,32.00299189220418
933116,0,21.414546990247697
3739537,0,17.997774327999547
2993746,1,11.29042562875561
3693123,1,8.536816722259772
3133941,0,23.84540927391346
3651777,1,11.89087987650307
2157506,0,23.12645273205905
3860594,0,24.22315458377022
3249739,1,-138.32713977503852
2712082,1,20.280374577929017
1267635,0,27.031708127004173
659011,0,17.89566963020867
2261020,0,21.65252761626055
726610,1,-191.0774532276992
2141969,1,18.992538216382048
2207672,0,19.05005174544779
3206731,0,24.123052705355555
2552479,1,14.758250895127382
722730,1,15.746535623791758
2541861,0,17.190810259979937
2180972,0,25.365394585269105
1025055,1,19.741160225368848
960166,0,19.858688699353525
3259598,1,18.658854133502864
1126170,1,15.856398490472257
3154896,1,15.870633989184457
2827507,1,19.78685634147508
3807252,1,26.921135399236192
742567,0,19.10026867133178
3264378,1,-136.3452286675978
3440571,1,27.172542424059625
2625489,1,-139.17141156987256
2997074,1,20.693838083616008
2039616,1,21.81540118005479
2916380,0,21.780848416857907
3516199,1,22.860932458100176
1952745,0,21.920059625265836
2719821,0,26.10684616002576
3151314,0,19.790860440464176
2526646,1,24.15893964015386
742121,0,21.593034445423235
2411652,1,26.846868528300305
2904506,0,23.8354631695357
1294000,0,16.07978659015541
1234100,0,14.093114163811306
2569293,1,15.401586105515673
1686714,0,18.536552747642762
1480440,0,26.196817155972457
2847370,0,22.11782364333038
2520784,0,24.5061103551642
1048695,1,25.506238046427875
2686725,1,23.821774117544713
694676,0,16.953828285223945
3008885,0,25.254570156640607
3093593,0,26.18032715736762
430661,0,17.525266942489935
311576,0,29.160348499453374
3870671,1,-135.19334061543495
351001,0,17.90898603572789
904022,0,21.058021286722962
1954110,0,28.858406033236893
195455,0,26.751056078219737
751833,1,-136.22827995055712
881147,1,23.04219819077942
3079544,1,-142.8509836592714
725433,0,27.258358011497844
1919092,0,23.775444868665723
1024326,0,17.265939492735814
2872920,0,28.132422203466536
1205763,0,0.7192315311085876
2642488,0,-35.52760438264109
2795300,1,22.09667155419593
1999937,1,27.936677412388597
3197732,0,18.67882347165782
3191437,0,22.623782801686716
2153170,0,20.012139974873072
1983451,0,22.347539268260686
3693224,0,18.847215978081653
2481251,0,-143.7298882341669
1239737,0,-136.03907434594154
2663437,0,-138.9635816761067
1702450,0,13.939650088715384
3095625,0,-140.10170915173478
603262,0,18.469046118098106
1093508,1,-136.98045941987607
3741740,0,25.42789124494589
222318,0,6.192986547866118
1019445,1,18.48065561067209
2522313,0,27.26210763632461
2232027,0,20.210919811151747
3256870,0,-140.14138848613962
958790,0,21.765728965037383
741471,1,14.2898823590439
2052503,0,18.454713297345982
3728971,0,24.34937596307032
2253515,1,26.874563090561427
535799,0,21.062477468445408
2414512,0,29.087679859350576
482284,0,-140.98620966562495
1490168,0,22.904261046750946
2282006,0,-142.5960083251858
2793025,1,19.91335999067274
1839054,0,12.527112969514974
3535272,0,26.679753505804886
3043299,1,22.5061747409423
3534921,0,25.333029746366577
1897953,0,13.408535334905478
875799,0,19.99081039021509
2839095,0,19.056587479519784
2127327,1,28.373709104444433
1685672,1,101.72089611433776
1285038,0,17.256539633208064
252385,0,15.24225491112764
3930764,1,28.04826293455329
1355903,0,13.198264139591558
2134225,1,26.842489550458616
3323590,0,28.191046200335435
2762554,1,18.06763973367769
1539447,0,-137.31318960275837
1396612,0,27.137289014553307
1440156,1,23.14061268562826
1731412,0,22.360911396283267
1040274,0,25.371802746433314
2931198,0,2.368915313167615
2763542,0,18.931558354294292
2996172,0,-130.95441967764847
2795598,0,-139.2127027962971
1553910,0,21.72335590102958
1063336,1,-27.726891221604674
1469592,1,27.10020384628169
1221810,0,20.402329051871018
1005960,0,25.576715598291695
3880268,0,24.862309025530212
3926419,0,16.196713158372177
1439835,0,8.077493495504505
1035440,1,27.069257520004353
1977793,0,24.449992249667684
822914,0,28.348685699484317
1059252,1,-135.52671237854292
3042653,0,13.721143280699819
3431942,0,23.25507334559542
1385238,0,4.064067508466468
3157457,1,26.565672368324098
1540477,0,22.23414255581385
1355104,0,24.43070616405214
3407141,1,24.118012001396146
984323,1,1.9400199441184456
2121721,1,-141.64272639477971
2700703,1,9.750743112483882
2844477,0,25.47110641881574
3461420,0,21.680954036625558
2062494,0,17.748363760511634
261627,0,26.25367714537482
1489131,0,8.96458185768674
3337056,0,17.538522196548143
1953670,1,-36.66318931915186
1549158,0,-134.91417044396772
811296,0,11.074198929436644
3147984,1,25.952716066731593
3052770,0,26.796586635083553
1106423,0,-26.46601395762027
2466064,0,12.537479146625296
894263,0,25.44584499090205
1562917,0,25.782777655831346
3264713,0,10.858518531673013
1117391,0,11.663843609848296
2718525,0,28.74941407939854
2731508,0,22.283236573965418
3249132,0,19.41127744357991
1465203,0,23.115871298091413
3881871,0,3.8992998373288916
2657505,1,27.73517704238149
963003,1,22.325562567072243
675159,1,19.084640580977382
931263,1,-141.42898657290235
2282676,1,23.105802196725612
3712574,0,23.522028889651754
757244,0,25.54613456142257
2213989,0,25.684131655935786
1036429,0,11.014895151245916
1778313,0,27.151125102191283
466525,0,22.409150283660413
2524311,0,17.516670001388366
2057637,0,15.443621895638877
1779584,0,20.690115638261513
2454407,0,-45.47787826875222
3289469,1,15.52381768831701
2242178,0,17.083912884701853
3155754,0,27.0691610523634
3083961,0,21.090393397427366
713755,0,22.819286316332605
761001,0,24.09328642540626
3930682,0,23.552989236264327
2000467,0,25.090605774811575
1324144,1,32.02537198394473
2192142,1,-135.57534212440888
2437732,0,23.45088304955908
675966,0,28.22576372140797
3757897,0,26.420192826078605
3500303,1,21.628071450313207
3884402,0,20.735399667139177
873131,1,-140.99960642162722
2934031,1,-39.172008399282326
865694,0,6.906567217283405
2981180,0,21.421587427477146
1454158,0,26.889115181854322
3749390,0,-155.96007587231736
516018,0,23.02400507344785
2112814,0,16.500597056832053
242246,0,22.85750670521737
1728412,1,23.50729464022764
851979,0,19.759608058152367
1680598,0,23.334808328149393
1455673,0,18.30980405992979
3104538,0,19.78849148872612
3886520,0,18.642955316029916
1942903,0,-32.21304119185278
3863824,1,24.023335338123577
857818,0,22.36525496238638
1982980,0,22.821225190422567
1642575,1,15.939297279223561
3273704,0,23.90862982842004
1268761,1,30.557437547399072
3466449,0,25.051357831710494
3385227,0,27.28050445183974
391400,1,-49.13299414573768
3888647,0,27.172822527483547
1597583,1,22.856978344487768
2487876,0,19.344141161297674
702662,1,28.35949428173461
1903651,0,-140.95246677968706
2595636,0,-137.71180152470052
2156950,0,21.798794698143745
1101929,0,22.772548403255584
1755829,0,17.845811383683415
3241776,0,23.77813023104167
1144301,0,-140.08495706538972
3448610,0,21.459318255571873
3891489,1,2.1991374606946543
2449183,1,-136.14811141571124
3372481,0,11.348567381164932
495489,0,22.009916894388283
2232223,1,14.806360636420774
2419404,0,-136.01068294037051
3061005,0,24.22451371442376
893046,0,27.929813540191894
1163439,1,-30.021374002119202
1513925,0,29.216915587161903
1904153,1,21.25554564563627
836675,0,22.505955272411928
3956674,0,-135.43797844386793
1414888,0,20.84427920996863
2003011,0,20.684766653670195
3325085,0,16.48291922114546
2532768,0,17.22320877489284
1385415,0,30.36017783553949
2654544,1,15.341960998992972
815603,0,19.900830003564717
1279201,1,19.614791228483668
494427,0,-137.60347139236305
1058360,1,17.82775854982624
1752019,0,-37.511541222335836
376136,0,-136.59868309680544
2277950,1,16.521314075125737
3494440,1,24.906912306943383
830045,1,25.430597467625592
476011,1,22.69706025090751
3246141,0,27.337700572546318
3744844,0,21.060591197875407
969753,0,25.85889003938639
3882575,1,-141.37714697208176
508297,0,17.966408580033757
1089965,1,-41.1223055881142
2637373,0,12.341946061880243
3021848,0,19.291974068124826
2425943,0,25.54075949366477
3006867,0,26.1025802588783
2977996,1,-137.567821241719
3663967,0,14.17664412929528
1616395,0,15.667745249880582
300772,0,14.438987961068475
2064437,0,-140.75011620536222
3847245,0,13.95976771817331
925832,0,18.797680619891374
3854418,0,23.0773100802992
2984728,1,-136.8195931268158
2009477,0,22.994001921480645
753254,1,23.32725387581259
351286,0,-38.87125421349776
912094,0,19.62196364612879
1386032,1,15.58764898307719
874075,0,18.4851618396272
613973,0,17.648315202769368
199329,0,20.163528780045542
1428349,0,23.2243845656468
3106566,0,16.208263010079584
2640614,0,-32.12995822117728
877922,0,24.272311244772602
1579506,0,17.46506568916447
1359487,0,2.815012340628743
2176353,0,25.638140142732098
1402053,0,20.41553840836397
1756387,1,-41.286768460118076
2565524,1,10.325366371538944
1730385,0,19.791756807749746
1844492,1,25.399219466007988
2143406,0,22.273914024703302
3268161,0,18.533507603517943
1250337,0,-137.32024588805595
3196628,1,-137.63315201517713
3396282,0,23.8995425329994
591328,0,-137.94928135052697
218132,0,24.296079061073293
2911736,0,27.17477519933259
2689691,0,17.37494243698629
2748514,1,24.454030633662043
2574097,0,-30.905799703696687
3293698,1,22.054056995610082
877359,0,17.937400132619256
679811,1,20.668388687680668
2734828,0,16.2552085842918
2794867,0,24.878020106665844
2481756,1,22.308470848739088
290311,0,19.215178474782665
1296551,0,15.20065650192058
825244,0,-137.74377691797122
2240749,0,17.78711783593918
2703099,0,18.573653501763875
361459,0,20.86878658656033
2045790,0,17.180808107436174
3118745,0,20.783281293406898
3855949,0,23.30996459380925
3903913,1,-138.37103576444588
2665642,0,23.779629040355136
2916454,0,22.859161468198064
751586,0,27.806390778416358
3783573,1,-135.2109606234414
271156,0,-6.594043649658687
941715,1,26.28155583114886
2888342,0,-137.51512393358888
430911,0,-140.06167608102353
3849638,1,22.77686159602145
2390866,1,-135.80198794995246
2557377,0,23.1000130086847
3692550,0,18.442454076773984
1000438,0,21.381071317033093
2402892,1,25.630664557206455
3918023,1,15.538562728783715
1230388,1,29.80187110258132
683036,0,30.404272039310335
3908752,1,9.79867250590628
491703,0,-0.39129845655865814
1705997,0,-139.233536492733
3443602,1,-135.12357901154454
3324090,0,22.552614917580502
1139706,0,22.093352805368777
893692,1,27.72792260832243
2504804,0,15.005997533763736
3247585,0,7.278797592206715
3782433,0,19.036567731320613
2491961,0,18.9449000125077
3789600,0,21.66721860008478
444056,1,-31.611931653540527
3700564,0,26.522831218274753
570601,0,14.173421483494293
1524074,1,22.109748094000757
2146735,0,20.50165951814795
1322108,1,19.979011702627634
2713732,1,-29.540495448544167
1253661,0,15.985313375965541
207378,0,25.861835793893302
1779094,1,15.669112469392616
2117478,0,-133.2769475551397
727568,0,20.174373668287714
1054724,0,23.184952631271987
3488168,0,9.672604077477642
1718809,0,28.56382869712979
2122842,0,28.06053287454522
2599460,0,26.386778384272823
2401745,0,24.253288900086186
1564295,1,18.37623271806456
349132,0,18.67241854345664
1436868,0,-147.7306129767835
1590325,0,19.10685978407537
2002917,0,20.97439414493916
3523756,1,25.038395943906732
1028816,1,25.04245410867186
1824852,0,21.26658997491103
3016682,1,22.353187878912852
1540660,0,16.822275022810814
310869,1,25.231799621736467
3440824,0,21.48737336594358
1440961,0,18.82580627886657
3112150,1,4.78498470367349
1473487,0,27.728962759754037
2562956,0,19.980502063958635
1846969,0,9.99092020458505
1040515,1,18.375014865336702
1045303,1,-190.9576994119192
690967,1,8.398119230736437
3743668,0,16.76459548300218
2858958,0,-146.77752423056086
1267630,0,13.017036730664847
1668322,1,-36.20063991299419
1815197,1,26.633321104891593
2436754,0,-36.517772495557416
943078,0,23.980055828140582
2532162,0,16.431229686822885
460838,0,-137.48333094391845
2049316,0,28.107471155080056
3452100,1,30.520221258612178
589096,0,16.22673932284956
706108,0,17.855287182252827
631780,0,20.43774274425692
1375160,0,-131.9725125577919
449598,1,25.174891669556157
1345028,0,28.20174043169815
3371597,1,29.338977911444335
2025837,0,19.03695279771039
2856456,0,22.446218764776354
1245630,1,-134.83612574236608
932935,0,28.573886689248987
1986442,0,26.945379812940885
3324367,1,17.002517081590195
1298820,1,19.081857797908995
1986980,1,18.10755616496882
1592204,0,22.739257738086856
1842429,1,-139.58477392161035
646644,0,26.743143485110924
3954427,0,-137.5894382123411
911913,1,17.819168601660422
1052073,0,9.733849592205146
848667,0,23.298558466738296
2555796,0,16.11912364991719
711436,0,10.86133951538743
503319,0,29.053282206562006
2948353,0,24.854796505183074
857562,0,-133.79884400951133
3748055,1,-136.14227104334785
1711311,1,25.16747146577429
1168901,1,-36.836761500115706
3103619,1,24.128791929170504
339246,0,11.505600995976327
3336964,0,21.180667373146424
360947,0,26.486270265911468
2804123,1,-26.31698265262115
2930179,0,-36.39077771097219
393381,0,-32.4250400136086
1289693,0,8.120019910838876
2209705,0,19.10664675322577
230336,0,18.45744879683907
2944992,0,-3.667799550777943
2411797,0,24.41748139517324
2047873,0,22.53797162652186
2391545,0,25.730587899157936
2245081,1,-135.4144981269694
316670,0,22.302545104980517
1564615,0,16.329711366779023
3528643,1,17.438133795132313
1487951,0,25.32632489279376
1498852,1,21.437573658604137
713457,0,31.118917298843908
2972140,0,-135.56648615765562
299612,0,5.206736681588034
1844102,0,-139.68486498304588
986410,0,17.665185007367597
2044129,0,25.138460726828015
264923,1,9.700936014913934
936113,0,27.95051178076904
978568,0,11.445367368014788
2588754,0,-150.54318825019206
1663453,0,22.06509913309553
3309742,0,19.6666939022553
3670825,1,-30.636522807659855
267355,1,16.712839787866546
235398,0,17.247566751602193
1510939,0,32.00192250667249
2878146,0,-138.76595529145305
2437500,0,-32.011429762698
3134373,0,14.76546857608865
2185971,0,24.315083260186082
406646,0,20.5969238477611
3955173,0,17.853677200756067
1565787,0,23.1501617647236
1343896,0,23.038231261839016
3394585,0,25.041062398866096
2650972,0,24.07191699546047
654687,0,17.942674604716757
3361316,1,-137.9082684253913
2870401,1,13.878296031131947
3948901,0,22.153995459232192
704119,0,19.692421356171653
2936267,0,17.706622993751147
1314050,1,30.66300370675734
2016039,0,20.857828584797282
2592246,0,20.78309854304183
3064480,0,16.98553266010547
3298521,0,21.0273338535822
1410354,0,21.99120741638456
843864,0,22.82511656400433
2490941,1,24.27364166034284
1367959,1,-136.03585555741955
1111241,1,21.611651733527957
506405,1,27.30977172342922
2636807,0,27.70401607478423
1911459,1,12.45482189901191
2158358,0,23.517340817114903
879570,1,19.556444417260273
1888963,0,30.689794541133754
828180,1,18.866277614163785
255815,1,26.007197771254
2650341,0,25.867082788822575
717036,0,16.60854184302747
3890983,0,19.456256333228374
3215820,0,15.510321156786489
761449,0,22.739851910826754
1751369,0,18.15186441208728
1045688,1,-135.49687569416378
2218814,1,-137.33621602143094
3658820,1,20.185822511341218
278324,0,23.712115564101886
523016,0,18.011919923844935
392774,0,17.184321526854372
1546298,0,27.2878700177893
897909,0,-142.12679264242738
3352722,0,16.059240570314085
2733269,0,24.77616024421748
314611,0,22.643482908925563
479821,0,21.871102158550702
400634,0,1.0237990579715666
3320641,1,27.16927285655857
2585204,0,-139.83809162008123
1319861,1,19.40524271106116
2051756,1,16.56297680704375
2965872,0,10.51118145573897
1245210,0,28.403876446039956
2707631,0,18.13499183477093
3896159,1,15.263715365386636
1680440,1,9.449755811834892
1705288,0,8.29173862195857
2550205,0,23.17190097429113
467986,0,8.886606033230814
2561363,0,18.579281840602132
1343586,0,15.693933570579087
827472,0,9.37222648554978
926739,0,18.543910913941538
1646908,0,22.793376594651917
3708605,0,-36.813435014918035
247127,0,22.593937881965108
3071853,0,-135.92471344817704
1979792,1,22.919139878234724
3510165,0,16.81503170945918
440380,0,25.410722465085474
907048,0,29.654751918407726
463324,0,23.69384758198011
2739456,0,26.15475906580332
2040552,0,23.518320671370862
1404375,1,-30.003808167249204
307469,1,-27.737481642304587
225420,0,17.180221921757386
919841,1,29.797491663977613
2775567,0,22.449884122791513
1694976,0,25.011831312153923
807890,0,22.37640179745884
1415599,0,10.735108556770724
1536717,1,20.9195696056977
3266466,0,20.972294503329962
2161238,1,24.54046387355738
1131329,0,23.448108980196345
3711788,0,21.351431177853193
3709067,1,146.22458499370921
2546388,0,16.07229987983077
587668,0,27.197273920250204
544176,0,16.005131014438096
1305935,1,17.437204565147102
2760654,0,22.567120074082595
3700990,0,18.609077901366764
1581314,0,17.631168303020573
1000079,0,27.713094556643515
1110672,1,22.77223369617082
3354431,0,25.235969857927046
3171769,0,22.67266908189099
3211441,0,-136.4795505375039
3897514,1,21.048602141328985
3855763,0,-134.9269465447338
3881672,1,21.52020131358595
2595702,0,16.004666193786473
446612,0,15.290946922873017
3023504,0,19.200306155554024
208524,0,24.273928249197485
2909973,0,22.827264182806626
1251839,0,22.115895621039574
3355271,0,-138.20633755226044
1116951,1,-35.082968554447845
2116672,1,22.885201176530842
2033749,1,24.365511493568302
1781353,0,25.842567301769414
3711270,0,23.104935468062703
2743499,0,-131.95262302653174
3298803,1,10.685396391655454
3892849,0,-21.497660705829485
1867655,0,20.72633872310645
1886922,0,21.301712501786728
1167983,1,23.353376133982017
1488160,0,23.259523741418224
3084411,1,15.892158980526267
1087970,1,-193.81827883481006
3114069,1,-135.78645111993688
3945996,1,21.824735197618768
3846366,0,20.199098916650982
2837936,0,-142.01243020024677
1549208,0,-139.19026551045644
2502074,0,16.73379770806992
1854018,0,23.467986476718707
1723783,0,23.363407875526544
2411233,1,19.176407740784786
3389969,0,24.17798984247076
3210696,1,-137.54106182754322
1737060,0,24.637866122257442
1812108,0,25.958782138169855
3422096,0,16.984917537798985
2815803,1,19.15990602799349
2043023,0,-136.91773125786054
1910177,1,14.17754444304219
2583518,0,-190.43084724568254
718638,0,15.044470502697965
3674356,0,21.10832347311643
3959661,0,17.833685950675484
3041626,1,-139.98203912812116
868463,1,24.324840513757973
2247950,0,15.888625968534203
588768,0,26.938548906963398
898126,0,25.97551211498461
238003,1,-40.47535347084921
1733345,0,-132.92510735453996
1732672,1,21.54039096969881
323133,1,-139.5351784608936
280665,0,20.183828595468672
1569630,0,27.37633931247885
508846,0,19.6639019614143
2505118,1,8.63078718345036
611042,0,27.539686549934725
637203,0,18.19444702646005
973773,0,28.07026638815177
3724547,0,28.622672964687258
3349080,0,18.21029473540251
464302,0,28.909547108010226
514948,0,21.99375148408248
1733577,1,13.048884179906285
1304338,0,7.932172865775303
252380,0,28.010516188235286
1539392,1,-145.90459804627457
582992,0,19.986307534077234
1419367,0,15.875433307019012
1058769,1,20.347998656092397
1402147,0,23.844978751634198
427726,0,25.252748502335706
1106616,1,23.278888122440737
1109133,1,19.142036785784075
1507006,0,22.533730487557914
1132270,0,-138.56847760689854
3480762,0,26.654980103789118
578747,1,23.657543718732196
2768656,0,21.101242617646033
2968480,0,30.36606074151203
844246,1,26.258087899427895
1842304,0,-140.0081918131705
2801935,1,27.720139988148635
1034858,0,24.42326493771207
688233,0,20.992557755774424
2480572,0,24.46976512509865
902036,1,15.108408030699644
2802623,1,27.295681535092164
1539203,0,15.790275187787477
2772472,0,21.980844985158274
2527856,0,24.088645414817275
2986026,0,19.162749142281676
1844270,0,29.05028847480369
3344267,1,22.5112193021981
643857,0,9.453563660110493
2861330,0,29.788777327476268
2875225,0,25.89456111653667
2525329,0,30.523604462959415
3153523,0,16.01689032018414
2159888,0,-138.6808194370992
365357,0,21.933165129574174
3777922,1,20.64637490538606
379241,1,11.111788824234583
1087073,1,97.75164074146846
3432351,1,23.00605969827331
615371,0,17.35609542409561
3069670,0,22.470401550668548
3264329,0,21.96687424716057
1830697,1,19.63266198574997
3337051,0,21.61588976998695
3800795,1,-140.46867405300202
1772205,0,21.216568312203787
3864970,1,15.689009917860632
3790287,0,23.933546720278635
1817273,1,7.702647366743922
296914,0,17.534180243164336
2210994,1,26.67542912363113
2537446,0,15.707179951988824
530295,0,20.21340697167941
1767846,0,23.814790364110628
2946954,0,23.762217303484178
2486973,0,21.821835547970593
2914145,1,30.605913883814814
1495258,0,22.81471522773919
1982443,0,20.179696801352065
1100514,0,29.313930561990293
2533342,0,12.96892807834131
2924810,0,30.641957507933824
3431799,0,19.601602041336093
1599303,1,-191.27191823378396
1128505,1,-134.8307400825961
1918053,1,22.2005881940483
3661666,0,23.697257490906026
1096179,0,-160.31589013042876
3247901,0,28.578441622087624
617587,1,12.271642481195649
2462830,1,12.683593706109802
600466,0,5.91095456089129
1485679,0,19.465835958333585
3469786,0,24.01326178397569
1357874,0,18.6605865412411
3904582,1,22.697654745910338
3223285,0,29.30494408275916
814599,0,27.001903874345352
3250375,0,21.47391066023172
1545518,0,22.74864353652101
261557,0,3.377417373281101
1513759,0,20.27544835201945
3663200,1,17.772434591003996
494082,0,23.160030461024352
2890022,0,26.264683137717245
3875755,1,-7.179615302210153
2961640,0,-151.67619336785108
375621,0,27.967015840661695
1723297,1,25.91851089562571
1608800,0,19.13827818950147
2473972,1,24.459184706246138
253386,0,12.617001075385192
1567314,1,12.677758500525515
1475937,0,17.486710984640727
3247300,1,22.308905355499444
1841241,0,18.491614536660222
1662543,0,-34.302507043077846
935813,0,15.179647634210962
3544337,0,22.29853098430346
2495303,0,18.33974077368396
3692348,1,18.208546678811057
988932,0,25.012859610619298
1913431,0,23.840344665938574
2586873,0,-26.891705680869322
1986020,0,24.680120274215795
1248201,0,22.33906305297927
2695600,1,18.19137135899281
866974,0,24.550568114071144
350833,0,22.666699070898247
1608704,1,-29.484018550507308
2014135,0,21.54689211061895
1011252,1,24.282057725158275
255353,1,11.119827091604346
1561518,0,-133.11725516237993
3889182,1,25.54176185225554
1891933,1,17.372499731677944
1957178,0,15.630805748346894
2494866,0,21.40472399891817
603235,0,22.417949706019108
1953774,0,28.169159222982294
2983277,0,10.860961211166858
3065259,0,-137.16307333222912
3359224,0,-134.60688567870358
2472147,0,19.993607139496344
3479984,1,17.923928835065745
2712312,0,20.565974118884416
2017297,0,16.534451112352343
2981094,1,17.706724658234187
2545201,0,21.79669985296724
1468809,0,22.699942339474124
3706966,0,13.93373575792555
3402352,1,27.87307204892307
389192,0,25.28588483172956
2809136,0,17.838388118790704
414663,0,22.84938489926703
1547942,0,23.624866690159568
984445,0,26.341307877688838
2998983,0,-134.22638741869935
2199024,0,-138.03192257509647
1133929,0,18.96208887396923
750963,0,22.91054174982423
1335729,1,22.80158356109029
1488382,0,22.84625673251383
1544100,0,25.192566518668535
3479936,0,25.4148243331054
3003742,1,-190.58279897197139
1241769,1,-136.46720769018324
3066790,1,22.771766269341185
3481548,0,18.01020023793532
1171220,1,25.98314255297336
2774477,0,18.71224530916496
712616,0,-138.54395939752453
2202086,0,19.4273343484481
1275937,0,26.362771216994275
1118373,0,23.949322626487973
2173910,0,-138.082819215632
3835990,0,21.700887517250955
234806,0,18.158961901523266
2885935,1,23.33824222088515
3435968,0,12.649835792093212
953096,1,-33.19260100385661
1676952,0,16.568323898051432
1074719,0,21.60430341035328
877515,0,22.517553008886775
3846400,0,18.50347510491634
684507,0,12.644718926221534
1894841,0,17.623225258496817
1986678,0,25.021937117781633
845954,0,0.02653415921122996
1542690,1,-143.80601784477903
3001965,1,-138.49038258532772
2920197,0,22.763257863884935
1433280,1,15.337300614873392
3105924,1,-192.01562538977785
210060,0,17.05741812635564
1987540,1,21.638032415432296
1101100,1,24.415726337723093
2679628,0,16.52448752947429
258842,1,22.117737316299763
3853307,0,3.772499918523384
3246478,0,22.22392928805032
3466818,0,30.74507298348591
625682,0,25.45327126767249
424430,1,14.15799964105093
1724077,1,-137.8785885171802
2055012,0,6.363560634999978
2507389,1,22.268697414594392
1352118,1,17.678434197497282
1446294,0,22.716439973888107
2559838,0,10.540241091361853
1790673,0,27.629288298016963
3686970,1,25.4653924783677
1897559,1,23.59234697644241
1438610,0,14.494746256535786
1972895,1,-136.1729981563356
1112378,0,28.79194756855138
1638496,1,19.121256842303502
2124748,1,23.831072077395003
3458557,0,27.15061693355739
621355,0,18.178603542031606
308174,0,29.628607100061195
2939188,0,13.974869013153501
723648,1,15.712959076416144
277663,0,21.897019553597307
2835265,0,20.631384063066456
2669057,0,-32.87953223869123
2275571,0,15.254109213173356
332594,0,21.843088618406483
3517526,1,14.59763694892107
2118300,0,-136.5780270993033
1300955,0,16.669897047530508
817663,0,25.642573455990743
3050351,0,28.492088348188457
2824438,1,20.336480210962566
3166425,0,-139.83384645587176
1526487,1,25.45075258739981
3495923,1,23.365064542794368
1437727,0,13.091563919506678
805767,1,6.383384800165291
2241487,1,24.788775966193434
707552,0,-141.32543624459672
2909366,0,18.09027866009547
3842926,0,1.9163406978749702
2533824,1,-42.17229047017888
1389366,1,-135.27415942021307
3375692,0,25.8666497450966
302068,0,-139.89783248882074
2540646,0,18.10272028400243
2939519,0,29.132773807372196
886687,1,22.128499118163713
460075,0,23.754523471965328
435578,0,22.969353480905703
996617,0,15.107995613221124
323809,0,17.758571549641232
971349,1,19.310378125097877
3745235,0,21.951356667858878
3193862,0,-149.38638891734587
827858,0,30.126162220321863
1298069,1,22.443071799684194
1746406,0,30.440563138341773
1597533,0,-140.87759573784277
1316649,0,21.356194341184008
602507,1,24.376653368960568
657177,0,24.697600101759285
3860944,1,-142.734109561448
1126035,1,24.61130398124168
3914200,0,15.389090075809046
3050576,0,22.60934336252177
877129,1,13.02397021464347
3262842,0,25.7993021745485
701353,0,21.982973177817072
338658,0,26.468223009504783
2162831,0,22.660666829150212
3957838,0,20.386126850781302
3150007,0,25.81159784962303
983798,0,20.567032648539048
2824731,1,12.228149248259054
3082470,0,-135.47321661990946
516800,0,20.948761980099604
2689429,1,10.84322608013068
3188031,1,21.63387477172163
1977898,1,20.644618690859204
845221,0,25.407896762001297
3512855,0,22.856781079233272
2032898,0,22.352554676952945
1919339,0,27.884011421278103
1944791,1,25.81797439857342
3335777,0,27.42889273954827
3710821,0,18.875039793634002
878371,1,22.795118943736295
813060,0,-0.4708473387951536
2553366,0,26.007924650813443
867085,0,-139.95542690112228
3846484,0,16.741172049218516
2196504,0,25.928882999926106
