sample_id,z,y
443320,0,-7177.147596552537
1378437,0,-7764.76382471197
1351518,0,-13755.411826426029
3269874,0,-426931.2188085783
2115487,1,-26454.30377440309
361866,1,-13077.729728753946
2759192,0,-18207.672586741406
3850046,0,-9698.467117836162
3414092,0,-17635.86350498541
1986914,0,-424243.2941094762
2632946,0,-3963.378187914468
718971,1,-2438.5867780911985
2940399,0,-18206.798938690034
2408109,0,-13364.545520832567
3708769,0,-13723.53796181089
520968,1,-11001.101277583379
1278235,1,-3751.1875024090973
546610,0,-834.8510693042897
2942652,0,-14726.943995263868
427425,0,-5433.527946346383
923955,1,-12924.205940635047
2861118,0,-427105.7901142024
629149,0,-1337.563452597205
1665806,1,-8546.042017745192
949821,0,-8641.62581954269
855522,1,-3766.1016877686266
994775,0,-2575.398450028982
2206294,0,-8248.489286919757
2609232,0,-21191.20797369368
729203,0,-4417.392680369738
3431202,0,-2449.4480595217788
2174166,0,-15790.502525624985
2476501,0,-2681.5516771631505
3304635,0,-26643.947601012245
886661,0,-427250.5427036917
3085296,0,-6207.998856178178
2773867,0,-6695.040780382155
719321,0,-21055.52158157942
1070511,0,-10713.16737257908
2921717,1,-2526.9801356640755
1208437,0,-11619.640408504885
2918467,0,-425474.50377632753
904634,1,-427116.39270582225
623690,0,974.1220682770117
1243111,1,-10999.761866546634
3687205,0,-5625.813784977869
3164611,1,-3823.1876000812786
635765,0,-5971.978947326426
3924248,0,-14804.27916002967
935943,1,-426671.58394967456
3788667,0,-8248.363659890641
1218010,0,-4469.10164077465
2728070,0,-5626.437565807132
2715254,0,-5136.999046773198
3767918,0,-6458.714527102423
2440203,0,-9389.596289950514
1966790,1,-3652.8994061806543
1024278,0,-13135.690031789936
680503,1,-2001.8956502827452
1071494,1,-6577.212786765052
2181880,1,-426654.5319379624
1962954,0,-3415.855512724284
3327874,1,-426353.33525093534
2711356,0,-6784.68745201476
711592,0,-3195.5488902189704
3264852,1,-36719.61061826003
2151855,0,-1718.3667084222586
2000981,0,-19407.875143121848
975915,1,-4442.9650186260715
2560869,1,-2660.4068033593567
2581827,1,-17852.7578281093
1842110,0,1683.21474661873
2033155,0,-11911.690752306336
3538873,1,-15936.81623151755
2652461,0,-4089.3838420872225
2919403,1,-19421.398040335283
1067900,0,-17397.0994135839
3730616,0,-17635.44117231027
1375240,0,-4765.389722971402
3924075,0,-1289.3949033408733
1102473,0,-426917.9015027197
893360,1,-13222.369598749348
275823,0,-17873.811270389368
2939710,0,-13129.665395177819
1595429,0,-5088.7819766478615
1613831,1,-14277.843676097675
1672169,0,-7477.342641934541
964404,0,-11007.681993552862
258115,0,-8666.668370094536
893102,0,-19407.92768494879
3716008,1,-35603.537960246314
1132810,1,-8227.03074834624
3787180,0,-7581.66416757498
652989,0,-631.5674881087298
1918359,0,-674.451658461695
3046507,0,-14722.542975814602
2677129,0,-23324.3735304784
634975,0,-2667.8015163741934
3113927,0,-427445.20760316093
1250967,0,-7692.939739725117
1068700,0,-17796.559564349755
1120070,0,-10993.607413110953
2488521,0,-16123.488606777866
1196025,0,-4445.350548817892
2979139,0,-4844.388649714026
1203681,0,-427265.2035727801
646174,0,-1901.2348166283584
1425985,1,-13312.766071170156
3930859,1,-4499.832872069375
3921124,0,-8249.07628814346
3722548,0,-5733.355923218905
1710886,1,-7153.3748460336365
1569855,0,-4417.201820470947
2757173,1,874.1545122209649
650822,0,-10236.47185088609
1346155,0,-1213.095168036961
2728456,0,-6499.206253141298
1624880,0,-426172.17012251297
2531609,0,-23808.93321703588
1287115,0,-16191.046978201377
3419431,0,-6714.834280112849
2901263,0,-6641.3873852999295
1395276,0,-8341.746387324469
3440518,0,-9577.776174718534
3791529,0,-2995.458973480504
3318063,0,-4417.488966676535
2803876,0,-13130.54523304803
2196849,0,-425966.8457703378
2721030,0,-9646.022109276408
672838,0,-11633.64871152394
2990952,0,-5185.572917528512
3438945,1,-9611.34928606492
502569,1,-5728.695753013062
2713641,0,-1539.745342568594
1904823,0,-15376.236474025649
1565283,1,-426653.2676705696
1194785,0,-19560.25637236738
3538005,0,-8915.373173338588
873169,0,-3196.1353646916523
2579224,0,-6769.958192541296
593283,0,-6714.646133743645
1463851,0,-11007.336104339818
1817867,0,-29603.14956781901
1959775,0,-5667.417241605421
242303,1,-4450.764114211193
2676318,0,420.91107520152053
3144829,0,-8638.10266341402
2925391,1,-29483.801958436707
2106369,1,-14720.513255007523
693311,1,-424263.35922773386
1633715,1,-426343.72321264393
995506,0,-2534.213390680625
3523178,0,-11578.5193507347
925860,0,-426931.4215635612
3116506,0,-19587.636167932582
914482,0,-7172.672177223093
3361743,1,-7574.4548948218735
3176394,0,-2470.665042320995
2708803,0,-651.6264777136338
2108926,0,-5433.185167798186
534595,0,-6600.623050083134
3756442,0,-31898.025579654015
3162370,1,-3817.998738327562
1039280,0,-12082.542352230454
3393348,0,-425949.03432473296
1463743,0,-2196.8302460214877
200634,0,-16298.529777353544
3907121,1,-8933.41765461769
694274,0,-11611.535203932786
1980323,1,-8321.366873019277
1834540,1,-9533.378923146056
847970,0,-5156.120903365533
3102721,1,267.7972000049519
1733766,1,-427381.9327149513
1987502,0,1302.2232829909449
1902835,0,-3428.02454971727
3710435,0,-3401.8073372267713
2565948,0,-20764.754848946657
2186218,0,-3402.4453472760947
1216423,0,-8641.855022382344
3957409,0,-11633.798662317236
3515840,0,-13084.707053192771
3431038,0,-766.6520913223266
3753761,0,-19502.700964661184
1281195,1,-1438.2011015924068
3476773,0,-10231.267085279364
210637,0,-143719.65253144785
3339025,0,-5695.0658728269045
2451205,0,-14721.91913555145
2543570,0,-6714.213167205557
3267244,0,-24772.321138767504
1977675,0,-6123.36715742308
3223742,0,-1502.077646702846
2522313,0,-4867.745167391023
1620396,0,-426921.45508944074
868262,0,-14722.806711980267
1294592,1,-427068.6269852734
3667092,0,-9680.440000028297
2784191,0,-11326.619127246642
1844191,0,-6495.38471978438
1750077,0,-14477.688128976131
1580632,0,-2649.5094542125794
1060210,0,-427345.30263895285
1441047,1,-3524.886270539145
1564149,1,-1937.3127897918394
811212,0,-2667.552603510372
2778164,0,-5619.794256012842
1632311,0,-425488.10095098807
2390900,1,-6771.420101900237
3145885,1,-1192.5758891515402
3281757,1,-426923.3960013998
3328832,0,-2041.663337886947
3467003,0,-26507.516805521373
427179,0,-426976.8445958179
1775694,0,-3696.210197717255
1997348,0,-1142.1884153159945
2705133,0,-9573.199138781103
1750073,1,-17563.751209838112
583414,0,-5732.912097302396
1561443,1,-5177.944345878011
3662146,0,-4472.295330044657
1535268,0,-10866.733714424516
2844350,0,-7504.957244599486
2146125,0,-13176.477706961603
3364295,0,-3699.2885600024647
3435415,0,-13650.804851390629
307555,0,-13320.133644221538
560553,0,-3705.6420203298458
2924402,1,-3178.485170463546
635458,0,-424750.4629649527
1911206,0,-1313.2530738712994
1848000,0,-3528.1472554966494
3007442,0,-6150.81220196821
2852272,0,-427123.8145376254
2773193,0,-29454.99803541306
3136593,0,-12091.966219299218
1542604,0,-5082.625063745294
3441456,0,-37244.78566600427
1915307,0,-3601.72115307333
1873431,0,-9777.721941807202
3213083,0,-42409.52304363757
3868960,0,-5766.3482690184455
2797280,0,-11452.741397032541
836982,1,-48683.84290353025
1624860,0,-2187.02728772928
1980592,0,-4236.691657882993
580264,0,-2539.561724857992
2792827,1,-5687.207164865947
884811,0,-5771.374279755819
3199009,1,-5090.8887478326305
3847121,1,-14799.981791429494
2727747,0,-19308.070565465034
2695201,0,-12283.247534951546
3691964,1,-7137.454715601357
1975404,0,-3966.7942986759863
1285546,0,-7572.148828215848
3502964,0,-5155.578973451592
1205091,0,-9399.90087949286
2638903,0,-18812.2025812002
1682236,0,-1358.0363103328468
3118252,0,-23280.440739461505
1524283,0,-425972.5229361019
3377177,0,-421.80810364144116
2525400,0,-11007.998178039288
686587,0,-2771.842982098561
1718647,0,-28782.564507660558
1381947,0,-23325.05816724825
333708,0,-13224.972208329296
564224,1,-15936.779677624438
640610,0,-7210.592053329666
2936992,0,-7233.698987047368
330392,0,-17720.69036520145
711758,1,-23092.39674655099
542548,0,-3705.656837765504
3896503,1,-6007.947727704826
2913442,0,-9362.20543822783
264583,0,-8639.316992323596
1151939,0,-4249.566005687301
2680151,0,-14347.90881933357
3800994,1,-12290.668684292848
2611511,0,-13219.376530030599
3714289,0,-1804.4175510398031
670478,0,658.9602552185297
3874829,0,-5002.368038376787
2405376,0,-5128.579246691388
3717167,0,-11927.85920570737
1014753,0,-1339.0744992907387
3723445,0,-12856.164534430265
3512855,0,-5766.405739315915
1018934,0,-5170.240324450849
866152,1,-11999.750798645828
3513655,1,-4854.90489281705
1886289,1,-18103.371696112823
3846059,0,-34423.64754250815
3836729,0,-8915.000526947653
2922995,0,-11434.602806204573
2963156,0,-6779.478576020666
2397949,0,-14627.172238665129
1791978,0,-7684.07501828734
2124605,0,-7685.143625490075
3849793,0,-19560.708207198786
416338,0,-5432.574034067774
3861435,0,-25182.592490752955
578437,0,-9390.05587596246
2633021,0,-2762.817735029511
1172546,0,1648.2911587000576
2513981,1,-426671.28982346604
2781322,0,-426879.1895499908
952119,0,-4099.56552290013
1628996,1,-14809.24540180653
1556931,0,-2252.941738752268
2843620,0,-13229.138265000574
2770261,0,-1813.7747785816016
2605039,0,-8477.096069479214
1782029,0,-425529.2794333086
3531731,0,-4099.766614129733
1153932,0,-12794.407276963007
1587404,0,-8918.602643241642
1360022,0,-13321.3167376827
588805,0,-4833.363583079121
3690404,0,-426904.50160356064
2493824,0,-11775.836511801717
3731234,0,-424930.26514048624
2755160,0,-3431.1369024804353
3339639,1,-18495.682883262652
1646331,0,-13120.876808695468
1962122,0,-8615.009544579429
1832852,0,-7499.772806896583
3407800,1,-9382.434257083018
3310377,1,-426671.4778689323
3872564,0,-82998.11128864942
316886,0,-11912.682797910267
515962,0,-14826.913896662663
2890861,0,-22200.495896663524
1201168,0,-11911.624045459059
2976873,0,-7531.556552427011
433034,0,-1427.4557947737162
936949,0,-26638.751867582003
3736320,0,-7693.229337005171
546578,1,-2368.6993205106455
390660,0,-1361.1032011043073
2993243,0,-4099.1392886656195
2744308,0,-8248.575597458166
1732346,0,-14771.033255185605
3061624,0,-2767.5242027052154
3535255,1,-30512.997581604795
2728442,0,-7369.28560135847
1154874,0,-9563.854637096434
1426239,0,-14705.067192008346
3372140,0,-5302.281458716083
1544153,0,-12011.195927268218
2160117,0,-14487.402073272471
3035527,0,-25240.821591497137
3659623,0,-427444.55307990825
1747474,0,-2436.013940374417
1625346,1,-8624.55028165863
2648003,1,-426862.5229908844
637397,1,-56287.90254052845
627477,0,-2708.6323028253096
682093,1,2402.5789581054246
468951,0,-10048.767377704891
537105,1,-28151.53478639864
2449358,0,1973.6254706851248
1059930,1,-16196.490251151328
291585,0,-12007.106521149371
3241044,0,-1192.356814755329
2619895,0,-7336.0100797764435
1833194,0,-17806.44356724692
3224504,0,-20847.093973410014
891203,0,-2591.3321310549723
296776,0,-25201.076362234875
3862575,0,-427359.8742901386
202021,0,-427444.4987946819
3446339,1,-424743.742129787
694081,0,-8918.10393420819
2174095,0,-4670.350823418002
1705887,0,-40623.93154497059
1422938,0,-23194.653328724784
1319869,0,-426895.82467972336
1844856,0,-8346.004086437955
2177962,1,-6912.406290660695
941802,0,-5162.67651045844
464500,0,-9922.639718251272
2041527,0,-1207.6901672908257
671825,0,866.3539101919413
743747,1,-23722.45677696397
1102757,1,-426909.16899977013
2762300,1,-14794.460066283826
3086572,0,-7015.614719194235
880147,0,-23104.51581278522
664665,0,-2009.3671240194963
1703378,0,-7202.2134207532945
3110790,0,-5492.733482420907
3669556,0,-12064.443957281594
1534590,0,-10866.291470566663
1746463,1,-2429.0365993056644
1269731,0,-5923.700919157546
3933110,0,-21332.95455268444
535495,0,-30552.14241232409
381923,0,-6459.842787599498
2806574,0,-2009.505686839303
2848017,0,-10686.765493856508
3243949,0,-14487.210152253112
2232373,0,-13129.898754482128
2865701,0,-3973.6527976003836
1111241,0,-6905.5660138655785
825615,0,-11912.674585895316
1355839,0,-7178.779838474827
3797537,0,-8919.580144896663
620057,1,-27099.955166684573
257251,0,-12063.69225511938
3717133,0,-5302.411486166619
3500256,0,-13403.885980942368
2559633,1,-10887.684505145988
1260394,0,-8655.591257311002
2138605,0,-3768.692832683835
448363,1,-6912.341419292294
3485642,0,406.9871334935395
2805100,1,-8899.115277296538
2845474,0,-6599.523292722422
483664,0,-26638.329784842652
1418483,0,-5183.000573684592
3733954,0,-43072.003386617675
1339576,1,-71.74460541464427
1215417,0,-24224.8827968917
3904569,1,-7893.714072268755
3057016,1,-7357.126131534634
524191,0,-7188.626142722789
705913,1,-427410.27155732235
1664626,0,-13292.761607847784
2678098,1,428.74194114143046
2610064,0,-11902.245308324134
1810404,1,-7672.426538322986
525382,0,-13375.935424618123
1285542,0,-14660.262207790509
935636,1,-426591.9731601589
1567956,0,-2197.0944460444907
2508286,0,-1386.271508658624
359009,0,-1807.9293316895562
2167244,0,-26891.155120397812
2147786,1,-7497.730920854498
1236603,1,-427257.3263850252
1597999,1,-6678.095633333507
2285519,0,-10876.48603422526
3231847,0,-13224.824789078873
2700419,0,-424901.8070113069
2447884,0,-10890.259969259896
3472612,0,-1989.7556925063705
1986442,0,-1284.591082936054
3159086,1,-9690.884845346998
2872651,0,-426913.06520209287
1269743,0,-12055.206392188504
3134934,0,-29635.572265657993
2512674,0,-10100.809793991259
3898554,0,-20868.427960395216
2731468,1,-36521.53732643694
1584251,0,-31281.924543885725
371144,1,-427116.79113210423
1588528,0,-14803.55805366804
252331,0,-7684.834151956846
2114204,0,-6151.43738188574
3729001,1,-807.3077536716314
3104186,0,-2640.7903662659614
1137280,0,-8910.665408440653
2740526,1,-6593.417673058884
1442291,0,-2444.693048074308
2732618,1,-29114.66367260054
1496820,0,-5182.929592471399
1692583,0,-428667.7320362525
1158348,0,-41897.81827495827
406307,1,-629.7950896316353
2119792,0,-427443.8536944165
534672,1,-12313.63025608693
2021666,0,-11452.033721634381
3531921,0,-12320.829479656279
3924976,0,-4469.221982893691
3093593,0,-4833.164627187407
447584,0,-6920.387340448193
3486874,0,-6552.447520827283
3103408,1,-424903.5844291061
2530563,0,-425967.7188374315
2154976,1,-427098.3215250719
3043394,0,-1814.2642353149454
2190165,0,-6641.723271650762
2750342,0,-815.0118658846333
2855147,0,-10546.088808723442
3273076,0,-1793.4694918557134
297184,0,-6516.951403289728
1834459,0,-29455.419099241823
494357,0,-20297.784556855426
340683,0,-5003.575557942213
262580,0,-2279.4289105710864
917410,0,-426931.6645025863
2807714,1,-23224.82826856546
2507577,0,-14299.668258114123
3182444,0,-12007.526296431259
3267674,0,-1386.2059826649495
705638,0,-8638.426004534696
1525731,0,-4827.324297975314
906459,0,-5626.057263411944
3225483,0,-5765.98907970348
1395689,1,-11617.11188285706
1600921,0,-9536.252658381003
2590248,0,-427389.77852434374
1448972,0,-4709.814087705927
1460611,0,-1681.7637157510956
1534516,0,-1899.010824293273
2111271,0,-4098.591133721436
2801525,0,-17072.854747790912
1703789,0,-35363.14929543056
2158168,1,-4855.001238978769
2210974,1,-8929.434410725728
1639561,0,-770.9259738925151
2592894,0,-25005.442319312355
3517673,0,-15983.565387581286
1500227,1,-11915.112148720053
3223825,0,-2631.8171583542903
1761318,0,-10091.172142549658
410404,0,-17388.198583386933
563675,0,-13329.954114060978
1918002,0,411.8303325963683
2621416,1,-26629.455063019832
2999469,0,-5302.332744704024
2712082,1,-14805.304266264278
257922,0,-10844.434163947231
2625146,0,-4893.3970974442
3754685,0,-7600.002374929313
1002136,0,-5738.824886993792
717723,1,-2066.4159121778252
2652065,1,-426661.7794454645
1970665,0,-18081.882699576705
2692595,0,-4254.9027869284955
977205,0,-11927.542613754966
1770955,0,-7179.053087615693
455475,0,-4239.088266174081
3759444,0,-8486.174228046375
1536307,1,-427418.7945403068
2941465,0,-678.950480552037
3197396,0,-3768.4621975652763
3477798,0,-10178.27621143309
902771,0,-29319.885233053
2649493,1,-426343.2880529698
233832,0,-6751.342834531813
3230050,1,-6596.743695024882
2567997,0,-6525.274575986305
2567483,0,-2754.3261894064894
1784607,0,-10880.304745823318
1862009,0,-5428.474222795512
804238,1,-2428.8066011567917
610440,0,-12293.086881514086
2929798,1,-1937.875734362295
1727374,0,-27393.789070759907
2005808,1,-24747.8578778292
3332269,1,-15033.580559471617
3163663,0,-12065.814110899068
2007660,1,-2760.540060562321
2214458,0,-35090.918927364575
3292537,1,-11543.170071946759
2486516,0,-3654.3532099665813
2628784,0,-5423.004598019945
970774,0,-1288.9428222837328
1540677,0,-427392.95637762186
1012800,0,-9577.57114465905
3718607,0,-16400.24812004792
1358203,0,-1252.7172018264223
3148278,1,-427409.7166348822
900884,0,-4867.51215501033
1747588,0,-10518.756502996148
1572547,0,-3705.3836555213
1868207,0,-11326.892080426465
1694997,1,-26266.34672216811
3267050,0,-2960.631818598163
346009,0,-8485.969567791977
338926,0,-11916.802289474686
1718835,0,-6525.007148965619
3361962,0,-16424.21056308074
2979162,1,-2438.859264716395
1970767,0,-425961.35184674134
284175,0,-8580.963847529327
643101,1,-758.5499098102816
1362513,0,-30537.645861830595
2142634,0,-8581.21871029521
1637853,1,-21258.267757005855
3220754,0,-21200.55508924976
311917,0,-2222.262521853923
2572264,1,-427432.0131211762
517454,0,-9781.70744101907
3313262,0,-4239.59165997013
3194319,1,-2673.9622652787893
3469786,0,-10236.27117924597
427658,1,-70023.25482938252
2226486,1,-739.6674328179499
374520,0,-6459.035012954766
1808735,0,-14803.39271008094
2246818,0,-9577.508452436308
2875332,0,-7212.273291059172
3322852,0,-774.0352818908003
3934572,0,-425492.43003074854
529956,0,-16812.284195734417
3699455,0,-10101.979379436532
3320830,0,-2006.4714942662902
1897828,0,-8910.143489366528
2398517,0,-427264.271887397
3442144,0,-15386.925380421211
1231414,0,-3825.674831661926
1835967,0,-7595.172523806503
3448879,0,-424877.2041667666
3798379,0,-32499.957029854093
2582893,0,-3816.190478037343
2617683,1,-21184.450172038145
3447536,0,-15329.333924358327
804854,0,-8336.100981679225
3446541,0,-4264.609852974957
1169279,0,-2758.4969063426647
1062632,1,-12047.822690648212
477337,0,-11007.15179355609
2708993,0,-424902.4664899204
2399911,0,-4166.061070532069
2665356,0,-2759.462750080238
3767263,0,-14487.842751749427
1006670,0,-6151.272910916311
1617487,0,-17372.586335894524
2863346,0,-22964.501078563804
3925506,0,-425967.3280672726
1851153,1,-31651.13132258233
2785065,0,-714.1815544849734
1097737,0,-3958.3213908828047
3507148,1,-5827.495313219698
1017150,0,-1971.6496244764433
1863083,0,-2710.164672494107
861725,0,-427359.8378109874
1875821,0,-22190.068437669877
3202150,0,-5861.867522061381
3176775,0,-7600.2186640860145
1265835,0,-13367.96935975609
2501505,0,-24778.6230802335
2665586,0,-7179.0962736587735
1679324,0,-7336.514620379192
476852,1,-14008.613167574716
1115545,0,-426665.01073865016
1534472,1,-427418.4788010013
1295266,1,-3064.76652817309
3203535,0,-427084.32805543387
1593203,0,-427407.4979619402
326727,0,-16276.551861124377
3032498,1,-16315.821603992068
202546,1,-2758.902884180347
295607,0,-8581.680128185977
2121377,0,-427425.8815316278
3701242,0,-17130.61906000186
3132999,0,-427438.886483618
1299916,1,-23082.383124433538
214737,0,-5946.32149628449
2061614,0,-9582.671454169038
2181311,0,-5181.02272506745
1303171,0,-1569.0883393186557
2655846,0,-7613.878027960041
1404611,1,1310.0451826927354
1479718,0,-6714.4990227041335
2641108,0,-7872.310327825455
1511458,0,-3321.6100517839063
2006739,0,-4669.267740394359
3757320,0,-7582.045013120575
1171482,0,-13115.951806211084
2258829,0,-2253.283936441133
3241199,0,-10546.535193765456
1702024,1,-16383.856130166358
3778696,0,-8942.791036499159
374934,1,-898.9667855234217
1682462,0,-7144.054169642306
1133056,0,-5328.168660171061
1574307,1,-425467.678623302
3223238,0,-22920.225917595868
3383133,1,-5294.511007620996
3120014,0,-5946.378191526557
1754701,1,-26800.066128520557
2748835,0,-421.4938673511609
1161278,0,-8337.780092159022
927874,1,-1533.9208003660594
1320965,0,-9094.360957161089
654687,0,-18870.985211789175
834632,1,-10840.73880579038
2739674,0,-5668.7753425561
979737,0,-16418.709046738695
3752250,0,-5137.406474835036
3781700,0,-6641.569363299528
2896368,1,-8616.021141755498
521697,0,-1803.9673104647159
1165674,0,-424256.19584132417
2002024,0,-2166.3804629600654
553630,0,-61068.77887375318
377813,0,-12905.567701477665
290541,1,-10774.128650379333
871840,0,-3790.772681283039
3052907,0,-10691.5141571555
2897217,0,-13717.720487416349
576353,0,-11927.02489911765
3402558,0,-6714.4571668879325
1612043,1,-426915.08769121865
1139670,1,-425470.5609581547
1435642,1,-427257.0920417242
2579037,0,-1883.03423860171
3053028,1,-3093.331323209618
455069,1,-426671.68142451014
1997090,0,-9641.184424549447
3660948,0,-4531.489824622139
3719046,1,-25848.070970552482
2154639,1,-23092.390894009197
3372160,0,-425949.311435745
3275716,0,-9212.604067752274
211680,1,-27437.281681028424
1561509,0,-1115.4238853673596
1869063,0,-44810.582498167954
3146817,1,-427437.17773261725
488183,1,-5687.88312761212
1720479,0,-7665.54966843114
2669890,0,-11900.08555977182
1737290,0,-5088.868589006474
3869281,1,-4298.640453459932
2405401,0,-1133.6613967773521
1442277,1,-3965.379180747428
292782,0,-6752.245437706886
3410790,0,-425492.8709043774
898813,0,-15983.737718687213
888423,0,-5002.792423899789
523905,1,-2368.5696550929133
1778415,0,-14347.304605153771
1968527,0,-2981.881185857466
3270400,0,-11578.420027841818
3167016,0,-3252.9542893038174
3171092,0,-2221.978225740382
3877757,1,-9345.134184955556
3380147,0,-7016.082943650291
1096059,0,-3964.15896632963
3281025,0,-6266.28951280552
501518,0,-426360.62447187334
3655228,0,-8915.156862566644
2495704,0,-4862.664197309892
3031028,0,-5182.851118727351
2223028,0,-29456.676110444376
3091756,0,-3994.8892624347886
3443501,0,975.0870171379345
1006747,0,-46177.674897339966
977652,0,-11928.103118631756
921742,0,-6266.077877598728
418456,0,-7154.054335263526
3356580,0,-5695.351014578689
965380,0,-23809.11910867095
2933188,0,-2709.2251436451756
380525,0,-4161.157844815647
217793,1,-29632.84438726998
3735949,0,-13803.758715341983
3679167,0,-427263.80824266287
588293,0,-425491.9921138526
2163471,0,-9405.946237957834
1367755,0,-21793.224645236278
333968,0,-427263.77242331684
297002,1,-1083.2219811666814
3184372,1,-27312.066365281735
3024746,0,-426008.10200126754
3300649,0,-3721.2462299613267
1121308,0,-7410.176511129656
2829307,0,-4459.289609307116
2633941,0,-426921.97268813546
1877928,1,-6535.7389171528985
3810346,0,-1312.6957702323484
1770422,1,-32962.355478208316
1015386,1,-22764.054952279355
1060997,0,-10444.068722156211
1310140,1,-29297.84440177046
3851467,0,-12064.731017049357
3410147,1,-425490.82211589225
1871164,1,-26625.99634178701
944132,0,-6014.590247141822
2133961,0,-17868.47508233671
1940344,0,-27229.07846612318
699701,0,-13405.041347106762
933767,0,-6919.724330013749
2245115,0,-6207.061428010212
1518145,0,-2774.1599624956702
2710587,1,-5912.608241171036
2980414,0,-8344.993235893256
1124009,0,-18489.134120828876
508843,1,-2761.097249842941
2883159,0,-3087.660496693953
2889291,0,-13994.468851873462
3045550,0,-2222.3669077815966
1084938,0,-22809.545480506935
750329,0,-4827.500970897679
3535451,1,-4461.762231192742
2040278,0,-5749.795891665694
2940899,0,-6528.123625566867
2724293,1,-8478.515588385111
2507693,0,-13987.60399588672
1585274,0,-10230.728639298944
3284914,1,3244.931984553422
3880313,0,-17575.324197007332
3745919,0,-8666.502632655833
3741373,0,-10231.736824558213
2233551,0,-6551.9489531331565
1465892,1,-426334.29298935237
1627491,0,-425957.30544673465
1589765,0,-10861.131016211433
2701896,0,-20096.560774072714
433292,0,-9212.469719401895
1887021,0,254.5198456516713
822995,0,-4832.614498400269
3115524,0,-14807.414195408648
2037543,1,-25426.510839295242
411586,0,-24772.80703946559
3458775,1,-3429.31019540092
2743025,0,-13717.679729258873
593929,0,-4833.010017683085
2491807,0,-4165.054974176313
869732,1,-17804.591417514006
353608,1,-4158.493866289524
2792260,0,-16419.70690550889
3416715,1,-4820.111901544308
445307,1,-7687.625510462388
467986,0,-33686.561550733815
566023,0,-19908.674519337885
722073,0,-427105.2705959957
870289,0,-12029.296106517584
1108473,1,-426658.09974372515
1830415,1,-14710.948862020841
1560627,1,-7111.321673319362
3004802,0,-5732.879356040724
3385728,1,-3698.899558342806
1728043,0,-1217.327726506681
3402871,0,-425492.141106334
958229,0,-426360.7657011366
3309379,0,-3720.8874482631545
2263742,0,-2768.6858801982285
2204191,0,-18115.293433980016
1752786,0,-426903.5902915428
2427572,0,-1360.484868855899
3932242,0,-5733.162715409169
2774545,0,-16123.816251221506
2202854,0,-23814.57159831299
3656900,0,-427444.1476034252
2243481,0,-6901.221517508339
342470,1,-427256.78210320545
1891686,1,-27677.276990998515
463155,0,-6919.4796701118385
945100,0,-18822.174199445984
1360366,0,-13319.932692989114
1402851,0,-8909.36925299772
926649,0,-19074.33325218965
364747,0,-10551.390403627318
3744292,0,-957.7697975476448
1438614,0,-2942.0243410714825
1531603,0,-4511.764048835274
1724227,1,-14790.87747726576
2804642,0,-24235.68149276842
2767979,1,-7655.032247039635
2218122,1,-424744.14652105793
1477389,0,-6661.62880295072
3391333,1,-1795.8002416468362
2474955,1,-5131.0304864043
3912169,0,-24201.662253327246
3285500,0,-19074.08207144367
2605251,0,-9536.018628115684
2186095,0,-426359.98019927373
3893928,0,-20868.2990750473
3001665,1,-13322.957348740072
2925865,0,-424877.9750883707
810266,0,-425498.3635320079
2875966,0,-31470.76888227554
223581,0,-13450.853647129084
1379147,0,-425483.19122160244
865947,1,-14715.538697924638
1408873,0,-3595.7666618553494
2502897,0,-426931.9609833011
3378248,0,-14826.673357776892
3789345,1,-425959.9883398409
2468423,0,-23257.90800367789
1388649,0,-40080.59398277706
2650432,0,-11316.93655136706
2647987,1,-9746.86199442878
1913872,0,-6547.630164240347
3499409,1,-427418.7082960126
962878,0,-16812.356038465652
1340725,0,-9773.39797182461
1443030,0,-15790.60916350951
2048342,0,2061.7165645836158
2984023,1,-426923.3371029318
601723,1,-12847.86684937351
3052524,0,-427287.1498537373
3078014,0,-426361.33811643516
3345439,0,-5695.105701894548
2643422,0,-22487.558490626998
1210718,0,-12639.675117230347
1972596,0,-3967.173650617244
1909831,0,-424924.91388396535
3486999,0,-4511.977805070901
225239,1,-3845.6801510720834
2049733,0,-9545.378213212867
1643124,1,-1928.1149760403168
599696,0,-2667.7253472173097
267087,0,-427400.45470529364
3182576,1,-427352.4429107557
2844819,0,-9545.377550664929
886116,0,-17716.378909868807
3800524,1,-424922.33805768605
1736995,0,-6685.744167898164
2275915,0,-5155.270415900409
725158,0,-14294.65003270208
1754874,0,-4608.141824967397
272855,0,-12064.119395291327
2831922,0,-1142.5431871676594
3103065,0,-15380.81973152627
953753,1,-11000.707564769422
3911046,1,-426353.1893413958
693814,0,-4511.228143781993
3376878,1,257.7153236588185
1645024,0,-14713.43545016515
1233664,1,-7565.916475972349
3018647,1,-25194.37109225946
2840056,0,-5739.782975613637
2163636,1,-22881.086571106523
1913813,0,-6546.896000253372
1616866,1,-757.6590504021386
3023123,0,-6919.333154724084
3289418,0,-6265.814788519946
3028317,0,-18207.783545032387
1219426,0,-425967.42922751233
2791082,0,-22143.45358130405
1405327,0,-18244.06066727157
2495189,0,-5625.684426365444
3420945,1,-8907.344456716695
3381059,0,-425967.1368599799
1788987,0,-71.41586168768305
1587988,1,-427427.30635845516
2650740,0,-9772.903770272882
3512329,1,-39571.30775582831
2162610,0,-4684.230487837127
2914256,0,-6207.934808631936
706318,0,-6752.007410129052
951712,0,-426360.22532468755
3857684,0,-6694.223263016143
1353303,0,-2186.7116826178353
2552729,0,-4264.540996526771
1851528,0,-12886.659269219159
1824608,1,-427347.42908669054
3545905,0,-251.34523572460864
302676,0,-17811.871668705226
3344222,0,-3383.4294981382745
335630,1,-66187.00710531109
982912,0,249.3332309458209
1550079,0,-427264.6759792895
1783272,1,-37227.46589688965
510488,0,-814.3482641014622
3274525,0,-5376.795386556372
2514096,0,-8960.984192213411
1948529,0,-426858.2813681798
1695128,0,-24174.393186601304
969620,0,-2349.2026133281884
3284901,0,-426936.62102983944
1988362,0,-13404.68975634429
2861237,0,-9405.571328126289
3654303,0,-9781.538235717855
2460648,0,-5918.540807043434
2171245,0,-6266.000354396114
3942842,0,-5169.926368460625
1729022,1,-13375.314839700077
2940856,0,-7693.087609578132
635449,1,-9569.97813905666
1891863,0,-1844.2192475372763
1220803,1,-789.4027857192553
1845841,0,-427119.34629903815
2912163,0,-16418.270628950635
1432101,1,-4995.927100523809
816652,0,-7505.292884367617
2784998,1,-28835.986233710384
2397607,0,-8466.0231220577
2683306,0,-3966.559965770566
280645,0,-21296.35977602273
633261,0,-3431.395656038342
2539282,1,-7155.680030332747
328521,0,-7504.834254133376
1915918,0,-2741.2628729729204
3533745,0,-425967.52830735774
2849583,0,-3678.2532240654527
1073936,0,-7585.6749961306505
1059603,0,-7643.683092318591
898689,0,-6464.327055252478
3907779,0,-9817.17879100211
969606,1,-8241.00451982184
420406,0,-11553.278670051186
636812,0,-9576.9441533269
854598,0,-34428.884069382715
256273,1,-8630.483650521966
2903344,0,-425949.0379569302
833505,0,-5182.941473657813
3749841,1,-427390.6088843934
237978,1,-19598.77942893841
1382620,0,-4255.113145409758
2123630,0,-9725.639444857468
2697143,0,-424930.00921164063
1874815,0,-450.9878363962178
3054395,1,-9510.55472315431
3187603,0,-21354.15448427655
1747116,0,-3515.049180509494
3686519,0,-8345.902645945405
3935574,1,-64398.98858251751
440789,0,-18822.273612544785
1451387,0,-26999.768827264914
1476909,0,-7779.357741325649
3944261,1,-4257.546753997869
235062,1,-5916.977863560033
1015208,0,-49427.13367307124
2561858,1,-5106.524825791624
366980,1,-29306.96982052033
3092975,0,-8915.022936061268
1317140,0,-4642.109915399507
2987630,0,-9015.082942426587
1533836,0,-26461.731005396083
2241433,1,-42257.34384747964
1047464,0,-10852.526449837225
2195194,0,-814.8949165796101
2484051,0,-10480.959593886717
3738190,0,-11633.816920972846
453088,1,-17051.28048643927
3845024,0,-4486.541961666771
1963116,1,-426307.31579440006
2681036,1,-23138.506171998684
2979176,0,-9409.556835659218
3920560,0,-425967.12509084155
1595213,0,-9688.680872493615
3150946,0,-427417.14893061237
1115386,0,-1208.3521178411327
3743860,1,-5175.784237086611
871428,0,-12007.88061595915
3453558,1,-65.68077044518442
1726867,0,-21370.76634709513
1674898,0,-9377.38205783807
3802123,0,-424930.26527836284
2887096,0,-426679.01022250974
221773,1,-21373.75596611773
3343186,0,-4099.27143123509
1789593,0,-5488.167929381425
667926,0,-20106.372503201288
654937,1,-33861.617540826934
3202555,0,-1142.9727936143402
2985881,0,-10353.39241459634
2722022,0,-7600.153238186249
734676,0,-38674.17322182891
1367489,0,-425957.41545695846
592828,0,-19428.902869215803
840419,0,-5945.789476081522
2641149,1,-3955.8724871576774
1530692,0,-424929.7223478198
958424,0,-426360.87992452487
2503829,0,-22767.315975403795
2059450,0,-10145.251467372087
3840117,0,-19587.992560761933
1165240,0,-10216.934696920904
458888,0,-6014.385095821424
2465067,0,-9698.359612555205
481858,0,-4098.744429198977
324656,0,-55244.87350203835
1172275,0,-424204.4455566244
1455001,0,-11326.657666257965
3146383,0,-2279.2851411363586
3713630,0,-425966.576209765
528649,0,-8152.779430065029
1618801,0,-7896.011085178017
2132190,0,-427417.79327384924
1756512,0,-4665.650881655527
970665,1,-2316.5237269122836
1973900,0,-21341.6498607202
2879144,1,-12632.738865036365
1916787,0,-424266.45993407024
3129416,1,-12089.555497136493
3165416,0,-6757.08931269009
914502,0,-426936.0138991054
1107654,1,-24504.84126451883
2719255,1,-427352.6931934663
563477,0,-4468.986736477602
3896123,0,-24773.117408943504
2838058,0,-14722.597581769662
340506,0,-8485.565504781118
2576531,0,-14798.220882663178
429215,0,-29122.191082837824
2400514,0,-427123.4837570478
3093002,0,-12837.29355716596
940892,1,-7892.075166578036
2941721,1,-4508.533427037552
1410354,0,-8666.210615738506
3672676,1,-4366.897093404188
1077464,0,-26778.644558474574
1986453,0,-8202.701808289685
2534173,0,-11053.243387442799
3524462,0,-1982.4684935718228
1835479,0,-34087.667476502604
2284419,1,-6635.4089183896795
3716596,0,-7189.332139457032
1275752,0,-16271.641874385226
206897,0,-14812.502358641028
746645,0,-3231.4279138845195
2027833,1,215.69854666876145
1232021,0,-930.4255936529272
211228,0,-34451.81137388307
2503011,1,-426891.4555164202
926638,0,-6266.571910124889
3529047,1,-807.4334361378834
3404949,0,-12856.863970219496
3068883,0,-2808.1384324818932
2616953,1,-4152.819087747522
263534,0,-12064.732853053541
3239056,0,-8345.767381526708
3863420,0,-31886.99276895424
3926267,0,-21802.915580675544
3007444,1,-40081.65100485403
429718,0,-3339.885306263294
967897,0,-3705.4528432698253
732180,1,-6011.47025616901
2405997,0,-1682.0670966391237
1336136,0,-11316.816320166125
3512909,0,-3100.6281446257904
2937798,1,-425941.99893527175
3174866,1,-5852.7700977530085
1019010,0,-15381.73533422648
1245210,0,-2375.7328278732725
727926,1,-426672.46115671337
1146660,0,3463.944531242109
3883590,1,-6451.416195112641
1259792,0,-7654.3124728489975
3494909,1,1282.2750922777989
255128,0,-27377.63814049169
3246577,0,-13084.60851732436
1498071,0,-23247.2732305144
811329,0,-6151.276855028554
1465611,0,-6208.159562764588
3872161,0,-23141.0130114922
2868951,0,-20873.079748944325
2868498,0,-17383.199719178003
2606314,0,-11902.28329047662
1224861,1,-7208.738082120125
270254,0,-427417.56395746017
378030,0,-21060.439234505367
3130170,0,-427449.5164731539
2815247,1,-427419.01759888086
3229845,1,-16116.280217942707
3031502,0,-32024.50742468071
315500,0,-427265.12100079947
2239832,0,-13292.566864430844
3251969,1,-24999.047801163375
3239699,0,-14492.161910924218
293921,0,-8581.419176087313
691410,0,-3606.043911540011
2054864,0,-10102.278583966112
220692,0,-19587.992274304055
1627401,0,-7571.86916378083
3099160,0,-4085.395612404085
2207916,1,-788.6154342771212
2475003,0,-1814.114809481727
2861798,1,-427103.8139182876
2052856,0,-7172.11441664062
3401025,1,-1894.3480774891464
3802476,1,-13775.261462489942
928851,0,-10100.911352012374
3136006,1,-427441.6754320386
397769,0,-2252.579516384456
1724557,0,-3843.075512259758
3257812,0,-9405.124883482518
3207167,0,-10691.51505889958
2877995,0,-2000.7708213964768
878599,0,-1359.7849231444193
567827,0,-7188.703006958982
3538651,0,-21329.085874277116
2268456,0,742.0564318605923
2964709,0,-7684.765901095528
2666149,0,-7179.184225837579
3895236,0,-6266.184964390926
1599518,0,-9577.91780528074
611244,0,-6714.875467742339
256025,0,-7631.056641766569
369761,0,-422840.50220843684
869125,1,-427351.90118058363
2402011,1,-426923.7288399601
1621732,0,-133.83038977352703
2440989,0,-11901.12677715486
494508,1,-1674.7358393373231
1427961,0,-7600.687520017617
1202730,0,-4305.797047131117
3840112,0,-9725.464067366125
1486515,0,615.7706236166099
1665086,0,-427331.83137180755
2538820,0,-425954.20403336
2462935,0,-2260.4424886166566
1130443,0,-9375.306849248078
2452272,0,-9730.23361987287
274656,0,-5892.79217347637
901196,1,-22952.09205801515
2542035,1,-15919.002822978997
1590901,1,-7668.109291528077
2657614,0,-2746.772912739617
1731367,0,-9688.53346920277
2412527,1,-424922.4166994927
3266570,0,-26890.645185098576
2460096,0,-6752.5347082594335
2841746,0,-17716.655022374693
286790,0,-9095.995261312586
3179010,1,-4393.31187617012
3508208,1,-11999.678528383838
2599971,0,-427350.7912010587
1017628,0,-766.7083888283718
3086725,1,-425940.94260708656
512332,0,-6548.293597697641
302068,0,-423094.2145575165
2936260,0,-18866.301905445773
1900989,1,-19422.534037708407
1239658,0,-2767.636322780223
2807662,0,-7684.620325459392
1536133,1,-7678.289621960153
2016337,0,-10989.128188508517
1441116,0,-5625.7135520265465
217844,0,-23319.9683106126
1413831,1,-16331.287657463205
3479622,0,-6546.1580736858
3258316,0,-427122.53650779044
3960151,0,-8918.433988463603
2599909,0,-1804.7298080801138
2742850,0,-9782.18020679709
1945748,0,-11743.719708735654
2449736,0,-679.7104537308426
3874282,0,-16123.169036065055
902036,1,-9397.61145726825
3804141,0,-424903.2674784012
2201852,0,-8248.111045408923
208598,1,-23131.73084218784
2158715,0,-427123.8220728944
2686725,1,-5521.513686851554
1283841,1,-8564.20430324227
3346722,0,-4862.361916574259
1624628,0,-18493.580538093902
693205,0,-2772.9802465818266
1351680,0,-12315.427054741393
371458,1,-19259.323393287792
3333511,1,-13716.592190129908
855006,0,-3825.673681385786
1996614,0,-427359.72730958444
3724457,0,-8914.70147569487
594182,0,-8887.817660845425
3087507,0,-63.96757448668981
3377830,0,-9394.72851265704
2529667,0,-8614.564259588005
3066670,0,-426931.62444486655
3525308,0,-426931.0628870197
2896796,1,-2743.561642153783
3397119,1,-425485.7895933133
1642412,0,1566.6539765412163
1469062,0,-829.2345253975511
338542,0,-21201.43667759473
3696147,0,-11578.999801605414
2922704,0,-14352.110952375313
643056,0,-34528.30849156675
1046121,1,-935.2813280219947
1033188,1,-3545.5785197439845
918252,0,-1385.8681722264064
3803950,0,-8352.196965750381
3269726,0,-11578.858232096252
1977589,0,-21300.92944052682
818987,0,-19070.751246077813
1674835,0,-6431.7104682583495
2520797,0,-10101.1228039859
2557626,0,-34532.56766529464
565966,0,-13335.730781827171
2675321,1,-1865.7841942458172
1087608,1,-13062.619160699764
2046521,1,-19553.054561533507
429306,0,1823.773567329419
3759153,0,-31903.84023396422
1047531,0,-13390.906244629645
2632286,0,-4660.246337646305
863619,0,-8581.667161075091
3499770,1,-7650.701445724881
3433513,1,-29997.887496873773
1682332,0,-29094.004634187717
286825,0,-39673.97644863468
269045,1,-9690.715230209664
1957984,0,-69557.41809602913
2594332,1,-10822.647488214663
384118,0,-10550.900072075681
1967498,0,-6179.2378878894815
971697,0,-7193.58271685772
842877,0,-9771.445191081482
1611037,0,-15921.22303536943
1630182,0,-5292.715343840733
1105967,0,-3959.2773667088577
348969,0,-13229.196958522743
1493439,0,-8918.229395904124
1128017,0,-47.28154310076798
1807006,0,-19556.015973824095
2266944,0,-426013.01410423336
3921289,0,-425967.8278839679
2495703,0,-15983.2502093529
2723686,0,-19407.630464998972
970805,0,-9388.857032644728
1106036,1,-430360.0227400079
1245784,0,-6207.427933627181
3848975,1,-427410.2295035671
846500,1,-427398.17070501455
3763100,0,-1359.864087931823
2556944,0,-43070.69700018855
2415519,0,-4510.918045229483
3452526,1,-424922.68198265875
1629562,0,-8238.285729853755
1257742,0,-427435.6993580388
2861315,0,-27083.493912910988
3199978,0,-5098.216320820985
2122789,0,-427448.9663478974
921350,1,-3332.331836572894
3951151,0,-31950.51326783788
2680506,0,-425464.52361372765
3414492,1,-348.4354194165761
3917738,1,-8653.745333118974
3009872,0,-1971.1088644556428
846317,0,-427417.35228105844
3338807,0,-12320.24161150229
2231983,0,-10213.241441063577
2057617,0,-13335.049117876308
1425338,1,-8573.258998719002
549215,0,-12325.56192506238
3021217,0,-8345.929967062024
1364454,0,-32964.663249736615
956404,0,-4081.42502838606
1669549,1,-5678.145160533184
3100988,0,-24888.954893804865
1200587,0,-10691.098559196978
2120345,1,-23273.211026887566
3409712,0,-5733.725352159459
1895671,1,-21316.527062888636
1076966,1,-19431.58360184994
429339,0,-1164.867817789324
915858,0,-3972.7540864998505
1873478,0,-426361.25178125344
2655034,0,-19065.406044538326
2561886,0,-14723.561500337097
1442930,0,-22772.328705154003
1105117,0,-5166.902127737426
455652,0,-6265.988002588985
1086368,0,-5611.436181881853
3213542,1,-9633.468175522848
3352250,1,-5687.26475800626
3791852,0,-18110.465869604857
1879384,0,-5690.116471921985
308405,0,-12007.208750264916
394826,0,-4669.40736900983
3111026,1,-424263.65442024503
1261785,1,-9708.308291760324
3705991,1,-26631.04229664763
1945505,0,-2418.9701172319938
321376,0,-4306.139588974609
3669297,0,-427417.41355404555
1206173,1,-7350.781167248505
3126325,0,-27404.235829030386
1612738,0,-3963.466123689892
897540,0,-15977.673949501692
2789219,0,-9782.513270637475
321849,0,-8486.05613909742
2416606,0,-26462.06180953002
2817055,0,-7684.357002924608
2601909,0,-8575.896458480156
2542006,0,-53852.862211646185
1058291,1,-14701.899551782566
3199218,0,-427360.33082606486
2041686,1,-426658.31021161913
984673,0,-425492.49409190344
2168038,1,-4662.968242591963
2729808,0,-15982.957479059212
3230595,0,-19407.436645562848
628041,0,-424929.34058693633
3931254,0,-1941.797300006801
982339,0,-1803.225373104319
3298162,0,-51162.14876756203
3278060,0,-20862.608791581173
1997177,0,-427341.49241845583
1819112,0,-1508.6760087819264
3153820,1,-12057.391555239225
275749,0,-12007.149256314122
3031506,0,-10908.00388694997
352848,0,-13224.595563332969
3141953,0,-23252.768956997446
1933971,0,-5815.247989881134
2470915,0,-27297.153833441494
2771151,0,-3768.708221104114
3086203,0,-425967.7001616791
213110,0,-16303.757480140579
3473233,0,-1312.506537793524
2605599,0,-4993.365445359567
3183037,0,-14722.939525133474
3291472,1,-17355.934847162127
1351435,0,-16803.02556123513
3342641,1,-426282.041202759
1734415,0,-427355.0506228055
1752979,0,-42085.98098597904
992763,0,-1328.9010610735008
357079,1,-19248.24919656817
1261104,0,-3580.0771084137405
822109,1,-2367.7982801717476
2982220,0,-5625.879861895431
1271863,0,-10830.274952079588
3416903,0,-1468.5425557511956
1863563,1,-426662.6151134607
2190364,0,-6600.196723196579
407671,0,-1775.4257608309206
728747,1,-14287.25256053568
3233527,0,-23100.4158165295
2021330,0,-425474.74785705033
3335719,0,-15219.87711140631
232304,0,-5945.579200218267
605428,0,-46740.57127355464
1645963,0,-614.0745992511531
1941604,0,-21173.534317179496
931607,0,-5186.293282031678
1535958,0,-3834.856607799501
3165405,0,-7479.390883806872
400369,0,-39411.854640271486
939932,0,-14047.741356353965
1578161,0,-355.32715717104674
2485731,0,-427310.1108872776
3053696,1,-3666.257391993939
2730766,0,-5433.335924439859
2930196,0,-424929.7212499313
2944925,0,-6533.706106290411
3344612,1,-4091.5580839369045
353896,0,-1718.311141134593
3197339,0,-10781.730971350999
3414598,1,-27676.727530368687
2153084,0,-3100.6247371560708
202255,0,-23280.300029210517
3761529,1,-5758.872257421942
3445564,0,-4264.7209541488455
2275631,0,-427398.49658164196
3437840,0,-49408.32478781955
2989349,0,-4417.497005643405
644297,0,-13789.005027627085
741786,0,-829.5626763629396
2396168,0,-10781.755349181401
3891127,1,-426969.1878930571
3319240,0,-12644.361722408565
2441469,1,-426173.6460961503
291254,1,-4393.663363690188
3236689,0,-9409.792794125158
3958535,1,-7690.502524605994
3788692,0,-15224.584727186264
531780,0,-425949.30289152137
3493182,0,-7693.642409640883
379528,1,-10538.957857467045
491065,0,-11007.863216239863
1813955,1,-8653.49423020367
3192880,0,-2221.5303395848814
3664701,0,-12064.689631568033
1934914,1,-1695.8303155133442
3916525,0,-426332.9294080577
3797463,0,-10140.132889894774
2874008,1,-2760.1007603091844
3280741,1,-426923.82611630467
2867948,1,-7168.967325520427
3155334,0,-2739.219946748239
1852412,1,-24760.689373488014
946622,1,-426334.7741347737
1848366,0,-4201.3143039568395
1812413,0,-21381.97337834164
1781140,0,-23330.510765645493
530521,1,-10607.605337586867
2680623,1,-19412.81183575128
2833857,0,-2221.3667850524716
1253667,0,-1844.3154657358277
404566,1,-5618.107235818399
3358585,0,-426360.5922927009
535796,0,-5695.372742477292
1523960,1,275.6223419526295
3679615,0,-16123.81020535885
2779362,0,-11765.789992569504
1045825,0,-25272.06347783346
2683687,0,-2524.866089049901
2211157,0,-3230.9265880738158
1912621,1,-3540.781949926157
2564009,1,-424262.9326472444
1589767,0,-3243.823926152786
1079339,0,-9535.812198138217
1010548,0,-424929.6862192642
1635837,0,-4639.24126326908
1563464,0,-4399.253161191796
3476216,0,-678.5931153100548
2935346,0,-4264.752469109906
1675639,0,-14459.682486513728
1363640,0,-28153.03478858272
1353400,1,-9765.941188201
3520139,0,-8153.056893864905
1345050,0,-4089.125309768518
1002591,0,-25452.305324826768
2189092,0,-4098.562581871421
915506,0,-4669.911712776397
1289646,0,-31794.04153759977
3232402,0,-14486.945660006417
3388664,0,-1288.1375747787117
3107329,0,-424270.7673804169
1240118,0,-4642.934903963273
3296059,0,-426931.7663122526
313771,0,-45496.45304642274
1295760,0,-10676.117437957711
847552,0,-8620.45537070257
2606592,1,-1701.611471104751
1313585,1,-4148.495702126519
3075218,0,-15538.270941562076
2680728,1,-1866.5458457921784
1745255,0,-427255.02913412236
1468918,1,-1796.5264194153076
282439,1,-23192.623729182946
1490811,1,-20045.9994549504
194642,0,-17896.48441505172
3385285,0,-425971.5246147973
2153066,1,-1806.886925638464
968866,0,-5301.717324161892
3213217,1,-9537.97787973743
1866920,0,-3715.6806394919254
2168714,0,-426914.00717109884
3834944,0,-15790.799962564774
3866105,0,-10407.765284842539
3941488,0,-20764.909203379648
2662858,0,-9379.021234585985
2060922,1,-6707.226291891486
1980468,0,-7004.613227827127
547035,0,-41074.92566844381
2916319,1,-425454.5478409978
991388,0,-50029.77841601965
2877930,0,-17382.375607520135
1546205,1,-10755.881555007083
2844984,0,-427264.1964948839
2743637,0,-7581.331319220319
1394242,1,-4247.999583013948
1073895,1,-7488.24977345456
932822,1,-14080.808185428328
1637002,0,-424872.4427803058
220623,1,-25279.134127954687
2427593,0,-45399.91126558271
729874,0,-426659.60053926136
1984455,0,-2693.0458317039997
3714385,0,-16418.075588639575
3294100,0,-5478.60558616696
1648657,0,-4502.025261872309
1563271,0,-426654.8967072406
466671,0,-10102.205445112788
886243,0,-21201.13621975753
2033594,0,-1986.253799730271
3704790,0,-6014.14009573904
1295501,0,-8475.474718220124
1193790,1,-5179.750164490656
3893522,0,-3340.5954622335726
3234396,1,-427102.93410388945
570733,0,-3230.4611180732472
434068,0,-4369.61600315975
1940099,0,-8499.338285530876
3493406,1,-24881.717081055463
2693077,0,-424902.3900288575
1474990,0,-17617.864112859854
1848594,0,-4161.513505649333
1455247,0,-24604.961248013038
966090,0,-21802.36368679034
1363703,0,529.775049019189
626210,0,-29468.719207824055
433030,0,-8152.834756767064
1732975,0,-1503.2971364225389
1673944,0,-878.3635420607561
3942968,0,-7210.670235015563
2613958,1,-427106.3125165775
439342,0,-3345.2109045229363
1864322,0,-7936.632728602012
3913924,0,-15220.46108837988
3246551,0,-427124.16843922326
1311086,0,-4852.810490087497
1751827,0,-4852.222592705955
266817,0,-423134.3696986405
1638222,0,-4458.371224393767
3463197,0,1274.7109565510927
1708473,1,-21320.658184005908
718168,0,-15988.867047596957
3941631,1,-20703.382225461202
3441820,0,-10894.955587562754
2256256,0,-3079.5648168512175
442482,0,-4417.626960479065
1936715,1,-10651.406282532147
956014,0,-8646.20874939974
3396159,1,-795.5210917907178
1227080,0,-679.1249390838708
383246,1,-2443.59932734553
2816522,0,-16303.633017067345
199655,0,-6601.260378428878
1407985,0,-3636.8951711544128
681577,0,-10231.145064426611
2994368,0,-426365.14389613975
1534978,0,-427425.82440809853
1232926,0,-9697.6712375907
3322286,0,-28870.427042601113
974854,0,-5348.70516768321
314627,0,-17116.25293988103
3402706,0,-10140.784462827241
3837002,0,-5732.832576526671
950988,0,-426360.2617308422
2110896,0,-8965.74871483444
2528614,0,-426333.6895746398
3704460,0,-2001.1380480076057
3542951,1,-2661.2757653612475
3368807,1,-7181.013039535565
2935271,0,-11633.550041842947
1411039,1,-5886.098435033651
1510115,0,-7405.356343966033
225333,0,-6783.82637384464
3295372,1,-7841.321210985219
1577260,0,-4841.729714652159
1328305,0,-426669.4805644817
952062,0,-4862.428445967807
282665,1,-9691.260818379411
2498590,0,-11579.268576899924
3142200,0,-16308.762189035728
738514,1,-12313.09755161403
2636460,0,-5170.91152389811
3234896,0,-9405.728301921366
3930383,0,-25425.406275644174
2001276,0,-4165.654569043728
444577,0,-4458.291444844108
455388,0,-426935.66515559854
1971153,0,-10586.883560418024
3255315,0,-8345.247233462582
2948259,0,-10231.234280182303
2749407,1,-320.97682856286735
3374487,0,-6159.2924717974465
444110,0,-2515.9022254946376
1222020,0,-40657.634842072555
1734525,0,-10772.627918977165
1616171,0,-704.8171479911456
2714896,1,-5175.647557038206
2718252,0,-3254.012569020074
1283887,0,-6730.870069933521
3775961,0,-24773.340361318325
1868700,0,-6915.4646843538885
3096874,0,-1900.7900131546005
1552714,0,-5625.679234452509
3194178,1,-16211.424341810101
1149376,0,-2654.2578725111816
3863073,0,-6695.441443397034
1288729,0,-427255.217799305
1221155,0,-21842.989666733203
3857552,0,-45501.17925172577
2758989,0,1349.663213922383
1203250,0,-8485.526762953668
560821,0,519.6818804193837
1997405,0,-2169.5684055758065
286475,0,-8643.196673122411
1447601,0,-9212.604472143255
577857,0,-3706.0232588308845
3791947,0,-5302.39455575699
996399,0,-425533.11589426344
3358543,1,-12311.474244848809
2814644,0,-2306.198110514624
3715447,0,-425966.4094880632
2581256,0,-19624.146614046054
485766,0,-6600.751164025351
1663794,0,-9612.6039284391
2232789,0,-42407.13376122001
370413,0,-8345.911802373006
3692731,1,-9205.112720908535
437244,1,-10081.539199500474
1201568,0,-8486.46680236919
1748695,0,-17566.43928203953
1620942,0,-8631.226938559199
1611372,0,-9395.157072838223
354347,0,-39579.0589463842
2249628,0,-10813.743923396629
2860108,0,-11771.217385907823
3666496,1,-8632.022456117682
1908918,0,-4259.223797431908
1470617,0,-426013.508178121
3904676,0,-3088.1332555016797
240474,0,-1227.1285256429865
3297838,0,-26638.24365779429
3154163,0,-2694.439709196213
1915610,0,-4507.171524990783
3355089,0,-12320.699071200064
2803851,0,406.9128442419458
3364799,0,-10614.27835518803
3019955,0,-8472.476406300317
2945555,0,407.38510357114734
2122117,1,-427436.2788243538
3307717,0,-13989.74258451398
3154972,0,-27402.997398580028
1040171,0,-8651.742236390342
651698,0,-8919.289784200068
2155372,0,-427071.31202022097
1202628,0,-10660.436955071156
2651062,0,-5685.39849175946
2709497,0,-3595.737665278972
2850859,1,-7497.871169142517
3409025,1,-15951.790136639582
3048611,0,-6580.9764821625095
1792890,1,1291.6412205862289
3681380,0,-31785.492550236213
2948025,0,-3646.562367754886
2648768,0,-7572.209038029156
2771844,0,-2681.873850046983
989467,0,-425493.1765719952
1557485,0,-2767.6181369105725
2974515,1,-19468.76977708414
2204801,1,-23801.653237153365
1415893,0,-7698.719838653277
3755693,0,-3768.941814169514
210170,0,-9140.034414787386
673503,1,-6585.363922415509
1283473,0,-3758.9564236178353
1260106,0,-10857.467870979735
2928389,0,-424929.04620259
1110229,1,-3698.4911626797034
526986,0,-4468.2473527782095
2547028,1,-14385.25517659372
2285301,0,-5733.85180487237
1324695,1,-9388.434507083319
1546186,0,-6694.40639916506
3321204,0,-14047.250294653604
1428310,0,-10781.890098543181
2743875,0,-426358.9919253709
1124885,0,-26305.347467842617
842257,0,-1227.3960449434944
2585573,0,-427407.78791827965
215171,0,-10840.253877161851
2435382,0,-426679.49013048934
3155948,1,-3245.997086514999
1300881,0,-11761.427647600207
627882,1,-20758.12053616058
3166165,0,-1871.8416415329855
3807935,0,-2772.2243823444464
351905,0,-10546.089449732732
728197,0,-7171.29819811608
2546610,0,-425479.76439190516
3949704,0,-424929.93064224476
1977441,0,-7183.3857927418
2889608,0,-22200.788848323034
652916,0,-107.05271748276246
3167399,0,-8644.036518533248
673945,0,-424270.8809943655
3489706,0,-8918.300105787835
3251335,0,-13083.510616042367
3783583,0,-2768.5972487325844
1050540,0,-427402.9911108225
1396369,0,-424920.32224872906
1995017,0,-10764.17194092517
3472196,1,-11625.971975106177
3123248,0,-2767.005777032552
3341013,1,-15211.676646674838
1834965,0,-11912.161982496964
596298,0,-14352.164052194583
1829257,1,-25010.867763859507
1158454,1,-6170.506617851735
3467452,0,-6551.804637480788
2038481,0,-3431.8513178222447
1506510,1,-6572.357891520174
761474,0,-106.72520918880332
859088,0,-17868.532285878035
2022741,0,-8914.67482426269
2544667,0,-2508.001538288135
383934,0,-10353.892426830165
1028777,1,1641.263914114537
3840399,0,-13404.862772300492
2468860,0,-427417.67067435954
3465543,1,881.6865601538909
642898,0,-3431.1865042145173
3043487,0,-5861.52167162874
3690909,0,-8153.158391453299
2797091,0,-11452.558623156161
3094718,0,-425475.2800933947
1359696,0,-3696.6077998648257
3945514,1,1294.4985652223913
2945113,0,-3605.863917402136
3410317,0,-3236.081274207538
886635,0,-2113.218124788844
331323,0,-16123.91423589451
919039,0,-426936.3264427673
3137484,0,-8665.757854896498
3740209,0,-2773.217517062542
2896867,0,-814.4606072018514
1170272,0,-3591.8581972695756
382276,0,-10546.3069066296
3218253,0,-13224.163601062095
2448366,0,-5114.307933625616
2236507,0,-424270.91676960693
2701651,1,-424917.9760809968
2921573,0,-425492.58612982876
3919391,0,-7581.371890176058
420220,0,-2001.5818623463283
637874,0,-17635.606269541022
1447156,1,-7164.064926403604
978608,0,-3014.0610398150834
2772925,1,-23079.12319674714
634899,1,-4257.030410147657
3324183,0,-5180.758945324345
2483487,0,-427264.63663622347
1914829,0,-424265.47916096007
995788,0,-2521.711897773864
1025055,1,-2764.0297968215245
3509906,0,-5002.9582063506805
727267,0,-2253.187077758721
425922,0,-1793.2351567785406
2033667,0,-14627.68750954379
2935804,0,-424252.45918540575
644637,1,-8318.085682878174
1222665,1,-5726.250773457448
605047,0,-15949.662829732752
1490800,0,-5492.265160243268
2207779,1,-11919.114439997884
2249179,0,-1539.9411883577664
3105099,0,-2668.754113704249
736222,0,-796.5452638225117
3369829,0,-7188.243334410523
527648,0,-7188.703458693189
377926,0,-15983.557805423665
547382,0,2976.103606396066
1457365,1,-22229.256783967787
3803901,0,-20770.185890276705
3717651,0,-426360.68171142094
2174990,0,-8153.380903177619
3740253,0,-13130.165715145597
1793658,0,-10215.187965851093
1639209,1,-27103.8804505455
1826035,0,-13314.974963168477
1558337,1,-711.950074268746
1327955,0,-20840.698484368484
837118,1,-5156.263305095794
985304,0,-8915.611196754064
2193359,0,-3424.281807697203
1592219,0,-14803.581838455302
2830029,1,-1864.6962656499072
2839798,0,-12007.590813821247
1198745,0,-5091.875432963689
1112725,0,-5999.921889609817
1633020,0,-1793.2601154191093
585648,0,-12896.968570605002
247143,0,-9697.785801210839
295920,0,-5080.144452275306
722686,0,-2942.036738253911
1875084,0,-7896.2565904815665
3717224,0,-9388.727393124185
3749575,1,-13375.593007888554
3934445,1,-8908.312412460278
1856223,0,-12887.112326002478
3166144,0,-427416.7856887977
3530915,0,-455.6847556608517
2565558,0,-10236.321078200122
3129321,0,-21380.73697758565
818858,0,-3344.5741689369283
2635878,0,-5423.433283252714
1627961,0,-1212.7605349243593
1516364,1,-5954.807688776884
2391264,0,-427444.28657731833
2116400,0,-1899.2656917331792
3654427,0,-13329.89915945483
3297177,0,-31475.816678024938
3033229,0,-3852.7986280220166
1118647,0,-3388.1313699714146
2218280,0,-12293.514525496794
380270,1,-630.3507746785267
868325,1,-25194.53610558269
1705892,0,-8564.12818716696
269691,0,-13376.87500216616
1167199,0,-5478.420627960122
2603058,0,-427350.9043192056
2121300,0,-427426.5667365155
3158913,0,-427237.844321371
2618002,0,-3527.4360879289457
1741974,0,-34261.55772776705
2764334,1,-12098.487705662004
1036595,1,-424263.612279077
2276013,1,-13370.18780886469
573340,0,-12896.502970712216
2886309,0,-3761.544465715648
3176267,1,-3188.5287378606777
509803,0,-4861.050962866954
509635,0,-1681.5460920324863
2739126,0,230.1780228287719
2399867,0,-9405.55734912597
595341,1,-3934.9622187855384
3663803,0,-19527.873564017187
3276936,1,-9205.29238121817
3237018,1,-17567.681367681496
3235554,0,-11772.60553960953
3952932,0,-1312.3665040285302
1709239,0,-11426.268610239407
2916702,0,-7721.66353240879
2432255,0,-8153.408137744717
2544770,1,-425499.89506637724
3422416,1,-1461.2717937983532
2421271,0,-427417.5179305386
512452,0,-4071.5089292642137
3863176,1,-23186.80439397851
3199141,1,-9633.338311290057
1731178,0,-10829.937055670658
485515,1,-4853.979502193621
3233772,1,-2437.9647955162322
981417,0,-81758.04597314956
3254127,0,-8345.534779780646
2420411,1,-895.1849257454924
1749019,0,-7337.226644155223
2427627,0,-17716.32479283874
3744054,0,-12131.915911777805
1400539,0,-2045.5040530846572
1123203,0,-426346.82427868014
387188,0,-1986.772165430944
3868401,0,-427245.6230544
3331325,0,-455.3674171129059
3863927,1,-2214.656469227395
2476867,0,-427359.3771144639
2063609,0,-36585.188381400134
2176652,0,-6919.181932264679
239172,0,-9725.633313411341
1113744,0,-28901.533886357884
1517971,0,-11013.063520622462
3676613,0,-17716.924822437228
3720263,0,-11927.146437355614
1725176,1,-6761.990632305942
746213,1,-1281.839695982909
2251514,0,-19560.14224219322
1459876,0,-4843.766676850006
2117977,1,-427423.6130335561
2025447,0,-1338.548626858394
2973872,1,-3189.502708840694
2177297,0,-8960.248814693889
2256059,0,-42424.33375772445
2759270,0,-1996.2470534486376
2809185,0,-2766.174866531691
361877,0,-427072.3568248924
2749365,0,-3236.1294432012696
1912712,0,-1307.4878409992286
2482686,0,-27228.369195166633
1886315,0,-1799.354082470776
1056116,0,-13363.545455655769
1611703,0,-10794.94376006182
1355692,0,-3392.695172981047
1259098,0,-427435.0179517335
2755391,0,615.5956229735161
931559,0,-31218.542169520257
1171329,0,-6537.7722591355305
2241172,0,-4165.980526790515
696111,0,-3601.3500297124824
1528044,0,-13788.924449076492
1639936,0,-5963.5939300166465
2891990,0,-7528.73805930108
2624901,0,-6450.04087028025
568584,0,-8248.813978473168
3293670,0,-8134.098817596961
440491,0,-3339.847270195443
3171739,0,-5155.883923808627
1713670,0,-424884.9462631241
2906131,0,-8248.040689018777
315052,0,-1307.2325966586875
2805992,0,-2009.097898654905
2535215,0,-5302.149484155982
552532,1,-55.47489374895282
1994550,0,-427363.5533179808
2233032,0,-500.5110678827654
2769514,0,-10781.24956415195
969870,0,-5302.41874246773
1606896,0,-5617.0251292521725
918474,1,-5426.036485977804
3145487,1,-45573.2836263708
2216873,0,-10890.11125473369
1259971,1,-8648.226211776328
845072,0,-427417.3079931256
652979,0,-31277.79301385193
2442240,0,-5256.977431932147
1316649,0,-8148.571005694854
549844,0,-4469.549813409147
3147374,0,-5740.150112017554
396617,0,-5766.453225031558
3734746,0,-4269.573668759298
2913496,0,-12855.690664960188
492364,1,-9775.611428850274
3152831,0,-14785.77816564586
3543362,0,-252.3091569920555
3165497,0,-1513.201958322364
2473463,0,-25153.75811979318
1284833,0,-5856.363721640035
2860299,1,-10538.267404700206
1040224,0,-6765.054216618302
3089192,1,-425959.4786576951
1987456,1,-599.2182888224389
1524580,1,-3987.4839342286978
1988963,0,-4486.184547490051
2716195,0,-7657.489461504096
3479543,1,-3602.999073584929
1018345,0,1287.362296211266
1772321,0,-10614.430243372783
680011,0,-2010.0531783500494
1713123,0,-15354.018300804004
2214434,1,-11446.097147264616
1057184,1,-427395.75926078245
2733174,0,-1027.9093343210752
3075484,1,-10097.693458748323
485491,0,-426361.1195147093
982323,0,-14825.91792063644
2572706,0,-6770.100032401148
3201503,0,-25201.992319435667
2211110,0,-815.102286089763
1327454,0,-10344.125826202135
1329313,0,-5171.242089939634
1271620,0,-10816.463817514077
2129910,1,-427312.34059985774
3843739,0,-17901.398564935924
3508975,1,-5090.9536985228115
1961097,0,-6573.011292187299
696267,0,-14808.39792702242
669718,0,-14722.822366183796
2626535,0,-427096.12073828315
2024290,1,-2508.6525221336065
3925152,0,-11950.603596274843
1587663,1,893.0052470611114
2469729,0,-9614.187111516845
1465060,0,-8641.88847824482
3353168,0,-426359.9725182229
3104296,0,-13789.686601850095
1073851,1,-427243.0468890945
1874675,0,-2191.959869923423
2433728,0,-2740.947051810095
888394,0,-14627.552201274331
2821579,0,-13382.596468624808
516715,0,-1682.9531045162175
2751600,1,-425466.4923659754
296664,0,-27319.285211695482
2038660,0,52.83230771626334
1759925,0,-10091.594987836474
2549172,0,-7779.76406395469
597704,1,-14344.744909112167
1792658,0,-8909.20867036407
2898969,0,-33367.11155120029
2903651,1,-413.6293067341315
3503550,1,-9685.151583947385
3369607,0,-7009.264690946846
3178141,1,-17729.438076838516
761599,0,-10231.261222339544
969693,0,-21776.588574657293
2042277,1,-9175.909061651597
942565,1,-9775.6777081275
1486261,1,-15367.131217389102
3431305,0,-3994.053017037946
3779507,0,-5996.120653619593
1963356,0,-20310.056664303647
3241304,1,-9397.377877518578
3466754,0,-424929.7094331191
3688932,0,-3532.483275269327
1446343,0,-6265.7268686011685
2624890,1,-1202.2691045227527
2171318,1,-1786.4236757748163
455538,0,-426680.0850669951
418507,1,-8092.514979819533
353311,0,-427124.0923932585
1241742,0,-61776.72238251385
1553696,0,-2450.6622066959217
482999,0,-20296.8556173085
1623388,1,-14277.641358735234
481069,1,-4091.834615411984
555093,0,-6207.79871795823
2874648,0,-426899.5410070431
2135466,1,-427334.18916467397
1640285,1,1169.7455166350687
923243,0,-31469.944406531977
2045916,1,-5920.563115095591
415826,0,-10353.399837146731
2564697,0,-5492.4267046292
949569,0,-426360.1772292275
3065878,0,-1798.6751400889195
1705487,0,-425966.6143946143
3516899,0,-4862.128756475672
2120911,1,-5122.758795309887
1425165,1,-6686.795596206564
3306290,0,-1134.4681160770783
1412515,1,-16296.966729747026
2491627,0,-29314.356116615258
2964783,0,-7684.567519115658
3436459,1,1000.7090026324219
724724,0,-8152.912515396622
2987324,0,-1793.133155560116
3471302,0,-424092.39119957335
2586233,1,-8649.569981375338
1590224,0,-58853.71164524016
450977,0,-6919.641351457899
2792529,0,-4469.050558340001
3229323,0,-27091.130545098174
601548,0,-5732.471162541797
460042,0,-14041.749031628915
3163075,1,-4451.6521009204935
737537,1,-13663.280753950852
1150890,0,-5155.3167731560025
3328242,1,-20330.294632682733
1730795,1,-34412.131440033525
3850512,0,-23225.5063658761
970472,0,-425967.90425925836
3671250,1,-10769.205897360163
3282743,1,-3965.13302331479
3840912,1,-16296.048520409075
2526822,0,-7581.6592139500635
230545,0,-423184.05019082804
526096,0,-16811.740191863828
1161179,1,-424248.6226542628
2967981,0,-1200.3107105182005
2486780,0,-6599.473863366208
2428274,0,-8346.275314111137
2874160,1,-11571.68228115686
2601175,0,-21291.133398741295
969949,1,-2983.055067291774
2826906,0,-12046.878704497012
3676844,0,-9640.430910570176
602604,0,-1906.2296207762122
2825022,1,-2276.8210982848714
3422498,0,-14352.748502003331
1673086,0,-4976.092936924594
1846120,1,-427112.36725817714
1014706,0,-34506.05309368005
3249888,1,-19259.943082300702
1260465,1,-14768.41125722377
1483981,0,-424910.8555154623
2515781,0,-11332.499877721508
840035,0,-1539.7994455636226
1699133,1,-425933.317863945
1869881,0,-4094.059485818456
2673712,0,-10605.082110147148
2206877,0,411.4816929713042
1703113,0,-3956.240791536043
1420778,0,-2738.521005690277
3475323,0,-6552.449223978928
633336,0,-2668.5632943779146
2262091,0,-12644.277112839442
1444839,1,-1786.2726642705923
634976,1,-10882.51350792135
289238,1,-14715.731954095392
1760527,0,-15528.939305384116
3160595,0,-7643.228775528154
1281642,1,-10765.1083261119
2273601,1,-424245.3133512141
3305529,0,-22414.36932941955
1213252,1,-426334.4611544203
1341361,0,-20606.819597266353
1207246,0,-9186.682965969361
3724403,0,-17636.540657298843
2784904,0,-15538.490083373821
2227156,0,-10236.286508390309
2215692,0,-7189.65672035669
2234341,1,-3620.8719345495824
2040536,1,-14675.87043261406
1745701,0,-6449.270363371413
3372596,0,-9371.570250558785
556698,0,-44103.557286460775
2696557,0,-7693.324845489669
2896859,0,-11007.815863311098
3197011,1,-6634.096087402237
2594773,0,-11935.810188320533
1401125,0,-1999.2748807920186
471114,0,-22519.559010982604
3905913,0,-426679.8202835396
323546,0,-4305.4659534354305
1728599,0,-4449.105435808094
914234,1,-9205.378792468717
2064404,0,-24220.825134893425
806240,0,-10536.19288388828
2894485,0,-8641.554594037581
1779094,1,-4638.427407549411
3929147,0,-425967.1739922615
3112699,0,-16413.851419848306
1093427,0,-427109.7085621637
3914933,1,-3393.70800362249
1868075,0,-14037.96290712386
3104471,0,-1792.8458894181733
732576,0,-18823.343639451607
955108,1,-4854.455421885047
2735743,0,-7900.681135353122
1554922,0,-8345.755543361998
423214,1,-426745.7923890873
289368,0,-427359.4912162668
2574971,0,-8656.35834379574
1446857,0,-1385.5174451174964
2980262,1,-427098.57399431505
3407586,0,-6713.9808293911055
1217823,0,-3705.7071689701443
2577713,1,-427427.0586383599
829925,0,-12097.273703576238
1667418,0,-11884.36427295739
1821951,0,-3820.8072419731016
1665541,0,-10754.263677812187
566554,0,-425941.05631512153
669953,0,-7640.697056505219
845036,0,-3807.226692882053
1153247,0,-4255.569531968908
953131,1,-3394.7996372663274
2726777,0,-10686.406235233435
693189,0,-5492.322244231033
1204780,0,-9404.914871168132
329195,1,-34268.60619442882
2992767,0,-2201.0502803592544
2118823,0,-10866.82000804596
530295,0,-9389.611510264775
3059107,1,-14479.14906665788
1967512,1,-25891.888882193623
2713765,0,-14807.431562612159
3438385,1,-424923.2118608375
2735340,1,-998.0196653051127
1703338,1,-1254.5000503341146
2700075,0,-421391.9260954835
1096850,0,-426916.9234786726
328963,0,-9546.29215377128
3707715,0,-16812.101508362528
2031297,0,-9725.148029560087
3690317,0,-2965.6707510296474
1938767,0,-8458.812310896014
2935952,0,886.0501196726847
3489591,0,-424270.329097591
600354,0,-306.60401573494505
407739,0,-8152.876794700251
3472826,0,-2668.727808319718
2509750,0,-16352.493216341887
704015,0,-17869.198295230144
1857728,0,-10354.41922954653
1078107,0,-763.2417706378054
2844377,0,-5008.800849775287
3385740,0,-3705.9149775405435
3499756,0,-3225.091407463832
2457002,0,-10865.818863862029
237725,0,-2765.3116896775377
3319232,1,-8952.769535568244
2831088,1,-3760.540880809106
3495167,0,-1312.6807550858696
249772,0,-23252.163552172235
1233720,0,-10781.75758736003
404529,0,-22767.046087470142
1818378,0,-427413.2557418425
2244543,0,-8641.276733060971
208007,0,-17901.184061507523
675142,0,-13130.642801625683
2464936,0,-14780.881098232325
3909987,0,-10100.728950135117
227408,1,-42396.24673192572
1590102,0,-427434.8619848677
1142786,0,-10125.731629612812
680313,1,-18240.858147635518
2246399,0,-14364.905307210276
213950,0,-5946.1092842884755
1500370,0,-29550.353261689197
1998856,0,-427264.4435427645
1216737,0,-4139.123551643299
2890507,0,-22195.014891754203
891640,0,-2127.1612246988575
3144448,0,-23279.924833431643
3192342,0,-23016.9288539258
2188131,0,-9787.295921816722
306340,0,-6735.620112285041
3025649,1,-3698.178861199944
3738369,1,-424263.2659623137
807890,0,2114.777493974495
1726559,1,-10849.19772069118
3056890,0,-1986.838604143104
3149415,0,-3831.5705521188424
1936632,0,-10658.155956471091
259159,0,-10839.172417504455
1201934,0,-23140.13243328143
689530,0,-42447.458960460855
3228743,0,-19406.89943274976
818479,0,-19074.517192151536
2453593,0,-25291.231257687912
3703822,0,-5163.862522827814
748295,0,-5733.141643919114
1482511,0,-233.4762104418031
2021713,0,-6714.363150903837
2803874,0,-6592.867626256857
1643076,0,-18856.807585611492
1599863,0,-8481.307166345885
2921119,0,-1328.8794637967426
655714,0,-424929.7202664996
3098733,0,-424930.3606986954
2016191,1,-16809.564723824988
897406,0,-17575.497732678054
3719516,0,-15790.685819817174
446910,0,-10101.453958189077
3906432,0,-426680.3180439054
3227310,1,-31795.394050019066
1325274,0,-426926.5691070246
524836,0,-1682.1844172174822
1696083,0,-8613.255053163482
3174495,0,-427359.7252131889
1698393,0,-44469.67126816647
1283901,0,-2212.7040664832402
1209028,1,-2759.8358606221186
3431346,0,-425417.34935155907
703667,0,-427417.2390012204
993791,1,-8907.172463214014
337336,0,-16123.77631450413
1718085,0,-6524.7352229942
1540998,0,-10821.242633040549
3447365,0,-20765.762852336247
2972916,1,-427351.71109439805
3961041,1,-3598.5848404685416
1753006,0,-5428.045547865257
3922285,0,-425967.0737201801
1526071,0,-14351.45469254649
863932,0,-16219.55666279403
2164494,0,-12891.332346644565
3482024,0,1633.3371233015469
1508576,0,-427128.23466759344
3382179,0,-3013.415941300527
536694,0,-19903.61376370687
3460403,0,-1792.6652510579634
3741260,0,-5492.588544443867
3001465,1,-401.2266251075319
1364556,0,-8238.9118485453
2763660,0,-7685.0622197729135
1884924,0,-11923.045025071031
298400,1,-3188.5327705432264
1234985,0,-4401.4413876295575
3654097,1,-2716.4712752147116
3726701,0,-10140.47989120702
1374951,0,-5723.441187056649
1276164,0,-48655.29065193033
756922,1,-20098.834127322796
3681883,0,-427264.0438758338
919921,0,-22771.754963280455
1324450,0,-3330.834275241858
3861474,0,-427359.4855354285
1621092,0,-426668.9784987367
2475020,0,-2680.910777802671
321165,1,-9634.151309376426
2272735,0,-7693.303534260304
1520253,0,-426361.0755874974
1062549,0,-4445.05789862897
2222908,1,-37218.401074828405
872476,0,-23198.915926919555
1543233,0,-9743.859200526647
1129219,0,-3387.194458373898
863834,0,-427359.55111058115
2454948,0,-51941.46910028424
2179329,0,-426679.3502603969
986042,1,-6748.008802933411
510384,0,-15224.904896225817
2737223,0,-10101.563227816046
3160564,0,-16303.657427637121
2935896,1,-424921.7685082612
635022,0,-29468.72697206076
2488831,0,-14487.149266937755
3384095,0,-21802.378189144452
3861676,0,-23167.359653954154
1273328,0,-4370.274880674085
348698,0,-6598.577517946904
2902069,0,-15041.15807860683
3840479,0,-13404.895188495084
202741,0,-427270.45265071
3509781,0,-3711.9640182128205
3749859,0,-2279.6737369590996
870544,0,-3768.978031916379
1362463,0,-13320.745224859662
2176727,0,-8960.506727906177
1969251,0,-425980.416459359
3055500,1,-9398.328526798181
395101,0,-19266.87375914594
2438218,1,-7574.117837301202
3217426,0,-427264.14527604537
2517212,1,-18815.55590113344
645661,0,-6556.398127998081
384142,0,-29314.454305581537
3434933,0,-424929.9585139302
3934722,1,-425485.67706283124
1839422,0,-427260.49152233225
3074337,0,-1541.7073042689083
3750083,1,-6726.468515870911
1198658,0,-16224.314412490343
571741,0,-19429.07981061063
2532239,0,-15219.205267547262
1093269,0,-426921.8173086002
1487730,1,-672.3246832008257
1101123,1,-426910.0307860384
888922,0,-9586.703156977732
194812,0,-14807.142023304155
3016007,0,-14721.779957823977
3503446,0,-12069.968882111532
3079393,0,-2769.3635868825572
674724,0,-16414.36334665411
1602163,1,-427343.2608110147
1233565,0,-5861.4040078653625
877852,0,-10355.92683547785
1817013,1,-23239.809979984868
3479466,0,-33873.703160769735
2397624,1,-17708.59800398653
3492032,0,-4511.074178995845
1554258,0,-14486.460397051002
3249278,0,-3533.3855371467257
3354431,0,-2196.6402991203277
744410,0,-5302.122889599288
530398,0,-16418.634309630626
3434876,1,-3981.583535009773
195102,0,-7684.42927992215
3067108,1,-10324.16240098014
3916601,0,-1195.8963118277172
1097143,1,3254.174840624947
3328037,0,-6014.305213072305
2612660,0,-427295.4493327697
426856,1,-11518.546958348825
588771,1,-11920.7030058437
851461,0,-25259.649820577968
511624,0,-28551.316485678424
651612,1,-1330.6999424520443
810600,0,-425488.86555904493
3353794,1,-33359.58931640105
2126883,1,-21293.759809561998
2450510,0,-13129.648251561686
3024022,0,-5694.933058336614
1166792,0,-424257.26092490746
3496506,0,-247.16099706924504
878790,0,-29455.460396358663
3933306,1,-27681.625314611134
1830188,1,-31891.416690875514
1789188,1,-2755.4161828584824
2137482,1,-4394.035203599729
3376127,0,-10655.705938472025
1352328,0,-4852.753011313866
989430,1,-1893.8269027341369
2694004,1,-5167.468376011848
218562,0,-9730.4898081053
3959073,0,-36585.42086533011
1544581,1,-25175.67882562194
953866,0,-15219.711719069644
3361116,0,-7581.886252460408
3721928,0,-15925.949862199224
2706564,0,-6543.259163902734
3140210,1,-5944.977740810984
1161808,0,-22098.766049568945
1046173,0,426.59349294116316
2221249,0,1287.5236199031708
2227782,0,-424270.24300711113
285098,0,-3196.3117521219237
3246042,0,-14487.354771904105
1766159,1,3059.1097648605855
3116272,1,-12089.833877069917
1225353,0,-4246.242469267854
3845315,0,-34456.18851329862
3927497,1,-10606.92371440849
2875849,0,-10353.422915441146
3341788,0,-426366.0843977255
1616231,1,-426662.6131603606
3415674,0,-2534.676024102481
3187337,0,-16219.25459281242
2663630,0,-425957.2843934593
3458304,0,-7210.412896019882
605838,0,-23334.904854905617
3932414,1,-4820.415071777964
2590974,0,-5936.182324561505
1363799,0,-18100.86484307834
2104499,0,-427444.923470644
410185,0,-8152.840315425667
951481,0,-16812.028279442387
2690742,0,-1943.7006297556657
3776829,0,-7879.802705632107
1558020,0,-14277.093432926935
2577435,0,-4472.081594311593
2935734,1,-7118.973811754651
3532523,0,-426360.0202418202
436099,0,-6266.1309669547045
1283921,1,-427323.71485968225
3870671,1,-427256.75192088645
991480,0,-14392.947692122472
2852506,0,-13089.215229130903
2474616,0,-10786.770424560566
1022372,1,-31276.135096552338
3678179,0,-9550.559063443672
3711002,0,-12320.53679414342
2029905,0,-11615.409024460034
3847858,0,-6967.42837669983
1461852,1,-7575.004160821253
3477805,0,867.1072323370719
491703,0,-47607.974628944066
1138230,0,-8234.291853687298
474444,0,-2949.849054389953
3512764,1,-16162.043012793072
1663852,1,-427324.965097634
3165720,0,-5137.36473707759
385508,0,-9405.340070896442
1775285,0,-8238.405934281502
3714078,1,-14766.572766514726
3009332,1,-225.7716525961389
493603,1,-13663.203977241164
1905634,0,-2667.646010439513
1821625,0,-12060.54727205653
1118321,0,-10992.88185428761
2047870,0,-25200.817430818217
1791286,0,-1999.5010450829325
2518378,0,-2515.10348071761
2538693,0,-14826.779046764315
987566,1,-348.1513458589682
3666281,1,-1166.6623059873027
1166181,0,-5483.429742500823
1554212,1,-427097.86385523056
603984,0,742.7637943549154
2584220,0,-2269.5048797576505
3386419,0,-3008.338709195332
255375,0,-12065.009090621117
