sample_id,z,y
328800,1,2.179324940245873
2110815,0,2.1985675262092537
1519144,0,2.2644748434913944
1762432,0,2.3285544207601183
2130571,1,1.9244211119113475
223079,0,1.6036448836155133
3769679,1,2.1848566007195647
3480898,0,2.218447259694786
1247488,0,2.389633263741267
1688345,1,2.4254173694473855
3120122,1,2.0207402115526767
1950508,0,2.308095801832093
2024106,1,3.0006986216137026
475040,1,2.1119056174869297
1058950,0,3.5341685245036927
1779288,0,2.584702798034843
1360721,1,2.4880234270900745
1268385,1,1.9052068010139602
709669,1,2.544138197130585
3958684,0,2.21989160332907
1156784,1,3.3523559757653607
1523589,0,2.552268329887297
3841236,0,3.1213741868751597
2865036,1,2.0472131156344324
3717133,0,2.180647548970205
1558337,0,1.996634580249042
1324620,0,2.3055474436401546
1444159,0,2.8264178543340797
2482965,0,2.497301274795544
2679024,0,2.859062665754113
1322506,1,2.1275869693587337
825246,0,2.2397747633901384
3658557,1,2.296352377152706
1036487,1,2.3543086406419826
2880888,0,1.6544860485377124
1679323,1,1.6765570073309461
3056218,1,2.2596818890296944
2576015,0,2.5367513134351722
3139860,0,2.5975810626546716
976414,0,1.9716370389860465
3228113,1,2.259501774752378
3862084,0,2.075157712674366
904688,1,1.786479102924772
3801703,1,2.622729275277075
464965,1,2.571156020507218
671648,1,2.3609779079565607
204011,1,2.4753349885010545
571815,0,2.4812029580001567
1032238,0,2.638636191502347
2627108,0,2.2150714212422784
472458,0,2.2687062773152196
3205545,0,1.5095104341194179
2987843,1,2.265016431422375
2839963,0,3.136707502766285
3669032,0,2.162264098305598
652964,1,2.115661319688188
379219,1,2.399657097862434
3270982,1,2.501620299179855
500790,1,2.177089469402634
820806,1,1.9873334436692724
271309,1,2.5974402337095577
859626,1,2.371478422638796
3664171,0,2.6916723905251776
1275752,1,2.4660145325798712
1235277,1,2.15387726314806
991278,0,2.440062527522768
3385723,0,1.6281349816777981
1168180,0,3.621449024358138
2560137,0,2.5402431615341436
3778937,0,1.7647012741189076
1825559,0,3.094361301188657
3235261,0,1.9493210550096158
2263396,0,2.3339077277975533
2594597,1,2.2826275887721517
2134590,1,2.615674871318491
2685201,0,2.5656838116782694
3025714,1,2.128716055154738
2982034,1,2.479677736778202
747635,0,1.9878997613890723
2030582,0,2.8988206630046527
2459149,1,2.174397321833231
3041234,0,2.5301370407870634
3196133,1,2.3092474919699555
1273985,1,2.4383355485039497
2195282,1,1.716047204144421
1422855,1,2.4532326983894057
354545,0,2.3178431716747587
2947696,0,2.6937984048425494
974952,0,1.9715309183317136
2731034,1,2.5554868101520842
1772780,1,1.7461498240024427
2873990,1,2.115908646815812
3239649,0,2.0060403371224846
3428636,1,2.9719232707615193
2522517,1,2.838633710096095
2617556,0,2.2592015388703874
3076301,1,2.323371570419452
2219537,1,2.411801859295296
498520,0,2.577816126540331
1370480,0,2.412789496711801
2160267,0,2.248739568345896
3306122,1,1.7032019082800711
327116,0,2.8754344894774917
3084419,0,2.1019051071470227
3223201,0,2.3597288660006224
2446272,1,1.9867961531118623
3115598,0,2.4041112441589325
3343183,0,2.1841422012291063
565500,1,2.683526864766862
2891516,0,2.081380460006821
2255779,1,1.9507315969955394
1020624,0,1.8345025465055373
3725822,0,2.396426456828126
1106391,0,3.4046846149374557
3078121,0,2.5896001950840843
539976,1,2.30980140298922
2553291,1,2.1341030764101556
1562757,1,2.273131412349679
3528847,0,1.7916190252460837
1099489,1,3.3070066395914997
3233011,1,2.443523177064331
3083108,1,2.443477601414028
1069525,0,2.9747523828904012
3386167,0,2.85046290000659
3089124,1,2.232624696693739
3727446,0,1.7325930322803715
2634912,1,2.3734166179983767
2777470,0,3.0974136671989854
640795,0,2.1330598265355802
3217426,0,2.9432916671613203
2104787,1,1.9478273144425011
3722850,0,2.502353668618023
2136979,0,2.3940196069824142
1070511,0,3.1932782568944074
621428,0,3.37189912108835
410916,0,1.5937240587024684
3211102,1,2.2298170773771187
3129751,0,2.2145176302082135
2761025,0,2.196593697539585
2780631,1,2.323809307165973
3162435,1,2.2968361925419227
2393618,0,2.1100810498508245
310171,1,2.0715980294541443
862637,1,2.221150098387126
408767,0,1.9694137211788345
2967747,0,3.0013561134720628
549326,0,2.176213641577157
2593353,0,2.284299865404475
3213220,1,2.1693041268461526
3274997,0,1.7665537034273409
803574,0,2.076193407543414
327940,1,2.2220052656203055
998206,1,2.561283076163044
1422135,1,2.369604577274718
3864297,0,2.0596116375576132
1281545,0,2.1183553992185775
611788,1,1.9398543304862568
863266,0,2.1383726521851636
204199,0,2.195606999887371
1877638,1,3.55413924499324
1780493,0,1.5890670360249841
1421061,0,1.9954262418439415
2518378,1,2.1116637737273085
3489862,1,1.9029311279089995
3763953,1,2.359914793812071
3106700,0,2.6244777178218524
582612,1,1.9946750270162763
2758036,0,3.0689825765695105
2884411,0,1.001953808797257
3065267,0,2.045821511617286
3684738,1,2.789128440136087
2603902,0,2.2100029680596958
3668730,0,1.4789534548785768
2730618,1,2.180437672232758
623535,1,2.148021137772539
3335592,0,2.16400783863449
1201934,0,2.362555331736566
580623,1,2.298473984888964
1833879,1,3.1479381855992017
1122715,0,3.5794060032359365
2122774,0,1.035380977150684
1509498,0,1.751944017337623
3159480,0,2.781045149017386
1415250,1,1.7900496891082958
1586111,0,3.0701188051954733
430122,1,1.8850768477465978
1957564,0,1.3840225524451992
3213083,1,2.456951690819771
849622,1,1.8046313604041035
535254,1,1.9543164033706533
3781494,1,2.168522083850967
2905717,0,2.538797109889732
1194778,0,2.077945460971235
3808620,1,2.2282170008130895
660623,0,1.9891319235364002
628376,1,2.38587372903254
3323400,0,2.176509872284275
3651034,1,2.2113828985016184
2814092,0,1.9795464385376935
711269,0,2.0353966721399464
2480628,0,2.2245578702130393
1781678,0,1.87134771850273
498990,1,1.9723551834910922
1290394,1,2.3581618898376298
386552,1,2.3148662644106595
572559,0,2.1337004485276063
1580787,0,1.9022521201599238
2599548,1,2.1304826158716894
3524855,0,1.9044465916230078
2757272,1,2.3250022108984183
2202086,0,1.838929909354278
3361947,1,2.132042795925489
2140710,0,2.9392321663965455
3719401,1,2.185779661102303
3377026,0,2.4155558779396986
1262225,1,2.36501768763457
2230712,0,2.422652559726634
3760179,0,1.575003264933746
938612,1,2.3417993209896673
992400,0,2.679425952908784
668490,1,2.6520449762699467
959694,0,2.2087989181066905
2625066,1,1.8226467075774844
687733,1,1.910810353635303
3926987,0,2.4763542845255864
3959893,1,2.0170589381745025
3717062,0,2.4490544662509657
3440159,0,1.9870251927159703
3013054,0,3.006256118920521
2241799,1,2.1465148713421045
3173178,1,2.247744432858366
1845907,0,2.960351717638029
1828208,1,3.420477473084646
933785,0,2.240365097357069
2611386,1,2.964603183337758
3488595,0,2.4930862008905885
3314640,0,2.0964108128100274
422207,0,2.3596885564492727
262236,0,2.353972641535497
1560519,0,2.3590366051237646
1234987,0,1.9137116407668893
3772646,0,2.602016884319809
2970079,0,2.684627727001587
1814082,0,3.1587268098184658
2984479,0,2.513024936913322
328334,1,2.544113895931612
3314715,0,2.509599838234024
3092604,0,2.198621755376021
3165303,1,2.2886402889261874
3956306,0,2.6381101586890066
3298934,0,2.0996816108820218
2036803,1,2.323546017937814
1972948,1,2.1825156740281124
714006,0,2.275947849016382
1209028,0,2.0210477886706437
1267281,0,1.809239425095626
1397095,1,2.2187411654336286
2200317,0,2.6614727864060748
3733594,1,2.5696397037959975
499831,0,2.3714439966359313
2731134,0,2.1298979013010584
3743903,1,2.49214058634304
2938118,0,2.0050135584522724
1437734,0,2.6208242140360882
3916470,0,2.206212151092903
2895531,1,2.2029822913103367
2176652,1,2.298388510614834
3104608,1,3.084983738617504
229498,0,1.9265633730762395
2593087,0,2.0110121551980487
1832389,0,2.8547137056068115
3686869,0,2.4079021720276472
820865,1,1.9926926861214094
2755642,1,2.5310509381621924
2229283,1,2.0995498367363035
736876,0,3.0184203914272603
2649487,1,2.7584514057270755
2879418,0,3.0544539702653304
880660,0,1.4757003973986516
2037072,0,2.0331117822146085
513048,1,2.203151769628242
3085839,1,2.641296342016124
3791010,1,1.3452776415971095
1816232,1,3.640723457819367
2199980,1,2.0627112007912474
2163040,1,2.050607714111956
1359748,1,2.2413234760191942
325290,1,2.2551712049600745
3174095,1,2.661803139705058
3129608,1,2.125193343780324
3430825,1,2.5247069014545303
1494574,1,2.2691224574994773
2047833,1,2.555373908538957
292091,0,1.7937712944263642
349439,1,2.2521552606595256
595639,0,2.4007906732195297
2557543,1,1.7826307071878942
3368642,1,2.092291796720812
1794147,0,2.357742856304965
3164066,0,2.302136663972564
2904447,1,2.5473573352993357
3311081,0,2.920844410741541
3124561,0,2.0249821152274716
3655896,0,1.8102265281739067
2853976,0,2.1724875693127164
335370,0,2.5955689179418813
3729001,1,1.3262879101040514
3201545,0,1.671985077833101
2541244,0,2.0653633945322563
1696093,0,3.0394544582248013
2814140,1,2.573482962171118
3393016,1,2.3232814219263425
1493058,0,1.9138801839041402
1564937,0,1.7068478679475905
3737204,0,2.556226708464649
832463,0,2.0672419326186113
2592246,1,2.540741966588353
1045267,0,3.0163137755932814
2265852,1,2.016022608639455
2023450,1,2.200662760086159
3136907,1,2.4347086181839255
699579,0,2.2548905317571095
2641834,1,2.255179103804303
2785037,1,2.5861245255114778
3953769,0,2.487231734347886
1383005,0,2.6863201935214764
3714092,0,2.7806584755437704
2017982,0,2.3654345289450602
3015555,0,2.4275965716853545
2528262,1,2.4345925790973504
1424951,0,2.291833356210983
2879974,0,2.1035105029801753
880729,1,1.9530856409080584
2431019,1,2.4593370286986613
2399497,1,2.030598225399054
1391868,1,2.0052136876045146
3706877,0,2.391781150919508
2803301,0,2.132729727921782
1692626,1,1.8004014067072645
402404,1,2.2465065953944796
2983277,1,2.1416663935671276
3766430,1,2.0691957827416942
3858320,1,2.931467170849938
2967262,0,3.0748813026176256
2139511,0,2.299103538779381
1942416,1,1.9667004746533023
2507741,1,2.238085059418041
871079,0,2.778634560823011
3840654,1,1.9220773325264209
3396697,0,2.1078232089609545
1473738,1,1.8285138799860334
519408,0,2.2813740441805384
686697,1,2.480571216370238
2021878,1,2.08773565225699
230486,0,1.9728783825399352
1354642,1,2.3560234290976614
3779194,0,3.003394691231057
858774,0,1.9928071878701066
3344569,0,2.112485803675137
3101505,0,1.9363188691353121
3413366,0,2.3368944095215047
1910070,1,3.4658981002297367
3772570,0,2.179822073098995
2850467,1,2.2168502822342036
2146202,1,1.970391555859312
2917149,1,2.0797358829040444
2411797,0,2.4487757968810633
2802789,1,2.4066334471063455
494042,1,2.2967108597057346
3118717,0,2.829978400145506
1579969,0,2.4220398676728743
2540518,0,2.2817522580113487
815750,1,2.673135555109219
2397162,0,2.3903265840444705
2269884,1,2.340202998647052
362646,1,2.2180778571830166
3488745,1,1.442582814173094
1027789,0,1.9518154686286953
1910584,0,3.28144266882387
257435,1,2.1564649457772505
714282,1,2.094343726499281
3393362,0,2.834825034509949
3501017,0,2.9762207005491605
2519046,0,2.0852463615201997
2567526,1,1.9988421818798345
1418747,1,2.2878365094526667
1813072,0,3.3783141856950305
3444536,1,1.8620397312997727
2474802,0,2.2811361526415985
1740613,0,3.2491153996018296
473961,1,2.3148395884320667
3919012,0,2.733267401307468
3666258,1,2.61087975564711
420179,1,2.7254805215022033
3240975,1,2.2996071039110646
1209114,1,2.6872076058856202
3044745,1,2.52342147244727
2104939,0,2.132827925372275
479973,1,2.4710066658609082
3530007,1,2.2318054626412476
1073248,1,3.3799466659921253
1595429,1,2.1812842042168104
1319760,0,2.4312183164384193
1092728,1,3.3888445073056044
2676051,1,2.7995481903913526
1150515,0,3.6611865080625865
1790426,0,1.8858110563332795
2186329,0,2.297898842398061
1739936,0,2.8812180473370135
2742593,1,2.046142565121672
3312053,0,2.010262503158225
2179329,0,2.813649557791014
741371,0,2.3381860879133236
3111045,0,3.036886723276998
200083,1,1.8839374290537947
3877236,0,2.2884857035384876
2278171,0,2.4540752586559536
3037865,0,2.886068674017114
2140927,1,2.4794033917013385
2698024,0,1.726323835807365
1250587,1,2.3255531984197306
1759327,1,2.680498299439797
1212010,1,2.1940266879471433
233969,1,1.8791987338686433
706108,0,2.2596023636244937
1416498,0,1.375538384453961
1197736,1,2.076281276650604
3271368,0,2.3540936404751105
2676123,1,2.561514092607733
3022863,0,2.176499400558297
1435057,0,2.4423370304065073
2808183,0,2.392148972374994
2890629,0,2.669603786151027
1691343,0,2.5603647504140845
1954110,0,1.9105759619824636
483176,1,2.4791691408165493
295106,1,2.1373426100647475
3357835,0,2.0574209189789188
810216,1,2.24123101526903
2686349,1,2.4388270869061346
1412559,1,1.524595587893397
1952153,0,1.975884446993583
2490356,0,2.6561045510913295
2449139,0,2.232683620172419
1953259,0,2.4675035747853533
1948178,1,2.437899879764847
875394,0,2.3264386284217693
3317617,1,1.8440653211810034
3676910,0,1.5903451894305514
317510,0,2.235284839640831
2113455,1,2.460493314275255
1722050,0,2.2062529629298675
2703099,1,2.5420287871791314
2149671,1,1.8443722046705076
3756119,1,2.3633029182559
3697415,0,1.8811682802734324
3006830,1,2.205613660958751
3756488,1,2.427373159081585
3456817,0,1.5650606045615953
3358396,0,2.3684122514466135
277400,0,2.106491440372947
2225632,0,2.86264418370619
3802857,0,2.4299390453375467
532765,0,2.093283767854449
610466,0,2.1688547916143848
1489106,1,1.8451265882200232
2447434,1,2.157562278513872
918821,0,2.240836243171362
996725,1,2.307940939495667
3390722,1,2.1003593843026866
2268236,0,2.358647338535901
1785412,0,2.333504523311414
3095680,1,2.026257432549544
1410244,1,1.941873491113174
3254612,1,2.0841651372530663
285010,0,2.1047100429059697
2985744,0,1.760228975416842
3407586,0,1.9514434473434052
1577017,1,2.192610288125036
347381,0,2.443065701153418
2899809,1,3.0108551053657413
320711,0,2.2818280495077987
3442645,0,2.7737093698967574
2277902,1,1.9819116156744818
635287,0,2.177782566010342
376507,0,2.409081343171417
3531791,1,3.010573980280075
2709576,1,2.0341541220186863
3025162,0,2.4640800870557533
1496082,1,2.3725448496925465
2186344,0,2.374513353336507
232072,1,2.2972972956491304
2560475,0,1.7785471411479556
2198853,1,2.391881725570411
3236226,0,2.273585560846241
3889822,0,2.1670063210775807
3680261,1,2.3806246939534517
3164905,1,2.1372780945522183
1959580,1,2.4898696343292976
1171220,0,3.1987302923457563
1318066,1,1.9089902327194277
468986,0,2.685133338232972
681174,0,2.0640690592491504
1777238,1,1.9724955142540175
1333183,0,2.5004311370508128
461182,1,1.9675620527637039
240306,0,2.730583127540394
1914618,0,3.5809667885322463
1006242,1,2.091466969678047
1495443,1,1.9935756911297267
979960,1,2.739343648017342
2238484,1,2.174762378681914
2855646,1,2.104572908948588
531924,0,2.245402576720354
2889595,1,1.5567425574927098
920981,1,2.6114834487478453
1084989,1,2.7997883593657167
3801121,1,1.9337025387816478
2521947,0,1.912900387722573
2528016,0,2.6213111067728962
2528455,1,2.0163090632915397
1198777,0,2.1822053399169907
1491626,0,2.5944079660819557
3832167,1,2.742024294941661
1768567,1,1.8350859398602084
3326443,1,2.27031329694853
3129319,0,2.148320477649378
1974016,0,2.0049247758223356
280596,1,2.378658231848165
3509857,0,2.149580976550342
2624932,1,2.364720404768831
2597698,1,2.865091743628867
1318921,0,1.7392253195207537
1623171,0,2.3059468428699628
2567736,0,2.066084360371424
389325,1,2.1116715664465944
840069,0,3.308857490808503
3440473,0,2.2678287280730767
1372811,1,2.4656438176931985
3285707,1,2.615356974699308
2498828,1,2.1048241909865837
1467278,0,2.4473913043308597
506544,1,1.8238364608872804
2471160,1,2.5701807639695984
1885515,0,3.5199518980687747
3784254,1,2.2414940363156015
3130589,0,1.8822848937522967
406041,0,2.249274188138532
3745345,1,2.3081883479888146
1619386,0,2.237221423242463
1227872,0,2.3421807909106604
2991441,0,2.405983448366266
2635378,1,2.9570591028410016
3240327,1,2.3128790746539845
2561495,1,1.979488709844665
2261786,0,2.2055490696385256
343947,0,2.1258463785660417
1703113,0,2.410947597538667
809209,0,2.151673081683854
1085779,0,3.339525726581373
1490519,0,1.7277006693544725
1205423,0,2.2107609366429966
1677855,0,1.9866855698705626
1989591,1,2.4734269342958384
1493989,0,2.1938298623124743
3772844,1,1.298089934901315
939659,0,2.324203054570526
1844383,0,3.768702361956675
3842409,1,1.9671918167887887
2605251,1,1.5664453665095772
436497,1,2.2571952638355017
1792045,1,1.764707047342543
2924114,0,2.8697127353947813
2721918,1,2.5205536236878996
3526813,0,1.7729891206310067
260792,0,2.158545072439063
815940,0,2.6137876570602705
1238744,0,1.9818963607469269
3132817,1,2.157113220040934
2847972,1,2.2762951729096446
3418883,0,2.002200924244769
1680444,0,2.7806821440143636
2610037,1,2.6795179945258085
538103,1,2.926600197068616
2763552,0,2.916830761955437
742703,0,2.180188906207708
1962590,1,2.2270406920257844
3410485,0,2.88973456175535
3117515,1,2.4126026400949714
3365639,0,2.9990938852094877
3163336,1,1.8653041603142628
2517490,1,2.1268529951076105
1041520,1,3.1573643354860286
3290579,1,2.380847888490226
2186175,0,1.5882323733502481
3339025,0,2.4276311166152014
3465732,0,2.659478739531299
1504989,0,2.8359552602864024
1597171,1,2.5591139361977184
1288313,0,2.2628741049753014
1416320,1,2.290890094886489
2769583,0,1.1987665483432486
1042398,1,3.2589904544514128
963103,1,2.551795548192939
3669372,0,2.2095504812724807
1888645,1,3.5118542973483082
3251335,1,1.8300838626856202
2616924,0,2.2138287440155757
1068937,0,3.194993365584151
3070914,0,2.727487500328633
661153,0,2.6896588662985295
1991831,1,2.342115676012007
611265,1,1.9954676666259266
1225641,0,2.3010744772728
3046575,1,2.0086500647520085
2017155,0,2.3883013448281565
2586313,0,2.1603347628565954
2783203,1,2.3685518863721033
399713,0,2.689943213949444
2060467,0,2.944473557385191
2197841,0,2.625424670224896
2793504,1,2.494637884864048
1495566,0,2.0669156259097243
1388897,1,2.4349457127366163
1008665,1,2.562839973750095
1743125,0,2.204137677621916
2273824,0,2.526011006776192
3876075,1,2.319722410434182
263185,1,2.2046453005930498
914812,0,2.413801136157482
3165920,1,1.7568191383064211
1267952,1,2.4371304758180123
932215,1,2.310097330456808
339242,0,1.9589849849494108
2148736,1,1.6125159775750024
2022640,0,3.0051841828784087
551455,0,2.616785839163613
1849393,1,3.0927998442793494
3068664,1,2.6052364519156015
320426,0,2.2413729097567145
3780601,0,1.774473776298717
1829757,1,3.3992279166953834
981260,0,2.0922260534707773
2784797,0,2.3496710504598655
1014303,1,2.5011061642508907
1585387,1,1.864404158897814
1751094,1,1.7889013048172542
2982043,0,2.2121546810039954
2702446,1,1.9948841275543148
2471114,1,2.0019823587907477
1233996,1,2.3156398401816114
2598568,1,2.528379435137003
1672797,0,2.1680437825033034
1351518,0,2.4472001887846955
1515953,1,2.187357144475924
221352,0,2.686891442326316
3525048,1,2.113724650870046
3433907,1,2.2605591389289446
3219705,0,2.8455571671473168
3528352,0,1.8329924540305862
3283043,1,2.026359911492473
1443861,1,1.872935940813679
965504,0,2.661608264944091
1633910,0,1.8256004854228385
3868075,1,2.2236691989957924
541116,0,2.3085672756382287
3735014,1,2.274010531277165
986296,1,1.9202208945841006
1683860,0,1.9365323361030229
1167797,0,3.169163489461374
1268059,0,2.8270132957814607
3877108,0,2.2918795299192944
3311610,0,1.6611729452655213
1910864,1,3.503813512807484
304762,0,2.3712861591057646
3950401,1,2.124628400078269
1811976,0,3.114261031037794
2394024,0,2.8501655304421685
390880,0,2.2289548183378467
503973,0,2.4376962661734414
2804859,0,1.9591848299558978
2010570,0,2.224866962696759
3898734,0,2.0039348948141047
2887363,1,2.8898447947343744
3094517,1,2.1417232613146475
497741,0,2.473099535510316
263773,0,2.613898070710633
1131362,0,3.441718391065346
2155664,1,2.469028231259046
2905796,0,2.0723830171493893
1230600,1,2.194851126763196
2702445,0,2.8277998921207033
717427,0,2.2812063837406726
873492,0,2.70740014694835
2143406,0,1.959765024594026
2478655,1,2.3688413495666025
2717661,0,2.1314827546750355
336540,1,2.7416751371724057
2900829,1,2.00171467599273
2117103,1,1.9432807591435288
850992,1,1.887358213675509
1715748,1,2.296079136069252
621360,1,2.262037634752953
3837226,0,2.228067132992945
3031325,1,1.7098271774531497
1146356,0,3.05392866936638
3239188,1,2.0603602771540923
3233969,0,2.0461126643516927
3548693,0,2.775150333154191
471862,0,2.0533361805191284
1279444,1,2.575812346203602
2935512,1,2.146945211512872
3401025,1,2.192265588499125
2867475,1,2.2789097339309152
2127380,0,2.1291431817549866
3332366,0,1.6766991888682774
210118,1,1.9400008379178657
2180890,1,2.7252132990280136
588258,1,2.3556556975629306
3408266,0,2.4955179013798072
3312127,1,2.20752772108698
3370710,1,2.19790554924896
834414,0,2.7072032745932035
591500,1,2.362063545144816
2905847,0,2.644402991037216
2592691,0,2.787893309101064
2899715,1,2.248727030683136
3860543,1,2.1374099744576243
3956536,1,2.098947671722019
578644,1,1.7112217152156481
893671,1,2.0960035133825747
2661344,1,2.30060841135728
431752,0,2.604088569683519
351369,0,2.740528315587941
2896213,0,2.2222088653611216
2599460,1,1.7394551049038656
470744,0,2.064513851012121
2434873,1,2.197733763915528
489372,0,2.060869938631659
2504771,1,2.1233720165199648
1105810,0,2.9621828490965827
3803365,0,3.002961743957258
2199922,1,2.9603028236575053
3796773,1,2.2889268524647925
2755173,0,1.5441523028838544
3145057,0,1.402957335844296
3139389,0,2.2970556554598915
422604,0,1.8883926491772343
375812,0,2.321633872227176
942171,0,2.2879119056702333
910625,0,2.3484430586854836
283407,0,2.5898083004287358
2503900,1,1.6431673622554144
3851854,0,2.6253747917088286
577500,0,3.1510288030221
2549695,1,2.198422494158035
2402262,0,2.870556184731853
3539111,1,2.313607951260231
974665,1,2.0389402376054693
2408231,1,2.0771214169502006
2886660,0,2.3809464579936543
372539,1,1.693924790245551
2787161,0,2.2557873341309786
515043,0,2.4150716111597035
598770,1,2.5044816650452435
1171029,1,3.3736652439559855
1103668,0,3.2092169468233074
3781467,0,1.739158448072925
1707260,1,2.4345562057841343
2043524,0,1.4576917068975423
1987601,0,2.002585840662496
3181101,1,2.1929910509849218
1905634,1,2.8954022904420693
1605037,1,1.8246411566072096
3051613,1,1.5538855114571546
199694,1,2.135297900171654
3095274,1,1.679218145268148
3851437,1,2.1626031327720767
2274391,1,1.5737050247664948
2646057,0,2.2144630699562007
2482003,0,2.195560755657117
1431566,0,2.303010441197909
2463999,1,2.2764425172223124
1206474,1,2.2599400545187005
728545,1,1.906688998672644
620057,1,2.342861429309471
268494,1,1.6531735178053855
194527,0,2.841809893078114
1373411,1,2.3052085463206
2032077,0,1.8654934284905726
895264,0,3.0312612214338555
892852,0,2.945015534824997
290319,0,1.938376535099073
1998343,0,2.1406054518661093
367982,1,2.507023346584935
829318,1,2.902011422072861
1768207,0,2.197600982761043
2537996,0,2.448819008012114
3473402,1,2.4536075966718975
2474039,0,2.3504298697034733
2670298,1,2.5904422513901317
2268742,0,2.3615632349285587
852087,0,2.334508725429095
3927016,0,2.4110235506261377
816068,1,1.822497452907556
3317672,1,2.0490667519512127
1459548,0,2.4074440486629993
1713983,1,2.330297481621271
960323,1,1.4185538369416
2061500,1,2.354985815841746
1301679,1,1.8249926894164505
2784113,1,2.3323652640266586
2192856,1,2.8999099237049903
2197762,1,1.9987444866794886
2967764,0,1.6021606548053509
3286159,0,3.2206499909606356
1905438,0,3.084438390510051
3955629,1,1.913054635811038
2121188,0,1.9323292194913158
1668755,1,2.188335967882708
2273617,1,2.655314310415494
1052646,0,3.246996588902419
2588733,0,2.2730776210704042
990474,0,1.8830972398618289
1861442,0,2.9835242083635127
2055466,1,2.579556116777992
2460187,1,2.0875122467947036
667152,0,2.7284848844003307
3115797,1,2.1996282731347203
3481025,0,2.306595470512787
1375801,1,2.17388184175724
727267,0,2.1896915439510924
2152235,1,2.1477263908838116
2024461,0,1.8597335454822592
753282,0,2.305322681758901
3486332,0,2.539371440752335
1263225,1,1.9970762629783652
619893,1,2.95027464767135
1527581,1,2.0377888096612238
268093,1,1.3928283710971856
1470469,1,2.411798451058046
2417650,0,2.510924856952592
1898565,1,3.0950389512654857
2137757,1,1.7304861186817246
883844,0,1.9190590240909915
2887349,1,2.2067387994884955
2148094,1,1.6873994200682796
3845522,0,2.1867733348156015
1777915,1,2.512041481570633
3390189,0,1.7212478299351957
555237,1,2.369408034482409
1677109,1,2.4900192482791272
2779865,0,2.067951299083112
1390269,0,2.900784285159189
1353465,1,2.8124248913592784
3792477,0,2.4108035143582573
2545380,1,2.33781566825775
3122871,1,1.6556868018209903
979128,0,2.725844439408544
2538583,1,2.8849181895833333
3103717,1,1.8830613334748225
1555073,0,1.8933842817900894
2560123,0,2.4175068794441184
2202699,0,2.1207572228502234
2612746,1,1.936633241091292
1398513,1,2.205010902540436
1438587,1,2.65216264439544
3762159,0,2.362786039470946
1599319,0,2.6048614930376917
977764,0,2.1604880675302547
1689988,0,1.9934615050867375
560523,1,2.3975813863382176
1900735,0,3.0558413478811537
3864227,0,2.20030235588198
2145143,1,2.6515674637316513
941372,0,2.09841538216183
3152322,0,1.9141361942754198
3250801,0,2.6239866682002297
1559476,0,2.6718377078661653
3328424,1,2.591136656113593
1161944,0,3.317988806124234
1706827,1,1.3247597078850597
3677167,0,2.598940747355257
1373695,1,2.2468233177946138
301947,0,2.209896817080045
1244244,0,2.1531445131747384
3430275,0,2.2644862900201193
422370,0,2.400621895238348
1455247,0,2.055533341042966
1841761,0,3.244545691766098
277880,1,2.1516889545815325
1601852,0,2.809188912807789
2122404,0,2.70882935478855
1531592,0,2.348483046179732
2601150,0,2.4985230476603317
1833942,0,3.5027694816013084
1846969,0,3.6566528185949014
1556085,1,2.4632027223888238
1944097,1,2.623638632054072
2908154,0,2.488641150737008
641966,0,2.5462066096935665
844097,1,1.8816947992605666
855224,1,2.2736269896100203
1968295,0,2.2085685682527503
194988,1,2.14349998261386
1465299,1,2.4573164407108723
747268,1,2.2783913597915944
3730512,0,2.1493897515589206
3689406,1,1.9062301096293301
3180951,0,2.8577986384637
3120988,0,2.148880201101548
2468162,1,2.3125661384404474
3779002,1,2.4387959858858306
1714366,0,3.245353916235887
244926,0,2.695083290574908
260846,0,1.948522472467265
3463185,0,1.9178149961682014
2209994,0,2.331182207112677
330829,1,1.8788764916731497
2752977,0,2.1807312490887343
2898977,1,2.398755914604616
3686687,0,3.6439291832299667
1091652,0,3.161541996338581
567516,1,2.13608286800145
1438572,0,1.6593755594498156
1966780,0,1.9708554126001459
1080900,1,2.5559330696883737
2264118,1,2.4267732184323307
1481826,0,2.4398842177902194
3534670,0,1.9555282834811796
1343222,0,2.2948912198308236
1890391,1,3.2906704669973728
3732073,1,2.164639360394258
544381,1,2.36259078181923
3731673,0,2.2614829525068108
1035148,0,1.6279607937978007
313647,1,2.2071738103142464
2110657,0,2.0780956703914626
671292,1,2.1426441660196365
802354,0,2.7650257397408873
1542387,0,1.304002719100808
3912343,1,2.1897649568927644
400300,1,2.299786453492103
1348390,0,2.4436990165171326
2680817,1,2.310429623889475
576313,1,2.4350835957751364
2237488,0,1.8112233094048764
2542968,1,1.8664413201890615
548622,1,2.421639850325436
425795,1,2.5130025061697667
1425288,1,2.160857812917538
3782444,1,1.8710045501940833
2748143,0,2.710111590403764
255374,1,2.363848041355347
1858447,1,3.003648768714763
3462216,1,2.40881917757906
2812556,0,2.3279814010383193
1423816,0,2.415429807981162
535113,0,2.505604322808202
2573940,0,3.125042835771561
1436700,1,1.7360331032638001
2454906,0,1.7782412780904135
2663274,1,2.2642081745173686
1126320,0,3.3559487065711595
2055161,0,2.17263452681076
2206591,0,2.0576328987175243
2154665,0,1.973470863541879
2557100,0,2.4470261538379967
434575,0,2.2625624202293024
1864550,1,3.265733453790791
526026,0,2.364285064372495
1885564,0,3.1065137552090447
2604685,0,2.627370442992532
3757471,0,2.538316580945571
1682747,1,1.8503954992903922
3709833,0,2.1338781635530015
2764201,1,2.088946826132531
1109365,0,3.1822703128256107
1082885,1,3.0739458046085035
3045570,1,2.3923892958018644
2209229,1,2.145063741645049
3371231,0,2.1218869338642046
1240700,0,2.549168271797541
655082,1,2.0316507591266175
429920,1,2.5907765743177573
2854533,0,2.1422518050358974
698834,1,2.4719162065151092
834985,0,2.1255582405903417
2718261,0,2.275007254679799
2156123,0,2.3396826759127802
1434507,1,1.8935387034387299
1873926,0,3.2975608730972006
2995773,0,2.511999202857964
3494298,0,2.232302091178029
3369770,0,3.0752789565113376
2789362,0,1.6764634649309693
703662,1,2.365833200445026
3333727,1,1.799744082790202
3144527,1,2.5194455644079046
2139186,1,2.2121288770768626
2783418,0,2.0819652567744265
1294718,1,2.2443519856659604
1723297,0,2.1105362953519036
3288038,0,1.9122749607370657
2787335,0,1.571318467057318
634152,0,2.369574015613475
2231650,0,2.2012542427714927
344638,1,2.380345160071873
838828,0,1.4658803384513828
2463918,0,2.151390897561619
966045,0,2.4861892501913117
3326832,1,2.0515065675198842
3317408,0,2.751357607029162
256007,1,2.381831025260926
590554,0,2.08289844541413
1970665,0,2.098340837101844
3470783,0,2.168534204581193
2187852,1,1.9190271031054236
3944940,1,2.1582344954103356
2112414,0,2.129791878252665
662264,1,2.5583470836519866
1514233,1,2.1912328831379657
3761331,0,2.224508958590279
900036,0,2.988331186859951
1690951,0,2.375856840532174
992035,1,2.218327661673483
668892,1,2.500563039698779
3155240,1,2.1697794539210595
2913183,0,1.7785467807554634
3471849,1,2.183671419778065
2397800,1,2.1371006662768286
3155078,0,2.394938417479741
2056444,0,2.4297434985669333
2474293,1,2.937004755903107
352584,1,2.154984959906692
2719363,1,2.4769219380227208
310491,0,2.2924356191935162
2412575,0,2.2831926318244657
577833,0,2.3775188043400126
1880539,0,3.2504825579138577
3196509,1,2.805714168823194
2184599,1,2.2785072001776703
1037900,1,1.9894680175247454
407469,0,2.797328379268524
576656,0,2.225459557423099
2940023,0,2.466711501025095
445356,0,2.6265604088929813
3939064,1,2.6482394683668415
2392829,0,2.2053755282490695
406221,1,2.4180362728130578
2925814,1,2.921048580380053
895250,0,2.912565850864945
449333,0,2.469229678714164
3699937,1,2.5275494550712634
3519021,1,2.128583425956369
1760527,1,1.5898215204480781
1807523,0,3.4773971627147384
3497934,0,3.0028060288394434
385038,0,2.466654471912425
344747,0,2.4511479110479613
860731,0,2.9372379164576707
1726720,1,1.9663150005540175
3404104,0,2.720882787451405
2639902,0,2.4929226081434237
819323,0,2.083864963319401
1834454,0,3.3242774334649376
3666859,0,2.2296842444017666
3293618,0,2.477996459018755
238706,1,2.7959922229698293
2413664,1,2.490319922481604
466824,1,2.442342437169274
2811122,1,2.0820905279108004
2801935,0,1.9673151103644497
1618898,1,2.7129632139299265
3371587,1,1.6373140997879823
359901,0,1.907670355544227
3031644,1,2.2549035999871774
3124863,1,1.9241247598419209
872726,1,2.2750656782025063
2167383,1,2.410824033879697
2830102,1,2.0003617521859796
274755,1,2.324772452357595
3150856,0,2.6233800863406804
2558064,0,2.065856149595097
704043,0,1.694148568458353
1341631,1,2.254396349141271
237774,0,2.2067806603192333
2821287,0,2.484614198699925
335142,0,2.227596032471028
1712286,1,2.433698944713115
3542269,1,2.3692300869450604
3262573,1,2.1881119291751845
3342003,0,2.124776208675323
2425992,0,2.4090540959628313
691044,1,2.06678435960411
2576637,0,2.4710922984653325
3750960,1,1.906414598819042
737951,1,2.0178997944927874
636253,1,2.280035832905758
2236604,1,2.4531549195921984
3384271,0,2.435653447153002
563977,0,2.2772321776585347
379786,1,2.018552597738503
2858214,0,2.813975306655783
2687577,1,2.4083307255660946
3734746,0,2.5248048146322133
703602,0,2.5093140377337653
2876379,1,2.463698040983436
1212829,1,2.720686702071897
2508905,0,2.1755641246096347
2910228,1,2.308110865418148
824630,1,2.471397946568015
3684991,0,2.2664216067097254
1755357,0,1.794464060961753
3533515,0,2.0159559928629607
2456739,0,2.4627855509997496
3497100,1,2.7825541155110654
3704264,1,1.722624121475179
3201668,1,2.0308670427717272
527618,0,2.8969854509011386
859115,1,2.298340614576455
3460038,1,2.0570768235883006
1483201,0,2.644448424958469
1728128,0,2.477321610064656
2639677,0,2.756792548129634
1147957,1,2.9774382500231518
1197843,0,2.355069842600946
1410452,0,2.7628044721643286
860397,0,2.367058540475142
3051657,1,1.9405977927926552
2744810,0,1.9622397009929118
1461998,1,2.3180627617874645
3096923,0,2.2245672370843304
2555674,0,1.96890371449059
2192142,0,2.6495934272481176
3471963,1,1.9709959435248494
3177439,0,2.944483522596769
3883309,0,1.9762787939169326
3795342,0,1.8183553549985343
1587520,1,2.6817596260841094
1717125,1,2.462181840077539
2513049,0,2.6627002342213646
2241017,1,2.5369505591335426
1534776,1,2.0303779396894437
3908302,1,1.964195330718978
2919444,1,2.0147852753334687
1436357,0,2.7024655191570552
3956240,0,2.890197360287319
218510,1,2.355444088934336
2243958,0,2.087999471941349
2159988,0,2.6232392935850366
2986872,0,2.69277301269899
483066,1,2.262036295762742
2874413,1,2.079042041818765
1374590,0,2.2842173058850697
2258609,1,2.2611005508708857
1827201,1,3.193747005879548
1485118,1,2.3375873596250742
2846711,0,2.7564499971020635
865947,0,2.4111632925528426
2412557,0,2.3509663943302144
855848,0,3.17703610498897
1115483,0,3.476469418294842
3290131,1,2.4286514778749475
2046305,0,2.1829681004703545
1075353,1,3.406294544673778
2815561,0,2.156612978232868
1864243,0,3.015490450598759
3681751,0,2.846684533738224
2150701,0,2.5268067323426413
1881647,1,3.3825714282746007
3688932,1,2.3798910929969597
971069,0,2.882099180026462
3655068,1,2.7301131904236
307503,1,1.846134688701409
3940911,1,1.8564999994311324
3794294,0,2.787699629011346
1489840,1,2.3705249466845943
1610289,0,2.9872712599740465
2661506,1,2.303956526808554
3059644,0,2.194869768829545
1413849,0,2.3789600378519453
3388578,1,2.125912461480635
1539392,0,2.884614090117041
2549230,1,1.886515957789186
1985772,0,2.290629462480917
2108787,0,2.2740324166271644
2234531,1,2.530477649001713
1550202,0,2.7311028902526924
319323,0,1.8228503416007171
1413732,1,1.7927865318309875
3060210,0,1.997399351942149
2588063,0,2.142621816666158
1302455,1,2.2776875217162873
2716243,0,2.2179621191415073
3293566,1,2.3991394767023797
837118,1,2.3236390198685317
716782,1,2.203491405863503
1193316,1,1.4259462442177187
380564,1,3.155833995434988
3837729,1,1.9813788014464588
2913980,1,3.066841983521973
855914,0,2.46290982853257
260998,0,1.9105122405206132
1408913,1,2.5726900409015
241533,0,2.2565552186343663
2572735,0,2.802300517989087
3303447,1,1.4993135552096206
3489276,0,2.1730217029149834
935376,0,1.8330370036911527
2612669,1,2.3366639840192853
1025879,0,2.451124705593572
1750815,1,2.2176138840039363
3456343,0,1.9978283122822842
1520245,0,2.1926587121213204
2279584,0,1.7559704182059364
1241742,1,2.23043915074679
3949686,1,2.376089746497837
3537628,0,3.111860918976162
2700813,0,2.1414410051226502
3853357,1,2.508664254541994
2543137,0,2.6093259078623348
2465579,1,2.8720048318691376
3517295,1,2.377524075455442
1549658,0,1.770514139494652
693885,1,1.703241145606232
1424186,0,2.0942271061942965
2561225,0,1.8794217505596142
2756815,1,3.2469483642322152
855155,1,1.918846915590353
1204664,0,1.5533653707603574
1464060,0,2.298051914814834
1121290,1,2.7785442596934367
465030,0,2.084700517260296
2858937,0,2.379215443902659
2628518,1,1.7176986261915572
3250465,0,2.0208388233836296
1404967,1,1.9369668837474838
2113423,1,2.371464253596991
2723317,0,1.781538925986331
2750549,1,2.563812061945104
3255315,1,2.0050650682308895
1549849,0,1.6135386538805303
463095,0,2.278539333786182
2033833,0,2.3555423902931736
3541314,0,2.3330653692446
2772438,0,1.8234867222479143
1337452,1,2.391946385428255
820156,1,2.693143416498145
3223825,1,1.1410794676701643
1340895,1,2.9607270611886114
2926010,0,3.064989551423173
3446769,1,2.3741687599464245
1809620,0,2.9759716401113727
325107,1,2.2069076154350777
677838,1,2.4788887656848084
2210943,0,1.832072764453064
2862977,0,2.179356367578662
910873,1,1.8889408971915531
364654,0,2.533977929331582
2741755,1,2.169920969129189
3929358,0,2.522946024991637
1394183,1,2.125255888872253
2678455,1,2.2795377035669957
801339,1,2.504408362684444
3802207,0,2.320082001532181
214617,0,2.2855530022903396
3783520,1,2.150085481716224
3877323,0,2.279357191723651
2201037,0,2.08888638093459
3021008,0,2.1498720681689316
2817079,0,1.2933189151464117
2804837,0,2.3160454966283033
3477359,0,1.9557209373440474
1193790,1,2.688617971739343
327833,0,1.8062599940500323
1880021,0,2.9418921307109995
2168430,1,1.4996654873449362
2826782,1,2.684248801511763
832143,1,2.3132614834158405
2518486,0,2.878848981030266
1967964,1,2.3090666010887015
3185875,1,2.508017175023549
3002751,0,1.9549095327179309
2624003,0,1.7743252080833247
1644413,1,2.352477832481586
1311702,1,1.682543477353867
1513253,1,2.3729984296486837
389192,0,1.6103295910719964
1258446,0,2.307361374827296
400456,0,2.903234722186821
3390844,0,2.5283743740865576
3293380,0,1.6876108162567107
3928542,0,2.9716775057178753
3445600,0,2.7795330697780884
2833684,0,2.9155407784831233
512888,1,2.194103659347454
713362,0,2.3274892505330325
333266,1,2.334045184044408
1417986,1,2.4663991031648775
2806154,0,2.2543554868477718
3030201,1,2.1664073187388544
3012548,0,2.5680425484514586
536986,1,2.440732197730338
823421,1,2.113507915204328
2225246,0,2.203618075487377
2273743,0,2.2791080383980167
825593,0,2.4569742766826166
624862,1,2.3875475808754305
1036785,1,3.126786236334092
3066460,1,2.0121977772739146
2123498,1,2.4462560786997933
1710408,0,2.7963364935680897
2174815,1,2.0289414472134952
1329608,0,2.0605461575542128
3310986,0,1.9068038888176715
1779532,1,2.4889647457573836
3957703,0,2.134398945006049
723556,0,1.9130633799375265
1900205,0,2.9364713153564352
1551681,0,1.9845331105605304
1441205,1,2.312214646125072
2747989,0,2.287694672090751
2479872,1,2.18092685251107
3871540,0,3.1256606250145245
1193301,1,2.1717482899380838
913032,1,2.4652361125443245
3941472,1,1.8788651167477202
1298775,1,2.1960827524143176
3491127,0,2.33760026760404
2002024,1,1.5359418013617732
822040,0,2.965265332376586
2882862,0,2.404180341422881
1198038,0,2.1155798684543563
2210928,0,2.444251132470234
1246849,0,2.7025696798614414
1099900,0,3.2622962187094235
2820024,0,3.0925007163506084
3345044,0,1.882541412281958
1107911,0,3.25553319441585
272393,1,1.977562564969327
3291695,0,2.3604918237182226
1202511,1,2.5579708139017296
2455620,1,1.9793898416374445
2473463,0,2.8098470046723154
393070,0,2.4526397048547945
3410391,0,2.229340672833097
1332244,1,2.323942594007816
1450180,1,2.076154446569016
1117373,1,3.2528830431127282
1382904,0,2.043856264051394
3795811,0,1.7056383806277873
817811,0,2.39913420697044
478978,0,2.3337220067987006
2653781,0,2.748296263903351
2035912,0,3.1666689443517924
3717651,1,2.594276503158697
1101213,1,3.0692629018637456
986803,1,2.982938625305259
3268737,0,2.6484757700609713
419667,1,2.5587092435897354
1707891,0,2.4277842529373963
806209,0,3.159852241314294
3075218,1,2.2066429965312904
2584311,1,2.373249067587184
2601111,1,2.8004848291591995
3175340,0,2.4514855529520037
496529,0,2.6199460269501076
1562353,1,2.6807862454640494
2662600,1,2.9093150756367296
1278235,1,2.242112818585443
2693657,1,2.757863115745207
512846,1,2.1321264575768413
2392386,0,2.735673310567195
953242,1,2.397686724896471
1982424,1,1.984600959038449
1011185,1,2.9761102025728357
699658,1,2.9262945306203982
202907,0,1.9961971124779772
3843802,1,2.3180501326658955
3453526,0,2.0579579084316326
1946440,0,2.4731635639402585
2889352,1,2.8050135200066832
3688025,1,2.027239646019609
3220310,1,2.381955943381926
832048,1,2.490425201970841
3384195,1,2.825654962339008
3282183,0,1.9536650741024975
1844934,0,3.2560782566853366
2479710,0,2.058398782832541
1894674,1,3.6302388978987805
2123245,0,2.2473055730744744
1268576,1,2.1159907345972493
2633272,1,1.5340766784009805
726071,0,2.771770998616774
2149536,0,2.311502144060982
3382819,1,2.0575877878183597
1581634,0,2.8110205189833546
3271295,0,1.8916236940329376
3901527,1,2.704510277500204
560694,1,2.50578162360607
1032720,1,2.332558917297404
2116637,0,2.095036930866878
3938634,0,2.706917177244329
2919506,0,2.3584447597662375
623418,1,2.0016451329056073
1791978,1,1.9931435471793266
2831993,1,2.781043313159501
1564615,1,1.9581800419184605
1405720,0,2.669387485923018
1980065,0,2.8592251908451725
2555557,0,1.827560188379704
2571511,0,2.831714427748003
1292628,1,2.7015606116889117
3524385,1,1.950685022764091
2439161,0,2.197477629333388
2927159,0,2.3201276858467685
2529584,0,1.9773998303859186
744099,1,1.0851420131203453
2994561,0,2.9871913397388887
2812156,1,2.485009571026815
3712776,0,2.251908793285118
2921546,0,2.1887706218473615
270686,1,2.5076891528210825
1243925,0,2.378548586166841
1549401,1,2.809333373520839
1522257,1,1.9176497847317995
746964,0,2.0865343451697904
2689741,0,2.532259677473348
836331,0,2.73307148818947
3049019,1,2.312228664739595
3484910,1,2.3796378737963053
1843171,0,3.0254400769615053
2019220,1,2.043754996223818
3381863,1,2.3150027973142397
3477374,1,2.416802418050699
227355,0,2.3335408837988325
3327861,0,2.415303382730718
900288,1,1.7923651830779779
201248,0,2.3305485118568425
354266,1,2.298599123394572
1266711,1,1.5676238281330714
1609737,0,1.9721019233250325
2771071,0,2.646824051086823
1706874,1,2.2389911007489647
605783,1,1.9110969257327133
2667444,1,2.2006925678802944
518026,0,2.0153636646410455
2737129,0,2.43648578467669
3958534,0,2.01965095122349
3530022,1,1.9731276583183566
1346158,0,2.3666520470910384
1910678,0,3.5292726338757823
810983,0,1.9817262268832603
1284676,1,1.8134960869678547
2689719,0,2.880608850237932
1981276,1,1.7959076039363822
1745078,1,2.433431816886107
2247001,0,2.568831520298019
2725614,1,2.2765280240849495
505489,1,3.3681826565683544
2976427,1,2.3729574110468508
3471921,1,2.3333651366101393
2983354,1,1.857702561219864
2505189,1,2.07279936139986
3008532,0,2.1382707103230767
593767,1,1.9249446237714425
397510,0,1.775687802265469
2194964,0,1.7966633717219023
3709609,0,2.2005076526755953
2423812,0,1.969365669740106
1448064,1,1.9584896243935443
3083551,1,2.0171110449743366
3058364,1,2.3684391898972685
3413356,1,2.409273219511599
1492922,0,1.3251661393771164
318491,0,2.467656494431072
245431,1,1.7411611279653296
2009144,0,2.103825200244855
2132173,1,2.5747849634096855
3512760,0,1.9826195881780007
1776481,1,2.6022165234069394
2821101,0,2.029575309833067
1910886,1,3.5265823046383566
449610,0,2.304811226753944
1475789,1,2.504171116546789
1430058,1,1.956770002293275
3249720,0,3.1569649659691614
820808,0,1.6979975758278858
2252268,1,2.2822246918650078
2826752,1,2.3849133647392926
1400979,1,2.3376822388233256
1502298,1,1.5756641585258175
1171057,0,3.511976581432696
2164731,1,2.0683282048606015
1529921,1,2.069178476682426
2262099,0,2.6857159337340817
1418537,0,2.141807375078381
2235726,0,1.8789841317943423
747296,1,2.144411344282319
2776049,0,2.439785154466228
1749679,1,2.162117069999148
3833681,1,2.4623748836315187
660548,0,1.897080883465346
529370,1,2.216332197652736
2276571,0,2.200066238081256
1560582,0,2.134505354601714
1687382,1,3.074026279947183
1641666,0,2.43071098952271
1437309,1,2.1401204807583802
1142148,1,3.221452871786665
1282395,1,1.7746063150842861
1347316,1,2.266216656336524
2993406,0,3.033057019301684
504781,1,2.214211468709262
541033,1,2.399997757275475
1383661,0,2.274965880400111
2996286,0,1.9479913885765336
2794983,1,2.648675571622915
2911418,1,2.2571929237224118
3228608,0,1.8107385028787613
3857056,0,2.575900373701447
2804540,1,1.5495810445134481
1965418,0,2.5394988279684942
695023,0,2.346597227741481
3093933,1,2.3002554258472983
3685192,1,1.974874508154492
2197230,0,2.5263891359078747
2730491,1,2.4196152098700363
866974,0,2.0287447575011854
2251189,0,2.1404083727684378
1083938,0,2.9329394893655745
1621402,1,2.399021533248483
3138208,0,2.0473301357699607
1603177,0,3.0457618202782655
3846366,0,1.9122742840651337
1059220,0,3.239032263737495
1910127,0,2.982652476630811
1125686,1,3.252423085996532
2733876,1,2.1715680914203315
1479872,0,1.9328771589635994
1686946,1,2.092574979767407
3439163,1,1.8263401580845267
2684460,1,2.2595521676886507
3327316,0,1.9621490660209566
1596579,1,2.4283306341457074
2826986,1,1.8088994482047787
3084411,1,2.31737539318721
1780046,1,2.536848574143103
3839453,1,2.8534298228030917
3359949,0,1.844616339383082
2423986,1,2.168876612417144
3413169,0,2.135344280952703
2555564,0,1.6265518746288743
3199570,0,1.8792782747790064
1295931,0,2.5915322669915666
2252864,0,1.5585971086048773
876821,0,2.0494452556906104
347619,1,2.575673608651003
3887755,0,2.2405979297661243
1385923,1,2.1081910412678675
3025048,0,2.6774678534957075
2540824,1,2.2455685385836643
3652449,0,2.1069390734514384
2180874,1,2.230905026640238
1406431,1,2.312671192498477
710677,1,2.11930158055339
1872813,0,3.0405677493622196
2107306,0,2.978606814768943
1611661,0,2.32934836184935
2447433,1,2.033468661993106
1784786,1,2.6647101383110336
3837055,0,2.3992476146083317
2145792,0,2.0997969377263197
3875424,1,2.4116087562346475
2431058,0,3.064466326427545
649153,1,2.025746788682783
2480262,0,2.0041222729513333
3096762,0,1.8499370743609
1404375,1,2.1282665114826282
3665078,1,1.980088517291785
1388586,1,2.0104641933659093
1351968,0,2.0808831388002136
3458071,0,2.3116084230468137
2215026,1,2.0429839077528413
3776749,1,2.1652850715691594
2001448,0,2.3687515757994255
2060155,1,2.487401549155674
204797,1,2.4386788958083176
691223,1,2.289644869906802
3487304,1,1.6375923215227306
2984956,0,2.4794065887430685
3379834,1,1.428160786208753
1430339,1,2.6291489197894737
658348,1,2.255917655921244
503280,1,1.8884345429194105
2877701,0,2.766019522405764
3150021,0,2.317623404547613
735450,1,2.097563341182153
3663532,0,1.9995362594074937
3774391,0,2.3569422826727418
2885336,0,2.0006321989703473
3727029,0,1.703930952403939
2494136,0,3.1094807636133077
1141869,0,3.082316817254256
3457473,1,2.388570552748561
508533,0,2.4415851472664705
3887164,1,1.8321803793513418
252167,0,2.038555613696957
836303,1,2.5341821527260286
3080585,1,2.3566676989315316
2244122,1,2.033143021243551
1942812,0,2.135732253000517
3330762,0,1.8144520607049992
1872108,1,3.0924607017592973
3892904,1,2.5053940996223902
1733317,1,1.8788664345073312
3909073,0,2.5149567951294487
1607549,0,2.2548548852873194
1041085,0,2.9400018559822656
3229323,0,2.137861594953249
685873,1,2.5097594511138586
1680321,1,2.145865267769239
2933498,1,2.1892683360947367
2240751,0,2.2748183814961136
256472,0,1.8231311272184518
3043603,0,1.9044965743986515
3357000,0,2.7816494989686738
2034864,1,1.863270322071547
2250535,1,1.722019119368436
743747,0,2.757683535078934
2052937,1,1.8537758430347968
3249132,0,2.4015587091119093
2909925,0,1.8170256701547518
2142765,0,2.3537353203250326
215501,0,2.5600584394902737
719645,0,1.8807657918895513
1579297,1,2.1850355979889504
419620,0,2.0642326176029293
2564365,0,2.5756165439442062
1439684,1,2.415821916569152
2904045,0,2.4199013402399268
2233308,1,1.8890933040054405
1242935,1,2.203999733973
1989163,1,1.4963654960980892
1400454,1,2.141502911397092
2235680,0,2.045493215066918
3106080,0,1.4621138424842837
3371998,1,2.2884665788631073
1454008,1,1.525268777433346
3007152,1,2.1460207760601344
830045,1,2.279800629136876
401110,1,1.9355514296810414
1868485,0,3.784660158123063
3939591,0,2.8559692261827245
307555,1,2.0227838125753883
404127,0,1.9122102781687424
3026680,1,2.390634503386437
2140281,1,2.2975137042461933
2700659,0,2.66886445678154
2243638,0,2.5647744863055797
744868,0,1.952961522563825
1887234,0,2.987462468732849
694781,0,1.5901613831244965
2718453,0,1.7148110520940838
2679616,1,2.111704743366319
3477523,1,2.0023798223098117
2462340,0,2.212817753423057
2035823,0,1.5397586652751185
1120446,0,3.227459256550398
1891512,0,3.2114151394386354
2528992,1,2.7452928750381678
3191820,0,1.8578528953488394
3259095,1,2.687386121305742
567094,1,2.348165301349743
319769,1,1.9223937853364068
3715433,0,2.2674868850898187
3270400,1,2.29379107953915
276697,0,2.5753155981998965
3098075,1,2.0462761059344876
3054120,0,2.2543761939577176
560563,1,2.237704453755409
733877,0,2.34147690371123
3411680,0,2.1039173373890576
2921717,1,1.7121586423084942
3231718,0,2.3268826125292943
3929431,1,2.120077160866523
2557441,1,1.9410698296826714
999430,0,2.119709385423832
301750,1,2.2704243176907517
1026010,1,1.8481294226865228
2976410,0,2.23191959321681
969778,1,2.626028349857334
1368962,0,2.1871520351933844
427993,1,2.2826771391188934
1117237,0,3.249058299260219
989467,0,2.299651210236368
431547,1,1.6402822381192843
3901947,0,2.9164913729125272
1764012,1,2.331455255635325
1039221,1,3.283112870638945
1381610,0,2.248773732235106
3945840,0,1.7192752576241856
3204414,1,2.773283425991772
362461,0,2.4030122010028205
2647913,1,2.1636621078928258
3862297,1,2.3552741281880096
3931254,0,1.8691388622599197
621574,0,2.1685616983394187
3093074,1,2.078710932410901
3225417,0,2.186618694759006
1212760,1,2.358663268691223
1194510,1,1.9745806864065703
2858693,0,2.6242393739202274
253292,0,2.2158225072079665
3901071,1,2.240404797112132
648361,0,2.6281931121992157
1248012,1,2.2692202682509994
2728094,0,3.1493039820238504
1886577,0,2.918573731595826
1018727,1,2.823144993702902
3790230,0,2.4768080768528944
2467939,1,2.0519125700464134
2765832,1,1.7960878232404935
1342572,0,1.9278533556158912
3276903,1,2.0855116878987427
3150046,0,2.0220371467401876
2433126,1,2.0546685848692463
1582266,1,2.2379077164439134
1770079,0,2.9792372800019726
382509,0,2.783057462074092
3878199,1,2.370566144550731
2834492,1,2.3219492079952775
1869334,0,2.7879308440025987
284155,0,2.521339904881408
2668740,1,2.3983185761455625
2999992,0,2.938704546053547
444377,1,2.309752514278277
1629155,0,2.2891430282062384
3402341,1,2.2140848673363505
998671,1,2.0832769686476826
1553910,1,2.059732077254571
1617976,1,2.2994491678129965
703666,0,2.2387711810556676
248765,0,1.675834240724074
1571712,1,2.2871901879467456
3870554,0,1.6028000568751077
1832901,0,2.9164552772048538
3084614,0,1.81296601307116
1438871,1,2.1786986778260515
3071493,0,2.314061143730186
3784926,0,2.21936644765822
1733577,0,1.8346529712592115
2693489,0,2.779015918837648
280074,0,2.1334524516505278
1098109,0,3.770523946121302
2816357,1,2.1285581431332012
3204127,0,2.951935338347963
2449936,1,2.7039423114130714
1047833,0,3.372240932412208
1779524,1,2.4326773766059415
1974308,0,3.0032171150358886
1690684,0,1.5687374325506809
466657,1,2.3822199797247436
2917582,1,2.192106311093781
2553251,1,1.975126127489398
760211,1,2.153116814094025
1329045,0,1.9520320641852942
2664290,1,2.094931763348917
860771,0,2.0795979975668786
2547237,0,1.8386561165069484
1588637,1,2.8631031372804796
2594205,0,2.6714078535682404
1610400,1,2.4843532622007087
1001970,1,1.843074707153307
431351,1,2.442376824471084
1434622,1,2.0036369832997933
2885787,1,2.4064196751289892
3437339,0,2.040413990301528
1814197,1,3.314963071756289
3397583,0,2.4163555255385334
1725733,0,2.3718921203170815
2875973,0,2.04821700028721
3541283,0,2.4850005614911694
2013024,0,2.2395698701803926
2984204,1,2.1416468212768933
1010791,0,1.8713685775837665
370651,1,2.2642394734729407
2466109,0,2.483529726122761
3447386,1,2.1096791859719004
3233512,0,2.4552698966565796
2686348,0,1.8669662301586623
2705971,0,2.2472840861969177
3757333,0,2.9790664802966735
3150322,1,1.5945706319664974
1500608,1,2.5332358989403643
1741017,1,2.2774286884828188
3111465,1,2.6875027516269143
2155442,0,2.0186804781854994
3044125,0,2.41767917794966
3035383,0,2.1336860116425984
650768,1,2.4244536861205424
2429679,0,2.4417839053563544
608313,1,2.5333944835222377
3048265,0,2.1390858222344806
204812,0,2.587223213687842
1369701,1,2.402886805645174
1345753,0,2.1504615105100484
1950138,1,2.139534993530324
283119,1,2.324623054337781
750224,1,2.4678392986539435
1504682,1,3.0749856335485695
3914698,0,2.825055556229531
1257119,1,2.3422862166425182
2666759,1,2.3652821910866932
2908507,1,1.6733277756773894
1640064,1,2.063433622704097
1593203,1,2.3930863763252344
1348113,0,2.3123608500039214
958779,0,1.2204519201585124
903301,1,2.4865837322987234
3058427,0,2.129726828882705
943195,0,2.327207002562786
2020537,1,2.2409020806762885
983180,0,2.0716536028653265
1486750,1,3.3092071259126765
3186198,0,2.139416077768219
2025012,1,2.349665053093476
1078138,0,3.0035402888988436
2539751,1,2.1231572513465746
2718759,0,1.9935345335825625
1524661,1,2.497365548716878
969707,1,1.8158129855718792
600785,1,2.2864903314022054
1457423,1,2.7651436013394792
1357479,1,2.1952075153151873
1090253,1,2.897158417791592
2913244,1,2.57186466614582
3514160,1,1.9106559432646226
822992,0,2.7265516032461097
3775601,1,2.2428380611214385
2792080,0,2.526003123462147
1319579,0,2.4176406849486103
734632,0,2.6881854207176743
2126689,1,1.856358849738353
2214089,0,2.6803790656611097
1283149,0,2.9218181714753815
3301238,0,1.995801728088604
942408,0,2.0509434345690396
1868318,0,3.032587445003046
1615848,0,2.3555694956130644
1301678,0,1.8959203639954865
1588448,0,2.164086666474876
497477,0,2.1216374117136514
2664779,0,1.9460234857556271
1689407,1,2.1351604234444683
1789282,0,1.7871916595269488
1124168,0,3.049679255393947
1947356,1,2.660852352457832
3843569,0,2.3243950076595143
3165635,1,2.8064000617206717
1291142,1,2.0241634452826918
3071769,0,1.9386639125899812
1308415,1,2.362633426885451
2824866,1,2.265391860267931
380421,1,1.8699897592725967
3062257,0,3.185879892555459
439085,0,2.4436462934440972
1408998,0,2.2867273834671926
623690,1,1.907717672585636
2801365,0,2.3528273251774316
1808895,1,3.0294659398596013
2999214,1,2.3388182910739173
1901029,0,3.2853095713957043
1660117,0,2.155263654087254
3667812,1,2.4582603161248042
908707,0,1.6819824134550454
601704,0,2.0355009679335048
2961619,0,2.9697331311379163
210549,0,1.716798133055392
994325,0,1.7703246113466808
1492631,0,2.161970066901133
3442487,1,2.2399948214578913
2237324,1,2.268923610653782
3100482,0,2.5953184468085047
3952783,1,2.8470180355134693
434738,1,1.8106747497590123
1417050,1,2.0973522110349148
498703,1,2.2772415126805456
3209742,1,1.9899952276885398
704298,0,2.61028196329432
864294,0,1.9910984503092268
2684267,0,2.1852751113610616
1456975,1,1.9126196727214622
3196521,0,2.0631163902474756
1352399,0,1.6781625153486597
714961,0,2.257487237136105
2242329,1,2.2350549109646503
3041784,0,2.6624154300000535
1389233,1,1.964184962789106
1252790,1,2.3457203561618676
1319796,1,2.4074229966458303
450567,1,2.0468599699794723
3531913,1,2.422961789841209
2416617,1,2.4725763839043995
3510550,0,1.902301145691529
1074507,1,3.222728384646095
3166425,0,2.9077106763380067
2896366,1,1.7480180708675195
3516268,0,2.0208077099615296
1662023,0,2.1622684164432315
1309384,0,2.156397153937077
526454,0,2.154741365504207
3518024,0,2.832044672179699
967210,1,2.086323997545453
2279946,0,2.69018004061085
2118356,0,2.6767273755460215
1103933,0,3.1881783513647286
485012,0,2.2920884807152855
3206675,0,2.182949470288017
897790,1,2.6331516221519715
956875,0,2.5806373632585498
2736039,0,2.138678216756137
3493725,0,2.7078442988306013
410187,0,1.827011075809689
1595213,1,2.254848570490834
535433,1,2.359235269938854
1942028,1,1.806813002273763
742164,1,2.1378520872976554
2150778,0,2.4785702144777155
1991733,0,3.5002244903832085
2539027,0,2.5579988141456145
1287742,0,2.0860283302461533
2223028,0,2.1200699872628714
259291,1,2.2528818154707637
1913177,0,3.2720741508963416
936113,0,1.5799754075750003
703395,1,1.7871557856046227
2969432,0,2.5654827818589454
2415453,0,2.266652361138979
3299842,0,1.8110356851087837
2654544,0,2.5458627784559877
3691823,0,2.1871769155395104
3840909,1,2.6939943579123056
1492142,0,2.236747838608318
410200,1,1.956128425354545
3546357,0,2.1126886707116594
404952,0,2.25219664814411
3053303,1,2.3961259438873745
2173601,1,2.6093403279522476
1112176,0,3.091190208229545
511898,0,3.215042586049585
1313337,0,2.322373193549068
3656206,1,2.007396600319141
256762,0,2.781145791759285
3533847,1,2.0088615756256294
3379374,1,2.9462006138068793
2981474,0,2.002407873379995
1192997,0,2.361343787506847
975656,1,2.0514634042779005
1448970,1,2.29281991497035
1445981,0,2.749970601613314
1279002,1,2.0591107580163577
2574568,0,2.9662938768004814
3844468,1,1.490760797300332
1700817,0,2.5808277530995247
987566,1,1.5409893422717593
3248650,0,2.707224217410352
2412630,1,2.358553003101715
2639877,1,2.2125025397507914
3671765,1,2.4138209431434814
838971,0,1.4826669152956908
1837105,0,3.2757394174617778
2836866,1,2.1637034690397337
3169937,1,3.083818786067726
2125182,0,2.7729610708346497
3880588,1,1.8137673820499305
2742464,0,3.2102262565634003
3518890,0,2.520641271038582
1901362,0,3.236585249451746
642275,0,2.204542022578356
2254252,1,1.8032584297293583
1289997,0,3.106507084703729
3678347,1,2.3174223647347088
723991,0,2.881882593299545
1663425,1,2.975107865049695
3408079,0,2.356310897366814
437432,1,2.7105816399732277
3118898,0,2.439972334811789
661700,1,2.1071129420233685
2852010,0,3.093874890329163
346670,0,2.412235671801912
1423003,1,2.4698628077795046
3807482,0,2.20862443238861
1318796,1,2.106519796104972
1014987,1,2.2036437702680063
480718,1,2.31304695140739
918809,1,1.9250036405979385
3340425,1,2.1768172043569907
1108347,0,3.1679129664867047
2558208,1,2.067089940973163
3662941,0,1.6806080585465033
1956836,1,2.1220554664705076
960787,1,2.8955969261049974
2876202,0,2.1009721785275737
1599244,1,2.417511040630051
1015795,1,2.5410763798167495
734397,1,1.6032864876158957
1444447,0,2.3936887727874425
3424127,1,1.9204133912423078
2963620,1,2.5467469107747256
622534,0,2.4232071897378233
618465,0,2.001359835878786
2669544,1,2.3113232158328048
1148919,0,3.4789529562846964
294313,0,2.5748551490124956
3301330,1,2.1137430506923085
700621,0,1.638894460192904
1416387,0,2.3525762642836683
2242258,1,1.9937869910110606
3110033,1,2.6516316658205707
277822,0,2.740310743159957
3413246,1,1.5300946994446813
2439049,1,1.9042641680596701
1094148,0,3.1055945491088304
2804622,0,2.3955704333189454
3533351,0,2.260546524588609
1540712,0,2.480874384052579
2872808,0,2.9286635107939105
2152276,1,1.9190646658068926
3014519,0,2.160841451562172
1432057,1,1.905517736371802
815778,1,3.0472582161349573
3212481,1,1.7569261816574666
1767954,0,1.81174693923729
1812282,1,3.608241659387407
2611750,1,2.2983301467667188
1966909,0,1.7752455976882713
735677,0,2.262585156761927
1371635,0,3.784340132935972
3846546,0,2.2444599834380554
623021,1,2.127448890376554
607803,0,2.3084000188876015
3179721,0,2.845395973478169
2779143,0,1.9632475692614677
3005830,1,2.376292753992205
2029054,1,2.024508043083457
1098301,0,3.2164960319376075
1892400,0,2.807765781949186
2282126,1,2.2736866118989565
364902,1,2.41810947192098
3761700,0,1.8766800083765407
1827561,0,2.8370386837149275
2784920,1,2.298063609981615
2728880,1,1.6284408006020692
2926444,1,1.5580402729757226
2117533,0,1.9786533154330024
452309,1,2.287350392799115
964053,1,2.0864205433785794
872008,0,1.7935742749195929
594288,0,2.4210873161033954
1257862,0,1.7726290446452007
1782159,1,2.0988902848092796
2927810,1,2.0431924489337114
1698525,0,2.177473589491208
3420640,0,2.689612205514261
1481645,0,2.710895777887081
1308704,0,2.815555047864482
1058613,1,3.087027041962756
848760,1,1.8981343246648843
343534,0,2.111876422883003
3285094,0,2.4651974156053753
252345,0,2.374095619072473
2055340,1,1.9383179771290893
1709239,0,2.0482964998141795
2201215,0,2.539913029170136
3372351,1,2.3433055119996364
1248890,1,2.561130002600569
425568,1,2.4721566975623386
3065403,1,1.6546315804612042
2027833,0,2.0867916771858406
2592169,1,2.924797398297367
2808511,1,2.139175285744168
1112057,1,3.3724806865835815
801014,0,1.698747047831147
2745534,1,2.4595299586397816
404436,1,1.9730886925193272
3871926,1,2.587656838843019
248249,1,2.36822039181572
1169536,0,3.099255860407342
1560448,0,2.3566924052438165
645661,0,2.2865108021162435
602604,1,1.9732019775354683
1645313,1,1.9037323554810617
3856737,1,1.666331842556716
2884029,0,2.5137780088294543
2881544,1,2.575799248676074
1245210,0,2.3705024861449324
3067343,0,2.7507153458566123
2568546,1,2.289499357588291
193733,0,1.9929378989139719
732349,0,2.4411252026580934
3452283,1,1.3477279848938413
360419,1,2.365363859140961
3376396,0,1.7774342380358228
1360311,1,1.8986083502365754
1079221,0,3.2369239981194218
1594129,1,2.788255938267983
2860092,0,2.5530949655224906
1387179,1,2.5910793557242946
2218908,0,2.2251882065622888
2673356,0,2.065525713479905
1689525,1,2.0337343364657485
518707,0,2.1587834006926467
2540606,1,1.9041473048979538
3279348,1,1.3949975187597619
3214854,0,2.491736422660546
2052643,1,2.3345029858922617
1065671,0,3.464253475232664
229467,0,2.219672123207002
2643121,1,2.5498507794159564
3737348,1,2.2096596979509284
3326917,1,3.014137065675055
811119,0,2.1788489806685494
2994910,1,1.9950188648387375
2802623,0,1.1402527968318965
2714957,0,2.082218992377963
2459462,0,2.6475080804001525
563065,1,2.0671979503514084
3230009,0,2.2229032638062405
1362951,0,2.2188682706905967
1250561,0,2.891637252012022
2182898,0,1.9490223726146323
3153808,1,3.1776511060466754
2856589,0,2.2737173606189662
704857,1,1.7986395126161803
3041626,0,2.883206909978164
3729672,1,2.1238755160487033
430881,0,2.79609704323949
3012192,0,2.505603373747269
2622763,0,2.0534339877701298
1522366,1,2.194830458321627
2532704,1,2.0533265190528414
718148,1,2.6129198485696357
505230,0,2.001275161646958
1132610,1,2.9852537435806332
847886,0,2.33538558559549
978044,1,2.198420894764746
1488756,0,2.8491506400747384
2977869,0,2.4272345836727167
2887269,0,2.060228894418809
1243056,1,1.797234335572967
3332220,1,1.8418125592893726
1281064,1,2.2086417258571323
2154512,1,2.1520053222795887
3205980,1,1.879738990359016
337777,0,2.1969030588210905
1330700,0,2.9154910667485656
1680177,1,1.9557875845078478
1227202,0,2.777151497387563
3302625,0,2.192375130778216
3748236,0,2.248405303574666
2644109,0,2.7537406206500314
3277011,1,1.768881099529834
2531226,1,2.0048806487530846
2995175,1,2.569393488299491
3656644,0,2.376620105480474
1684633,0,1.8863329064558252
1006952,1,2.168907428108535
3681710,0,2.7587586511410263
2116400,0,1.4415144343830355
1983310,1,2.3277770457222693
2438317,1,2.4598439094338422
1162185,0,3.5973222477010247
665306,0,2.023257912958972
3214323,0,2.3172078106254883
1823818,0,3.6622500633121087
2249198,0,2.2396910920925546
2881971,1,2.364213336230517
2795274,0,2.556994828523051
2026817,1,2.5158655394696035
2167367,0,2.952947249483677
950045,1,1.7607845622682745
1581984,0,1.8408403209678965
583652,0,2.094834401314911
2730678,0,2.698374452115031
1864042,1,3.251366126563833
2758286,0,3.213663701429581
1759744,0,2.375790285632967
801167,0,2.292569903035615
1265802,1,2.410402394006673
318376,1,2.33565774187921
297460,1,2.006719974088439
2637373,1,1.8346625044121947
2755346,1,2.4210623109994525
3884521,1,2.2710707027661665
1540100,0,2.64398031044529
2132649,0,2.201915415918294
2133818,0,2.7830069345491606
400512,0,2.4044366523216842
3124223,0,2.4449307336184805
3877498,1,1.9268617652269202
2232228,0,2.6333001719658307
3309744,1,2.624066194732647
3235357,1,1.9303634947475428
966826,0,2.8470782110400505
818081,1,2.024156647129029
3066177,1,1.8897856028607776
3317845,1,2.6376887898313006
401937,0,2.3726575376416235
340802,0,1.8721694057618161
234333,0,1.8343642353953036
3718881,0,2.410725372841285
2927220,0,2.8096065914339823
685811,1,2.1483202378297106
659411,1,2.052080623660405
1487998,0,1.724855541357076
3282215,1,2.174387394754903
623590,1,2.2834076404623986
1291334,0,2.3607297620264363
1085795,0,3.4344679207632947
3906010,0,1.8339071226159123
1012180,0,2.8157142403712463
1697872,1,2.31648893729191
1325965,1,2.2201414965495094
946561,1,2.0282182028157765
2137885,0,2.9350735553855922
2542758,1,3.018907575755276
704119,1,2.5771211408617147
1771888,1,2.3545852647608854
1080471,0,2.740761466230036
2409598,0,1.9855415518609152
2749585,1,1.7325130023974924
1758405,0,2.0111708309398746
283499,1,2.3495866276179433
322204,0,2.4862128080010866
2151122,0,1.752125152745188
3849703,1,2.3377035074441164
1664833,1,2.259951614708305
1867655,0,3.3216608888064973
589983,0,2.3638944825620136
3464628,0,1.8080342181208107
1326578,1,2.382991613802436
1997354,1,2.4454910898734505
1351336,0,2.022156434928175
832145,1,2.784142988970033
2236332,1,2.464423146762641
567555,0,2.238237013237133
2146737,1,2.3212432086808774
955710,0,3.1780465044100428
2759124,0,2.2315253150832364
3845076,1,2.331401010618449
1411897,0,1.9212854833451138
1241769,0,2.867684762268554
1389290,1,2.446782254050369
3377784,1,2.1406468148455198
1225046,0,2.7577719683995245
2414235,1,2.1746263584341663
1326574,0,2.646883615695291
925955,0,3.041722004699729
2972484,1,2.2672289323894583
3737046,0,2.701638123337026
728743,1,1.8827725024757342
941377,0,2.2665393963646006
1047464,0,2.8960706032230092
420942,0,2.1208484894768755
1463122,1,1.9657666226790842
1917060,1,3.077007312953971
666329,0,2.553252276350516
1300955,0,2.8683016188930455
1298697,0,2.4322517690738064
3687776,1,1.9943148222877798
3052504,0,1.9190565127345165
1557660,0,2.1708799794513425
555764,0,2.171276075409177
1764860,0,2.084505769345423
225420,1,2.5361723295500163
1492989,0,2.2891246435257697
594617,1,2.4586070057568894
1645508,0,2.023002870823143
1473341,1,2.9435323815969694
3834282,0,2.873570477323919
1965409,0,2.2652788817738685
3184160,0,2.104594145604239
2784392,0,2.1733705109212194
1807466,0,2.9366932087619646
3401960,1,2.05122218932926
1471582,1,2.4843675236223257
3791710,0,2.03050190647348
3309703,0,2.29405479744979
3358071,1,2.6226610219095434
3310982,1,1.8528527871577558
2631775,1,1.994581054994751
3426145,0,2.64151766732978
3310130,0,2.164242526474487
3442241,0,2.3983750876578243
3098265,0,2.263806229307429
3429399,0,2.78426540103108
2457216,0,2.1043892172103176
430828,1,2.461636679502496
603273,1,2.4672871065271313
3870487,0,2.2580097280812046
1378297,1,2.162420426677308
1616018,0,3.1843411652046516
1291015,0,2.4583710971117414
1027775,0,2.326252147111615
3226950,0,2.393750508335621
3778895,1,1.8419805187134985
3844622,0,2.0675095128903562
1369579,1,1.8230598100803577
732385,0,1.5391047676765348
3415626,1,2.161951070633565
1507685,1,2.3375226427557814
3219503,0,1.9380500485391003
1896219,0,3.1171746887375336
681704,1,2.736073638328482
3690990,1,2.536514611170646
2942573,1,2.2675771971447625
528168,0,2.7684795568679763
3084554,1,2.227125424228886
1364236,0,2.7885590154954034
3147789,0,2.959351309122453
250099,1,2.703292753506455
1270105,1,1.8754931115391766
2409926,1,2.2932469225266066
1322203,1,1.8678668923916635
836032,1,2.9667838771799078
2889738,0,2.6242294673456215
1823535,1,3.110959506927859
1570937,1,2.2865357077708914
2547945,1,3.174819596369575
3665859,1,2.4464220256076703
2148907,0,1.576076249783667
1010904,0,2.1300043625739753
2560734,1,2.0083348486941577
1669343,0,2.1910242072128483
2486150,0,2.7891669095933835
616172,0,2.153729316291801
2855089,0,2.106815404088482
704842,1,2.440988932259212
2985771,0,2.746355290532332
1757972,0,2.733796153276742
3229827,1,2.0368547537377784
3050340,1,2.0874084389700425
2464678,0,2.1330780036972743
2847347,0,1.5119603620930722
726283,1,2.2016759444063503
1406369,0,2.2996620101654037
533892,1,1.951938569493638
1237178,0,1.5215299041378063
3341656,0,1.420494226106932
3676163,1,2.2116204866705798
929094,1,2.63221066969437
1677028,1,1.461846668348661
2813681,0,2.875827669466239
3106653,0,2.5516924303775816
1632088,0,2.0268843812912167
689341,0,2.970323948901554
1591560,0,1.705047048354201
1616855,1,1.7193933374400592
2142847,0,2.0566690638820724
2705080,1,2.3164932088614014
1231167,1,1.6584026502885654
3763639,1,2.386438393291839
3879743,0,2.526188846108316
1680526,0,2.647477206012819
2230337,1,2.3663020213640014
3162962,1,2.2066622937680154
3804599,1,3.0458087928293525
422947,1,1.9122641587881606
3729544,1,1.9483634636145892
1741305,1,2.03310017937159
3036769,0,1.8946983774174424
3744092,1,1.8954928236399462
3089451,0,2.638193044841568
2649347,0,2.6155053923040024
3219049,0,2.611752232941259
3793013,0,2.2210071455672935
286493,1,2.48917082318583
3500211,1,2.0441693216811787
393024,1,3.2946715766810457
733825,1,2.236433871378162
752278,1,2.2130472955969247
3911142,1,2.083214929524783
700722,1,2.7729093348275575
2503667,0,2.5517571940041304
2878884,1,2.1290800829867873
2145364,0,2.2691240212523085
203392,0,2.165208823370452
2817144,0,2.4675133841620465
980269,0,2.7470700169700506
2257462,1,2.256995931627469
3414080,0,2.4515543918897307
2459757,0,2.2929197032459223
1963049,1,2.0412815082661293
267226,1,2.2036237188058188
538531,1,2.3741661108986123
1642574,1,2.0581214243788386
2155372,0,3.170433208172372
2557385,0,2.199495838923865
630085,0,2.622011798355586
3073392,0,2.290444205594106
642599,0,2.874749474956676
3141434,1,1.9510344453968638
1302663,0,2.669801088264777
2844881,1,1.9290707681235868
492225,0,2.353058386901777
1902064,0,3.4288017616343502
918952,0,2.385345235739736
939302,1,2.051179867428553
871904,1,1.8784491164507262
547004,1,2.419195170461277
872587,0,2.550505851688353
1470749,0,2.0827934004861723
3102837,1,2.4683382778042953
2824026,0,2.0667120506368475
3653426,1,2.516423527630657
1895852,0,3.609839441537325
2172308,1,1.842130554227582
509350,0,2.8183773176694915
3262235,1,2.0316185682325685
1247509,0,1.9252093090831395
1456141,1,2.192729907555416
1903897,0,3.134683504795001
2520797,0,2.0722747710085483
1064731,0,3.303782565239729
2911821,0,2.0650158069261884
1662230,1,2.0587295376650943
880653,0,2.8777190897145672
2731900,1,1.7476677005135415
1939930,0,1.9459687863282682
1649026,0,1.8257088971151598
1593867,0,1.9530174507466094
1156169,0,3.1829224571608288
1019734,0,2.2136606524595526
1662600,0,2.3374024008020324
3308363,1,1.1027871134251503
2549873,1,2.2051138001379735
3548251,1,2.5323746109353213
310436,1,2.8279041452818614
835143,1,1.9179387515204231
3190199,1,1.90537512249569
2488381,1,2.160101325686701
939595,0,2.051888471557871
3212502,1,1.9793155561737623
2391664,1,2.512350689330588
1738647,0,1.9507794579898456
2551666,1,2.2937223386580543
2536014,1,2.49852255483466
2598123,0,3.0241396826755054
1513612,0,2.354624822506124
1742644,1,2.204525165518668
545852,1,2.3167138603170403
3943826,0,2.198474702283106
3896038,1,2.5635767295379046
2704359,1,2.4368966849967575
2790372,0,1.9214386221709991
377822,0,2.6045274229220716
1621353,1,2.0559717138223603
2521381,0,2.844649214002587
1202097,1,2.147566429515233
1892253,0,3.210857685777883
3488020,0,2.76948055186929
3284598,1,1.9389365761902986
2417753,1,2.076616235440159
292688,1,2.2838606225361207
2515894,1,1.9919855956247894
2024977,1,2.1976972350263404
1360519,0,2.4450691949793733
672232,1,3.0588864193148386
2191814,1,1.7509321576108012
223508,1,2.6952075864178924
1068700,1,3.277181548842101
3796726,0,2.3608344410720217
1725999,1,2.0002502743550576
3511554,1,2.459418369371086
3394424,0,2.283829140577153
3271720,0,2.1160710572986647
532013,1,2.712770129199591
3931337,1,2.215345680651247
1025231,0,2.5155092937990844
1105567,0,3.3657027615151747
942973,1,2.21127936086042
3876575,0,1.6943767598153243
279461,0,2.15664963268473
3457658,0,2.2776460081100405
1414126,1,2.108149605424342
3221512,0,2.4724512747245893
2917604,1,2.1865656949441497
3805611,0,3.0080062949605404
3893208,1,1.8840996428013712
498534,0,2.397547664435802
3754312,0,2.194885278810008
2924110,0,3.1217953211168257
3760873,1,2.1112886298836973
2414976,1,2.071569066907623
1441436,1,2.330497257317376
1119020,0,3.6013383576418834
413973,0,2.2835980257183137
2273447,1,1.9528349585157005
