sample_id,z,y
840527,0,-34.27202182065511
2138461,0,-33.68080212858053
2464024,1,-33.077688052552034
990998,1,-40.18583329664427
3725414,1,-32.762436646435575
563165,0,-35.0040895865175
1402325,0,-33.8544563732891
580889,1,-33.57348061880243
2421311,1,-34.06855517931342
2503538,0,-35.13364989256954
2457159,1,-35.739617930526634
3670071,0,-33.38084916516577
1836780,0,-24.20875000727116
2150927,0,-34.975471236667495
1586401,0,-34.9860119339482
3113495,1,-39.89788629013404
2405624,0,-33.61428329803301
1496742,0,-35.047665439369595
302973,1,-35.1142997091883
3357569,0,-34.31893092990649
3107716,0,-40.18807689874459
3008832,1,-34.13055642496517
969377,0,-40.12419814958933
1832920,1,-23.444478431158284
1666687,0,-35.219474647159835
2923065,0,-35.04506442209155
1078921,1,-25.921715564995388
323417,1,-34.76958461489128
1085584,1,-22.79343602642856
2107051,0,-34.514720998545656
224559,1,-34.06293445349283
860792,1,-33.749171750375126
1832928,0,-23.581553126096452
2403028,1,-34.570459191251224
3714385,0,-34.8809164447378
1034225,1,-33.65289766003689
1697290,1,-34.71085049348584
2194144,0,-33.687458122380015
1945083,0,-34.38382396893955
2270603,1,-33.62987067180596
1990348,1,-33.79474997745471
1695988,0,-33.52744209006933
492366,1,-32.940576490303734
2780425,1,-34.04580137953934
3228990,0,-34.830575953541775
1873213,1,-23.529240204449096
717880,0,-34.07805818312398
1468036,0,-34.266763332775376
1254068,0,-36.13023196314917
2992699,1,-34.28166173799312
708377,0,-34.03711507572025
2465536,0,-34.69209866437548
1168876,1,-26.537558120709978
810163,0,-33.53030726342276
1708416,1,-33.912161454512045
1724508,0,-34.33241952784458
2829223,0,-34.5313382686553
1044338,0,-24.402009047430315
198050,1,-35.22474292102411
537707,1,-34.09368594734013
3412255,1,-33.11374041073599
2566048,1,-33.372651805404935
3513088,1,-40.011249767556706
888094,0,-34.963193264849345
2878255,1,-35.52427812093535
1546919,1,-40.72402126687758
643040,0,-36.3856802608913
2420045,1,-40.18695420815208
561662,0,-34.285751225369786
3541165,1,-34.15115994530709
2724462,0,-33.00961818951401
1283887,0,-34.162470239485366
1934399,0,-34.19264687997643
1696852,0,-32.800028106577216
372101,1,-34.03989418363326
2779859,1,-40.809960638805315
1960591,0,-38.85564020506979
2668733,0,-40.19160329658687
868477,0,-35.89916443680404
2804999,1,-33.88318813376435
1007857,0,-34.44125281603647
3172569,0,-33.90775992495314
1472777,1,-33.27157298810795
3795977,1,-33.91910715900871
972647,1,-34.28885682747825
229097,0,-34.63974750530119
1950595,0,-34.76087294042587
1793816,0,-34.85605041280277
2040184,0,-34.916619939309136
1312388,0,-41.07942212140274
3916330,0,-33.29324800071832
3280841,1,-40.70809873465924
1239237,1,-34.44122347252349
2981019,0,-33.49289278372494
282661,1,-35.20122877676568
510215,1,-35.1781015862023
386637,0,-34.39703984435085
2449513,0,-40.804084644465505
2634912,1,-39.18163873112635
2898157,1,-32.761958113169484
3147603,1,-33.34850688767623
1429559,0,-33.82832014968431
1838915,1,-23.913932080293996
3774344,1,-33.650834591116585
2727395,1,-34.12526564069542
3876219,0,-35.08853825665015
3526799,0,-34.70983887577888
1660091,1,-33.56204737598129
1864147,1,-22.830887764876312
2737149,1,-33.93255550028562
3388550,1,-39.858898158298175
1034700,0,-33.45970093194064
2051686,0,-34.189916687351044
3027757,0,-35.099044661614776
273137,0,-36.08077136516147
460632,0,-34.03582085644059
3369114,0,-34.47468987641804
320649,1,-35.71199154092418
2875173,1,-34.09785950056975
3794220,1,-31.21065274673607
1054978,1,-21.666352015719507
1853491,0,-28.389947402479372
2827422,0,-35.23660121742743
1945327,0,-35.08321532065753
2992212,1,-34.54957351513077
362064,0,-34.54713755723181
3516439,1,-33.26389126229809
2717808,0,-34.14418062485139
2968219,1,-40.42206820439608
2838464,0,-33.06115633249278
1958100,0,-34.68685704574786
2454948,0,-36.1102856604906
3083534,0,-33.683390179323766
3493493,1,-35.51558703658803
1473937,0,-35.22533776964162
2245511,1,-34.89147730704744
1150394,1,-23.168454115222527
2108481,0,-32.93497971702797
3159239,0,-40.01740088990467
2961465,1,-33.77376493244522
603537,1,-33.671842699325495
594825,0,-33.7824416827273
1397812,0,-35.67687183962892
3394290,1,-34.742573359771825
3392796,1,-33.05076344421996
3750081,1,-34.21907821905356
2878185,0,-40.00729849937361
1982852,0,-34.348933359134
1330459,0,-34.15314002088111
1295907,0,-34.913366497642485
1504828,1,-34.228458841921366
1476354,1,-34.10907616253464
2471105,1,-33.24509458435949
1309865,1,-34.25196585659686
2476342,0,-34.17442048594241
1866529,1,-23.5172201278121
2192142,1,-40.27520834276781
1072824,0,-24.133076374492344
1473480,0,-33.22835355969789
3849142,1,-33.74909920110572
3228003,1,-34.92322801480571
3117574,1,-33.719706256975826
3376930,1,-33.01488989276066
2779289,1,-34.48331244284912
1988411,0,-40.78794709602154
1949079,0,-33.03551467178068
1943456,0,-34.964424261717426
3756412,0,-35.173001846356314
212061,0,-33.93806854949763
492416,1,-32.86225230474704
1639936,0,-32.725564098150095
2109428,1,-34.89857596734927
504838,1,-34.32235391217379
3952783,1,-39.17118816409719
851049,1,-40.28000734483674
1671140,0,-34.23675117083924
3257569,1,-34.38480379738231
1914612,1,-23.637597027389525
3724537,1,-32.76669665121576
3223082,0,-34.111930558098635
3096862,1,-38.838693403082836
1671684,0,-33.84065621605079
3919828,1,-34.193825660326745
2944110,0,-32.79153094841041
396003,0,-33.93534751710999
3189166,1,-33.749022928166454
376609,0,-34.10008628869168
2113329,0,-34.646860359948946
3771112,1,-33.85409859173498
1049444,0,-23.915912786633207
3714131,0,-33.38503220297327
2120588,0,-34.76188429627065
1717129,1,-33.76780972424799
3692348,1,-34.541594171078096
2041794,1,-34.0627099838033
1289813,0,-34.38110109721427
2465638,0,-40.49729766366685
2819503,1,-41.95021914986615
3492774,1,-32.316453896988314
3502469,1,-33.242373692607046
1142821,1,-24.028584506445593
3051138,1,-34.91216915733567
1561509,1,-33.229652657589995
2763526,0,-34.91045666064511
1165279,1,-23.216737504695093
2029531,1,-39.97117340311731
674613,0,-36.78194492399772
2666079,0,-34.18696013623139
3903658,1,-34.586713732784304
714120,1,-34.46498495598537
3959661,0,-35.25414286477495
2966542,1,-34.370703124470324
508843,1,-33.21278281247884
507702,0,-40.69360227615425
1988870,0,-34.255273150172656
3945487,1,-35.127780765555286
728187,0,-33.76545869719499
2246626,0,-34.247473940971766
2640260,1,-40.84908036819088
685738,1,-34.6303460826662
3519223,1,-32.37768806735177
325543,1,-37.97816946341189
3036769,1,-33.63688548125929
567607,1,-34.92516834784098
2618236,1,-40.56333876997977
3871476,1,-40.07579724083014
3726703,1,-33.79194190816109
339229,0,-34.168050467192664
2969348,1,-33.24717091181081
396372,1,-39.686404351787665
908802,1,-34.41137488594568
1135437,1,-23.63455768149733
3158587,1,-35.44412281880807
3263398,1,-39.55791445827534
3664541,1,-34.53926333555532
1016527,0,-34.40858802272472
600128,1,-35.21412870436783
1156648,0,-25.234647459113035
493237,1,-33.67701522779332
1688128,0,-35.076408063753505
1078188,1,-22.904972964082024
2456999,0,-34.15127556880295
2053367,0,-39.454205975755144
1855085,1,-30.245261580195194
1115129,1,-21.136054468784547
2048342,1,-33.48104007635722
2867850,0,-34.38603662326026
475001,1,-40.37497118405911
1743040,1,-34.50790812563477
705960,1,-33.98049559011771
3889170,0,-34.03724791210178
246620,0,-34.43364776984239
633336,0,-33.86374442444826
1005055,1,-33.14804099708958
2415560,1,-39.96817960505395
3235959,1,-34.34724772970083
2041755,1,-33.75985335500059
3131287,1,-35.001830602887104
3028532,1,-39.59436418036625
1314657,0,-33.90733819271613
1572125,1,-33.783756417508364
1033188,1,-33.6470786390053
913032,0,-33.80004406649074
1017354,0,-40.32139381797913
3332673,1,-39.92489938424868
737744,1,-33.376377716586646
680313,1,-34.50756520456036
3662514,1,-32.805463851206255
2788644,1,-33.72199783269174
1777915,0,-34.346617972293174
832412,0,-35.393431352618165
1693489,0,-34.012133602923235
3418581,1,-34.10724069264501
723909,1,-33.46726381345016
2209088,1,-32.20188194599577
1380847,1,-33.80305683049956
2688427,1,-33.09673135558849
3104296,0,-34.688830517168846
3196389,0,-33.079076295204736
1110682,1,-25.289960802904933
2007461,0,-34.2253863174193
587888,1,-34.79087621338327
1553392,0,-35.1669030439543
3678688,1,-39.906673388168784
3261729,0,-34.35058292347921
2571536,1,-33.28166556165547
3411117,0,-34.538392774700334
393638,0,-33.656235798770496
2518273,1,-34.89992977486486
953505,0,-35.0984867436109
2723430,1,-34.00382332048503
1300921,1,-34.771418600043745
2558518,0,-33.73718836751834
362868,0,-33.77192870907395
2924733,0,-34.092836575835896
1525392,1,-33.14858600716829
217765,1,-40.80678308529168
1349725,0,-33.498703594536856
3361116,0,-33.98179172967557
3514624,1,-33.65275743557093
3425608,1,-34.34007923938019
1029476,1,-35.17437676135544
2734828,0,-35.27644127959208
1063435,1,-29.861104205709303
2042673,0,-34.22785840559992
196734,0,-34.71613745749376
1517757,0,-34.2305273635886
872791,0,-35.008844964735154
210463,0,-34.57569193083383
3050420,1,-33.71710793043297
380554,1,-34.36789413184543
3525673,1,-33.84893009007101
1563870,0,-34.18181110919744
3931357,1,-34.35975715269544
280367,0,-35.206868492931285
2616888,1,-39.066999288997884
2406265,0,-40.028712492408204
1420333,0,-34.84964846681786
1494574,1,-33.897662612137935
1687775,1,-33.89057341391949
1846191,1,-25.966657056483097
3675410,0,-34.882098610023306
3752894,1,-34.87346561174157
1349416,0,-35.1440252829792
1368070,1,-34.02512912563826
1018032,1,-39.89859755797644
1409450,0,-34.29302901016916
2819165,1,-33.93929514110681
816882,0,-33.375718706253515
679946,1,-32.854707006523334
2287257,1,-39.97381040518362
481866,1,-34.93038377425506
3504448,0,-34.60946951638011
1576711,1,-33.96815492046083
1024317,1,-33.756238701742866
954042,1,-33.47948711918859
1394318,0,-34.02957799051387
2990267,0,-34.487290650076446
352029,0,-40.007465936989924
551400,0,-34.72814119873308
1524752,1,-34.2371438383228
903407,0,-34.75883039527002
1464880,0,-35.23468310117155
1035264,1,-30.49282460907638
1685647,1,-35.08098034342384
803746,1,-33.844452370795196
3959786,1,-39.95911363255245
3506382,1,-34.25362291881149
3535732,1,-34.200038831966815
3846554,1,-34.17182485402459
2776705,1,-34.73683933295285
2510532,0,-34.435941661143595
1145988,0,-23.92326921511854
2239980,0,-34.85729878705671
822826,1,-32.48665608905391
3898720,0,-34.76722100403422
2151859,1,-33.18552439851363
3713652,0,-33.472192527504625
3833365,0,-35.22208415133533
2110294,0,-34.17372972908954
3959893,1,-34.060942492151966
1518396,0,-34.292780703424405
3055349,0,-35.0085481173154
877620,1,-34.84072753103771
3180706,0,-34.01953690173939
2218133,1,-33.970673042498134
2551346,1,-33.844686137028134
840746,1,-33.96711987299491
1553527,0,-33.62001416582841
535397,0,-34.62447104815614
3490078,1,-34.02853324688743
1256755,1,-33.84463620801672
672783,1,-39.91728482787742
945814,0,-33.49326233072372
2975241,0,-34.8566458613338
1130978,1,-23.764437793296825
2273394,0,-33.76651737048693
528358,1,-33.68823361993851
976803,1,-33.649832567998935
2763001,1,-33.883213747709895
1015561,1,-34.5046742009097
349772,1,-34.62096355603556
1609381,1,-40.391888153564615
2895598,1,-32.76108441184878
3450308,1,-32.84161297452307
2228772,1,-34.0671559852029
2109483,0,-34.90258975865522
3093593,1,-34.03956389459814
643101,1,-33.53416792839394
3250223,0,-34.5154767417985
3222280,1,-40.306585768590146
353462,1,-35.01088268954213
1473341,1,-40.50243247548726
1026018,1,-34.272648162842124
1971635,1,-34.34585247758411
1004111,0,-34.25597451914648
1221593,1,-33.236053856829024
1715688,0,-34.74485831146836
2782570,0,-34.075360212926824
1258105,0,-39.999642965587064
852461,1,-34.931881283773954
3359269,0,-35.09784742492246
3795046,0,-35.133217166630565
574324,0,-23.45307800631004
333250,0,-33.815450155908856
2458956,1,-40.23190868141779
1264652,0,-34.44001341697262
1346479,0,-35.015827329136144
3279957,0,-33.135240797888905
2583527,1,-39.0496773573386
1096237,0,-24.45025774953297
398327,0,-34.486296841778284
813549,1,-40.22851471478149
2940984,1,-34.26463621958889
2432446,1,-35.268304293040075
1680528,0,-35.10029968348999
2839738,1,-32.83642902327474
2936136,1,-33.30616271991988
325561,0,-34.90035342701302
909842,1,-35.77360791931598
1019223,0,-40.220650391413464
3497602,0,-40.81859741555287
3740173,0,-34.97325634562835
3015705,1,-40.47375856621852
942596,0,-33.68228816654482
2002755,1,-39.748425964013684
2617163,1,-33.98890806114846
1723782,0,-40.156561003887376
405841,1,-34.70647650398481
420074,1,-34.01752390324665
2905679,0,-34.79626361398927
3855781,1,-34.90956197701525
1523240,1,-33.84176933048202
3841373,1,-35.17362171434573
1022194,0,-34.52320488687175
1067142,0,-22.156647957343466
2702638,1,-34.33203910481187
1917252,1,-22.908966467760187
3076848,0,-34.95130466205637
3488285,1,-40.178472598322024
2984819,1,-35.162993792407306
3788238,1,-33.39121821283275
1227202,0,-36.19464315635908
1607718,0,-33.41602987239033
3410786,0,-34.38972580983434
1159078,1,-24.39976060353553
3715447,1,-40.54029884186258
3506686,0,-35.28392957982613
1827681,0,-30.314505905138056
3189466,1,-40.22538865418068
349633,0,-33.99734345297462
1115043,1,-29.619755475313813
3875432,0,-34.153591633853615
1444333,0,-34.02784756371809
2656334,1,-39.910112320891905
3524620,1,-39.69464222869441
1702344,1,-32.62862918618831
1339827,1,-34.16553527377218
1882612,0,-23.717411426605697
1810869,1,-26.22017190235734
2607447,0,-35.114485617728995
1231789,1,-34.849681566037475
3022004,0,-35.35795029594486
1838803,1,-23.690871133899922
452773,0,-34.38722181863585
628583,0,-33.70480981595939
2790264,0,-33.51275147215377
2460891,1,-34.92717860040181
1827764,1,-23.670488305059287
1091450,0,-25.969278657880192
886503,1,-33.43052274963569
1384111,1,-32.94766808808597
2676626,1,-34.00207284579815
3865483,0,-33.899169141422945
1492286,1,-34.106176337003454
2059949,1,-40.07920940192171
1836551,0,-25.40059872819079
2587461,1,-33.939394684208644
1858727,1,-24.75755040327926
618550,0,-32.514250300047856
3501407,0,-34.583512522525474
3801810,1,-33.307679512295344
1574014,0,-34.90981442101307
604218,0,-38.570707534761475
1110860,0,-24.14530344516512
2976855,1,-34.18300027673731
2533962,1,-34.5998011772338
2695913,0,-34.67951092862048
897456,1,-33.32364885669871
2433003,0,-40.72586078921409
1788642,0,-33.953749119600445
1608704,1,-32.82166312757506
3282424,0,-35.292120172671105
1996195,0,-34.00869698888121
3735396,0,-34.78982098735859
1889912,1,-32.8323894612658
2608690,1,-34.500341767467155
2435418,1,-33.706874839859914
371053,1,-34.57302875057703
2871600,0,-23.658332179075444
3429078,1,-33.04987799704854
3797606,0,-34.69536830689177
635639,0,-36.04913453787491
3503565,1,-34.610125054348636
1359997,1,-34.14515474636727
3371585,0,-33.70189974333653
2773099,1,-33.81450397269324
1500293,1,-35.1698336962618
3235721,0,-33.8216754765018
1570962,1,-33.175670715975016
3005031,0,-36.140087467150025
1124997,0,-24.019984303349798
2600147,0,-33.92001422819472
3143593,1,-34.45921250341219
306150,0,-35.77038694653328
195605,0,-40.71570414856878
1343950,1,-33.57616676610688
438478,0,-34.27578178984895
431031,1,-33.018067463599465
609352,1,-33.94944600517895
586213,1,-40.17760152759168
2270078,0,-40.32061447081638
3530674,1,-34.40036785770989
2219579,1,-33.96484971201901
2272985,1,-34.13081192663666
3190278,1,-34.36845466588185
3283196,0,-33.586266409449955
3047981,0,-34.50097550125746
3542951,1,-33.84355283598496
3426374,1,-40.008914623470694
3477022,0,-39.27299715593361
2897343,0,-33.42858853543624
1974633,0,-35.17941588852677
3682373,1,-33.55855988947416
536448,0,-39.882593580987596
1253661,0,-35.41493423967197
2567371,0,-34.60190463518157
1006778,0,-34.99382342178031
2154639,1,-33.720659490310084
3112132,0,-34.3340436737249
317146,0,-34.35423511241764
1741766,1,-33.19078653101828
1148608,0,-24.754040949756543
3393610,1,-34.15121094855744
625770,0,-34.48481968865158
3167985,0,-40.263924455991194
2849624,0,-34.325426602845596
1442930,0,-35.0386782386066
1915529,0,-23.560347577704484
2150145,1,-34.250259200648266
1473393,1,-34.2740471169469
3265581,1,-34.697396280006956
2062684,1,-34.95332631381777
1906717,0,-30.047892831146267
302411,0,-34.50424454736464
1706063,0,-34.20524961284584
2624173,1,-39.76917193686545
1025273,1,-33.994362891967945
2060264,1,-34.34045396105849
1697516,1,-34.507249328158736
3121988,1,-34.45454762490942
2670663,0,-34.648755935726946
3480867,0,-34.33119297964741
2644718,1,-34.50907368597978
2976372,0,-34.3408164594545
3726079,0,-32.770264525313735
291863,0,-33.233487544992784
3652092,1,-39.26170689458949
2612924,0,-35.095694295716704
605077,1,-33.4456876810254
1915265,0,-23.417296354479365
397615,0,-34.930152532022085
911359,0,-35.10167936562341
2785605,1,-33.8942308414225
1210626,0,-34.11157207590043
3069047,0,-34.666025347902654
3857056,0,-35.306205222620804
1916629,0,-23.869697750493895
3931517,1,-35.081695017098994
1840394,0,-23.792185227598548
2266816,0,-34.40453127414989
3024094,0,-34.34796033028317
2783272,0,-34.40790349949293
451711,0,-34.224661714118604
3498146,1,-34.537734051686336
1388897,1,-34.72681243352609
3060154,1,-34.298133230386505
2611183,0,-34.15742276040004
748600,0,-33.650912979629915
1632088,0,-34.61546597656486
3420265,1,-33.03765654781997
3781700,0,-34.19274713824328
1951377,1,-34.46539249589322
3913145,0,-34.02564848924052
755075,1,-34.0620891997221
2849991,0,-34.54724968560255
1837903,0,-22.57333214475464
2974875,0,-33.69928600925126
2528618,0,-34.95023412688374
2155215,1,-33.94624522139442
1703316,0,-34.42391305110867
3533916,0,-33.68621069232052
606140,1,-39.676543250703766
2001984,0,-33.95593637545265
2940449,0,-38.72143529371984
3544923,0,-33.05563068753928
3216699,0,-33.83963970927703
2981680,1,-33.76177300972854
2687577,1,-33.75892675274668
3955920,0,-34.34449150116263
3195917,0,-34.226185904406734
3861870,1,-40.15609942336531
3888251,0,-35.15143096416053
330140,0,-34.93264270961304
2442900,0,-34.23932940460114
231494,0,-33.12647952257547
1010399,1,-34.36114350024356
2277056,0,-36.169462980829636
3653551,0,-34.398546054997226
1206938,0,-34.10500158903395
1296788,1,-34.9954770840436
1522019,1,-34.29486090945574
3153258,1,-34.18416284440104
1737449,1,-34.087463704887945
834338,1,-34.11406569244925
2778596,0,-34.16098394779154
2195004,1,-39.78565847682918
3332913,1,-34.018642850920735
1941132,1,-33.94411795728541
2567597,1,-33.12288815157561
680503,1,-33.27152494086368
1108356,0,-25.035377090005987
2708087,1,-33.41898059277206
599468,0,-32.54583409194217
3689654,1,-35.45109461735913
1311447,0,-33.29381059092805
2970910,0,-33.94949774370139
3404749,0,-33.83848577017531
813788,1,-31.89343137835059
2175474,1,-32.6414316322869
331796,1,-32.65040137476061
3068409,0,-34.76810964430627
673471,0,-33.5691893819155
1674018,1,-33.36636026633635
1043534,1,-23.454277966463007
2013340,0,-34.44617452465599
225712,1,-40.23797546364773
3482052,0,-34.39499213180248
662884,1,-32.70714718118669
3716078,1,-33.27155821204377
2475027,1,-40.22616286745334
2830733,1,-34.17305010983495
3787495,0,-34.13005289108042
3071709,0,-40.46326603058793
2399316,0,-33.97986750019165
1369987,1,-40.248608267218735
2610356,0,-35.42854869474248
807141,0,-34.98615800881074
2630824,0,-40.3240900448771
1287308,1,-34.56902259728528
3756442,0,-36.42620453364666
953096,1,-32.921503943964886
553440,1,-33.17834218715644
3311983,0,-34.24278741770825
1565728,0,-34.1853212309321
1300294,0,-35.13850079511335
2214434,1,-34.41295256973361
3800808,1,-39.870372863956
3051965,0,-34.86025460659135
685440,0,-34.13409484686772
3343380,1,-33.748577607427514
3415067,0,-34.112689820255824
1107654,1,-24.337688786590125
1041517,1,-23.802012146344172
359610,0,-34.30069211248204
2555204,1,-33.55790372561652
3121476,1,-34.30797243368175
232904,0,-34.654717309111
3871370,1,-33.04587555250405
2748692,1,-32.983048946233325
743445,1,-39.99793716668405
517409,1,-34.14069307704595
3540089,0,-34.19645531367095
912551,1,-33.66546543016972
3288739,1,-33.693010453981685
2862575,0,-35.545905013188225
196156,1,-34.42455586200506
2248548,1,-34.041093007057626
1861190,1,-23.31901652121794
2589249,1,-39.45466962233957
1943846,0,-34.93875442381213
1685729,1,-33.831051394295784
2503606,1,-34.89628998491756
3195683,1,-35.46689962345743
1111897,1,-23.318449673657874
3836411,0,-36.14104291203074
2677210,0,-33.85002663389495
817024,1,-33.56665571524098
3181657,0,-35.30219731872583
1857009,1,-23.887095302324834
343743,1,-37.0101295595135
1400844,1,-39.67789898145828
3116272,1,-33.98912395983464
3807677,0,-34.244803597360814
1264780,1,-33.409203858367064
3800128,1,-32.13636950987012
3345381,0,-32.791225517161784
2279653,1,-34.70847906394686
2876534,1,-33.893555531996995
2674106,1,-34.491875145104885
3099236,0,-33.27283780816141
604336,0,-35.264424539138574
2480294,1,-34.06145138342994
1285127,0,-35.23555895426895
3402706,1,-34.429027673425445
2689427,0,-34.6485902073926
3808889,0,-34.839255605276584
2129031,0,-39.43641929136226
3923386,0,-35.549676593312114
3797031,0,-34.5368831932981
1970740,0,-33.77382869914697
3746340,0,-33.56429529466194
3258454,1,-34.39843718242378
258984,1,-34.84105944863257
2021572,0,-34.45589878599321
356702,0,-34.57283206915906
3364437,1,-33.86846657725447
1390555,1,-33.76571117442353
893425,1,-35.577304444457035
2898676,0,-40.366442472872414
499017,0,-34.2116040412378
377186,1,-34.27851965774432
1601711,1,-34.50069680679472
3197132,1,-33.45750332820298
271309,0,-35.73230479793153
1470396,1,-34.371772900196156
2481451,0,-35.41163530742731
3274163,1,-35.67955639513691
1208365,0,-34.089702194063754
465929,1,-33.747491357599735
1748021,1,-40.69527353418797
2411649,0,-34.79678339753574
1902587,1,-21.812603908377145
3803782,0,-35.796148243362566
1670616,1,-33.87744669791947
3286317,0,-34.44984201098548
649921,1,-32.850793777471054
1303709,1,-34.84630842258583
2771844,0,-34.0632956463678
1764852,1,-33.82545744194979
991521,0,-34.505759099120894
2808412,1,-35.16993263706097
514205,0,-35.98340220113822
3870487,1,-34.13396333532593
1314867,0,-34.803597496997774
1290341,1,-33.651018759075555
3300036,1,-40.204295248829546
326578,0,-34.31508267384909
1041634,1,-24.20031388111262
401750,0,-34.74458178322205
1231138,1,-33.74769213546994
3851308,0,-33.96626825669147
314612,0,-32.93414215649733
1225275,1,-34.3562025738593
2598850,0,-40.734791214232516
2861666,1,-33.5899824325484
2516596,1,-33.31060900819231
297242,1,-33.22911481187436
2972739,0,-34.88459409233883
1427610,0,-34.620993722693505
1765560,0,-34.75315375621113
2481851,1,-39.912319833987134
939777,0,-33.43275088970491
1606007,0,-40.996472152353476
3099170,0,-34.48839947585981
1681066,0,-34.69554820121249
3206292,0,-35.543168108531376
3127114,1,-33.84419176878332
1051382,1,-23.869561729986945
3259598,1,-34.87396138161179
2487421,1,-32.960597075293556
636684,0,-31.8800557986025
695540,0,-32.28320152444558
321691,0,-34.592871409595176
636492,1,-33.45244728748993
1345124,0,-35.21614673821165
3208541,0,-33.785599476685285
1197025,0,-33.87292370213258
1517324,0,-33.387086434219924
1059252,1,-29.491301807077367
1089688,1,-24.56555561762689
1098861,1,-29.28567307615465
3835465,1,-33.72064040956237
2667528,0,-34.49853704152237
587509,1,-33.58026968933665
2802740,1,-34.62819493672714
2227685,1,-39.498449230176604
850941,1,-34.0905705001509
1547743,1,-39.35291940712619
3678347,0,-33.12921017005597
1557090,0,-34.93946219201293
640572,1,-32.838730430160275
969142,1,-33.13274638578514
1728838,0,-40.40582632636422
1441605,1,-39.93930503201345
3745884,0,-33.35556687076119
3031858,1,-35.568788958865824
3369560,1,-34.6740395852515
460669,0,-34.41377329695013
1535001,0,-33.650116042116316
1738592,1,-34.88870253721677
3362052,1,-33.08498388468225
3744328,1,-35.440502833146816
612530,0,-34.06675085077528
3897236,0,-34.86539143435101
1618211,0,-35.259664594883255
3923182,0,-33.6797928142776
2005902,0,-34.233246884023956
1356976,0,-33.844409454415995
1072297,1,-23.670268085242878
3404649,0,-35.48146586412381
2111550,1,-34.34630183525029
295558,0,-35.03404187281436
2648684,1,-40.40096388316479
2560585,1,-33.955089459797605
1263225,1,-34.68915733234572
1382560,1,-39.20373959057828
3002013,1,-39.99732714204546
1009609,1,-33.57512695843015
1507494,1,-35.105613188484504
2015355,1,-40.311576642214085
898819,0,-34.51735934646926
1344403,0,-37.18168310058076
1733387,0,-34.56874648725119
2127587,1,-33.221425397424916
201950,1,-33.64314462680804
2498774,0,-35.2130808487879
2518566,1,-34.05777342834202
2897446,1,-34.41843275839123
1815541,1,-22.67756898561074
1393929,1,-39.34440425506293
1868114,0,-23.870180824807576
674875,1,-34.440058348968066
3713578,1,-34.69397107014055
442616,1,-35.238381405921935
3233313,1,-40.21438096256996
3384249,0,-33.57667791418098
537007,1,-33.60844719478544
2573211,1,-33.209810697790466
2782727,1,-33.806656604127916
3950893,0,-35.35707106382831
2019009,1,-33.98987503515188
966603,1,-32.82949751621599
403896,1,-33.6064384229859
3767001,1,-39.78277546938822
2729441,1,-35.394760857125895
1248428,0,-33.68518729447711
568354,1,-32.165637453663905
3251335,0,-34.650107642509795
528101,1,-33.13455985852213
2562182,1,-34.45303652593533
3928346,0,-34.55949873037148
2848953,1,-34.43603440220288
2202271,1,-39.59505730050328
736042,1,-33.809368620242125
203982,1,-40.937563490233615
846585,1,-40.622259510757175
2515664,1,-36.5530274426458
2797374,0,-34.277183676885706
2697576,0,-35.09492868512997
750193,0,-34.45863221875373
2602316,0,-34.725647347206014
430667,0,-35.76030970624937
3877757,1,-34.217905681221836
1393553,0,-33.95303519857801
621874,0,-35.04306871784075
208078,1,-34.1480412732177
2759239,0,-34.026406050154414
1043354,0,-23.05243073999006
2578120,0,-40.908534611198725
1464876,0,-35.107803914227205
2799158,0,-33.60961863920319
584265,0,-33.316171194812114
2969831,1,-40.19297485302449
2132046,0,-34.07730452525695
3347850,1,-34.13203834675257
1430138,1,-33.52491783080884
2687816,0,-34.60884827219374
2697741,1,-34.378175502173185
1058544,0,-24.732128262880558
2937641,1,-39.91005289771236
429374,1,-33.61144688455395
3514160,1,-35.01954908436458
1341535,0,-33.929274638825014
1894419,0,-23.45084377335721
466976,0,-34.305180286374984
426119,0,-34.85868829566025
3151938,1,-34.40459213558585
2504455,0,-34.940163257474254
3304754,1,-34.05735433603365
530490,1,-34.16261705728726
2904667,0,-30.730603198155457
1560973,1,-34.24870887495839
2223699,1,-33.70962487566673
2022687,1,-23.787434365842884
1528173,0,-34.335841830621106
573146,0,-36.14905189302594
999047,1,-35.172943950857096
388952,1,-33.009433900355134
3772061,1,-35.09111639465744
231482,1,-35.387587778985406
981813,1,-40.769289604798324
2831659,0,-34.18996840098324
1934552,0,-33.646311246229516
965489,1,-34.04098498841428
1062878,0,-23.326454112458013
220277,1,-34.72918171312237
669916,1,-34.55107386227359
3051613,1,-32.73070792201124
2135633,0,-34.60268056584502
2213741,0,-35.03167451014848
3287459,1,-34.27656910123155
422142,0,-35.78251215154268
575654,1,-32.930282357833015
3548059,1,-40.175834919024446
1972990,0,-34.05755781950381
2926631,0,-34.7778775829272
3472826,1,-33.227297773461395
1526208,1,-34.86344340759988
1603177,0,-24.76802039910581
3869834,1,-33.40302220737369
624823,1,-32.692023701679986
2014063,0,-32.36688022881261
3123668,1,-34.36184548385583
2730067,1,-33.627977789651986
1867975,1,-23.396812543066247
2813756,1,-34.553774200832656
2820609,0,-34.28331446143779
3795211,1,-39.68987618624473
753814,1,-34.616700582664144
1384990,1,-34.50795263681053
2946611,1,-34.24197877359793
881834,1,-35.106819187699365
2116134,0,-34.40868066149356
1453602,0,-33.250331403541146
2215691,0,-35.02724675553393
1457061,1,-34.082710897868914
3145946,1,-35.2067529053993
2106116,0,-33.83677207851565
3103747,0,-34.291676769682226
2445340,0,-34.52879718315642
1370934,1,-33.52748536110866
3167206,0,-34.78100125073188
2676587,1,-33.785550492572746
275411,1,-35.51195075863297
2989843,1,-34.584836835471506
2819229,0,-35.664936315868324
2854392,1,-34.6704228078568
2513996,0,-34.27687380489354
1033726,1,-34.287812114902536
2823467,0,-34.120324034967105
3739588,0,-34.57762435224558
3058289,1,-34.26625209707576
864661,1,-34.572483406431594
1279741,0,-33.19946511586745
3201954,1,-34.47523110651161
3433513,1,-33.71028859963147
1630137,0,-33.99798161033333
923151,0,-40.141038859100085
2173773,0,-34.65179395950223
2048650,1,-34.62411755519125
1163552,0,-23.87566367107069
3516995,1,-34.33643804184682
2924471,1,-33.37584248287665
221619,0,-32.76912534328454
397811,0,-34.356479886220804
1757074,0,-33.925303337575386
1968031,1,-34.313069241917894
1697385,1,-34.82042409618978
2282236,0,-32.52966324213699
373612,0,-35.43911673034842
1679636,0,-34.25657729133111
907141,1,-34.29284800048345
805327,1,-34.058035862547726
2061161,0,-34.329813258946906
345015,1,-33.969113184461875
3807463,1,-40.248401729290016
1085040,0,-23.034877105297202
2432540,1,-24.888121400891613
1545170,0,-33.90978873249797
2283353,0,-34.84678450407903
2201215,1,-40.38461303191673
308310,0,-33.962455563521964
1716148,1,-34.22178586847078
1363575,1,-33.06540951768731
235652,1,-33.42283379500402
2699157,0,-34.12930136852571
2843686,0,-35.08499005806407
2743973,0,-34.54485043672848
1943340,1,-40.343869406687574
3767086,1,-35.10304051966315
1983584,0,-40.67114563297459
2932340,0,-33.5776292771404
3092380,0,-34.86306048835067
491958,0,-33.215374781608894
3891050,1,-33.2983730208056
1586885,0,-35.18949600527307
553184,1,-34.282751048202314
3832057,0,-33.47273533405985
2545402,1,-33.65870660140766
709564,0,-33.89011426456708
355350,1,-34.31808873290681
2611741,1,-35.547261913513616
1107216,0,-23.594151466506077
2205402,1,-40.19660152046729
3212104,0,-33.85170296722604
2229904,0,-39.83854102942632
3130521,0,-35.56841144276574
3098392,0,-34.43488018375453
2612684,1,-33.77986842912934
3255091,1,-39.84222126037688
1234949,1,-34.08299388182793
2267899,0,-33.12201329071999
2238652,0,-34.134931696428325
578846,0,-33.309748092375045
3259616,1,-33.10452076017402
802998,1,-34.89403603355479
3472898,1,-39.99844669124852
700400,1,-33.37906661197424
1436085,0,-36.063070843420334
3764864,1,-33.15494404391514
594702,0,-33.92103516692083
2516862,1,-33.294794063688244
2713347,1,-33.85529133431409
3705803,0,-39.9679820137369
3501424,0,-34.5289474588077
1892253,0,-24.24240371492092
348552,1,-34.007065551258535
712849,0,-34.93445988881924
2934127,1,-33.054464960008474
1451937,0,-35.771642902331536
3253065,0,-33.81683969386518
2920008,0,-34.2213277397954
2641108,1,-32.26930377140811
416477,1,-34.05548487736189
3440966,0,-39.8148668281014
3886816,0,-34.42038193830599
841015,0,-34.74070408682227
1103172,0,-23.61755048980156
1491021,1,-39.93437747912295
2507097,1,-34.49500716210285
2110870,1,-40.07090321363232
1864705,0,-24.0854714624819
3047319,1,-34.21587305209639
274549,1,-33.47071360802258
2702520,1,-33.890258511494544
2595877,1,-35.35041638769597
1029183,1,-33.21075541269661
2795064,0,-33.679933571781056
1420184,0,-33.467965209937184
1091849,1,-29.174129736539243
664898,0,-34.258707223067624
2996962,1,-33.26245733449926
3671922,0,-34.35463933216691
2213672,0,-33.67201992690684
385563,1,-33.65392489243628
1287142,1,-33.61669290435724
1134825,1,-24.62423176340556
3708770,0,-34.71921738955357
3937548,1,-33.53928648734963
311485,1,-33.08772397539065
3752850,0,-33.86862294614059
3172509,1,-34.71270787492102
2248868,0,-34.322772738283476
1388545,0,-35.07491230409969
3506184,1,-35.06728818633989
218393,0,-34.62152144251134
1739786,1,-34.17911307129917
2984204,1,-34.46598496204471
727050,1,-34.169480319843174
715705,1,-33.91528069021817
2543310,1,-34.44243624568874
1727840,0,-35.8739574295914
761001,0,-34.071221154039655
3467924,0,-33.638353577218844
1869728,1,-23.975666780675073
668798,1,-33.4010888913467
3067233,0,-34.24347641696059
1864085,0,-23.906803188198467
587288,0,-34.746800896067406
1137460,0,-22.849049624740047
1421324,0,-34.652584244786794
2897627,1,-33.28034442499263
751885,1,-33.71967107257819
2724864,0,-34.188993861411085
2197742,1,-39.56522105496461
3731777,0,-34.64363944807784
2483928,0,-33.50437595742077
1703789,0,-38.245764597704046
2270670,0,-33.70689989049728
3730629,1,-32.31143958915958
1614064,1,-34.092275360051076
3041201,0,-34.69555569754612
2111640,0,-35.05414347328804
486617,1,-34.04312094893946
261774,0,-34.567615145319095
638413,0,-35.02633625890245
1461369,0,-34.45065527891306
864290,1,-34.3255240065033
1206867,0,-33.99922937547823
2480669,1,-33.511331607681925
1839151,0,-24.93106494796832
1404931,0,-35.513367510073394
394195,1,-39.980614003446746
2217970,1,-33.81179248352468
1546679,1,-35.173096277892135
1724846,0,-34.911984043707626
2145468,0,-35.00466112971541
1410082,0,-35.128547549981256
202330,1,-35.47195214436354
1387458,1,-39.8366045298796
1292609,0,-34.752967788648085
1632454,1,-33.028978490871445
689726,0,-33.290989758877664
1642059,0,-40.31421409120972
1317054,0,-35.134482348637256
976753,0,-32.757852812943696
1685046,0,-35.055498936103604
1834033,1,-22.83276985118595
2478246,0,-35.10142380216295
1880436,1,-23.16959170383293
3775463,1,-34.78004172602903
1675467,0,-41.084297801640986
2662520,1,-34.50427954637637
1034858,0,-33.67651830939231
679699,0,-34.58880785351592
3779859,0,-32.09643503949786
936457,0,-33.898136873571836
3942170,0,-34.70455014518552
3708009,0,-34.66040660992529
2765827,0,-33.713723721618564
3396201,0,-34.18219741295628
3715378,1,-33.69814711340491
2463425,0,-33.83981239823311
1454008,1,-33.28283600850507
2944599,0,-33.695392842599915
2862941,0,-34.50683848691248
1999287,0,-34.08212822289418
1897828,1,-23.65782849542918
3339138,0,-35.00335895405038
724614,1,-33.463452449955106
2630844,1,-34.716437875409376
1373524,0,-35.112573578433945
3187234,0,-33.13969938945317
2404030,0,-33.34102242725464
1781988,0,-34.0602495367168
2437726,0,-34.73663143488775
285186,1,-35.05234152880719
3446694,1,-33.5951579500563
3717379,1,-34.45764399158545
1083136,0,-23.565555447442108
1863035,0,-23.79199088629551
2283499,0,-33.45418147024066
525714,0,-35.51993978843376
2926351,0,-39.55241275102323
1680629,1,-33.99627796229125
480729,0,-34.3029597457597
2153475,0,-40.49668312626602
2470737,1,-33.504235080004484
1263501,1,-34.723818691154854
3940454,1,-34.46757761188233
1899894,0,-24.39959387715562
2743475,0,-34.96226453414084
2449936,0,-34.6065390846456
2559604,0,-33.90363228009884
2112664,1,-34.7795084119975
1064178,1,-23.471790683519693
3655974,0,-34.28327241785879
877202,1,-34.13526227521718
210739,1,-33.73400014962037
2589109,0,-35.18099900425755
341143,0,-34.07679899330267
3513455,0,-34.7238021836725
2142562,1,-33.770597587634896
3289313,1,-34.67571897392705
3892594,0,-34.07985789696546
977230,1,-34.175646677816786
2438777,0,-34.18735150069606
1916935,0,-23.516759189907255
1007162,1,-33.396084991434535
1411417,1,-34.62406726175789
1161593,0,-29.429409938221013
343391,0,-33.87528391781352
3835262,1,-40.05973237983488
1522214,0,-34.21660329669949
3306309,0,-33.810539968255725
1672830,0,-34.85633209590422
3546492,0,-33.48720222124282
1137914,1,-22.440972888469815
462666,0,-34.16449306470514
2557428,1,-32.89762756507395
1099725,0,-23.7228860118563
562052,1,-34.32976537474816
1777061,0,-35.064297407699435
1367959,1,-39.95019518785485
1113283,1,-23.878273841291833
690741,0,-34.28880587013806
3027881,1,-33.48044096040834
1465824,1,-34.91728587801497
3537628,0,-40.349422887632606
1745701,0,-33.65713619231735
3500221,0,-35.47815051149799
1847580,1,-23.969163869193835
3024024,0,-33.61256514584766
2915400,0,-34.41753510663082
3660301,1,-37.60761681036589
555111,0,-34.98313018652074
1414798,0,-34.35413458571778
3208910,1,-33.9859424930503
2807474,0,-35.106025397142204
2860703,0,-35.14571796439267
3346540,1,-35.57911198134727
1664833,0,-34.625107032415826
1019276,0,-33.22533632091308
2631112,0,-34.618008186804246
633957,1,-35.04012306783041
593917,1,-34.44784101545282
910715,0,-33.514800557410354
641427,0,-34.502555635212694
643339,1,-39.58892541179528
3737777,0,-34.145158394583646
3150696,0,-35.547143260674666
3449674,0,-34.485127596276804
574440,0,-34.842936747374864
962945,0,-35.08503235422574
1817540,0,-24.24920458572736
587919,1,-33.55169028816051
609385,1,-35.1890709704002
1360032,1,-33.02435791358861
589096,0,-34.002950239771764
2597765,0,-34.00357893350459
1840487,0,-24.841300057675255
3805902,0,-33.62605617789
2880567,1,-34.46595597473775
1264953,0,-34.854890876855826
2593496,0,-41.68034099469823
3783062,1,-35.877734056414965
1540127,1,-40.547068568703786
962885,1,-34.38647348286151
3217113,0,-33.258723777229314
2432862,0,-34.66116011572025
2063063,0,-34.09152337423165
2013469,0,-34.259795859415995
1114855,0,-22.496334401602812
1755780,0,-33.31017475699846
1618885,0,-40.80040731339956
3409214,0,-33.84001308668114
872954,0,-35.71625259484592
3182897,1,-34.01021788139895
2975714,1,-32.75058250863259
502470,1,-33.93771764016415
893017,0,-33.952818756403936
2773201,0,-33.8205449837686
1285499,0,-40.93578548680987
3895980,0,-34.00884479089544
3294349,0,-34.92991132435378
2475763,0,-34.304579699161025
3739173,0,-34.979294415026594
1161917,0,-23.178595770536326
3144968,1,-34.21239344279428
2531823,0,-40.44294545932016
817821,1,-32.47491970444697
1373096,1,-39.733377924039615
2185339,1,-34.70348717174438
3242735,0,-33.78280489500144
674303,1,-33.38502079541317
3396766,1,-41.08855369060306
2109520,1,-33.95775366702726
2570306,0,-34.22849642646165
329598,0,-34.016678649887396
1342362,1,-33.67920967890769
2165096,0,-40.004458457664775
1995858,0,-34.80570751710858
1642869,1,-33.64718195314445
3386455,0,-35.055526457419106
1934076,0,-40.44249110917836
1171054,0,-22.2349396418577
339504,1,-33.71957311305661
1355692,0,-34.10748886859767
1342539,0,-34.39555599489609
830029,0,-33.34396037395735
3141228,0,-32.98775106752362
1567431,1,-34.234993305988716
1913959,0,-24.329001796809155
1397889,1,-40.38711322478254
412884,0,-35.69472273374741
641153,1,-33.36425723295139
2636928,1,-34.06302937588142
1975130,1,-40.73540971276884
804315,0,-35.05408168940632
2801471,1,-34.886517435183436
3341462,1,-39.681693620097505
2609543,1,-32.787091762964174
1606315,0,-34.63361551388379
1291108,0,-33.85316366464817
1291484,0,-34.56311915042734
2895512,1,-34.14493521436042
3723469,1,-32.71162615875339
3336036,1,-33.88860706777361
1415111,1,-33.81231088962168
357348,0,-34.938309499206184
3372944,1,-33.04833811164928
3862440,0,-35.27152740842119
1969759,0,-34.390060042615474
2211659,1,-33.43004539440851
627613,1,-34.15336756226012
2996496,0,-34.71648224790838
1748749,0,-32.061702498231156
414167,0,-34.4028645149891
1395132,1,-33.23222315674964
1014570,1,-33.49919978807022
2995495,1,-34.0944233941566
831166,0,-37.81839451839504
1039777,0,-22.65814677843847
3136932,0,-34.51635514744576
1255363,0,-34.686928036527
3085890,0,-34.72673574588408
1079689,0,-23.790306725648488
1232273,0,-35.51565865002135
546650,0,-34.00698815628221
2184614,0,-34.3429978627252
3211831,1,-33.19064149682473
300548,0,-35.00521042484747
1387676,1,-34.16973595560301
1249722,1,-35.228677130645096
3911179,1,-40.11040532639527
2879166,0,-33.50994662279964
3866797,1,-34.946840657409794
3881603,1,-34.62291925740399
2107323,0,-33.233716701282454
2524161,0,-34.69451428459575
545662,0,-34.283695073393744
3410882,0,-33.46102973050773
2178961,1,-33.6513285307818
1381293,0,-34.064808217237164
3759704,0,-33.33827075165221
2754499,1,-34.33848891048748
2188754,0,-40.95172421015335
3103860,1,-35.21952823453925
3194999,0,-34.64760088721607
1623893,0,-33.57881969129395
1672239,0,-35.27051945899768
1608800,0,-34.95781898318342
1689961,0,-34.400252597572205
1593833,0,-35.097302531395435
638567,1,-33.96031896016537
1251570,0,-34.293177310966236
868487,0,-34.340768860728254
1878026,0,-24.398667655932684
581605,0,-33.944864295364354
622836,0,-34.40131178503219
2867255,0,-34.30690488040805
2608153,1,-33.39595800580535
1611371,0,-34.533246809111134
1714174,0,-33.45135780942952
3143476,1,-33.77480503279584
391062,1,-31.433171864202972
3297869,1,-34.86772068894897
1504936,0,-35.72524850083945
2616611,0,-33.83443781237887
266704,0,-34.19909252917845
608299,1,-34.63130332617914
1217587,0,-34.37856736782797
3396697,1,-35.21730314905318
3311987,0,-33.15477234034957
469104,0,-34.72059430134793
1285308,1,-33.9672320637477
3704923,0,-35.51377317476739
2002205,1,-40.473140217064156
3377977,0,-35.28125774076873
2564552,0,-33.411572295621525
629002,0,-32.84268618787379
3058252,0,-34.43365347575069
1336603,0,-33.53002373165485
2637260,1,-33.79785969318119
3181897,0,-34.86231701101767
668753,1,-34.77916109214889
1549519,1,-33.72254038587503
370657,1,-33.84840767398149
1204465,1,-39.6698500670524
289777,1,-34.66000994360452
465982,1,-34.47561132801835
597719,0,-34.677488240823756
3062257,1,-33.54658113436877
1264346,1,-34.15732245288652
2600886,0,-34.06786040121616
200787,0,-37.04539597154203
3041314,1,-32.685915700179606
3728812,0,-34.30724241637881
1711506,0,-34.00665843213396
1893942,1,-22.851901163140095
3045858,1,-40.90953759304817
2122751,1,-33.30561660383149
3528352,1,-34.80562893560182
603812,1,-34.686943637031355
2464993,1,-35.19009890330218
3727286,0,-38.464058831062275
3856068,1,-39.546299326516746
416669,1,-32.585325810088584
302809,0,-33.676345358486984
3344668,0,-34.96807299065455
1362301,0,-33.39336763415105
1413439,0,-34.51392811679619
607593,1,-34.471970078661904
2405997,0,-33.37854992878284
3499812,0,-34.13386962791346
2919284,0,-33.88149769279909
1526131,0,-34.02586415543115
1562840,0,-32.84083980352588
351020,0,-33.495472479331035
2514271,0,-34.89122791353584
1862181,1,-29.837883467459175
1636142,0,-34.67362273869519
1827296,1,-24.851408089596433
3656602,0,-34.64362056459772
332921,0,-34.021993459189105
2982525,1,-34.872389162217914
739586,0,-35.89981545967303
1195322,1,-34.91712669016745
2755737,0,-32.91043369873845
2550620,0,-35.16786015392872
810335,0,-34.454507447619115
1286130,0,-33.948186207227444
843758,0,-33.283721527237994
1945756,1,-33.367081916990436
1664940,1,-34.17808946439913
641640,1,-33.290523191827255
1975355,0,-34.467959838149774
399191,0,-34.1528033231145
2993659,0,-34.895236040957755
1710757,0,-35.477538825792465
3961035,1,-33.20239970016126
2422847,0,-33.94568778550525
1586140,1,-34.03596122651126
939522,0,-34.41415026845795
2012308,0,-33.99936289060969
1310922,0,-34.841801023421155
1964662,0,-34.73919939915533
1612066,1,-34.01618583317853
1019458,1,-39.90707368443331
1986523,0,-40.27057978390028
3914506,0,-32.99306240405667
3707990,1,-40.19195880968353
945419,0,-34.54571992526981
3503867,0,-35.053294114924384
3434549,0,-34.256154352364874
710677,1,-35.15690754644675
3209365,0,-33.76215025611332
3906654,1,-34.74832722431311
273879,0,-35.00686717907107
1984811,0,-34.54810009922328
3366075,1,-34.897515870099895
2470031,1,-35.320784796920954
2631858,1,-33.77829708522383
1463843,1,-40.06798611935519
1012800,0,-34.629996913188236
3181132,1,-33.89409525966592
1524119,1,-33.77919728544046
2442240,0,-33.890405108109356
2206710,0,-35.105777794508285
2136994,1,-34.924481476842196
3535181,1,-34.06956808914116
1739307,1,-34.12053636279421
1411555,1,-34.725273220224025
3294197,0,-33.782388025742335
3436024,1,-33.623800793236214
992030,1,-33.00864420197302
207758,0,-33.89613198864966
1859312,1,-23.80949477116293
911588,1,-34.2037068183159
3319688,0,-35.18646854784843
1046617,1,-21.99530336094233
2433989,1,-33.837566744605354
1075307,0,-21.942465041848454
1473185,1,-33.5866420670273
611485,1,-33.74566279998007
3837196,1,-39.53394736077461
1617260,1,-34.46471825619988
2280731,0,-34.45596889971492
2588382,1,-33.89215357043039
2282676,1,-34.63617275392135
3254380,1,-33.829075654279876
2181343,0,-33.564403583713776
496754,1,-33.46097947894653
2724090,0,-34.38005703520805
3373302,0,-35.40973680389382
3865744,1,-40.16226238017056
2597767,1,-33.7971091245914
3716897,0,-34.898313382746046
517200,0,-35.96977415363593
3920552,1,-33.38002741822333
1911484,1,-23.632364805854436
2219789,0,-33.82530439087093
1975404,1,-34.14349202902609
3250091,1,-34.61085945221765
2190754,1,-34.358235151372476
2208521,0,-33.59483806317338
3759174,0,-34.12755579047132
1040866,1,-23.11760752569345
887297,0,-33.96967509721948
761125,1,-34.51360043900878
2574165,0,-34.56789086832204
2161544,1,-35.561445427328266
1064880,0,-24.604810517210865
1577866,1,-34.22855609408689
1240548,1,-34.439012689243825
3298114,1,-40.16986138757581
1699909,0,-33.22289816231037
948556,1,-40.41749085164635
621067,1,-35.290069164357256
3079329,1,-34.455337108133655
2636226,1,-33.43398413484739
1303840,0,-34.852299103697845
3528271,1,-34.14029834131409
404048,0,-35.29062539266218
3846150,1,-35.67041561961574
1099412,1,-22.58876612909779
1271620,1,-34.45863110913546
2488122,0,-34.81437897816924
1015458,0,-33.60052063036961
1606614,0,-39.936557598289205
834985,1,-32.76333465121888
997195,1,-33.84454928391948
3734451,0,-34.55173790432984
1426090,0,-33.645728517937776
2916187,1,-32.779973670387584
3439942,0,-33.86232427315635
3189439,1,-39.88297601301499
1202780,0,-40.74143426217474
1810734,1,-22.08044334035565
2718713,0,-40.091055261287174
2847231,1,-34.20964365353851
2537074,1,-33.91767015684759
3801934,0,-33.15925151201319
2825388,1,-33.25534732476875
2876540,0,-33.85861382351115
3273157,1,-40.8625072433377
2511185,1,-35.044415697559074
2421488,1,-34.59106071445086
3763639,0,-34.24665947051098
1201049,0,-34.95232557269913
1668322,1,-33.16837033464965
2504404,1,-32.79567585713673
1501401,1,-33.33694354743673
3079875,0,-35.034949089172564
2992161,0,-41.27591346656448
631933,0,-33.939400887468196
1448607,1,-33.51349225805652
473521,0,-34.74561276423428
2226162,1,-32.750384716845424
3742710,0,-34.56741445550002
350511,1,-40.84642139939129
1547045,1,-34.34678440632763
3055263,0,-33.8284635659624
3300244,0,-34.83443537474591
3917710,0,-33.26763170864304
2816379,0,-33.133244510503225
837993,1,-34.58804911943584
440434,1,-34.52373308561093
1482138,1,-33.47824506366641
626140,0,-33.05012268096466
1212717,0,-33.85200501139127
1358818,1,-33.78652406851505
3194747,1,-33.967758086383135
2907387,0,-33.24800339285674
3727647,1,-32.639382060057955
3150861,0,-40.177952549255636
1810651,1,-23.72659363182517
3128573,1,-40.09543907173921
2633895,0,-34.033134760129414
1238754,0,-34.13171330670559
2813438,0,-33.46503350332566
3859849,1,-33.28728676068666
307943,1,-33.22944826387336
687713,1,-33.87230363857868
1577388,0,-33.29010857626881
3108841,1,-39.675435105078165
729573,1,-35.59378275430497
3781558,0,-34.55544215057988
3951692,0,-35.602047216377684
3693909,0,-35.709521307811016
2945780,0,-33.991705728354795
2560863,1,-39.52995972445043
1291470,0,-34.64262909011742
1558858,0,-34.74843515332922
3906940,1,-34.911933709828595
3340420,0,-40.31814884674351
813922,1,-33.59942700641759
2482874,0,-39.80363230129826
3655198,0,-35.23914432275888
2868704,0,-35.22206034727349
3357608,0,-34.8738532766758
3147188,0,-35.8157807935032
972517,0,-40.42082655956808
2689719,1,-40.481488258907476
958856,0,-34.77458578599002
851655,0,-34.6128210580988
523895,0,-32.88300967862251
1339085,1,-34.752173399970594
3438983,1,-33.44480695083387
1293784,1,-34.04753966820522
1170420,0,-24.530464086739695
3220754,0,-35.479572262104384
561658,0,-34.07592341263697
2118823,1,-35.360851562898375
1770595,1,-33.667531836575286
977890,0,-34.435060112753405
1172313,1,-23.162735996599157
3765134,0,-32.99099987307415
2995249,0,-33.63097137766204
1365100,1,-33.49624119130213
2922995,1,-34.53633351902122
2053572,1,-38.25024665725432
866139,1,-34.97557407808886
3190818,1,-33.57829882899182
3372243,0,-35.551818015734625
1231769,1,-33.71453533743933
1947286,0,-34.93383184203041
1381442,0,-33.9682011855144
3481634,0,-34.86091638002301
431550,1,-33.35067842291791
463796,0,-35.18614723029828
1522718,0,-33.709460571371146
2230712,0,-35.39989985680825
712374,0,-34.89045677721954
2575170,1,-36.158543146459444
2730713,0,-39.707049802636654
2935346,1,-34.26050677451108
360947,1,-33.929837587762776
1750436,1,-34.737589312377104
409186,0,-35.40787569588449
3185797,0,-34.36624478288508
3494635,1,-33.79267523378295
1354043,1,-33.46055350456638
248506,0,-34.18967374459805
1071407,0,-23.10967176408106
609124,1,-34.742098614327126
823858,1,-33.993973528607015
252404,1,-33.50294189269698
1437723,1,-40.617972905110136
3763915,0,-35.28396600024981
2173232,1,-34.700762019437086
3173040,0,-35.14943516248519
485907,0,-35.345985611196426
1906384,0,-23.7289160410389
3309244,1,-34.08141764135016
2475739,1,-34.675357575713626
3936011,1,-34.44201539375474
2019333,0,-34.67608603148245
205182,1,-34.58262590601333
3131684,0,-34.81830398037216
2413921,1,-33.579542985521634
963136,1,-34.56035954244653
1035573,0,-33.45279679506246
432055,1,-34.67552709979555
3056351,1,-34.3377254850445
531871,0,-34.25363258135901
1838179,0,-24.169976876471825
2436306,1,-34.40237704974317
3333578,0,-34.57431693696822
1847230,0,-25.342505088068204
1432615,1,-33.40954587962793
2819599,0,-34.36873301628213
425372,0,-34.58824846730278
1874462,0,-30.003436840778832
1861765,0,-23.26570665769654
3875758,0,-34.139334362701554
551423,1,-35.27717816744084
671534,0,-33.93631869559122
1749439,1,-34.102113106323685
2850393,1,-33.34969051956531
3809640,1,-34.16108428853317
1706797,0,-33.78601073187396
233772,0,-34.064766924511055
1633587,1,-39.71961144518838
1113319,0,-23.397367931743645
2771257,0,-34.06160410494473
1680321,0,-34.738879575255744
1306935,1,-35.5048249698556
1463730,0,-34.724672539616435
2630064,1,-33.8820923877789
231025,1,-35.43660360442866
2611504,1,-32.7624195871039
3546883,1,-33.65138245768393
1595797,0,-34.94193354324968
2273061,0,-33.42595645262436
3738464,1,-34.77609193591004
1485892,0,-34.4295870622428
3357438,0,-33.35680919294861
2426308,1,-33.2753378444386
3783361,0,-34.20930157889261
2729596,0,-34.413836807514876
1149433,1,-23.044185775363424
2114394,0,-40.527231228150285
213253,0,-34.89166672743606
3673972,1,-34.09537688481793
3148984,0,-40.46931363582449
473182,0,-34.39506479675555
3316479,0,-34.02879562890268
905633,0,-35.34284332909054
1578161,0,-33.68629467193806
3953769,1,-34.22065855364378
850554,0,-34.92821967052354
2209288,1,-35.0100966341291
411863,1,-35.26637643298387
1972068,1,-34.10190829661771
394770,1,-35.215474086967724
1718627,1,-32.64950607854888
2658153,1,-38.97739271741381
3116067,1,-33.46732193342946
3752250,1,-33.55715412825577
1597071,1,-40.02740093588075
2230311,1,-34.113287663204154
1572903,1,-40.320278376025364
2505189,1,-34.35659715063227
2900192,0,-34.95909237673267
986684,1,-33.79710402680494
654509,0,-40.51750691657959
736571,0,-35.35934416068402
2624850,0,-34.03110112423341
2647763,1,-33.63725022871568
1294460,0,-36.55582185474508
1627668,1,-33.846757218534066
1760100,0,-35.57429665229037
1860323,0,-23.677474238252444
1347289,0,-34.401221050308415
3844308,1,-34.15047683407054
1136253,1,-22.776288943726897
3178711,1,-33.76598317792513
3143203,0,-34.146216858013446
2478218,0,-34.14450695426941
2160189,0,-35.09071412299236
437659,1,-32.950696499370586
270686,0,-36.11049651463266
595882,1,-33.60701301192943
2436567,1,-33.74398477209307
1849721,0,-23.740706252333858
3449015,0,-34.40822752634876
3417747,0,-33.489951083491064
884952,0,-33.86184178091971
287442,1,-34.48115609840018
279855,0,-34.32389409835031
230802,0,-33.917314824373975
2228550,0,-40.571662036851436
2032380,1,-39.34962876578009
525485,0,-33.889942344259524
2505558,1,-34.69473128233805
3207294,0,-34.42086555577002
3300086,0,-33.386191857857
3445955,0,-33.275152431713735
961170,1,-34.60290031249476
3105754,1,-32.62956047288155
1645564,1,-33.53741951221652
3797403,0,-33.89154198256599
1357144,1,-34.98947454582123
3543650,1,-33.607406839044074
692834,0,-33.987214483939766
884303,0,-33.19496300099829
3428990,1,-38.98742332717442
1236526,0,-33.76759028564661
3464963,0,-33.90300635361903
1879946,1,-30.02844406680691
3468977,1,-34.78863998519142
3002790,0,-35.238569902936675
1210791,0,-33.903075412852125
2170076,1,-33.926978873941614
3872564,0,-37.26240831931462
417878,1,-33.37690835618444
297278,0,-34.11247018710351
1424254,0,-41.15657208487079
1769487,0,-34.50012881277304
3270057,0,-34.063104380681025
2819150,1,-31.44924413396135
1433643,0,-40.9218706018741
3214645,1,-33.695850604005955
291932,1,-35.61900914151117
1859444,1,-23.66892886616608
3448846,0,-33.99650035493678
3860543,1,-35.48199324051251
1891276,0,-24.74755273474705
329105,0,-35.75491193696612
3542031,0,-33.84539335947666
573345,1,-33.26923854346999
2999608,0,-34.85536271328842
2704244,1,-40.061943304272305
2261174,0,-33.106685380224945
567235,0,-34.75967270488828
489372,1,-33.51260870440609
3545459,1,-32.931368627948814
419347,0,-40.17078031110998
1518749,1,-36.090849505131395
727362,1,-33.28312272183358
1531620,1,-32.68844342833749
747587,0,-39.955204027957144
1819041,1,-23.80852965379754
1321884,1,-33.94094523697296
3001038,1,-34.21946263040985
744198,0,-34.18421269749283
712943,0,-33.60790448353108
2819121,0,-34.82299838514303
1298820,1,-34.610888306459586
1041867,0,-23.13731811966104
1278710,1,-34.77146196411506
445430,1,-35.87509199413402
1253835,1,-40.80483212284075
1487915,0,-34.19179743944733
2053011,0,-34.8308945265664
2941090,1,-34.116399346888926
3310785,1,-33.979641001657455
1606904,1,-34.57426878032102
1423003,0,-34.7132422411212
1470007,1,-33.552124574774446
3534605,1,-34.749225057537664
2880945,0,-34.28852825267643
642083,1,-33.90484513396065
3904548,1,-39.79913629621377
1066022,0,-23.22208312422538
878232,0,-32.70937729220663
2003202,0,-38.551447532309446
2015012,0,-34.26921041407731
3285217,0,-33.72718731250776
1138596,1,-23.67221086040816
3294986,1,-34.1994199408777
454715,0,-34.32649157885185
2811410,1,-33.919549398779985
252890,1,-34.10071290214749
3369700,0,-32.607647544559114
3545640,1,-39.55725487612368
2412527,1,-40.133646430418096
2948088,0,-41.02259312092238
2693424,0,-34.543808415680196
2685571,0,-33.96037437738688
2789665,0,-34.61156372391174
2833449,0,-34.16655724384425
2137885,0,-34.851205137106255
2736141,0,-34.52392497040001
2841456,1,-33.13436509882586
977238,0,-40.149233161775925
3687197,0,-34.02409722780316
1291695,1,-33.796044808615264
3215750,0,-39.664785461547055
2540590,0,-35.257694805544006
3844572,1,-35.34867928594814
1901540,0,-23.921509172262155
3082478,1,-34.427816199072495
1024272,0,-33.52638434206805
431750,0,-34.113594941274656
1593655,0,-34.25940940426328
1292534,0,-35.84141123432472
3929860,0,-35.114042606289466
421106,1,-33.2383037500322
1754430,1,-32.29062632495403
3397732,1,-33.840459833715165
2169447,1,-33.05514241017706
1376041,1,-39.462711871899586
235398,0,-34.84149651927888
1469112,1,-34.27068232368401
487567,1,-34.22986049552608
3508206,1,-34.54111602679582
3025116,1,-33.23556405549218
671082,0,-33.543145772337986
458463,1,-34.6195975012837
3476147,1,-33.5997470598851
3176266,0,-35.22013379025719
2647704,0,-39.75582985789285
1542242,1,-34.95170747788913
691775,0,-34.71666108382896
199160,0,-36.0326904678329
713517,0,-33.84146232649337
1136533,0,-28.91928103289651
1772784,1,-33.49286990904611
3322123,1,-33.53518037541981
2947275,0,-39.594741880106874
2119486,0,-40.43252105342344
1855228,1,-23.59234845278279
1637138,1,-33.48339169808242
851392,0,-33.516660740024115
3441538,0,-33.3347949031504
1733176,1,-40.355188596026316
3759293,1,-33.51482942618239
735745,1,-34.121450118993046
3777765,0,-35.473863052720795
1693870,0,-36.06747125994536
3058048,1,-34.71009517624385
2273448,0,-34.600995120766285
855522,1,-33.82364658265597
1437322,0,-34.61324890148972
1890584,1,-23.137732927940082
3506318,0,-34.062118757921134
3139014,1,-34.20794277110919
3955122,0,-34.3929633191697
2745742,0,-34.09152857766748
480471,0,-35.508148392014654
1505367,1,-33.124533886774806
737047,1,-33.60978335496092
992555,0,-34.034297516618786
1373872,1,-35.048238821248624
2715103,1,-35.03794860258607
3750476,1,-34.090209204990444
1997755,1,-34.277248862800654
262209,1,-40.142906819308855
3428888,0,-33.51815327869233
215397,1,-34.1320276992629
2060465,0,-33.801966264055054
2122789,0,-39.42235299630959
570220,0,-34.96164568481523
709768,0,-34.24226510868638
377882,1,-34.17153921648782
812446,1,-35.24393819783722
2749778,0,-34.59351100076476
3132332,0,-40.51695124737314
3399244,1,-33.65958844371314
3543008,0,-33.96424038443831
1013502,0,-34.008849420547
1238875,1,-34.38533125932959
3791820,1,-33.84240569069192
3053878,1,-34.84401102355274
1292655,0,-34.07241845913374
3410775,1,-34.39629056953838
305758,1,-34.62627322383773
1619300,1,-32.778382301983136
1353465,1,-40.190346390387454
3102685,1,-33.944060283270396
3247238,0,-34.27258088348277
1140941,1,-20.90747220900105
449732,0,-34.77423344900547
742708,1,-34.46458809711626
3653684,0,-34.76801034621228
2668746,0,-34.87596829219804
715692,0,-34.3797916677546
3487381,0,-34.79487334668459
2453518,0,-34.697156489968975
2577139,1,-35.221114351377004
2412604,1,-32.80402859922599
761149,0,-32.32679672106614
2257965,0,-33.674660412840225
1285740,0,-40.186557884576885
1825854,1,-24.524803818064374
3365218,0,-34.472301810523
3789687,0,-34.604292964171805
3003031,1,-33.59523033219108
3781493,1,-34.72650208863845
2274412,0,-34.59997411099937
2663763,0,-34.470996732657326
973882,0,-40.128473484147555
1106717,0,-29.948209197274554
644649,0,-35.380240243539056
1145467,0,-22.876760326614253
3392076,0,-40.466931960532584
309413,1,-35.44540982924929
3289844,0,-34.45868200007166
2850926,0,-34.23582538949029
639511,0,-35.39464382186005
1366799,1,-32.90831824869036
2867802,0,-34.34449107838968
1865914,0,-24.32218232721086
1897500,0,-23.407044075307176
2513190,0,-34.87348939299606
2969786,1,-34.62398523040272
283916,1,-34.73525138137728
2567526,1,-34.193677526015826
2948884,1,-33.261699017108896
962226,0,-34.45009284174974
2225743,0,-40.47765547173756
440697,0,-39.69969963453747
3031449,0,-35.499022195198435
1037643,0,-40.20324268045291
3069581,1,-34.30084538269448
1108802,1,-22.721255384798944
2244953,1,-34.77188391855563
1294289,1,-34.4638370499768
963826,0,-34.065539532486845
3176220,1,-33.108375893143496
3027829,1,-34.689176911211334
1020375,1,-35.54805442632059
2114004,1,-33.797506255383
2164581,1,-33.17541944731188
1644412,0,-34.04175986729328
440488,1,-40.136601601014114
2738651,1,-33.975295666317464
1014987,0,-35.14820703248206
1437446,0,-39.91549191840206
2557441,0,-35.07233959046019
3341088,0,-34.05348573395917
3763828,1,-32.95529802550272
2506693,0,-35.03676488152006
3275658,0,-34.048462357432285
2494047,0,-40.073775334938446
543138,0,-33.856613754317586
3763988,1,-34.224793772901464
3853533,1,-35.80283525097227
1201529,0,-33.408144764011055
1338697,0,-40.33386025530764
2219648,1,-39.75662217981968
480409,0,-34.73134977703029
2783136,0,-34.44685837969117
958883,1,-40.30151545202922
3928223,0,-35.2267659011879
1785872,0,-35.31001422851215
3927533,1,-35.39359020442566
1905367,0,-23.55390769981076
2198470,0,-34.450266619922665
2044224,0,-24.65295574432302
1621130,1,-39.93485586037337
3019319,0,-34.46836144869134
514795,0,-34.325868849934395
1143326,1,-22.37013505776179
570733,1,-33.47764314409313
1902914,1,-22.047621735757854
2706264,0,-41.20084168335877
3281774,1,-34.1206229151297
1434953,0,-33.677980636918726
2796323,1,-34.06534757807414
3439163,0,-34.94116338724743
3339305,1,-35.34923388163756
3003908,0,-34.489812350527735
1763071,0,-34.42827683318797
301903,0,-40.35729209988751
1643546,0,-40.25321030745141
3859997,0,-35.15035957246397
1150654,0,-24.822732894273326
2977532,1,-36.00850878463313
3200898,0,-34.60451546472679
2551470,0,-39.00802008133009
3135602,1,-34.552841080277
1006705,1,-34.06819503010571
2217512,1,-39.67798769619748
487487,1,-34.63507844469064
1134465,1,-23.237790307684925
3432332,0,-36.3797491973337
907409,0,-41.09461512113933
544677,0,-34.716304277160006
3086041,0,-34.74463076975653
456952,0,-34.5422667769008
522186,1,-33.35664613492233
735601,1,-34.551203714213926
2473165,0,-40.623194539486505
235461,0,-34.214564443332684
1420497,1,-33.97320987176224
2915935,0,-34.27825143104428
2121930,1,-34.78063826633977
1420411,0,-41.58117813443621
522578,1,-33.79197942007656
2508383,0,-34.612917908433715
2684504,1,-34.010475647018424
313725,0,-34.85805944683715
1056709,0,-25.50119601233462
212095,0,-35.17183263066844
365115,0,-33.78103617540311
394043,1,-32.58048837237962
1909906,0,-23.90227926330942
3107580,0,-34.73616101992975
667917,0,-39.66032631046769
420126,1,-35.08980889494508
3411839,1,-32.59053294740689
2155696,1,-34.524739610901804
1419216,1,-34.322751079211955
532375,0,-35.170212494273265
2698328,0,-34.81919523500407
2929833,1,-34.38768937096921
1680496,0,-35.946266227472904
1334785,1,-33.90806403740756
2665917,0,-35.102329851749225
826895,0,-33.35581633051696
2495899,0,-40.31987604154
1169214,0,-21.89060874361017
3361166,1,-32.9847660243263
372567,0,-34.64387736364071
679501,1,-34.22875781778121
1026029,1,-39.7145489593532
2714726,0,-35.214622976744856
295080,0,-34.22812019514066
1428795,0,-34.63113087777506
2936534,1,-33.72916818353021
1165680,0,-28.439161289179328
3157431,0,-34.31327253343924
755359,1,-33.06171406751122
3037484,1,-34.0469663101018
1015620,1,-33.17472156837717
235120,1,-34.0215112856548
2444711,0,-34.08625643071912
3272880,0,-33.940765902217656
1787320,1,-33.57360336863979
3941686,1,-35.02531351395528
983778,1,-33.62392849657036
2533610,1,-33.301480684827816
2552424,0,-34.43080663804514
1778277,1,-32.318814734161414
1295807,0,-33.66331244403152
357889,1,-33.75959356791526
3049525,0,-33.93329710233846
1692158,0,-23.28853933924083
1285857,0,-34.56272128686064
3337056,1,-34.5576416497476
545508,1,-33.737267813983884
463311,0,-34.39667784521391
1083112,0,-24.69469707644822
1293673,0,-33.24214397430106
474603,1,-33.33098834969181
2458947,1,-34.06501321254745
2830506,0,-35.103946209630045
3847544,1,-34.431912228456866
3214187,0,-34.79690059143997
1521106,1,-33.65180906605222
1708626,1,-33.09646729302012
2837383,1,-34.529949536394504
3907013,1,-33.140071937744025
1678275,0,-35.01574288735829
2254830,1,-33.77701702776139
1919254,0,-25.038471417591296
1292793,0,-40.542446197966406
3257216,1,-35.18145023190155
2418755,0,-32.27211957413479
3174803,1,-34.40775492890732
1029055,0,-40.37847408638819
800010,0,-35.937302152670846
2792502,1,-33.99845237922812
2238757,0,-34.72539614499655
1428124,0,-33.8405445280991
1202967,1,-33.0286677462421
880653,1,-40.14577723434086
572114,1,-35.06619555692288
350801,0,-34.75291718315212
2685838,0,-39.624951182595204
637975,0,-35.39447121365357
1405235,1,-33.24225768569611
980269,1,-38.727243971743974
1762317,1,-35.31288502702366
3887986,0,-34.15405685533403
3223140,1,-34.308315276637416
660183,0,-33.51757542061245
2550788,0,-33.98490559165489
2279121,0,-34.23398929235188
1158218,0,-23.65584722979926
2962937,1,-33.63214063069122
3341455,0,-34.17663641050255
1226463,0,-40.489639703212426
1683510,1,-33.852071557495385
2885508,0,-33.87807622132859
862620,0,-34.9111939888777
378033,1,-34.226089327738215
2984582,1,-33.85781061774105
1494367,0,-34.92883445629523
1383943,1,-34.26933535109531
2632326,0,-33.78131176685461
2485700,0,-36.131390454586445
3427527,0,-34.35950705456414
437046,0,-34.28339068094999
2257447,0,-34.050196276209256
3536299,1,-33.45320724808009
1892736,0,-22.479941789515088
1218984,1,-34.06321145800048
328348,0,-33.98606023770979
3347325,1,-34.498577169802736
1726559,1,-34.18827746220199
3489276,0,-34.45630893169285
2018793,1,-33.619043053403566
2813272,0,-34.79462382444149
1418765,0,-34.774264401317566
3379166,0,-34.07810088839265
576677,1,-33.72494920265391
3668031,0,-35.02244174067797
2015033,1,-33.5664774173301
3949686,0,-36.14340944662546
2982497,0,-39.99952229131298
3496915,1,-33.85021233920665
3439329,1,-34.00752914832659
1935210,1,-33.164436205166986
2535516,1,-33.63464805850649
1810157,0,-24.625459960310444
3260826,1,-34.95150697278643
1599896,1,-33.550447485602966
3889822,0,-35.380586858423655
3284148,0,-34.42997210278904
3113755,1,-33.565670064467476
2545876,0,-37.31864995705781
3343175,0,-34.12117578586419
842452,1,-34.651356267371234
3362711,0,-34.040435615953434
1957613,1,-34.91471634146526
3930180,1,-33.89052572590608
3710284,0,-34.83551980711919
1535221,1,-34.11996399222602
3461262,1,-34.3545126909742
3837706,1,-34.72583483880929
360067,0,-35.65261352382792
1621345,1,-34.71859898946254
1410351,1,-39.29884936746322
872323,1,-40.158192187336645
3309051,1,-35.167038401313285
1605703,0,-34.03414521135284
2695652,0,-34.13557122152573
2456739,1,-34.80616438873709
1386359,0,-35.33420000964524
2455132,0,-40.20437549773447
1106703,1,-23.12984611476004
344574,1,-33.64940664717562
3152386,1,-33.76203580867824
3228586,0,-34.38063336612951
1013306,1,-34.48523414192548
1580690,1,-33.87753221011052
3378996,0,-33.47698288525109
2813004,0,-35.83560773048388
2683684,1,-33.03934966128105
1316513,1,-34.901225616108775
3891619,0,-33.267211387203076
2123380,0,-34.421971979091715
3722733,1,-34.54290398397198
396447,0,-34.609371090109335
3219269,0,-33.5422202092617
1106586,0,-22.476318564291
3785801,1,-40.44516029269294
452439,1,-34.83660989983048
718820,0,-34.79261665159499
1951453,1,-33.82139327941283
1767701,0,-35.199718246548905
835294,1,-33.93856194960596
1160841,0,-24.008839602807466
3522406,1,-39.9531030224288
1342486,0,-34.74872327611633
3935269,1,-35.55817526336778
1079325,1,-22.795977624548964
663681,1,-40.15548349875032
643852,1,-33.77594788896219
1538651,0,-40.44537538639228
1856590,0,-23.42003772674998
2914956,0,-34.84271651113974
1333540,1,-34.39352575972118
1957285,1,-34.398335245218796
258871,0,-36.23169074860802
3670146,0,-40.41400965709148
1735467,1,-40.64742782763581
279209,1,-33.85738594437628
3150021,0,-34.42459740665407
2810383,0,-34.08729718686457
1516913,0,-40.102779208831464
845368,1,-34.09870167109322
536022,1,-34.16214079517334
3349462,0,-33.99569170459736
2728253,1,-34.56165921679608
1752165,1,-35.60484965145587
330686,0,-40.44911139572117
3075381,0,-40.36314886829505
3196867,0,-33.36005543380934
3183186,0,-40.980341370146185
2702997,1,-34.521876211758936
2602665,0,-34.26420967798487
2134268,0,-34.494749465032434
2125916,0,-33.94204134614202
3487459,1,-34.29413903919547
985151,1,-33.46073290097422
1947785,1,-36.69345140570823
3928606,0,-40.05008300215138
1068552,1,-25.966997544184387
1040896,0,-23.403055793542865
1139477,0,-24.27008875382608
526197,0,-33.98115506701179
3332586,1,-33.340923186775406
2785496,0,-41.08789259127828
1124058,0,-24.54465742001983
3209359,1,-34.66766712290793
2182249,1,-33.55147413852927
2429239,0,-40.101454710931016
1524369,0,-34.09298837006921
3491290,1,-33.491345222122895
1110351,0,-24.056261566834262
2782986,0,-35.56518833794413
2557251,0,-33.994268562987116
3518175,0,-35.404071932580514
3837155,0,-34.3738146844778
2284239,1,-33.58517594407951
1450970,0,-34.11356513871515
1360151,0,-40.328898313847525
2238764,1,-34.17240165211084
759831,0,-34.28265496476028
2584145,0,-39.59770356969463
3717402,0,-40.171961027501176
1953109,0,-35.144609196686076
1748057,1,-35.36338490055725
2569001,0,-34.85546990035353
813531,1,-40.4801851813923
685736,0,-34.44928499526801
1086462,0,-24.877255883322224
3482024,1,-33.23601468822353
481644,0,-33.7310443449783
3690394,0,-34.292588326949016
2801228,0,-33.591329881409145
3392248,0,-33.61667820511406
1937971,0,-34.14513631845341
2608395,1,-35.359791677225225
3718881,0,-34.34212959393893
3345439,0,-34.31097974842012
900285,0,-34.57836300348495
507309,0,-33.480967957376976
992134,0,-33.047489712161045
2239726,1,-34.271047443687046
1701912,0,-35.35252148965344
1206461,0,-34.30343977420825
1467890,1,-39.823127242412774
1830575,1,-24.623081302697074
2212334,0,-33.73517066622421
2814323,0,-35.18174401888645
644666,0,-35.04129254402456
1102757,1,-29.66520752528352
2791675,1,-40.72050353187194
1849338,0,-24.58880884394427
2473793,1,-34.15279345736965
1045533,1,-32.0585405609036
3767397,0,-34.46436716014969
733882,1,-33.44942039149715
620697,0,-34.3797168409815
3759725,1,-39.49130135762268
1151545,0,-24.275300548396743
901546,0,-33.5041622214101
3095625,1,-39.97754928942949
1111241,1,-23.43853076051452
1559170,0,-34.293529965587055
2236865,0,-34.98741112735232
1199546,1,-34.311844204515296
2153793,0,-35.93201128009254
329564,1,-39.31073278241896
3502392,1,-34.736914159727505
2144007,0,-35.0438595447522
1209258,1,-34.59153157683153
2494316,1,-33.262061831637126
3329023,0,-33.38167681067515
3708714,0,-35.535560414909575
889264,1,-34.28023253353914
918865,1,-40.904773836147314
917803,1,-33.13658782368667
505567,0,-34.565917980636705
218908,0,-34.76483080514786
2521381,0,-39.59654531220563
1383599,1,-34.5695806208774
2980052,0,-35.077255664079246
1825036,0,-24.881906224953635
3865337,1,-34.788462877696304
2001119,1,-40.63815664683586
379207,1,-34.713105291654834
1025711,0,-34.74585414259566
2863318,0,-34.5042233084278
3759572,0,-34.03498386925907
2671714,1,-35.639993508209294
3472982,1,-34.143264544165305
550450,0,-39.816563463287096
2801102,1,-34.053116332024885
958137,1,-35.01637364662784
1040033,0,-24.179820240002726
1843548,0,-24.371546709676075
2462594,1,-33.96013102024449
3084337,0,-33.92027961141039
247362,1,-32.62832648437056
3113233,1,-34.09980577242719
2938549,1,-32.89109935876195
3042977,1,-33.498995082801024
1336119,0,-33.95933911922495
886635,0,-34.17724269426751
964055,0,-34.32188852845382
3366767,1,-32.89592088459851
3136831,0,-33.76377863105542
3701888,1,-33.117337356921894
2244355,0,-33.711026594116944
3136401,1,-33.16295520463026
3217684,1,-39.574593383482444
1632894,0,-35.048167060653235
1570478,0,-34.86877195198399
2760357,1,-33.124993528046254
2255179,0,-35.611837023531336
2411715,1,-32.9054837921854
3739357,0,-34.56400876466721
1702660,0,-38.29882640296107
566075,1,-33.03056743874127
1325041,0,-34.422681862749606
493917,1,-39.32936095043286
2517453,0,-34.22222141057194
1875084,0,-23.78125096712588
1696562,0,-34.879564806125316
3471729,0,-40.57314736409841
1355613,1,-33.7676700662875
1691343,0,-34.21288808591678
2662025,1,-35.16347014951001
3932380,1,-34.59584824857854
2011231,1,-33.91813247249428
223845,0,-34.5161014691662
2667769,0,-34.08350836160782
2519915,1,-34.25683393480166
1147077,1,-29.95092783970906
351983,0,-34.03332077420023
1429639,0,-34.20867741964187
2424881,0,-34.11870323226093
1495212,1,-35.1646494572292
1773159,1,-40.348561712394826
3175822,0,-32.975604430358906
3507928,0,-34.43784814286564
3855005,0,-35.90050176427093
2784920,1,-35.50545194304276
3845747,1,-35.32638236832821
3743770,1,-33.94523427594959
3836426,0,-34.343187867300664
3210226,1,-33.66006292989608
2252630,1,-34.02091499182512
2279704,0,-33.537593320081946
2899774,0,-35.31656734898434
3326536,1,-34.06374948988706
1450965,1,-39.86177244355485
3933857,1,-34.62113010983081
2262494,0,-34.74724875580463
1845968,0,-23.085402284068433
3405401,0,-34.397763274633974
828563,1,-34.25447796576727
3097114,0,-34.409585382910116
1157667,0,-23.80003070159854
193532,0,-34.31966570948675
856265,0,-35.424751973699
2395007,1,-33.481388539304824
3863550,0,-35.55218194361822
3294402,1,-35.01427139861944
1065723,0,-33.170933442266765
2924475,0,-29.190480983387893
2011309,1,-40.08856162717002
1166181,1,-23.833706859459124
2542282,1,-33.71627824375101
1394593,1,-34.17499222913184
761393,1,-32.80134657700081
3782292,1,-33.74462508496722
208140,0,-34.408009658258635
533652,1,-35.62220260176856
2807543,0,-35.24703390215912
1205760,1,-34.37476985948308
528542,0,-35.04180461064029
2435352,0,-33.15494583097354
1634229,0,-34.1084893649109
343525,0,-33.70755014045181
3726097,0,-34.84121523096082
2205694,0,-34.04563106394948
1476023,0,-34.14415024707594
756922,1,-34.382666898574286
383881,1,-34.80125469296328
855006,1,-33.3359696298457
2796554,0,-33.687982079385705
3900135,0,-35.004160398260694
2531376,0,-34.63883837313967
3189394,0,-35.36571093608578
2790694,1,-34.50062721029708
2991510,0,-40.44731755115871
3850954,0,-35.921971310695774
3378511,1,-39.70282812808873
3141372,1,-34.26495459897544
1644588,1,-33.833226510331095
3538503,1,-34.36077272326375
1835744,0,-22.988201818956586
1820250,1,-23.70992453007991
3488004,0,-33.48507884543258
3283662,1,-33.69818259604825
2233931,1,-33.347065738423815
1521232,0,-32.750855589431104
1880393,1,-23.996618159152174
860209,0,-33.98634465091661
3171731,1,-33.984662604143196
3174290,0,-34.575823542945564
1253769,1,-32.949009887835565
1087928,0,-24.73366247637863
3081660,0,-33.63563882108469
1088613,0,-23.35445523284699
3675513,1,-35.506972834091236
3046377,1,-35.51480222140341
3864322,0,-40.5292274334006
3473241,0,-33.87975293808882
1484581,1,-33.42634385870421
1645373,0,-34.77896884408654
2277373,0,-36.722892591371945
3926171,1,-34.455360184874955
1390311,1,-39.951000140470484
270413,1,-34.06088351891685
1133451,0,-22.93753292428987
2144521,0,-33.210242125297995
545201,0,-34.18614978788357
2394915,0,-32.852133353005414
943388,0,-34.16285028349976
1753076,0,-35.616117906414175
3907121,1,-34.22734654307816
1914795,0,-23.419411101946643
3655910,1,-33.86091749329873
1167998,0,-24.08234952398643
2515777,0,-35.080917716479156
1269919,0,-35.38335702579339
645141,0,-34.17226693601094
3043927,1,-40.15160330000676
3325140,0,-34.65342442931822
1380563,0,-34.95788845097217
