sample_id,z,y
1401505,1,15.719497000636972
836672,0,16.090253187415584
1786936,1,15.98264931722729
2597323,1,16.061177755675406
3874082,0,15.685255117930636
1854518,0,18.01894742248828
2873201,0,15.764064649630546
3221673,1,15.501688839941934
3727793,0,16.522432102239623
1168390,0,42.28538912740366
1266167,1,15.77418593333634
1986453,0,16.43548614474709
253044,0,15.531372140362121
936144,1,18.10598743338475
1717713,0,15.917642014313165
1633714,0,16.29443970047036
3349307,0,15.953336050191872
585343,0,15.841568378451356
971107,0,15.905004447749171
851341,0,15.689640525104668
1870641,0,17.542838771176168
2571904,1,15.721789966889162
2969164,0,16.15009950709097
1726867,0,38.27824207327801
1744958,0,16.16213821653979
1835002,0,18.766446909410906
3440576,1,17.67684731010269
1819041,0,17.889370619685536
3796790,0,16.396000438029002
1160911,1,18.041634035272253
1942945,0,16.312280093883633
1028355,0,16.42344509073179
967157,0,18.68790227104371
2976409,0,17.985212402553053
1698239,0,16.16075961329823
2461627,0,16.022138931767568
2725413,0,15.845716307057748
3112927,0,16.009744996270108
834022,0,38.743867053229394
1779307,0,16.00446959810636
459794,0,16.254826922699973
3167641,1,15.675671713291777
3734095,1,15.901225841402365
1793199,0,17.95970557854098
2893494,0,15.60112701219456
2281928,0,16.173439802116647
2979214,0,18.200502017631933
3942082,0,16.720412839540785
2933372,0,17.404173027221354
1987954,0,15.87373546316069
2402967,0,15.854946089479423
807505,0,16.76460369185833
656842,0,15.543863078624494
418810,0,15.74531467899785
2214706,0,16.796645029920413
3960751,0,16.550669909818065
2405403,1,15.75189302259426
1148088,1,39.89011721204858
687544,0,17.17071005855887
3547600,0,16.217286111767123
702564,0,16.00859147627657
1519942,0,16.014576033339342
357005,0,15.54190309480464
3437306,0,16.107230097781365
1947624,1,16.117753736420322
3047610,0,15.923192372195084
3046575,0,15.713265093254373
2797947,1,15.434778922532104
367828,0,17.0531720952957
1320965,0,15.512787051153703
2012326,0,15.270840242766054
3428880,0,15.603448234006539
1387737,0,16.072797890627655
250529,0,15.874651655120037
2195753,0,15.8736984521336
3098861,0,18.534169265334313
2261926,0,15.99900326620374
1601212,0,37.667658759218135
686478,0,16.62508511289922
2105076,0,15.978644523869823
2698725,0,15.996928656281298
1198552,0,15.862619103152854
1754813,0,15.765184860879142
1768295,0,16.413769141281513
1701091,0,40.615166458695406
3368192,0,16.197008723257934
3707990,0,17.66417784457989
3332474,0,15.71996340745776
458618,0,15.852495032579053
706220,0,15.579281262840485
3101677,0,16.052767296177358
1286310,0,16.03907713709192
1387396,0,16.076151709872875
1614397,0,16.11024477237847
3763088,0,15.99050792315487
2441356,0,17.51181172013951
2247079,0,15.944761695368387
2620874,0,16.020878416300167
1536888,0,15.906063264145322
3044245,0,15.858261218684449
2887269,0,15.613765742846487
1108800,0,17.262338586436854
1732672,0,15.940340248207173
2643061,1,15.882473272633836
3317672,0,16.20371365890112
2155282,0,15.911405705915802
1838250,0,19.863351774389557
1572135,0,15.637482903787339
2148995,1,15.491666256252223
3143640,0,17.979674644825966
1557109,0,15.857396056015897
3538579,0,16.73697012815245
2511819,0,16.224046440790787
1301889,0,17.79456670942531
306923,1,10.276734504304798
1388134,0,16.285058855580566
3145057,0,16.332472607873505
1258810,0,14.899387841294583
2720183,0,17.479183836291178
3682739,1,38.07406113791893
961356,0,16.159290198596892
1612043,0,18.43654066537785
1220027,0,15.67568128813057
426321,0,15.468731692565287
2494799,0,15.561421006036559
1522885,0,13.101479184350445
2660549,0,15.781328929853885
2666942,0,17.43834173230914
1266635,0,16.30840760740844
3513599,0,16.150444208264567
2447334,0,16.20741947693225
1538322,1,15.3244820127223
3908536,0,17.874503065371677
2928560,0,38.36899767895059
3080411,0,15.627747378324276
828557,0,17.890269442085817
3502942,0,15.631881393880986
1534435,1,15.273373475613454
877467,0,16.396033079205903
731229,1,15.860953355238133
2434719,0,15.997131420787172
3218102,0,15.924464951839562
1883104,1,17.494627807069627
3314475,0,16.365640688392755
1671924,0,16.24816557617699
3422343,0,16.39253733014053
1116951,0,39.371803279875294
2816305,0,17.97188145943572
906705,1,15.832726773348393
2243181,0,38.659253746345364
1501476,0,15.33257460429105
573714,0,16.10353384254661
3178744,0,15.986518607921514
408168,0,16.207856288738956
542257,0,17.32203907065658
623136,1,16.17698866932335
3437271,0,17.758742687961313
2809121,1,37.865144558244005
1874815,1,17.9588330448528
3461644,0,16.183242870835247
1028777,0,16.34425606365526
3884661,0,15.931606514004166
1004244,0,39.15962458490458
2420373,0,16.36599459575152
321946,0,15.647940724350038
1214281,1,15.764883647809778
1343222,0,16.302492697591894
3878097,0,16.125769574952084
811894,0,15.771124350186984
1694899,0,15.471114493818181
1502132,0,15.60596755829798
3409085,0,15.295342754804661
3028448,0,11.480065009097137
2172375,0,16.38940871915826
1299940,0,15.666202514779986
1880949,1,17.4472192574511
559703,0,16.222781824052312
3499561,0,15.745859920193366
1309472,0,16.09710688667738
1676678,1,15.841561781958877
589273,0,16.279017757110203
326382,0,16.618377025010275
831148,0,16.197369736794894
3136932,0,15.985392306263
721832,0,15.685877211278925
3850943,1,16.2467256057631
696332,0,16.34146875276023
819262,0,15.747626279421631
856845,0,15.63724626354911
2240603,0,16.290674658356384
703674,0,18.188564227326893
324103,1,16.14002776176831
3010381,0,16.221239784759646
2229983,0,37.8112220466669
844685,0,17.295259633384468
2620800,0,16.054345011103955
598933,0,16.206243342742617
256980,0,16.153687063658243
1734525,0,15.953368154304602
2574827,0,16.520148153803245
1693338,1,16.067949170399707
2010730,0,39.92952251934977
2907901,0,16.040179131058714
1093989,0,17.135366419050484
3418638,0,15.969188002092912
1063276,0,39.3949601234813
1349641,0,16.001588940104334
824162,0,16.081543785754327
3296672,0,15.344021387770088
3795820,0,15.694373941079103
1320061,1,16.010389348279443
3350178,1,16.165241385339144
1108108,0,20.17163830541594
342124,1,16.101812488609248
1352182,0,15.999141609027223
2138556,0,15.953039712519557
2649972,0,15.882939246065193
3525308,1,17.374064745731527
2791828,0,15.697121834150833
1053439,0,18.181394959370177
835785,0,16.612499722196155
822178,0,16.271410814749498
3146705,0,16.16304678500786
255642,0,15.784909638991422
615981,1,16.684933588753104
2765771,0,16.454131339408864
1756858,0,38.655208559873095
1554746,0,17.123384433920265
2225211,1,16.29503540543067
979883,0,15.901885095326621
1593203,0,18.705968239843347
1262032,0,15.923039960685955
1666853,0,15.956998088183253
2125214,0,16.553627736382214
1496082,0,15.861973330592953
295558,0,16.2409855188739
1543749,0,15.939174320898436
1685929,1,15.865217266667836
753451,0,16.172421056610215
2434680,0,16.06645131728787
1723783,0,15.642592377697035
2260319,0,16.16407472560167
3060231,0,14.79449387509605
3430948,0,15.823912089305217
718630,0,15.507385864649207
2865752,0,16.23436872899191
2192834,0,16.17252637666719
3701372,1,15.916913470071034
3026280,1,10.460707297794993
3500221,0,16.003907915528085
889950,0,17.747433874889254
3437599,1,16.066579718447063
1465060,0,16.30755939304338
259313,1,15.631513448748487
2004652,0,15.761331804027682
1098823,0,17.996329579469776
1909594,0,17.395395777997503
731667,0,16.558979785634108
2585390,0,16.2139772846553
2482903,0,16.15601482523239
2789006,0,15.647027252076304
2279183,0,15.52561229399595
388503,0,17.179637200176476
3495472,0,15.933477244527651
971600,0,37.92228617387484
306531,1,16.311283515127347
3719672,0,15.523849200501415
1471850,0,15.84890313317719
1726163,1,15.756417595408767
3515294,0,15.88605754235594
524305,0,15.161117451773974
2636660,0,15.865842235712067
3307322,1,15.956479381904293
3158256,1,15.515523849460067
1078107,0,39.18314771198789
2220526,0,15.733414755659402
548181,1,16.15154950575578
2822025,0,18.713807012000668
1463708,1,15.610662138624903
2654669,0,38.7069678492531
649109,1,18.087290512894704
3784100,1,15.911700226955405
750918,0,16.5894250207772
1871756,0,17.039793429861355
2161536,0,16.297165102581108
3226353,1,16.372315801845893
408201,0,15.402955614057108
3431745,0,16.02757932764866
964332,0,15.388840036170143
1560023,0,15.980900888877164
3837304,0,16.03081409591686
392671,0,15.95860047320881
1067003,0,19.927964091174747
483432,0,15.68206175677002
1548171,0,16.098711325453593
682371,0,16.369653541786807
3265435,0,15.789315011792414
1566407,0,19.028754219448828
2902665,0,38.7379839995812
2701377,1,16.171733995491902
195791,1,16.185949980371994
3420886,0,16.063510858123276
1763948,0,15.738337979050204
2255117,0,15.168618300754076
1217238,0,16.00362448116428
1704676,1,28.61157485258655
989864,0,16.03817622281427
1229574,0,16.047925054414655
3425857,0,15.523092764939511
2978358,0,15.825264192471545
2654240,0,16.098046036462836
629443,0,16.86749265319171
298319,0,17.933631197159603
3784462,0,15.46195974835507
1843957,1,17.260696979007616
1840900,0,17.41679426191132
3026472,0,16.09235464508242
2853929,0,14.98426561896942
1992128,0,15.053322819815177
1517925,1,17.48303010311881
3875758,0,15.574123780792414
2143090,0,16.209397391366938
1516857,0,17.72137074701588
1358017,0,15.80995452336903
2661091,0,15.640550062500022
1294061,1,15.771425335139805
2485090,0,16.318660460992014
314852,0,15.405526937721133
2677464,0,16.02373480063716
3371373,0,15.841103763500902
3750953,0,15.976551175395171
390660,1,14.698060815193728
3123771,0,15.343171160958653
2128111,1,15.316627647474643
2550232,0,16.872005401997008
3465130,0,11.256429285409212
756202,1,16.221193585957018
2683239,1,15.809502527053024
282335,0,15.77838501146579
3660215,0,15.607339220249436
937233,0,16.088023392796206
3864659,0,15.969901457576528
676256,0,16.782196570636223
1343474,1,15.722570272520338
1046614,0,39.799141617724494
3711533,0,15.078457323663391
2187255,0,16.13720422116587
3690765,0,15.603599730603255
2454922,1,17.52982243539472
2617672,0,15.806570054745288
3084411,0,16.17577468807965
2803920,0,16.25020821494557
1417046,0,16.3752223515173
1000404,0,16.29314869069702
1120168,0,17.274784994266493
2896916,0,15.498103137162207
2269674,0,15.43420128675463
2143776,1,15.847752815958962
3177460,0,16.655308805533743
202100,0,16.151974569200238
601098,0,15.78851649955002
1716903,0,15.683829377925932
363773,1,15.375432313843376
3930043,0,16.236609504910565
662081,0,18.23979066121098
2176814,0,15.499996485165763
1260584,0,16.117991450785382
332432,1,16.110975611633123
1332943,0,18.030010630248405
2539384,0,17.02486093532861
661700,0,16.63912367447818
230802,0,16.078043961070666
1960538,0,15.870142583819074
1461964,0,15.91060971743908
344218,0,15.49489026687026
1080492,0,17.791140547437063
2624173,0,40.86748904338259
1559245,0,15.679136338366254
396542,0,17.658928777266603
2911099,0,15.476078088343714
2152890,0,16.219917472328646
2505977,0,15.992193519006342
339242,0,15.708039717135303
2540914,1,15.669496235628019
944678,0,16.221998901082944
314377,0,15.726281000934794
1022613,0,15.73627698443826
3702202,0,15.651643011016565
2804049,0,40.05527538896645
1363318,0,16.15253129228782
951389,0,15.472819221962716
3711459,0,16.093602911133065
1279891,0,15.93315130695236
2242464,1,40.71726499005391
3479726,0,16.470924644050204
3749697,0,15.771189284752365
847416,0,17.82194061771399
2416739,0,15.08743298770582
445326,1,15.978171703403016
1905770,0,20.079633798777696
1591431,0,16.240556089266637
831428,0,15.637654847660396
1357749,0,15.895328698332758
1622035,0,17.179294177057244
2830524,0,15.349947532701675
2979007,0,15.3413700696823
1022914,0,16.471732312747765
1963295,0,15.426616435304133
3183673,0,16.650339696473555
2513247,0,16.00294840021134
2581623,0,15.752890639954169
2708650,1,16.19778906392571
2164494,1,15.989916632893188
3234690,0,15.790652418691263
567094,0,16.21455653849619
927210,0,15.72975724307505
2580353,1,15.89516363467741
1591532,0,15.913069884871625
3701010,0,15.97641928136518
2542165,0,15.492097663430387
3524668,0,15.843956829954463
1560519,0,19.236160751024737
2646198,0,15.711710560204924
1346338,0,15.836017630837386
2410459,0,18.37832003604103
1646670,0,15.667086157328587
233776,1,15.734266580825128
1701327,0,37.941736645643424
1575505,0,18.622873530754507
2214956,0,16.096012711577586
1281584,0,15.59338938308465
1898861,0,17.449831722188648
3446379,0,16.1178816618055
754934,1,38.11762046828118
3243010,0,16.105877493796662
3317027,1,15.64119848940464
3904768,1,15.554375208551145
3031028,0,15.894917182871193
288277,0,38.44506233275542
2500126,0,15.893761774133669
687213,0,17.736445440239702
1938778,0,15.085116271411595
1294469,1,15.706748745375926
679005,0,16.095047538335844
2885303,0,16.098264646842665
540484,0,15.354564341523357
1000362,0,16.114223220301117
1541189,0,16.008508961092357
1029961,0,16.041989062583895
1017445,0,15.783348609705325
822846,0,15.977101989472384
2904552,0,17.775445112348184
3069420,1,16.440419432159313
1202286,1,15.862572527500369
850768,0,16.01942462110652
553439,1,15.689808035385752
3342160,0,15.82392816150981
1385415,0,16.51270340329666
2625578,0,15.796636379827724
3398528,0,15.661533884895073
3802207,0,37.8155132386825
428884,0,16.299232098156285
1002205,0,16.100956379381113
1014753,1,15.737593622762812
959070,0,16.07690177447132
2620336,0,17.572547361491022
3929744,1,15.701867602490205
3779066,0,17.557175909942565
553744,0,15.842147505250995
2473255,0,38.464912629735416
1563103,0,15.733691388212655
2858719,1,15.637985914124972
3059815,0,15.509017205312608
658229,1,15.39232029689348
1647543,0,16.613810102182534
1441287,0,16.34652481461333
1278094,0,16.55801343996418
3218289,0,15.854662923686103
2847318,0,15.988447846710528
1455217,0,16.73756192502018
3067387,0,16.112374595680542
3307442,1,15.941708111771769
1816331,0,17.48289745804813
3709905,1,15.811503264731865
2946763,0,15.768591856551653
196048,0,15.963593857659259
3363503,1,17.490674876453877
3031319,0,16.313409264493725
2553290,0,16.209954891358546
963136,0,15.812407120660106
3859605,1,16.440054321962094
2465020,0,16.21990417102609
233526,0,16.34679810554588
1145726,0,17.684705571049783
3378804,0,17.73842336705245
1054476,1,17.881439474968214
2213924,0,15.573066336999675
3363553,0,15.837770064123047
3316739,0,15.798203720171832
732108,1,15.433381094408144
208078,0,16.198569561118813
715731,0,16.08962289558671
2835587,0,16.107620891135134
589216,0,15.527463367567766
1741216,0,15.850483668077095
2921109,0,16.164427044428255
440165,0,15.58991293344723
1578193,0,18.62414863029003
3265068,0,16.092856265125253
1274844,0,18.0236962652497
2709197,0,16.40013714401821
2599999,0,15.97984516375991
718160,0,17.7265926227556
1818596,0,17.470292678341387
2893492,0,16.144223834002812
838809,0,15.96923644695524
3759819,0,15.57125985009041
1510191,0,15.784719280693457
2027818,0,17.618334647199557
1365606,0,16.10617397567541
3239617,0,16.22615039313363
729607,0,14.852464564339927
3680261,1,15.88877970040331
2006046,0,39.05293263817997
898988,0,17.87030257580404
535337,0,15.824279164365572
1690561,0,16.05390540140414
1168006,0,18.265367718164097
386871,0,15.85264597652878
1586055,0,15.941764227988443
3235497,0,15.972933790024863
1460196,0,15.809587322182768
1624151,0,16.246695062037922
3513451,0,16.271980777034113
3087345,0,16.3220966566823
859721,0,39.73799208685331
498203,1,15.392500281490578
2915704,0,16.233341352959123
981950,0,16.31415508146951
2018181,0,15.421415883251354
3656468,0,15.704254305494949
3888785,0,15.848612809260366
479356,0,18.145051606830346
3394933,0,16.145560364523124
416293,0,15.491662259728553
2553690,0,15.792990749488457
1458952,0,15.60469083079003
2117411,0,15.999824341897211
379389,0,15.968846097459087
2544493,0,15.844867782862176
637620,0,17.480818261126363
959522,0,14.917193389518083
495743,0,15.593561373844988
478743,0,15.90881363137518
2454574,1,16.07928832664742
3893459,0,15.836488487486138
2052175,0,18.05211435405661
2212243,0,16.051215441903953
2539539,0,17.341798444038265
592972,1,16.248664593906
1204364,0,16.293120105976733
1137407,0,20.029004659640997
3662642,0,37.493266153205354
896263,0,15.451555800919587
3779544,0,15.302888658763994
1072810,0,17.707439240446504
2545048,1,15.966008382980414
607845,0,15.85055985334831
3101963,0,15.855714887089325
1912899,0,17.57563344136257
493416,0,16.198409160712004
3946158,0,15.639415055060374
3707811,0,15.68120710442437
3467075,0,15.506201546162043
289030,1,15.92432193157556
1882517,0,19.09511992272089
3739919,0,15.4974230934007
3705989,0,15.580599085939939
405500,0,15.207429417413513
464632,0,15.746384401153806
1515210,0,15.653993570412888
3686970,0,16.893963777593328
3454824,0,16.103966094366886
1827683,1,21.338094255189837
3728109,1,15.632725960078455
1512202,0,16.013363598768443
3187638,1,16.197193356961243
3359229,0,16.267890798003354
2531376,1,15.851149857746654
967951,0,16.494494052000654
2751341,0,18.146759315914252
2206313,0,15.478752127574412
488433,1,15.686942401171025
1297166,0,18.138723566419852
3269226,1,16.10520344204507
1040515,0,18.096847977365627
2989569,0,15.753718942852242
1367269,0,15.046724468158592
607837,0,15.747896442863443
3454064,0,16.322817167748365
732013,0,16.369098020291275
2001591,0,15.96772402691125
2514473,0,18.09071742300773
1759925,0,16.369520054695816
3862762,0,15.850107935753904
313383,1,15.828208634885563
333200,0,15.92938404787857
3257138,0,16.283422334264003
685403,0,16.609688449051408
3316255,0,16.41414040874208
863295,0,15.58061268300814
1365233,0,15.83464790998847
700775,0,16.38387034923203
1564382,0,17.72051172323146
1886909,0,17.670335291461996
208895,0,18.068417846914702
446895,0,16.15650383102597
3488767,0,15.719865536727829
2414976,0,15.870636175972587
2841099,0,16.864436520135207
3790885,1,15.938574109987522
1351743,1,15.468807307946754
3272536,0,16.940581962147498
1634433,0,18.297313446744315
876750,1,37.82421778963189
3652809,0,15.967210045784947
980819,0,16.184713654887926
1750937,0,15.86944642112383
3505582,0,15.956250419496206
528672,0,15.994949505202172
1424039,0,15.66276567525684
1228444,0,15.829024104212484
1067825,1,17.24423269437283
1620396,0,39.01245459590011
1204785,0,15.962099223800152
753620,0,16.320359279456266
3266768,1,16.593748709314056
3455942,1,16.468031394752128
999295,1,15.983484435393727
2397593,0,15.970287674818675
1236719,1,16.304633400766512
1092368,0,39.541601741951666
414927,0,16.172979749438763
1406424,0,15.867270604303018
1424355,0,15.776872120954424
2999168,1,17.70090877777065
1301613,0,15.970123895483182
2931198,1,16.005425785352333
2048894,1,15.83405071724491
948086,0,16.192705957584625
1847952,1,17.223056290247936
3111618,0,16.165694026962292
1812108,0,17.62185184244863
3247835,0,15.933331584171372
632848,0,16.365686291469547
1909381,0,20.229633152722766
3187578,1,16.06911827582566
3403785,1,15.586280066828825
239541,0,15.920851220729219
1593624,1,15.813195282065985
2627377,0,21.869775317475174
3337105,0,15.681681320402728
3886363,0,15.257816871493038
3399698,0,15.894784254909736
318531,0,15.859016012771065
2411931,0,15.955399864215806
3008587,0,16.604351584188485
1374665,0,15.91986347755511
2247951,1,38.39811654492504
1152707,0,39.13687021498014
2187232,0,16.277681262192953
3793179,1,16.10547745814564
3101505,0,15.861641645377558
1362827,0,15.817209183400092
2501303,0,16.005879684117943
303356,0,16.129315643143894
1118928,0,17.621354004712433
1234611,0,16.23997273871648
2782251,0,15.681872843819214
542794,0,16.319402568402
1672783,0,38.24117477913841
1251123,0,18.2280681363312
2509825,0,38.432816596744054
3162592,0,14.211113735821272
2454906,0,15.812382165599113
854678,1,16.001795913603694
2699203,0,39.75834955834855
2274108,1,16.414470001743055
3313490,0,17.772344782711034
3740622,0,15.944724557276864
3730629,0,14.795343782106784
3137858,1,16.62184152496214
3144137,0,18.12651965707013
493559,1,16.154735357353513
3306504,0,16.17535384581816
575925,0,15.957801126795768
1917324,1,17.88768430118109
3039319,0,16.087718985143887
3155036,0,17.79968884845305
829779,0,37.94545664589203
2006473,0,15.860506929214662
312370,0,16.700664946554042
566246,0,15.34806432447052
392157,0,15.87453906896293
580273,0,16.595899693579184
2260238,1,15.78517186994752
1363495,1,15.457487198465188
872449,0,37.579410911143725
3919828,0,15.686982139222872
1451740,0,16.161867000261733
833911,0,17.921218985850757
573613,0,16.12248591574191
1304069,0,15.938704303416976
3421528,0,15.963230727426815
1969858,0,15.008165709471161
2710722,0,15.950279469000924
3140422,0,17.71161179466226
1508308,0,16.551648078677715
276526,0,16.065674330042658
1499694,0,11.228788674531067
1501963,0,15.530327106157072
1938690,0,16.162491385233952
1498600,0,15.927803131623287
3492766,0,16.346181850778525
3931394,0,15.381525710322684
2580572,0,17.484107696830204
2111224,0,38.532274206843354
1961806,0,16.085813798119304
2936399,0,16.45552337601092
1274419,0,16.378027188047277
1531559,0,15.659219607167367
2186479,0,15.681980347357827
455222,0,15.949628926540868
2530201,0,16.29524148878078
3026141,0,16.09989744052913
394007,0,15.85322544193027
309199,0,15.90206007663345
1211590,0,16.29241394659673
1866241,0,17.65916291251597
421339,0,16.16452784940355
3910771,0,15.921301711196831
3371231,0,15.822590101170995
2737531,0,16.187463740903343
680987,0,16.635658403545314
2930486,0,15.735052622712217
957629,1,15.27351501029191
623062,0,18.02886110354823
3101741,0,15.785410413675848
1468320,1,15.799523856370545
2795825,0,15.754115047473492
2033050,0,16.37696438679633
1287459,0,15.91555706327216
2668860,0,39.77872698920872
3856784,0,17.528875077511866
2723873,0,17.967093979416966
1959995,1,16.354201996523667
3423981,0,17.989189929766383
3517885,0,16.303021608668804
196819,0,16.5813818660503
741371,0,15.993222169999857
1284944,0,17.207025959788247
3463831,0,16.03423509870816
1360161,0,16.14941814886577
1020361,0,16.037686115938012
3654603,0,16.090680297241718
2051719,1,21.685614888960945
2054856,0,15.585300531677948
681606,0,16.218226872012238
2281617,0,17.738230374726957
2804463,0,16.27348362017584
1279627,0,17.091765225834397
3041996,0,15.731206084117675
290997,0,15.625142108683814
2631093,0,17.486540166245618
904688,0,15.855268696224975
505254,0,15.539815090999447
1437004,1,16.226470193558672
2613958,0,39.9154110250717
1284012,0,15.733772680417387
1471743,1,15.873610813495263
1085450,0,17.18342414227587
3179568,0,15.986836062405068
1325800,0,16.166246073742787
3664277,1,16.16384538242637
1671781,0,16.186426097802958
1322310,0,15.908788462220182
1890120,0,17.504647491285947
3856402,0,15.880491970688288
1624826,0,18.069571654056727
2163763,0,17.868817312734727
2021370,1,16.52802166958516
2972660,0,15.612533032028285
1395179,0,16.05817188646031
1990309,0,15.888232110295277
1244998,0,16.058811679541034
1215358,0,18.165804504628266
1939370,0,14.96791262614862
1510065,0,15.728075352876164
278984,0,16.098042474034546
1328963,1,15.777118712356232
1837395,1,17.484739201628372
1045279,1,17.875202182358443
442386,0,17.550970010530794
3082397,0,16.5661605972783
2723346,0,15.432325642160494
3256699,0,16.16602268463171
518412,1,15.73366908700997
744644,0,15.901244031772157
3263904,1,15.817486286393278
1351587,0,17.65787883831693
2042281,0,17.945298397674144
982128,0,15.958570543052588
2674154,0,16.23629383970091
2129654,0,16.312101010484014
3209232,0,16.440607366417364
2647704,1,17.745163370716952
2864906,1,15.995757066475297
658751,1,15.617287578321388
2820794,0,15.687577513225579
2453576,0,37.4602409889442
3173040,1,16.629887816639588
1287122,0,15.750027752629304
1608177,0,16.22524216550331
1575235,0,15.87463453435377
3710741,0,15.737778454354075
1737328,0,15.844645035510887
2064281,0,16.08099257590672
2445944,1,15.705398595098913
3755195,0,15.785642506372206
1405405,0,16.187197278291716
1789406,0,17.814231747843838
3389078,1,17.527613343526074
2785890,0,15.427206041530942
1147938,0,17.652266353773992
1975130,0,17.870734479716784
393676,0,18.04566646846877
1827091,0,18.615271227171554
277966,0,15.878537663009254
2019333,0,15.475343702269146
3532538,0,15.458812929927516
2780849,0,15.84676244811195
2155399,1,16.0804408985256
567909,0,16.751525938566843
2280686,0,15.617239877360966
264979,0,15.821808323130817
2568469,0,15.694804503134264
1645620,0,15.579801768321754
231263,0,15.88161800408435
1018024,1,16.672272526112543
1322937,0,38.104809928195145
289432,0,15.931085421623843
1839947,0,19.792076019554322
1385766,0,16.11686656749075
3270517,0,16.007315765702067
1856223,1,18.057139559307515
3529285,0,15.817768955596696
416597,0,16.298046101547296
392965,0,15.584531605608696
3681516,0,15.761451945744007
2719230,0,16.105631912966324
1585357,0,15.933485144379999
1346275,1,15.69041622865487
2842214,0,15.976852931270479
1592098,0,16.298675283682414
709896,0,15.319168904049278
2046744,0,16.302493061062155
1236698,0,16.102809494585546
753344,0,16.232056424061906
1449504,0,15.828404133992864
3247565,0,15.06907632407293
234568,1,15.717972989613072
3206534,0,17.563856625661774
1161152,0,17.54029283782161
3175699,0,17.805180909456844
848497,0,16.32650653502761
2940797,0,17.530812448382818
2606194,0,15.980060548741864
923896,0,40.52042734187438
3446865,0,16.673757893856564
3144749,0,16.32880415996848
3072703,0,15.748302209218675
1605963,0,15.919033003074782
3676508,0,15.838505049820842
455058,1,16.294462019175434
3410384,0,18.550187550680974
1788987,0,16.12310348441038
475222,0,15.62617763091344
1323118,0,15.911717810732148
2272240,0,15.422071111711954
2632295,0,16.293920206574736
3254034,0,16.576872790800653
2733786,1,16.32417315558279
3308356,1,16.3460418885661
2215612,1,16.786735883732916
1737093,1,16.10879306710929
2244355,0,15.574779895628312
3455540,1,16.594032457975675
1044227,0,40.23246631691765
1697154,0,18.690248891269786
2139586,1,15.123187539562423
2704884,0,15.690902636177954
1344030,0,17.876952535192956
3929165,0,17.042939190213755
1985391,0,17.03854505012822
1378190,0,16.34126058269902
3116123,0,16.148071580956273
2710583,0,16.022460013086782
2180793,0,17.306441934106246
2245855,0,16.605995442981097
3533869,0,15.717935910682316
1792036,1,16.14463991300321
3501784,0,15.679063475219314
3032704,0,15.802493937999543
961296,0,16.10013089944377
645896,1,17.316638563796076
3073611,0,18.722112901844266
3110688,0,16.257380422331725
2805592,0,18.12770914570426
741471,0,15.408432749296644
1950138,1,16.097702554072637
2526084,0,18.380393579040298
2634768,0,15.958327715963533
2276958,0,16.822204135772484
1942233,0,16.428024192645626
2846914,0,15.864832482808833
1691409,0,15.504190426801177
2577435,0,38.434728743816805
2711356,0,15.803402475562624
1225602,0,17.818689409798953
3303700,0,15.743296290054365
2745306,0,16.34860342924063
3652878,0,16.971385467512384
2779700,0,15.368917272895395
1747902,0,38.194205816340684
3546017,0,15.987281949829129
548319,0,17.69739385250869
232203,0,16.717893110086823
2467494,1,16.25181498649578
1335163,0,16.092813585493214
973882,0,17.713986486745686
3137579,0,16.25237256997262
1307844,0,16.031325074753767
2550840,0,18.43352747415421
845295,1,15.813978215991213
2600502,1,15.932899557372094
898495,1,38.62071116563763
3207650,0,17.602550246972264
1984214,0,38.09394369629416
3180060,0,16.12919191439267
1409740,0,17.50720214579469
2615117,0,16.675850633820893
3663869,1,15.342483606764594
2195282,0,15.924665794109824
965270,0,15.934444343998276
1646916,0,17.57686708082383
3168201,0,16.39501771869006
2917631,1,16.018232242958206
626467,0,15.58080959124323
3406564,0,15.67064408949238
3902679,0,15.923057418272172
3734135,0,16.27668857423598
3526456,0,16.188415472604945
2693999,1,15.393625744659
3099435,0,18.133238396804547
3410332,0,17.630734265997532
2742964,0,38.110826158028146
2495793,0,16.2462022709607
2201178,0,15.393872698076176
1295647,0,15.94837112605968
975198,0,18.00367648824169
1070186,0,17.885108265168128
1275623,0,16.907757440327032
2699135,0,15.567855519317321
752191,0,16.084374507270923
3547821,0,16.17075183972498
3112971,0,15.689973141611581
563376,0,15.615559627149107
966577,0,15.93905782666672
3489621,0,15.926242731320716
2212334,1,16.415132942557108
3546711,0,15.94437522928134
466090,0,37.82742892662123
2453936,0,15.332652168484072
2842469,0,16.75728780324726
2152948,0,18.1481398392086
3716696,0,16.316830316143573
2221094,0,16.28894670630769
1322063,0,15.87429247096604
1428702,0,16.051725099464694
1901269,0,18.14217887150993
3292397,0,10.837290367320234
1371405,0,15.733324696478569
3030556,0,17.741794161297772
2925743,0,18.958202123953054
2053174,0,16.033637482912614
2707835,0,15.604732878043263
977224,1,15.442640645258193
615025,0,16.054326016895494
1208381,1,16.270845178225596
1054703,0,17.609397467291604
807950,0,15.623841561124475
1097137,0,23.36441887185484
1616210,0,16.167648137243322
3361161,0,15.961620818912763
3436024,0,16.441004127114308
833624,0,15.902345167714723
991521,1,16.236442168163066
684693,0,15.81026232640311
2925067,0,15.90151848013632
2688969,0,16.52113541942709
1957239,0,16.403299109670154
1956836,0,15.744390033114001
2483480,0,38.60249120025961
3837729,0,15.595654823964804
1460303,0,15.960300346143358
1442291,0,16.17353794896209
1057727,0,17.57527217869374
2678528,1,16.183578718647958
3480305,0,16.176213651039852
3691566,0,15.756096763749099
578686,1,15.947465364941978
670224,0,16.42474892069646
3350496,0,17.42691234360762
1515389,0,15.93483901042758
3178912,0,16.27511144383685
3045735,0,18.45234040645969
1028179,0,37.897578683238194
1242748,0,15.73222379334965
1940599,0,16.903285621739283
2163748,0,15.654476102849634
2849583,0,16.204325396894113
929206,0,16.354156686463615
1702143,1,15.626668679225194
347421,0,15.675830893347028
242148,0,15.521594129594671
3843783,0,16.025418801810567
1611661,0,16.35677988494936
1445517,0,15.600088023841058
639101,0,16.02200940764765
2537136,0,15.23333640715029
3790983,0,17.476734581577293
625182,0,15.812057058055716
3209953,0,16.05730564986021
1429326,1,17.90638454963064
1647516,0,16.170551629103308
1895671,0,17.76152565308215
1287540,0,16.687235501460336
1521985,0,15.905961186151737
3454453,0,18.374260162631554
2933422,0,15.894616715406455
2166276,0,15.4566693236914
3854495,0,15.287816841029136
2989370,0,16.977374983687234
2005739,0,16.094247093659718
1532539,0,15.80459142609391
2870555,0,15.784541271100949
1025295,1,16.273691448596676
1840338,1,19.219425156184258
1602118,0,16.28469119506646
3401353,0,17.39316183754799
3937889,0,16.195878732213174
967024,0,15.727364346122249
1442277,0,15.983921814509024
2281616,0,16.13012163597149
3780708,0,15.830024249393611
2889796,0,15.952470769727883
1220375,0,20.843455052090466
2677478,0,15.536044353308512
3690269,0,15.953112927070013
1546761,0,15.898662125171162
3508465,1,37.79658706035825
3921124,0,15.989407674467623
2150771,0,16.1249653377634
1667556,0,16.31423788519411
1300573,0,15.645807570510565
1408379,0,16.75045360813919
2993659,1,16.689767787485895
3703819,0,38.24856125071108
1293521,1,15.629064792595914
2949660,0,20.284160361772997
3462538,0,16.0179999777671
3871476,0,17.344296907350966
2534209,0,17.804895087703
3120266,0,16.212957352582926
998876,1,16.345224842295934
2531103,0,15.333926880404523
2031154,0,15.966444624446103
1205607,0,16.14869415480785
1199158,0,15.763324190518764
2680365,1,17.916646532599323
2447258,0,17.683487977828225
1630814,0,16.266681961470514
1282995,0,16.0812083523898
507360,0,16.03511844722027
3055571,0,15.843578440471019
628919,0,16.15307599966175
1532367,0,15.792652946929044
2498905,0,15.735324658623137
1684458,0,16.345683081571817
3845117,0,15.783787932930064
3439780,0,16.40391627402586
1436281,0,16.087902053250453
2439995,0,15.681032162761342
1840869,0,17.252847784936773
1115483,0,17.900867580845176
2977878,1,16.29802743934093
3463155,0,15.672598886257328
3499958,0,15.619466462289742
712869,0,16.366085043054646
1077060,0,17.811700402516344
602488,0,16.017302610728688
728401,0,38.115716490216606
958388,0,37.725526584810865
1245948,1,16.41690780581539
3002811,0,38.33491658752001
455876,0,16.567132927908137
3866786,0,15.859966166435761
2594113,0,15.930928558622504
3443309,1,16.005431719687458
1616626,0,16.169376764512343
348074,0,16.522113958669106
3663493,0,17.527786527429008
219600,0,15.72463722894691
847190,0,16.095581933227155
3081410,0,37.74752096627607
2169900,0,16.34082056421922
526396,0,16.162496576008028
3923671,0,15.318935313607629
1620426,1,16.828374527676726
3227966,0,15.445293410557959
1869552,0,17.6119624677489
3209057,0,16.03418208841582
714076,0,15.954922053586252
418456,0,15.354615725335716
940409,1,15.774069254919949
2248019,0,16.059422553789
1374509,0,16.147579526590825
3151312,0,15.90284997164784
2184661,0,15.261231715134592
3896932,0,18.318988406365158
1501788,0,16.255517220176632
3781493,0,16.16904482033757
2219347,0,15.888838749407931
2460417,0,15.836819481366863
3181559,0,16.488063469423434
3033376,0,16.05709573994869
2541892,0,16.010190958976537
2150851,0,16.10577305631268
2773937,1,15.929352536367285
1428421,0,16.931649540235973
3918466,0,16.10676310609159
3283196,0,15.336032144858164
667926,0,15.817578273824
1970767,0,17.44300050420008
2412482,0,18.16265802058264
1622347,0,15.843812402608451
1091252,1,16.7637939428627
435726,0,15.58096847421153
965065,0,16.100251305025377
3159519,0,15.82828865865554
2807240,0,15.913446918756657
1423991,0,16.214576260204126
909285,0,15.682370209693032
2894415,0,15.757880835710607
1437734,0,15.884674182629658
1284405,0,15.999158819930045
913165,0,16.913312123590092
2708638,0,16.260105373318257
474365,0,16.39204019686441
1338325,0,16.02777162222614
1272497,0,15.830241389334684
829925,0,16.35147842124108
270404,0,15.433031430304926
3762837,0,15.977456827017129
3340788,0,16.05577941516391
3229910,0,15.48232563345858
348698,0,16.236760426796437
3373839,0,15.54520476111649
669681,0,15.845140233443596
312130,1,15.96262842057252
3807463,0,18.80578150274773
1045688,0,19.788896942705296
2642213,0,16.21792725090342
2826912,1,16.704394292125777
2014912,0,15.63891262879812
2397635,0,15.558245895736292
3270417,0,16.98814087116079
811296,1,16.496580097209
3169937,1,14.789569994720368
2012812,0,15.981982621765988
228089,0,16.10526200985985
3285615,0,16.266886449807032
2823874,1,15.989092706139482
1342785,0,16.25880113274191
3360989,0,17.10834497878648
2480866,0,16.12861026867793
3726097,0,16.035453551062385
2046789,0,18.138367592955714
566543,0,15.450990815958763
429641,0,16.528529140762974
3408502,0,16.818250567652242
1858447,0,17.807227171408176
1742489,0,16.39990297567441
2186405,0,18.06736328749418
550611,0,15.685458708783612
2270081,1,16.0645235767703
3749906,0,16.106453746683478
280507,0,16.703174861672817
3168920,1,16.89090966147863
896777,0,15.620672778825961
3058289,0,15.376454576315954
1630137,0,16.12639984690746
1110820,0,39.777996341806656
1670144,0,15.773157958923372
672595,0,18.025744629199536
3364178,0,16.05859318358636
2946711,0,15.63673074356007
2675080,0,15.51301039098507
833331,0,16.245251425557157
2999992,0,18.173959461758425
715076,0,15.963253921343224
410328,0,15.73744978946563
3465410,0,18.225192309414535
253198,0,17.700905926812126
2280255,0,15.786620009854973
502059,0,16.002050935102222
3666540,0,16.439838222155917
1630029,0,15.875587240992353
3158570,0,16.069278555258546
2679905,0,38.76242416316146
1416479,0,15.815174701256337
1739819,0,37.769813889304295
2961735,0,16.41509747874801
2117478,0,17.11104626257062
2499962,0,15.756627694710184
2135177,0,19.60876854422451
977381,0,16.52942987933583
1783407,0,16.298163746508664
395516,0,16.204422782287423
1566576,0,15.997657467209123
1000136,0,17.376607691148454
2218133,0,16.546895179615426
1037968,1,16.045178579073173
346002,1,15.789002232233965
2391001,0,16.071829011355238
250834,0,16.53801591114048
3372392,0,15.581785845002896
2679850,0,16.07950618051024
1157363,0,17.570925947071522
2749365,0,15.891044653332813
1084933,0,17.28829257609767
536300,1,15.825326295425468
3727446,0,16.12574845734128
1568772,0,15.488762107746327
1952221,0,15.928494578070126
1996144,0,15.266424608754276
2212329,0,15.878628231941345
2974035,0,15.682709956513822
678778,0,16.00771694235913
1466486,0,16.21013983327167
3106355,0,16.432315030356584
2701294,0,21.60622887980545
636407,0,16.32481593590502
1493414,0,16.106499013667136
2010972,0,16.16053252755137
2225203,0,16.535932221356635
2046289,0,18.21762444254483
2030550,1,15.666046505788167
861437,0,15.9526387792329
3155493,0,16.41272497880877
3021008,0,38.387010325631564
2646190,0,16.27961427014329
1458634,0,17.288670758950555
1063676,0,17.432446760769707
562788,0,16.116143446414487
3535932,0,15.646058195938316
367688,0,15.857414514746395
2477311,0,16.123910599382274
3775049,0,16.014922290044883
2780920,0,17.859075404030712
568921,0,16.07792097434186
3760033,0,15.15593690651768
426623,0,15.575152921075222
1910940,0,17.894907977834727
2781550,0,16.064637407314265
3469224,0,16.154908333650273
3037448,0,16.233608067932007
2920073,0,15.320316498088244
2683582,0,16.365412198106025
1386721,0,38.9615959075192
1970011,0,16.19909885848411
2914836,0,17.674597338115998
357466,1,16.315815104568017
3840654,0,39.3152061011504
3415390,1,15.981851913473625
2465280,0,15.92989319393304
900134,0,15.841954383375494
2504396,0,15.836700069005932
3448718,1,16.53381470190786
1061011,0,39.31830310104577
3506318,0,16.178588346188132
2511579,0,16.504819556887785
982093,0,17.91965311254499
2119474,1,15.894842040274137
2430425,0,17.750399635803543
1380469,0,15.903709856756407
1341025,0,20.521831405415092
1106703,0,17.513699509228616
711726,0,15.737063781369805
538947,0,16.127915695901557
411848,0,15.56185734466357
1098659,0,17.50253623920827
3154131,0,16.119273443421722
1705135,0,16.080383953713394
1298165,0,15.764953043450264
3425620,0,16.321498983591095
2026521,0,16.049927367413027
1241046,0,17.84755578801986
3197192,0,17.077872183456172
3846709,0,15.901832392324264
217712,0,15.605158176714726
1971192,0,16.150217064431313
2016337,0,16.280785283537586
1016700,0,16.182735962417773
464118,0,17.944806508153533
1456690,0,17.769994540615908
3767985,1,16.379237866953876
3656143,1,16.039620430190837
3213590,0,16.28987515404307
392983,0,15.836116290551315
2141473,1,16.08476094001399
2897343,0,15.511533035030165
3702217,0,15.470597748140536
3163079,0,17.08763515633391
409186,1,15.482815610167133
2426118,0,15.85164826127346
2800664,0,16.470479989458738
2966863,0,16.171792522687177
343872,0,15.893099899000362
2750195,1,15.923223227688206
1260007,0,16.47385818165628
1727898,0,17.86954273731815
3332673,0,18.373769034587234
2667719,0,16.218293133342982
3030758,0,16.101434323768256
983476,1,16.75918696263253
3856825,0,15.948591814251788
3378191,0,16.444782066474485
3529047,0,16.02717517727922
2233159,0,16.462221411262902
2851808,0,10.896144182897281
2966266,0,16.24097713671263
544016,0,16.098401098280007
1997269,0,15.924464095012144
1711165,0,16.083116739847952
3432689,0,15.986070129930292
1148377,0,18.039695170096127
615625,0,15.853762853390329
1429573,0,16.398719070273888
214092,1,15.706023988707539
2448874,0,15.50560625420455
966680,0,15.917518805199817
547646,0,15.87987358237966
3478683,0,18.003472913505586
385013,0,15.943862525839748
3893228,0,15.784633607080883
674638,0,15.602031737700463
1957416,0,15.771794610820738
3290374,0,15.758415535435777
1577034,0,16.243450764735815
1050913,0,17.90745851650579
2441993,0,15.364500994229193
1706550,0,16.121874084373783
562690,0,15.625448959938437
365504,0,16.268817660796405
1106840,0,18.26204313209634
3786304,0,15.746726861176422
2777929,0,15.22043039825911
1291470,0,15.894550423762016
2758378,0,16.018354540433133
972517,0,17.6143245952075
1811458,1,18.57684385305118
3130143,0,16.557662022178203
2647019,0,15.887625682865052
2173910,0,17.39773355184389
2782777,1,16.347354865146862
1161278,0,17.25856310100219
2417850,0,16.016993957176037
3751391,0,16.01289671998421
1785432,0,15.748015568926851
1502805,0,16.102581598295927
1757972,0,17.969615590605855
2230787,1,16.573063048810933
1590612,1,15.908435315837965
552368,0,15.65568896997694
2770373,0,15.92755922305812
2122842,0,15.98627563101652
3523118,0,15.460645441194764
2655512,1,15.755892304015395
2461036,0,15.083272895061777
1644278,0,18.24612316773068
2169688,0,17.60524420124489
1551854,0,18.148168911816676
1222383,0,15.916153015674007
2207839,0,16.0683649459577
3753232,0,16.16750447015254
3437096,0,16.5355664275443
2470498,0,16.478637381349504
1029901,0,15.917035859101519
420481,0,15.544842046996557
3876213,0,17.88159406916216
624540,0,15.610807812748027
2655466,0,15.534269777520919
2855640,1,15.901462961180975
3119399,0,15.77309804404459
2491579,0,15.823384268908551
3297998,0,15.737553558043535
3714057,0,15.752313127789549
1577117,0,16.45470706316438
2485551,0,16.354005843144645
2055827,0,15.382111471789688
3707744,0,15.805684655838812
595551,0,16.33316636807233
1985510,0,16.506193398793616
531410,0,19.10404064121265
1553910,0,15.969842742181182
3170286,0,17.0326458662673
2976474,0,15.845730775026903
3131849,0,16.049380668410233
2275569,0,17.450102095881505
3062257,0,15.788239082029238
2274150,1,16.074012963898184
386631,0,15.449293215767641
3488004,0,15.788116711660289
1060663,0,17.972494230893865
240536,0,16.210107080604065
3923413,1,15.553454601466724
3756042,0,37.960541932989216
2718735,0,16.552135699224735
3345576,0,16.2138307882871
3400411,0,16.48316542234704
662139,0,15.853576751600327
2734955,0,16.29333795028253
2707042,0,18.203324575986503
1146093,0,20.29902382952831
1412732,0,15.635528081132655
584148,0,15.709763363989653
2254854,0,16.35000444073585
2476821,1,15.604599824274029
2776068,0,15.77347599914949
3718299,1,16.080183800453966
3743860,0,16.288083030554986
3367148,0,17.895167887955324
2902864,0,19.882208204736397
1634019,0,15.892298125239417
2925895,0,18.908768430230744
1731355,0,16.094054410632978
2786200,1,15.914513653301904
3311535,0,38.220773359455954
2722920,1,15.951088782835779
2720475,0,15.938460171290087
1463793,0,15.976611795455348
2419534,0,16.478227975301213
907248,0,15.943815565450075
2521555,0,16.033120296342144
3171601,0,15.935378974586342
3264723,0,16.15849652041678
1891512,0,17.255281983317957
2409080,0,15.563836188847402
455440,0,15.80871380804615
2640093,0,15.659688461697048
3240606,0,16.054855364080616
3882298,0,15.595291904666123
430667,0,15.483768124184028
450269,0,15.726910739529695
842064,0,16.5698470306343
1970448,0,16.09981739330897
3725662,0,15.807950484656116
817097,0,17.486469525766086
1052183,1,17.2778678636547
2622232,0,40.17486285591206
2402038,0,16.059200742941915
3160223,0,15.517074054895204
1607141,0,16.690876541241266
3874261,0,15.50009229842298
1043411,0,17.423281170593025
3442067,0,16.53170099073374
1541866,0,16.142747425437687
1962934,0,18.11236161965253
3838089,0,16.16607084036426
2921546,1,15.453138975354374
1117531,1,17.100460002788413
651488,0,16.068654311113978
1099693,0,42.19317605768374
3283025,0,17.896705259783353
3377830,0,15.66235322377654
2507749,0,15.615069405071436
1254133,0,17.860760359921123
486980,0,15.474720251981863
3375283,0,16.00834285476763
1719854,0,15.515046480934659
898812,0,16.089614832341564
1415279,0,15.718272624886684
3662654,0,15.383324418832478
2427792,0,16.39109323520919
2546517,0,15.435979931093668
429871,0,16.196957624283964
960323,0,15.683318053181793
3911587,0,15.665956051989435
541108,0,15.632244652428751
1015880,0,16.030037873016017
3934407,0,16.518811477265565
2781205,0,13.323752859799779
2976940,0,15.971327609096718
3694185,1,15.888852779496872
1295260,0,15.532579532463863
2934771,0,18.53750671260301
3689548,0,16.183577975861077
1403449,1,15.926251511902468
3343152,0,16.28321434402003
1981616,1,16.324652591674433
1757499,1,15.903691749009003
3239384,0,16.37509017276455
843040,0,15.920316065182451
3056473,0,16.030242184793426
848033,0,15.930266872772222
2402300,0,16.131065785706543
365357,1,16.113648018236024
2655354,0,15.327338488388222
3261327,0,17.93905938176235
2521021,0,16.00212579524588
1823265,0,17.17107721084505
266602,0,15.915137889871422
1490237,0,15.915409454491494
1168619,0,17.61985384793825
1812077,0,19.23191052692246
1954982,0,16.028220304513507
1142831,1,17.435388945066578
2701571,0,16.232972230829887
268429,0,15.833137796862365
1701844,1,15.975483765926496
308040,0,16.240524941575668
1738322,0,17.029614861781965
2270416,0,37.68745447923761
3849875,0,15.745131938636732
1642297,0,18.03691166844099
623054,0,16.992355346051706
2644044,0,15.167064276489873
3383542,0,15.241990601905874
2773075,0,17.0439529925772
726610,0,40.51656589649956
207473,1,16.038262925531907
3162670,0,12.864887406544408
227288,1,15.699077383521146
1062033,1,18.04753526275424
2620933,0,16.335676623265602
3274195,0,15.886602903034145
2457625,0,17.899678761026344
3054853,1,16.282913114079278
696191,0,11.582782193758218
3367337,0,16.114577222376436
1000608,0,16.49163258619496
2521356,0,16.621616144903427
2625146,0,15.653245780652144
593351,0,16.795239200917646
359697,0,16.732115548222183
364389,0,16.4473425677539
1258779,0,18.404657703997145
1153642,0,41.63738903934302
2191579,0,15.172127636617937
2493669,0,16.161727700068365
290014,0,16.369151590274388
1234388,0,15.46431664157033
876377,0,15.383524078813753
1382682,0,15.54086730529899
1344521,0,15.977347449826755
3105924,0,17.54777772416048
1673898,0,16.191667301220317
1102473,0,18.462120596569992
218858,0,38.32619738552695
2737089,0,16.13482525314767
2710581,0,16.134400618041223
2565852,0,15.446413211445556
3731828,0,15.884959405695634
400309,0,15.838188256744715
3429237,0,16.18822200059043
1912524,1,20.179582179430348
1394635,0,16.389116543209155
1935585,0,15.33817318052355
194988,0,16.46086769577991
714416,0,16.067762466432026
394770,0,16.08783343289615
3934562,0,16.164273707156045
2209088,0,16.098582164704666
3410824,0,16.108844632524985
3005866,0,15.896555045746286
2663176,0,15.49895696887141
2860108,0,15.344091303122626
2424819,0,15.81620278411004
345973,0,15.9559979983335
1952304,1,16.039696202388374
3044073,0,15.552116713254113
1161593,0,19.454473737700578
1602637,0,15.554850008460516
3383128,0,15.179902937273901
3664710,0,15.965105769452142
1628401,0,18.080162286413
329852,0,15.811959177881207
304874,0,16.052509855339636
198887,0,16.269406403851832
3935457,0,15.950015413920934
2917626,0,16.304306983526683
1359698,0,15.928490327622685
3435223,0,16.385039578859004
2586506,1,16.133776547132488
2765100,0,16.46199932503434
3951003,0,15.197674243746304
743866,0,38.565799121424924
908802,0,16.03595661804639
2771039,0,15.82448261683421
2784530,1,16.264658207286047
3864494,0,15.289578469384656
2580682,0,17.589404949648177
2274950,0,15.392836635456158
3215977,1,15.754894564908964
2476869,0,16.117078635676837
683663,0,15.492740489501948
3751452,0,15.642687677668858
3075416,0,17.763304798352618
2839295,0,15.807367570691826
2249622,1,17.614983681378785
1522257,0,16.24638271591252
3495858,0,15.369117744835572
2905588,0,15.913989545380183
2604342,0,39.41277448171348
357013,0,15.323805628007284
3464769,0,18.197892823030386
3161157,0,15.754033941894829
2559091,0,17.93038673575233
1462715,0,16.200974728284724
2890594,1,14.917048254240552
3935281,0,16.270493505900017
1194044,0,15.787131241399763
1825363,0,17.795137371995114
978335,1,16.12309189244084
217765,0,18.322570740706777
2616801,0,16.341058337837534
2796256,0,15.74452795740418
2887350,0,15.675477701418547
3776154,0,15.924465798686184
2019596,0,15.866601202398027
565281,0,16.060414218520076
1629993,0,16.122153332970857
3835319,0,15.783728089964653
2910852,0,40.76774135559023
3215795,0,15.837023490738453
985151,0,15.888679247147763
1977354,0,17.106293026290132
942221,0,15.670185172486416
259159,0,16.446711518338773
1329291,0,16.610215151903585
2902114,0,16.924159547400166
1536717,0,17.000721624970264
861832,0,18.022732882218115
661036,0,16.223117767333672
1638222,0,16.392952446638404
812580,0,16.133283554415197
2998329,1,16.135514174979345
339593,0,16.37149641402352
2905679,0,16.12043363694536
2619572,0,16.524573732984464
489030,0,17.415133822083774
959635,0,15.806927375200946
1757060,0,15.910703527274974
992696,0,16.019859991763347
574636,0,15.488584039917155
294294,0,16.320895819595076
2569595,0,15.96028142491752
3721170,0,15.627565980999995
3937058,0,16.22704742943466
929253,0,17.380701709434852
3409610,1,16.1102552777119
1665040,0,18.13219749147762
1576390,0,16.144955718607154
1393929,0,17.933882288814885
977376,0,17.29081212652964
938367,1,16.02910600351
3095100,0,16.471109255669433
1455777,0,15.714270084368877
2933245,0,15.477436548688633
1089855,0,17.750661172315663
2588136,1,16.383005539320475
1071407,0,17.324725324280582
892243,0,18.04199053700348
213937,0,39.00201763746876
679671,1,17.6646394117747
1111565,0,16.637302774292237
3509468,0,15.97841001670743
2661293,0,15.883742330731643
3139260,0,16.716355244408152
1167983,0,18.31617865438961
1430573,0,16.998998041757822
279072,0,17.486156246109356
809479,0,15.358613272190937
3276307,1,17.658411105191952
1342269,1,15.903871685788616
1198022,0,16.082616874308723
2982749,0,16.079844778942736
1001702,0,17.179102572463194
1033006,0,16.359246884069453
242235,0,15.83711069193929
325996,0,15.028556437932403
1347007,1,18.217932239298882
2993321,0,18.216493370987102
2578108,0,16.5234076157399
361386,1,16.13038713408255
693689,0,15.591499676282723
1438198,0,16.13918283641449
1559335,0,16.061609858172645
2461619,0,15.973571509595121
974665,0,16.438775860255934
1364556,0,16.32266573677497
442771,1,16.13774517594001
1332699,0,15.89718595307308
2788047,0,15.5569999844576
875897,0,16.85571998279976
399330,0,15.955484403165208
1664940,0,16.68044921989047
1204454,0,17.43771821367105
1389729,0,15.936546698606683
1385057,0,16.45419026546783
1005850,0,16.495792581215408
3195312,0,16.22395062846357
3151818,0,16.021176582757754
1481421,1,15.584639112840172
1343480,0,15.317120438222151
296776,1,15.389541734038186
2784435,0,15.946214848422496
587838,0,16.05457259971083
1425015,0,15.539221884561892
3246577,0,16.31753494837211
272464,0,16.10614180417755
1257537,0,16.61759678748801
3262710,0,16.18704914059219
1991733,1,17.566536126452505
3106700,1,16.194272817297836
3361962,1,15.787921483715017
2858214,0,17.59930374431392
2635001,0,17.90692154981136
1568727,0,15.839031350793054
3854456,0,14.72824566454807
1778721,0,15.728894836968433
3285758,0,14.78320774535159
2522010,0,15.467221193874925
3154065,1,18.190119471353572
815807,0,17.69527491089974
749947,0,16.447029177245767
3901891,0,15.461005159404689
2004622,0,17.881997832734488
3254908,0,18.310827933462882
3800092,0,16.141217464590014
2782727,0,17.147033333623284
1969386,0,16.560989958618222
2420764,0,16.472523859970202
196059,0,15.78158349499772
1237718,0,15.645329147404503
2253292,1,16.426499779176694
3682373,0,15.967561041849532
427375,0,15.54881677393013
2013525,0,17.96274389192621
803747,0,16.468920163038625
2736970,0,15.880553274557373
2695600,0,38.90642888757118
2804420,0,17.9777743082431
3348004,0,16.56579698061977
2005305,0,15.623553858242442
1854737,0,17.135346148125215
1829390,0,17.689619366859525
2645437,0,16.437373542930118
1548745,0,16.51400778597084
2454958,0,15.712203873778373
3954379,0,16.054869105994126
2238002,0,15.812740560400929
3835436,0,15.446921797819966
3696641,0,15.980810303027111
1035264,0,47.82039647814198
206772,0,16.245825432014573
1228834,0,16.115483619111334
1887041,1,17.133007894025553
3054715,0,15.916148964696374
446843,0,38.38650340187137
1335566,0,15.40704603315767
2611475,0,15.584768896258321
573661,0,16.42684401220133
251923,0,16.02159522627771
2845110,0,15.761836205679286
2551592,0,16.665960686985493
3206731,0,15.826073974253545
2738565,1,16.20076500249179
1678275,1,15.920989815341652
3330272,0,15.856169129464838
1167609,1,18.09577968816271
2253433,0,16.679886666551536
2636572,0,15.809234580969909
1605453,0,15.841406997162785
1014209,0,16.31491589641635
2009188,0,16.392664484770386
3027035,0,16.178790792870196
3892783,1,17.67838717247059
3113699,0,16.293228912961254
1170018,0,17.29295733913182
3934199,0,16.271618433850623
2521804,1,15.295539539572285
3237860,0,15.551717846930066
1777037,0,19.038125117649535
2224649,0,16.380278167843457
538362,0,15.741415235244542
2403486,1,15.261740987540552
2743012,0,18.090213825027625
593943,0,16.361495038198303
3438289,0,15.950368230573655
3171330,0,15.754403589444529
3703784,0,17.94872545834956
2412575,0,16.41631867774705
1642887,0,16.56039318675202
3361623,0,15.82377645481217
2424461,0,16.405272259043464
3782433,1,15.411321167017435
2176725,1,15.748982187639282
2598796,0,15.93100490916258
3078266,0,17.720093761834253
3190676,0,15.440602424321524
2041875,0,18.031626324609537
3492381,0,16.05227095747771
1954809,1,16.076802057335257
205037,0,15.729366453139344
1204527,0,15.792350475794155
2443013,0,16.599772543496517
618981,1,16.24188782344334
3917014,0,15.69747300680967
483865,0,15.063996648486922
2987833,0,15.989388570136823
204938,0,15.949863696459238
218132,0,16.04039182080612
2879494,0,15.387984562448509
1957365,0,15.697210182633611
3077959,0,18.1413908033534
1752710,0,15.922244734395623
2899778,0,15.58189928206757
3674489,0,17.39233270267702
3170728,0,18.075350160412
3777103,0,17.78131194377633
1432663,0,18.028417328036188
865694,0,15.746392631067808
1233739,0,15.769732741491785
1484161,0,16.19402918490577
333930,0,17.632370193148127
1764259,0,15.88196047662763
1965408,0,16.104705179332186
3442182,0,15.981216725284392
592639,1,16.057620974761104
3066729,0,17.978328958280535
3446852,0,16.229689302774865
282566,0,15.418388298718485
2416590,0,18.141927343227962
2884486,0,15.486304819418153
2125816,1,15.979258020635548
1445682,0,16.131124625941357
1847247,1,17.936682870076307
2006421,0,15.677470579506009
3090250,1,15.936152219282455
648152,0,16.459428083813588
1602298,0,15.280297913191182
2826678,0,40.88816671640331
1661521,0,16.299209118813263
3936786,0,16.39285842192042
508846,0,15.522627929993696
2457362,0,14.822908658684574
983988,0,16.350305596958602
3548420,0,15.95021969038264
1991831,0,16.497465457264006
1854560,0,17.31730253432197
946651,0,15.845739176690527
1065839,1,39.74141169416717
687360,0,15.319525821259145
1316431,0,17.711165844115904
560489,1,16.206118345101395
1451658,0,15.75640386963312
1664522,0,16.401546993896996
1404820,0,16.622695158076354
1026524,0,16.16021530712207
1986577,1,16.374429830667207
2052670,0,15.532149485410308
492261,0,16.026087578138597
2614765,0,15.668867483021147
2664887,0,37.97940965698585
2140739,0,16.435878629535033
1812991,0,17.838127592069256
3694978,0,18.06539488515913
3047455,0,15.800401606003271
3147853,0,15.784484842601424
1916831,0,19.342653727306352
3440436,0,16.51160676889828
1410576,0,16.183525566689266
3428724,0,18.05500400763064
3833006,0,16.389395819672387
3322852,0,16.323843827352867
3791722,0,15.897228353001605
2528818,0,39.88619755520155
3161877,0,18.273523553905036
3807652,0,15.937539570119204
3208739,0,18.018451075967977
2188596,0,15.71795136180113
1068339,0,39.53862388997636
1404878,0,15.975526392121555
1271684,0,37.72220328317026
2752570,0,37.52810286910562
2512757,1,39.94729468946765
2726547,0,15.716733851130993
2109818,0,15.979842733391608
231994,0,16.11481663044177
800523,0,17.666271872746854
2646143,0,19.47155083327085
1463729,0,17.821084721220696
1539897,0,15.708637085003003
312409,0,15.24674553786887
1206823,0,16.689971097226493
999693,0,10.621095930182332
2895773,0,16.39249488525857
501134,0,15.936052882837151
2506332,0,16.415506183930603
3859271,0,16.060767736536683
3003794,0,18.233664708561562
1275430,0,16.154015553092
1664676,0,15.821685976495626
2629822,1,16.24140285102664
590117,0,16.21590232150805
2445484,0,15.840358556803636
3018499,0,15.71021117121521
1645373,0,15.59061428753531
867679,1,16.054700926706893
1644326,0,16.204050460139985
684230,1,15.707324888846554
2009870,1,16.078934052967114
2727987,0,15.979476181181065
3359751,0,16.14426368328224
663362,0,17.99870938021523
1749353,0,17.71220221500673
3793678,0,18.30899863296635
2821579,0,15.807235737760816
421109,0,15.470581983525515
753254,0,16.463893651569798
2615159,0,16.498038799831292
1063555,1,18.304311077713983
2051902,0,15.53071449050173
2278391,1,15.718670116447973
1663666,0,16.285036110408466
2198416,0,15.843256584849028
951758,1,15.967210310093863
1615012,0,15.894337928505927
2395185,0,16.25491948713266
3711002,1,15.844594559981871
2129314,0,16.08353937088715
2687612,0,16.016868299270012
1953565,0,38.19733900277909
854626,0,16.752977951097826
735834,1,15.929023722464578
3281951,0,17.831596179427034
3338136,0,16.29885371315483
2817407,0,15.815635910977777
1247118,0,44.12244944479178
1221730,0,16.022750658932466
2203298,0,18.310374297549952
838025,0,40.547305317783
1286285,0,15.411149899424062
1576837,0,18.46104791687955
365142,0,16.0139594341862
2584073,0,18.043669691309066
2167833,0,16.251313968315316
3451986,0,15.907223733236128
392284,0,16.616863936926126
935672,0,16.287620699406833
475352,0,16.257417376604764
372099,0,16.130408736087134
514478,0,15.743519761159403
197787,1,16.093843911714014
1247611,1,16.491181739851864
1863221,0,17.107512311158377
688290,0,17.337588596562227
1078376,0,21.989142904833244
391189,0,16.050807770985735
894450,0,15.621939013733568
1918215,0,17.743837149384515
2699834,0,38.47587416461794
1997478,0,15.94397654712305
3103567,0,16.629615595018034
2736320,1,16.160226116085525
3277373,0,16.503360424107463
1561774,0,15.926777626402872
3874502,0,15.670213652643618
3393738,0,15.862352545884226
630286,0,16.113897135530355
2690759,0,17.785861190705834
1106434,0,39.73764324131858
1557505,0,16.01250074037557
3412113,0,15.654674357927131
2883849,0,18.109388921376816
3073392,0,17.994768435241188
694042,1,15.867507309537594
2413765,0,15.377745247673245
3082799,0,18.186094440690905
1591619,0,15.92976953127534
1494914,0,16.19945380636096
251288,0,15.715435184501306
1035270,0,16.17433017197775
1407169,0,15.586883926621429
261672,1,16.009566641304964
1706090,0,16.688940102286693
1293671,0,16.238739707700688
335685,0,15.719646671346286
2811786,0,15.529072870644054
3381108,1,17.5213826735133
752243,0,15.956524503718535
1277662,1,37.95777762631794
2211074,0,16.822860181545447
3038985,0,17.60767880726471
500991,0,15.643636123380668
1706492,0,15.858813329051035
416015,0,15.82995558267369
1742298,1,15.87255781935235
1198884,1,15.671290676465402
2773867,0,16.04645717247071
2628571,0,17.61028044041744
2191325,1,16.240260292961075
3092909,0,16.325179099488754
1883028,0,17.312886778858346
926252,0,16.23839393294274
824838,0,38.34228062366117
1751094,0,33.75619973896689
2527434,0,16.06564207635596
685567,0,16.263061130965426
3854584,0,16.295735207639844
2007461,1,16.118621277697493
1726889,1,15.460666525568538
3015320,0,16.861756018484396
862119,0,15.988632565986398
2010958,0,15.851466033015228
1127712,0,39.73846762029962
2806417,0,16.301213243417628
903001,0,16.425740883577298
1986421,0,16.248083667968775
1742605,0,16.037704118558157
3859824,0,17.732785753934888
2149575,0,16.14608700500471
3372646,0,15.497824099550614
1644876,0,15.926588614159957
1096820,0,39.55758132000323
1984119,1,16.355506168857275
2409926,0,16.18801294150797
741074,0,16.444167478093583
2617999,0,16.03699302933604
2441622,0,15.453932327280102
1019950,0,15.360396123347034
3958801,0,15.5934674293204
3954089,0,16.80316885642308
2511741,0,15.53034732928699
2846959,1,16.052504849679334
969496,0,15.74679936766833
3092319,0,16.360315596398014
2732869,0,15.789340928070127
1004078,0,15.921179686183697
1702153,0,15.294539979024005
3255951,0,16.147456867839377
861554,0,16.004796480031022
1842706,0,17.625094817119965
1056885,0,16.945677026999594
3866183,0,15.744684304165906
3955627,0,15.937192351235582
811807,0,16.542427359325824
1512993,0,15.835045565700451
1912527,1,17.547360262671308
494698,0,15.543321244653878
1505193,0,15.656858681025794
1373078,1,16.123912727798743
3794566,0,16.013517215387978
1445328,0,17.577302791875926
1941132,0,16.0369333376155
1246020,1,15.222472053632305
2165108,0,16.490936823199846
3427192,0,18.074472699918697
1616418,0,15.277463480129995
318288,0,15.804684145057612
2680327,0,15.989206008988473
3663238,0,16.339308998167656
1550675,0,15.938955319780902
562189,1,15.319505800500746
944567,0,16.610136138917092
3845964,1,16.384404858375365
2139846,1,16.16091681275893
1677428,0,16.144188081529474
2685554,0,16.211433264386223
3213909,1,15.866556922124145
1903462,0,17.588619845835495
3223298,1,16.422451644526706
396003,1,15.667523126368355
2450531,0,15.905525415713674
1028961,0,17.287344738462448
2589648,0,17.901821130268917
1712742,0,15.511972334593835
2246834,0,15.711883566045753
1768712,0,14.906066442325505
3761497,0,15.490127889028194
3719215,1,15.74511000343942
2874706,1,15.808670017149405
3079530,0,15.194956649377936
1440406,0,15.773412275276094
2201273,0,16.288515495997846
2920845,0,15.961227386510263
646066,1,16.2047191901835
2111366,0,16.32613261613906
1461576,1,15.889394695793582
2564385,0,16.63355735846466
261292,0,15.344674254877782
3386538,0,16.013919743740153
2666868,0,15.91752287272627
1981321,0,15.417561612520883
3901676,0,16.093418029231998
604401,0,15.054934807354842
614839,0,15.95542215899417
1048603,0,16.94276974420556
915041,0,18.11762869539139
2850597,0,39.87874727607295
306854,0,15.930724544561556
932290,1,16.345790294374613
530295,0,15.657216151489894
2399195,0,15.931927051449078
3374541,0,17.51532175004367
999390,0,16.189570980387916
869674,0,15.363733129034152
2876454,1,16.087035758261255
605443,0,16.351075602534532
591673,0,16.110792132592387
1152938,0,39.81677673774147
2232235,0,16.594645307541775
1013704,0,15.981433479195182
3445544,0,17.160242903669207
282736,0,17.428230088330444
1691407,0,15.865635946053912
2277873,1,15.806779043266543
548838,0,15.085155362848221
3650737,0,18.974113698770637
3514041,0,16.400467958120085
1732297,0,16.16767414316262
1813124,0,17.62746857090849
1999603,0,38.77456543647519
625963,0,16.54717613284903
1370706,0,15.632730437179015
1813058,0,17.818590761875335
505146,0,16.377664343096477
941158,1,16.03136093256794
1488375,0,18.174282048929868
727204,0,15.900036658391011
3525416,0,15.885777347985957
898465,0,16.07615645172781
2772800,0,16.462648265108808
486711,1,15.9504233348978
2560966,0,18.151209940356054
1369448,0,16.22153221424675
2063665,1,16.333038028792338
1945954,1,15.796756833209482
2788487,1,15.751146552636389
1910747,1,17.72391454200001
692413,0,15.704616610754032
2891037,1,15.171366359608477
3308550,0,17.689122623229125
267836,1,15.470717746502988
3079147,0,16.013372834912694
3067233,0,15.46886952104813
3705846,0,15.255088878151367
1171329,1,17.287686491561438
2115553,0,16.37711835818613
1103054,1,17.222304750011613
3418901,0,17.243916860837167
1948569,0,15.62662438489946
3165054,0,14.861848045026951
592159,1,16.19978331976792
1369987,0,18.046481597557865
1259098,0,18.446211210704988
3383884,0,16.04522479703251
2464725,0,40.58319848631849
2716128,0,18.222448623593195
1329606,0,15.849164014373576
1112980,0,19.57030885073009
2732325,0,16.272982627674192
1316485,0,17.960580124075623
2899556,0,15.437186411031085
2235299,0,15.757027230962583
1537168,0,17.98948916396826
2139819,1,15.670872286643617
2533942,1,15.106710298889414
3240899,0,16.3545935091479
2464465,0,15.646818749518095
2863683,0,15.522566336973743
2133818,0,18.29471769523704
3476062,0,16.419028527162943
1830438,1,17.57839030605437
900789,0,39.361553373407595
3843344,0,16.372488673434983
2547417,0,15.354704226926518
2707964,0,15.869225775195071
250936,0,15.994367081614717
3296944,0,17.44926821681862
2189935,0,15.800654218634556
2168077,0,37.974993794813116
2806591,0,15.643251395583077
3928832,0,17.226457609659107
1842999,0,17.620309624281592
2483079,0,16.805009939378944
2417650,0,17.495422848473396
389570,0,16.1114853210984
3236475,0,15.876698945635487
3014530,0,17.89198781930333
1385950,1,15.98804208965353
2428777,1,17.40976106195808
508221,0,14.969393375422529
2964337,0,18.039753780840115
2883074,0,37.92037382539252
3489184,1,15.821780764024775
2719478,0,16.35539780154766
973773,0,16.505499645899686
3892100,1,15.596356088362088
2739651,1,16.1679882125616
851392,1,15.9473901216299
2665542,1,15.442522249331923
2707142,0,16.78125956577748
3315421,0,18.062789326513208
3678276,0,15.79067596010731
1150025,0,20.101209956028203
2801471,0,16.172234619957585
1561464,0,16.036727331033287
3772995,1,15.8809395953002
3840395,0,15.847776580935703
1032115,0,15.901107915995427
2484223,0,15.19286290150773
3500387,0,15.637599094691366
1628289,1,15.918698493651679
3932764,1,16.436902446751727
3460211,0,15.982794101247176
1721496,0,16.417037802179685
2561858,0,15.272673483145761
3709909,0,15.204549786484831
844246,0,16.10566157678408
3382352,0,16.323841853437443
346124,0,15.755579160724409
3070762,0,38.556224698527444
544946,1,15.562821141946232
3463901,0,16.50467032246138
2856589,0,15.675015669117794
1586797,1,16.79546321008913
2270670,0,16.195430949401192
565925,0,15.864748964193133
2530064,0,16.63363516970638
728890,1,16.104993247139703
1780887,1,16.127930145291288
1353480,0,15.527715116467633
845732,0,16.04111730912094
1576413,0,16.55200592111364
1970711,0,15.412796733894494
1937634,1,15.873443038556742
1767954,0,15.803995805376019
3729361,1,15.99370143929755
2654070,0,15.814044295983745
1630687,0,15.84500875128902
2392941,0,16.111461065335035
479333,0,15.52669415555083
237020,0,16.485451859546497
3374419,0,16.224883351356517
2140127,0,17.745656269254397
1161039,0,40.45576267802665
2893614,0,18.09801656085724
724443,0,15.854177789145744
3296428,0,14.703281508829486
2250639,0,15.733786982608832
953365,1,17.484236612894847
2464485,0,38.14386786781439
853827,0,15.049500675641246
710969,0,15.83077730738919
520263,0,15.845084792488619
1133056,0,17.990610517301917
2851199,0,15.978983189499795
2698683,0,16.093064071347236
1593035,0,38.15799174535503
3509191,0,15.589511001253644
2485690,0,15.805140924138259
1707113,0,16.107887594203138
1513903,1,15.862716700513463
742791,0,16.57463434745572
3525684,0,18.510390457424098
1693156,0,16.04760502685443
3326790,0,15.646286593717198
2192512,0,15.544062003002097
457451,0,16.36994729482188
461468,0,16.008573753820126
1915630,0,17.68557674365871
3834295,0,17.90138513893108
1776440,0,16.068618340350287
1908730,0,17.782238899278823
2231379,0,15.559012413487176
1862890,0,17.59992733758599
3653126,0,15.753890611231405
928435,0,15.524324312733984
2795238,0,16.04036868839638
3124794,0,15.487186225242173
3691271,0,37.79143873758331
1433824,0,15.32682768651944
3845557,0,16.34697686212292
2907368,0,16.551863286401623
3264209,0,16.131491619649427
2675237,0,16.4645122938098
3523342,0,15.871239756381
2398899,0,15.232482756439229
543353,0,15.99607020867932
2911357,0,40.22933898211483
1966274,0,15.962244807096962
2262630,0,15.597566217827636
1320142,0,39.18994191347186
1373755,0,40.461081209702115
1518993,0,17.906581391618804
2416749,0,16.01010120603461
3495508,0,15.79742131554174
1223173,0,16.31579798376067
234806,0,15.42720607210105
3000090,0,16.158555947182787
2837556,0,15.621497825664667
1853795,0,17.451174890995173
2004193,1,15.967438244949532
2150046,0,16.416058391245535
1053978,0,17.04575707356383
3716032,0,15.511539301536398
1091856,1,22.174362016979252
1515926,0,15.885857355236494
3868917,0,15.359379199234736
3033080,0,16.70616084289739
2533610,0,15.519476304069583
2469670,0,38.0827609441874
3807687,0,15.733081075609807
2896175,0,16.231144258639823
3933849,1,15.56731483463572
1029244,0,17.934643473003153
979608,0,15.870163042935877
3235847,1,16.416530648079608
1315948,0,15.594704604562333
304614,0,15.815958126183085
608679,0,17.975375688857547
2547194,0,16.34865691799063
2626008,0,17.67416799395863
2405376,0,16.251938170071018
1907795,0,18.60261741640095
3287561,1,15.458451438200887
3722430,0,15.875357162255767
2820370,0,15.652362920772173
514555,0,15.802146145775861
529008,0,16.46713282694577
2901119,0,15.967215893395078
2470219,0,16.01086358101324
229715,0,16.65462761936609
2261002,0,15.814014075674464
2434614,0,38.6673870669309
1635279,0,16.07180385586772
429920,0,15.589585744188438
1442084,1,18.020769453104357
2184021,0,16.04988825567482
3442909,0,16.1757042001303
3340913,0,18.095231243625157
1219121,0,16.19035264102564
2810383,1,38.363140045398076
465127,0,17.701929814852818
982199,0,40.52003446474167
3850259,0,15.670426522941245
2190586,0,17.376848776417653
2247083,1,36.98673694308713
2646762,0,15.671994463734155
2481764,0,15.705319366015003
3489883,1,15.65759394936605
3343397,0,15.522967306430548
3678573,0,16.415860897462082
1422064,0,17.357030792322927
3368830,0,16.080336597793533
267097,0,16.549023466077543
1569692,0,15.439534958950707
3248736,0,15.797490103076413
2454744,0,15.966448369707448
516300,1,16.099447734023816
1059930,0,18.368160825570353
624415,0,16.278876713913597
3767263,0,15.828098424751305
2568811,0,16.04439515345843
3860219,1,17.84112973015278
3133763,0,15.23321125532236
1038351,0,15.462564716632306
2503066,1,15.418296843838132
1714566,0,15.938290936307496
454497,0,16.18294426603904
2042096,0,15.847906092747737
3182226,0,17.685383033570456
509767,0,16.068002492391482
3281646,0,16.013938974181084
3438857,0,16.17795928913552
1751346,0,15.470350610909223
2928445,0,15.842123649513754
3356055,1,16.211248165051412
241486,0,16.192738281579675
538523,0,15.555189997446199
814779,0,16.09900810953049
1643356,0,15.805459297164877
1773069,0,17.31960201707827
964174,0,40.31247680237917
3932966,0,15.714162472299828
444689,0,15.297156421871767
1979430,0,16.325073874374926
3681248,0,19.994211740283845
3466470,0,15.85704258543186
2603686,0,38.0462936415567
3753088,0,15.764888021428638
3378996,0,15.816444136113939
3335777,0,15.801936006558277
1987051,1,16.16641244613638
1852786,0,19.313857659004956
828616,0,15.58656727485627
3894725,0,16.36915670665014
665047,1,16.218766427936487
571756,0,15.395673256057092
1393685,0,15.648998933364535
249173,0,16.22740816599915
214541,0,16.144818177516026
3419423,0,16.803267008267525
3113233,0,15.986929791743323
2236701,1,38.89309132082296
938284,0,38.24315407028893
896500,0,15.722038380942339
2710597,0,15.98282502631008
372539,0,15.937002729306982
1236275,1,16.026969483870797
897244,0,16.678467733428434
2621622,0,15.818288404673595
1325558,0,17.944278659658597
593134,0,15.202418706791105
3301900,0,15.620680563802066
479378,1,16.105898864657917
3193339,1,16.529774057870103
3904431,0,17.044151808562464
2253197,0,17.831012555707485
3064480,0,16.054268676043556
380363,1,16.032568752652324
290077,0,16.41893155082517
3133888,0,16.27855947450962
2527383,0,16.34435633595824
3005822,0,16.84227742802766
1978970,0,16.136861686061533
711798,0,15.967477221219038
3098392,1,16.503015180117995
2206525,0,15.453323817029068
3081862,0,15.66812902155298
249247,1,16.000812365804425
2041300,0,16.434269920003377
1314713,1,16.423225150379846
2984819,0,16.054442937648915
1822408,0,17.83236567966492
1686904,0,15.51137706553624
3708315,0,15.270646378572883
1280489,0,17.719390850678458
2668666,0,18.88983768553399
2164514,0,16.31485827366296
2197767,0,16.148783223212284
2779209,1,37.837812449453075
2983017,1,15.845516348190664
1293643,0,15.88645418100143
856758,0,15.697210480788014
2997864,0,15.912626364337399
3486590,0,18.233090590960657
1619300,0,16.20567894333963
489562,0,16.195676812757277
1384327,1,16.21313539540642
389451,0,17.756312107123104
2272712,0,15.6284828144509
1436012,0,15.747338146885186
554244,0,17.740206070580808
3778832,1,15.575354063204806
1995342,0,16.2095828953587
3866884,0,16.043281294297316
2880569,0,38.49481378425154
758323,0,16.88634819361826
2843686,0,15.715100534260378
3057005,0,40.00714785759442
345472,0,16.40194494307515
1015620,0,16.069840632229983
948618,0,15.699016110357181
1250998,0,16.464035482901572
2002878,1,15.228766703099192
1865816,0,17.394152505320225
